 0x000000000000000e (SONAME)             Library soname: [libservices.so]
  
Symbol   contains 238 entries:
Num:   Type Bind Vis Ndx Name
0:   NOTYPE LOCAL DEFAULT UND
1:   FUNC GLOBAL DEFAULT UND __cxa_finalize@LIBC (2)
2:   FUNC GLOBAL DEFAULT UND __cxa_atexit@LIBC (2)
3:   FUNC GLOBAL DEFAULT UND _ZN7android10IInterfaceC2
4:   FUNC GLOBAL DEFAULT UND _ZN7android10IInterfaceD0
5:   FUNC GLOBAL DEFAULT UND _ZN7android10IInterfaceD1
6:   FUNC GLOBAL DEFAULT UND _ZN7android10IInterfaceD2
7:   FUNC GLOBAL DEFAULT UND _ZN7android14sp_report_ra
8:   FUNC GLOBAL DEFAULT UND _ZN7android6Parcel10write
9:   FUNC GLOBAL DEFAULT UND _ZN7android6Parcel13write
10:   FUNC GLOBAL DEFAULT UND _ZN7android6Parcel15write
11:   FUNC GLOBAL DEFAULT UND _ZN7android6Parcel19write
12:   FUNC GLOBAL DEFAULT UND _ZN7android6Parcel9writeB
13:   FUNC GLOBAL DEFAULT UND _ZN7android6ParcelC1Ev
14:   FUNC GLOBAL DEFAULT UND _ZN7android6ParcelD1Ev
15:   FUNC GLOBAL DEFAULT UND _ZN7android6binder6Status
16:   FUNC GLOBAL DEFAULT UND _ZN7android6binder6Status
17:   FUNC GLOBAL DEFAULT UND _ZN7android6binder6Status
18:   FUNC GLOBAL DEFAULT UND _ZN7android6binder6Status
19:   FUNC GLOBAL DEFAULT UND _ZN7android7BBinder10onTr
20:   FUNC GLOBAL DEFAULT UND _ZN7android7BBinder10ping
21:   FUNC GLOBAL DEFAULT UND _ZN7android7BBinder11link
22:   FUNC GLOBAL DEFAULT UND _ZN7android7BBinder11loca
23:   FUNC GLOBAL DEFAULT UND _ZN7android7BBinder12atta
24:   FUNC GLOBAL DEFAULT UND _ZN7android7BBinder12deta
25:   FUNC GLOBAL DEFAULT UND _ZN7android7BBinder13unli
26:   FUNC GLOBAL DEFAULT UND _ZN7android7BBinder4dumpE
27:   FUNC GLOBAL DEFAULT UND _ZN7android7BBinder8trans
28:   FUNC GLOBAL DEFAULT UND _ZN7android7BBinderD0Ev
29:   FUNC GLOBAL DEFAULT UND _ZN7android7BBinderD1Ev
30:   FUNC GLOBAL DEFAULT UND _ZN7android7IBinder11loca
31:   FUNC GLOBAL DEFAULT UND _ZN7android7IBinder12remo
32:   FUNC GLOBAL DEFAULT UND _ZN7android7IBinder19quer
33:   FUNC GLOBAL DEFAULT UND _ZN7android7IBinderD0Ev
34:   FUNC GLOBAL DEFAULT UND _ZN7android7IBinderD1Ev
35:   FUNC GLOBAL DEFAULT UND _ZN7android7RefBase10onFi
36:   FUNC GLOBAL DEFAULT UND _ZN7android7RefBase13onLa
37:   FUNC GLOBAL DEFAULT UND _ZN7android7RefBase15onLa
38:   FUNC GLOBAL DEFAULT UND _ZN7android7RefBase20onIn
39:   FUNC GLOBAL DEFAULT UND _ZN7android7RefBaseC2Ev
40:   FUNC GLOBAL DEFAULT UND _ZN7android7RefBaseD2Ev
41:   FUNC GLOBAL DEFAULT UND _ZN7android7String8C1ERKS
42:   FUNC GLOBAL DEFAULT UND _ZN7android7String8C1Ev
43:   FUNC GLOBAL DEFAULT UND _ZN7android7String8D1Ev
44:   FUNC GLOBAL DEFAULT UND _ZN7android8String16C1EPK
45:   FUNC GLOBAL DEFAULT UND _ZN7android8String16C1Ev
46:   FUNC GLOBAL DEFAULT UND _ZN7android8String16D1Ev
47:   FUNC GLOBAL DEFAULT UND _ZN7android9BpRefBase10on
48:   FUNC GLOBAL DEFAULT UND _ZN7android9BpRefBase15on
49:   FUNC GLOBAL DEFAULT UND _ZN7android9BpRefBase20on
50:   FUNC GLOBAL DEFAULT UND _ZN7android9BpRefBaseC2ER
51:   FUNC GLOBAL DEFAULT UND _ZN7android9BpRefBaseD0Ev
52:   FUNC GLOBAL DEFAULT UND _ZN7android9BpRefBaseD1Ev
53:   FUNC GLOBAL DEFAULT UND _ZN7android9BpRefBaseD2Ev
54:   FUNC GLOBAL DEFAULT UND _ZNK7android6Parcel12read
55:   FUNC GLOBAL DEFAULT UND _ZNK7android6Parcel14chec
56:   FUNC GLOBAL DEFAULT UND _ZNK7android6Parcel14read
57:   FUNC GLOBAL DEFAULT UND _ZNK7android6Parcel8readB
58:   FUNC GLOBAL DEFAULT UND _ZNK7android6Parcel9readI
59:   FUNC GLOBAL DEFAULT UND _ZNK7android6binder6Statu
60:   FUNC GLOBAL DEFAULT UND _ZNK7android7BBinder10fin
61:   FUNC GLOBAL DEFAULT UND _ZNK7android7BBinder13isB
62:   FUNC GLOBAL DEFAULT UND _ZNK7android7BBinder22get
63:   FUNC GLOBAL DEFAULT UND _ZNK7android7IBinder13che
64:   FUNC GLOBAL DEFAULT UND _ZNK7android7RefBase9decS
65:   FUNC GLOBAL DEFAULT UND _ZNK7android7RefBase9incS
66:   FUNC GLOBAL DEFAULT UND _ZNK7android8String164siz
67:   FUNC GLOBAL DEFAULT UND _ZTv0_n24_N7android10IInt
68:   FUNC GLOBAL DEFAULT UND _ZTv0_n24_N7android10IInt
69:   FUNC GLOBAL DEFAULT UND _ZTv0_n24_N7android7BBind
70:   FUNC GLOBAL DEFAULT UND _ZTv0_n24_N7android7BBind
71:   FUNC GLOBAL DEFAULT UND _ZTv0_n24_N7android7IBind
72:   FUNC GLOBAL DEFAULT UND _ZTv0_n24_N7android7IBind
73:   FUNC GLOBAL DEFAULT UND _ZTv0_n24_N7android9BpRef
74:   FUNC GLOBAL DEFAULT UND _ZTv0_n24_N7android9BpRef
75:   FUNC GLOBAL DEFAULT UND _ZTv0_n32_N7android9BpRef
76:   FUNC GLOBAL DEFAULT UND _ZTv0_n40_N7android9BpRef
77:   FUNC GLOBAL DEFAULT UND _ZTv0_n48_N7android9BpRef
78:   FUNC GLOBAL DEFAULT UND _ZdlPv
79:   FUNC GLOBAL DEFAULT UND _Znwm
80:   FUNC GLOBAL DEFAULT UND __cxa_pure_virtual
81:   FUNC GLOBAL DEFAULT UND __stack_chk_fail@LIBC (2)
82:   FUNC GLOBAL DEFAULT UND strzcmp16
83:   FUNC GLOBAL DEFAULT UND _ZN7android6Parcel16write
84:   FUNC GLOBAL DEFAULT UND _ZNK7android6Parcel17read
85:   FUNC GLOBAL DEFAULT UND _ZNSt3__112basic_stringIc
86:   FUNC GLOBAL DEFAULT UND memcmp@LIBC (2)
87:   FUNC GLOBAL DEFAULT UND _ZN7android21defaultServi
88:   FUNC GLOBAL DEFAULT UND _ZN7android6Parcel10write
89:   FUNC GLOBAL DEFAULT UND _ZN7android6Parcel15write
90:   FUNC GLOBAL DEFAULT UND _ZN7android6Parcel25write
91:   FUNC GLOBAL DEFAULT UND _ZN7android6binder6Status
92:   FUNC GLOBAL DEFAULT UND _ZN7android8String16C1ERK
93:   FUNC GLOBAL DEFAULT UND _ZNK7android6Parcel14read
94:   FUNC GLOBAL DEFAULT UND _ZNK7android6Parcel24read
95:   FUNC GLOBAL DEFAULT UND _ZNK7android6Parcel9readI
96:   FUNC GLOBAL DEFAULT UND _ZNK7android6binder6Statu
97:   FUNC GLOBAL DEFAULT UND _ZNKSt3__120__vector_base
98:   FUNC GLOBAL DEFAULT UND _ZNSt3__112basic_stringIc
99:   FUNC GLOBAL DEFAULT UND __android_log_print@LIBLOG (3)
100:   FUNC GLOBAL DEFAULT UND __errno@LIBC (2)
101:   FUNC GLOBAL DEFAULT UND __open_2@LIBC (2)
102:   FUNC WEAK DEFAULT UND android_fdsan_close_with_@LIBC_Q (4)
103:   FUNC WEAK DEFAULT UND android_fdsan_create_owne@LIBC_Q (4)
104:   FUNC WEAK DEFAULT UND android_fdsan_exchange_ow@LIBC_Q (4)
105:   FUNC GLOBAL DEFAULT UND close@LIBC (2)
106:   FUNC GLOBAL DEFAULT UND dup@LIBC (2)
107:   FUNC GLOBAL DEFAULT UND memcpy@LIBC (2)
108:   FUNC GLOBAL DEFAULT UND memmove@LIBC (2)
109:   FUNC GLOBAL DEFAULT UND _ZN7android6Parcel10write
110:   FUNC GLOBAL DEFAULT UND _ZN7android7String8C1ERKN
111:   FUNC GLOBAL DEFAULT UND _ZNK7android6Parcel12read
112:   FUNC GLOBAL DEFAULT UND _ZNK7android6Parcel9readF
113:   FUNC GLOBAL DEFAULT UND _ZNK7android6Parcel9readI
114:   FUNC GLOBAL DEFAULT UND _ZNK7android6Parcel9readI
115:   FUNC GLOBAL DEFAULT UND _ZNKSt3__121__basic_strin
116:   FUNC GLOBAL DEFAULT UND _ZNSt3__112basic_stringIc
117:   FUNC GLOBAL DEFAULT UND abort@LIBC (2)
118:   FUNC GLOBAL DEFAULT UND strlen@LIBC (2)
119:   FUNC GLOBAL DEFAULT 14 _ZNK7android7content13Com
120:   OBJECT GLOBAL DEFAULT 18 _ZTVN3com7android8interna
121:   OBJECT GLOBAL DEFAULT 18 _ZTVN3com7android8interna
122:   FUNC WEAK DEFAULT 14 _ZNSt3__16vectorIhNS_9all
123:   OBJECT GLOBAL DEFAULT 18 _ZTTN3com7android8interna
124:   OBJECT GLOBAL DEFAULT 18 _ZTVN3com7android8interna
125:   FUNC GLOBAL DEFAULT 14 _ZN7android2os14DropBoxMa
126:   FUNC GLOBAL DEFAULT 14 _ZN7android2os20StatsDime
127:   OBJECT GLOBAL DEFAULT 18 _ZTCN3com7android8interna
128:   FUNC GLOBAL DEFAULT 14 _ZN7android2os14DropBoxMa
129:   FUNC GLOBAL DEFAULT 14 _ZN7android2os20StatsLogE
130:   FUNC GLOBAL DEFAULT 14 _ZN7android2os14DropBoxMa
131:   OBJECT GLOBAL DEFAULT 18 _ZTVN7android2os14DropBox
132:   FUNC GLOBAL DEFAULT 14 _ZN7android2os20StatsDime
133:   FUNC WEAK DEFAULT 14 _ZNSt3__16vectorIiNS_9all
134:   FUNC GLOBAL DEFAULT 14 _ZN3com7android8internal2
135:   OBJECT GLOBAL DEFAULT 18 _ZTTN3com7android8interna
136:   FUNC GLOBAL DEFAULT 14 _ZN7android7content13Comp
137:   FUNC GLOBAL DEFAULT 14 _ZN7android2os14DropBoxMa
138:   FUNC GLOBAL DEFAULT 14 _ZN7android2os14DropBoxMa
139:   FUNC GLOBAL DEFAULT 14 _ZN7android2os20StatsDime
140:   OBJECT GLOBAL DEFAULT 18 _ZTVN7android2os20StatsDi
141:   FUNC GLOBAL DEFAULT 14 _ZN7android7content13Comp
142:   FUNC GLOBAL DEFAULT 14 _ZTv0_n24_N7android2os14D
143:   OBJECT GLOBAL DEFAULT 18 _ZTCN3com7android8interna
144:   FUNC GLOBAL DEFAULT 14 _ZN7android2os14DropBoxMa
145:   FUNC GLOBAL DEFAULT 14 _ZN3com7android8internal2
146:   FUNC GLOBAL DEFAULT 14 _ZN3com7android8internal2
147:   FUNC GLOBAL DEFAULT 14 _ZN7android2os14DropBoxMa
148:   FUNC GLOBAL DEFAULT 14 _ZN7android2os14DropBoxMa
149:   OBJECT GLOBAL DEFAULT 18 _ZTTN7android2os14DropBox
150:   OBJECT GLOBAL DEFAULT 18 _ZTVN7android2os14DropBox
151:   FUNC GLOBAL DEFAULT 14 _ZN3com7android8internal2
152:   FUNC GLOBAL DEFAULT 14 _ZThn8_N3com7android8inte
153:   FUNC GLOBAL DEFAULT 14 _ZN3com7android8internal2
154:   FUNC GLOBAL DEFAULT 14 _ZN3com7android8internal2
155:   FUNC GLOBAL DEFAULT 14 _ZN7android2os14DropBoxMa
156:   FUNC GLOBAL DEFAULT 14 _ZN7android2os14DropBoxMa
157:   FUNC GLOBAL DEFAULT 14 _ZN7android2os20StatsDime
158:   FUNC WEAK DEFAULT 14 _ZNSt3__16vectorINS_12bas
159:   FUNC GLOBAL DEFAULT 14 _ZN3com7android8internal2
160:   FUNC GLOBAL DEFAULT 14 _ZN3com7android8internal2
161:   OBJECT GLOBAL DEFAULT 18 _ZTVN3com7android8interna
162:   FUNC GLOBAL DEFAULT 14 _ZN7android7content13Comp
163:   FUNC WEAK DEFAULT 14 _ZNSt3__16vectorIhNS_9all
164:   FUNC GLOBAL DEFAULT 14 _ZN7android2os20StatsDime
165:   FUNC GLOBAL DEFAULT 14 _ZN3com7android8internal2
166:   FUNC GLOBAL DEFAULT 14 _ZN3com7android8internal2
167:   FUNC WEAK DEFAULT 14 _ZNSt3__16vectorIN7androi
168:   FUNC GLOBAL DEFAULT 14 _ZN7android7content13Comp
169:   FUNC GLOBAL DEFAULT 14 _ZN7android2os14DropBoxMa
170:   FUNC GLOBAL DEFAULT 14 _ZNK7android2os14DropBoxM
171:   FUNC GLOBAL DEFAULT 14 _ZN7android2os20StatsDime
172:   OBJECT GLOBAL DEFAULT 18 _ZTCN3com7android8interna
173:   FUNC GLOBAL DEFAULT 14 _ZTv0_n24_N3com7android8i
174:   FUNC GLOBAL DEFAULT 14 _ZN7android2os14DropBoxMa
175:   FUNC GLOBAL DEFAULT 14 _ZN3com7android8internal2
176:   OBJECT GLOBAL DEFAULT 18 _ZTCN3com7android8interna
177:   FUNC GLOBAL DEFAULT 14 _ZN7android2os20StatsDime
178:   FUNC GLOBAL DEFAULT 14 _ZN7android2os20StatsLogE
179:   OBJECT GLOBAL DEFAULT 18 _ZTVN7android2os20StatsLo
180:   FUNC GLOBAL DEFAULT 14 _ZN3com7android8internal2
181:   OBJECT GLOBAL DEFAULT 18 _ZTCN3com7android8interna
182:   FUNC GLOBAL DEFAULT 14 _ZN7android7content13Comp
183:   FUNC GLOBAL DEFAULT 14 _ZN7android2os14DropBoxMa
184:   FUNC GLOBAL DEFAULT 14 _ZNK7android2os14DropBoxM
185:   FUNC GLOBAL DEFAULT 14 _ZN7android2os20StatsDime
186:   OBJECT GLOBAL DEFAULT 23 _ZN3com7android8internal2
187:   OBJECT GLOBAL DEFAULT 18 _ZTTN3com7android8interna
188:   FUNC GLOBAL DEFAULT 14 _ZN7android2os14DropBoxMa
189:   FUNC GLOBAL DEFAULT 14 _ZN7android2os20StatsDime
190:   OBJECT GLOBAL DEFAULT 18 _ZTCN3com7android8interna
191:   OBJECT GLOBAL DEFAULT 18 _ZTTN3com7android8interna
192:   FUNC GLOBAL DEFAULT 14 _ZTv0_n24_N7android2os14D
193:   FUNC GLOBAL DEFAULT 14 _ZN7android2os14DropBoxMa
194:   FUNC GLOBAL DEFAULT 14 _ZNK3com7android8internal
195:   FUNC GLOBAL DEFAULT 14 _ZNK7android2os14DropBoxM
196:   FUNC GLOBAL DEFAULT 14 _ZN7android2os20StatsDime
197:   FUNC GLOBAL DEFAULT 14 _ZN7android2os20StatsDime
198:   OBJECT GLOBAL DEFAULT 23 _ZN3com7android8internal2
199:   FUNC GLOBAL DEFAULT 14 _ZN3com7android8internal2
200:   FUNC WEAK DEFAULT 14 _ZN7android11BnInterfaceI
201:   FUNC GLOBAL DEFAULT 14 _ZN7android7content13Comp
202:   FUNC GLOBAL DEFAULT 14 _ZN7android2os14DropBoxMa
203:   OBJECT GLOBAL DEFAULT 18 _ZTCN3com7android8interna
204:   OBJECT GLOBAL DEFAULT 18 _ZTCN3com7android8interna
205:   FUNC GLOBAL DEFAULT 14 _ZNK7android2os14DropBoxM
206:   FUNC GLOBAL DEFAULT 14 _ZN7android2os20StatsDime
207:   FUNC GLOBAL DEFAULT 14 _ZNK7android2os20StatsLog
208:   OBJECT GLOBAL DEFAULT 18 _ZTCN3com7android8interna
209:   FUNC GLOBAL DEFAULT 14 _ZNK7android7content13Com
210:   FUNC GLOBAL DEFAULT 14 _ZN7android2os14DropBoxMa
211:   FUNC WEAK DEFAULT 14 _ZNSt3__16vectorIN7androi
212:   FUNC GLOBAL DEFAULT 14 _ZN3com7android8internal2
213:   FUNC GLOBAL DEFAULT 14 _ZN3com7android8internal2
214:   FUNC GLOBAL DEFAULT 14 _ZN3com7android8internal2
215:   FUNC GLOBAL DEFAULT 14 _ZN7android7content13Comp
216:   FUNC GLOBAL DEFAULT 14 _ZN7android7content13Comp
217:   FUNC GLOBAL DEFAULT 14 _ZNK7android2os14DropBoxM
218:   FUNC GLOBAL DEFAULT 14 _ZN7android2os20StatsDime
219:   OBJECT GLOBAL DEFAULT 18 _ZTCN3com7android8interna
220:   OBJECT GLOBAL DEFAULT 18 _ZTCN3com7android8interna
221:   OBJECT GLOBAL DEFAULT 18 _ZTVN7android7content13Co
222:   FUNC GLOBAL DEFAULT 14 _ZN7android2os14DropBoxMa
223:   FUNC GLOBAL DEFAULT 14 _ZN7android2os20StatsDime
224:   FUNC GLOBAL DEFAULT 14 _ZN3com7android8internal2
225:   FUNC GLOBAL DEFAULT 14 _ZN7android2os14DropBoxMa
226:   FUNC GLOBAL DEFAULT 14 _ZN7android7content13Comp
227:   FUNC GLOBAL DEFAULT 14 _ZN7android2os14DropBoxMa
228:   FUNC GLOBAL DEFAULT 14 _ZNK7android2os20StatsDim
229:   FUNC GLOBAL DEFAULT 14 _ZN7android7content13Comp
230:   FUNC GLOBAL DEFAULT 14 _ZN7android2os20StatsDime
231:   FUNC GLOBAL DEFAULT 14 _ZN7android2os20StatsDime
232:   OBJECT GLOBAL DEFAULT 18 _ZTCN3com7android8interna
233:   FUNC GLOBAL DEFAULT 14 _ZTv0_n24_N3com7android8i
234:   FUNC GLOBAL DEFAULT 14 _ZN7android2os20StatsDime
235:   FUNC GLOBAL DEFAULT 14 _ZN7android2os20StatsDime
236:   FUNC WEAK DEFAULT 14 _ZNSt3__16vectorIN7androi
237:   FUNC GLOBAL DEFAULT 14 _ZN7android2os20StatsLogE
