 0x0000000e (SONAME)                     Library soname: [libsparse.so]
  
Symbol   contains 107 entries:
Num:   Type Bind Vis Ndx Name
0:   NOTYPE LOCAL DEFAULT UND
1:   FUNC GLOBAL DEFAULT UND __cxa_finalize@LIBC (2)
2:   FUNC GLOBAL DEFAULT UND calloc@LIBC (2)
3:   FUNC GLOBAL DEFAULT UND free@LIBC (2)
4:   FUNC GLOBAL DEFAULT UND malloc@LIBC (2)
5:   FUNC GLOBAL DEFAULT UND strcmp@LIBC (2)
6:   FUNC GLOBAL DEFAULT UND strdup@LIBC (2)
7:   FUNC GLOBAL DEFAULT UND __errno@LIBC (2)
8:   FUNC GLOBAL DEFAULT UND __open_2@LIBC (2)
9:   FUNC GLOBAL DEFAULT UND __stack_chk_fail@LIBC (2)
10:   OBJECT GLOBAL DEFAULT UND __stack_chk_guard@LIBC (2)
11:   FUNC GLOBAL DEFAULT UND close@LIBC (2)
12:   FUNC GLOBAL DEFAULT UND fprintf@LIBC (2)
13:   FUNC GLOBAL DEFAULT UND ftruncate64@LIBC (2)
14:   FUNC GLOBAL DEFAULT UND gzclose
15:   FUNC GLOBAL DEFAULT UND gzdopen
16:   FUNC GLOBAL DEFAULT UND gzerror
17:   FUNC GLOBAL DEFAULT UND gzseek
18:   FUNC GLOBAL DEFAULT UND gztell
19:   FUNC GLOBAL DEFAULT UND gzwrite
20:   FUNC GLOBAL DEFAULT UND lseek64@LIBC (2)
21:   FUNC GLOBAL DEFAULT UND mmap64@LIBC (2)
22:   FUNC GLOBAL DEFAULT UND munmap@LIBC (2)
23:   FUNC GLOBAL DEFAULT UND read@LIBC (2)
24:   OBJECT GLOBAL DEFAULT UND stderr@LIBC (2)
25:   FUNC GLOBAL DEFAULT UND strerror@LIBC (2)
26:   FUNC GLOBAL DEFAULT UND write@LIBC (2)
27:   FUNC GLOBAL DEFAULT UND vfprintf@LIBC (2)
28:   FUNC GLOBAL DEFAULT UND _ZN7android4base12StringP
29:   FUNC GLOBAL DEFAULT UND _ZN7android4base13StringA
30:   FUNC GLOBAL DEFAULT UND _ZNSt3__112basic_stringIc
31:   FUNC GLOBAL DEFAULT UND _ZdlPv
32:   FUNC GLOBAL DEFAULT UND _Znwj
33:   FUNC GLOBAL DEFAULT UND memcpy@LIBC (2)
34:   FUNC GLOBAL DEFAULT UND memset@LIBC (2)
35:   FUNC GLOBAL DEFAULT 14 write_skip_chunk
36:   FUNC GLOBAL DEFAULT 14 sparse_file_len
37:   FUNC GLOBAL DEFAULT 14 _Z20sparse_default_printP
38:   FUNC GLOBAL DEFAULT 14 __divdi3
39:   FUNC GLOBAL DEFAULT 14 __aeabi_memclr8
40:   FUNC GLOBAL DEFAULT 14 __aeabi_uidiv
41:   FUNC GLOBAL DEFAULT 14 __udivmodsi4
42:   FUNC GLOBAL DEFAULT 14 __aeabi_memset
43:   FUNC GLOBAL DEFAULT 14 _Z17backed_block_typeP12b
44:   FUNC GLOBAL DEFAULT 14 _Z12sparse_crc32jPKvj
45:   FUNC GLOBAL DEFAULT 14 _Z22write_sparse_end_chun
46:   FUNC GLOBAL DEFAULT 14 sparse_file_block_size
47:   FUNC GLOBAL DEFAULT 14 sparse_file_resparse
48:   OBJECT WEAK DEFAULT 18 _ZTV18SparseFileFdSource
49:   FUNC GLOBAL DEFAULT 14 _Z21backed_block_add_data
50:   FUNC GLOBAL DEFAULT 14 _Z22write_normal_end_chun
51:   FUNC GLOBAL DEFAULT 14 write_fd_chunk
52:   FUNC GLOBAL DEFAULT 14 __aeabi_memset8
53:   FUNC GLOBAL DEFAULT 14 _Z21backed_block_fill_val
54:   FUNC GLOBAL DEFAULT 14 _Z21backed_block_iter_new
55:   FUNC GLOBAL DEFAULT 14 sparse_file_add_fill
56:   OBJECT WEAK DEFAULT 18 _ZTV19SparseFileBufSource
57:   FUNC GLOBAL DEFAULT 14 _Z21backed_block_add_file
58:   FUNC GLOBAL DEFAULT 14 sparse_file_add_data
59:   FUNC GLOBAL DEFAULT 14 sparse_file_add_fd
60:   FUNC GLOBAL DEFAULT 14 sparse_file_verbose
61:   FUNC GLOBAL DEFAULT 14 __divmoddi4
62:   FUNC GLOBAL DEFAULT 14 _Z18backed_block_blockP12
63:   FUNC GLOBAL DEFAULT 14 _Z20backed_block_destroyP
64:   FUNC GLOBAL DEFAULT 14 output_file_close
65:   OBJECT GLOBAL DEFAULT 16 sparse_print_error
66:   FUNC GLOBAL DEFAULT 14 sparse_file_destroy
67:   FUNC GLOBAL DEFAULT 14 sparse_file_read
68:   FUNC GLOBAL DEFAULT 14 _Z15backed_block_fdP12bac
69:   FUNC GLOBAL DEFAULT 14 _Z24backed_block_file_off
70:   FUNC GLOBAL DEFAULT 14 sparse_file_callback
71:   FUNC GLOBAL DEFAULT 14 _Z22backed_block_list_mov
72:   FUNC GLOBAL DEFAULT 14 sparse_file_new
73:   FUNC GLOBAL DEFAULT 14 __aeabi_memcpy
74:   FUNC GLOBAL DEFAULT 14 _Z21backed_block_filename
75:   FUNC GLOBAL DEFAULT 14 _Z22backed_block_iter_nex
76:   FUNC GLOBAL DEFAULT 14 output_file_open_callback
77:   FUNC GLOBAL DEFAULT 14 __udivsi3
78:   FUNC GLOBAL DEFAULT 14 __udivmoddi4
79:   FUNC GLOBAL DEFAULT 14 __aeabi_uidivmod
80:   FUNC GLOBAL DEFAULT 14 write_file_chunk
81:   FUNC GLOBAL DEFAULT 14 __aeabi_memcpy4
82:   FUNC GLOBAL DEFAULT 14 write_fill_chunk
83:   FUNC GLOBAL DEFAULT 14 _Z19sparse_count_chunksP1
84:   FUNC GLOBAL DEFAULT 14 sparse_file_import
85:   FUNC GLOBAL DEFAULT 14 output_file_open_fd
86:   FUNC GLOBAL DEFAULT 14 sparse_file_foreach_chunk
87:   FUNC GLOBAL DEFAULT 14 _Z16backed_block_lenP12ba
88:   FUNC GLOBAL DEFAULT 14 _Z17backed_block_dataP12b
89:   FUNC GLOBAL DEFAULT 14 _Z18backed_block_splitP17
90:   FUNC GLOBAL DEFAULT 14 _Z25backed_block_list_des
91:   FUNC GLOBAL DEFAULT 14 sparse_file_write
92:   FUNC GLOBAL DEFAULT 14 __aeabi_memclr
93:   FUNC GLOBAL DEFAULT 14 __aeabi_memclr4
94:   FUNC GLOBAL DEFAULT 14 _Z21backed_block_list_new
95:   FUNC GLOBAL DEFAULT 14 sparse_file_add_file
96:   FUNC GLOBAL DEFAULT 14 sparse_file_read_buf
97:   FUNC GLOBAL DEFAULT 14 __aeabi_memcpy8
98:   FUNC GLOBAL DEFAULT 14 _Z21backed_block_add_fill
99:   OBJECT GLOBAL DEFAULT 16 sparse_print_verbose
100:   FUNC GLOBAL DEFAULT 14 sparse_file_import_auto
101:   FUNC GLOBAL DEFAULT 14 sparse_file_import_buf
102:   FUNC GLOBAL DEFAULT 14 _Z19backed_block_add_fdP1
103:   FUNC GLOBAL DEFAULT 14 __aeabi_ldivmod
104:   FUNC GLOBAL DEFAULT 14 read_all
105:   FUNC GLOBAL DEFAULT 14 write_data_chunk
106:   FUNC GLOBAL DEFAULT 14 __aeabi_memset4
