 0x0000000e (SONAME)                     Library soname: [libdl.so]
  
Symbol   contains 7 entries:
Num:   Type Bind Vis Ndx Name
0:   NOTYPE LOCAL DEFAULT UND
1:   FUNC GLOBAL DEFAULT 8 dl_unwind_find_exidx@@LIBC
2:   FUNC GLOBAL DEFAULT 8 dladdr@@LIBC
3:   FUNC GLOBAL DEFAULT 8 dlclose@@LIBC
4:   FUNC GLOBAL DEFAULT 8 dlerror@@LIBC
5:   FUNC GLOBAL DEFAULT 8 dlopen@@LIBC
6:   FUNC GLOBAL DEFAULT 8 dlsym@@LIBC
