 0x0000000e (SONAME)                     Library soname: [libgsi.so]
  
Symbol   contains 40 entries:
Num:   Type Bind Vis Ndx Name
0:   NOTYPE LOCAL DEFAULT UND
1:   FUNC GLOBAL DEFAULT UND __cxa_finalize@LIBC (2)
2:   FUNC GLOBAL DEFAULT UND _ZN7android4base10WriteFu
3:   FUNC GLOBAL DEFAULT UND _ZN7android4base16ReadFil
4:   FUNC GLOBAL DEFAULT UND _ZN7android4base17WriteSt
5:   FUNC GLOBAL DEFAULT UND _ZN7android4base18RemoveF
6:   FUNC GLOBAL DEFAULT UND _ZNKSt3__112basic_stringI
7:   FUNC GLOBAL DEFAULT UND _ZNSt3__112basic_stringIc
8:   FUNC GLOBAL DEFAULT UND _ZNSt3__112basic_stringIc
9:   FUNC GLOBAL DEFAULT UND _ZNSt3__19to_stringEi
10:   FUNC GLOBAL DEFAULT UND _ZdlPv
11:   FUNC GLOBAL DEFAULT UND _Znwj
12:   FUNC GLOBAL DEFAULT UND __errno@LIBC (2)
13:   FUNC GLOBAL DEFAULT UND __open_2@LIBC (2)
14:   FUNC GLOBAL DEFAULT UND __stack_chk_fail@LIBC (2)
15:   OBJECT GLOBAL DEFAULT UND __stack_chk_guard@LIBC (2)
16:   FUNC GLOBAL DEFAULT UND access@LIBC (2)
17:   FUNC WEAK DEFAULT UND android_fdsan_close_with_@LIBC_Q (3)
18:   FUNC WEAK DEFAULT UND android_fdsan_create_owne@LIBC_Q (3)
19:   FUNC WEAK DEFAULT UND android_fdsan_exchange_ow@LIBC_Q (3)
20:   FUNC GLOBAL DEFAULT UND close@LIBC (2)
21:   FUNC GLOBAL DEFAULT UND fsync@LIBC (2)
22:   FUNC GLOBAL DEFAULT UND isspace@LIBC (2)
23:   FUNC GLOBAL DEFAULT UND strerror@LIBC (2)
24:   FUNC GLOBAL DEFAULT UND strtoll@LIBC (2)
25:   FUNC GLOBAL DEFAULT UND memset@LIBC (2)
26:   FUNC GLOBAL DEFAULT 14 _ZN7android3gsi15GetBootA
27:   FUNC GLOBAL DEFAULT 14 _ZN7android3gsi16GetInsta
28:   FUNC GLOBAL DEFAULT 14 __aeabi_memclr8
29:   FUNC GLOBAL DEFAULT 14 __aeabi_memset8
30:   FUNC GLOBAL DEFAULT 14 _ZN7android3gsi10DisableG
31:   FUNC GLOBAL DEFAULT 14 _ZN7android3gsi12Uninstal
32:   FUNC GLOBAL DEFAULT 14 _ZN7android3gsi14CanBootI
33:   FUNC GLOBAL DEFAULT 14 _ZN7android3gsi14IsGsiIns
34:   FUNC GLOBAL DEFAULT 14 __aeabi_memset
35:   FUNC GLOBAL DEFAULT 14 _ZN7android3gsi12IsGsiRun
36:   FUNC GLOBAL DEFAULT 14 _ZN7android3gsi15MarkSyst
37:   FUNC GLOBAL DEFAULT 14 __aeabi_memclr
38:   FUNC GLOBAL DEFAULT 14 __aeabi_memclr4
39:   FUNC GLOBAL DEFAULT 14 __aeabi_memset4
