 0x000000000000000e (SONAME)             Library soname: [libadbd_services.so]
  
Symbol   contains 746 entries:
Num:   Type Bind Vis Ndx Name
0:   NOTYPE LOCAL DEFAULT UND
1:   FUNC GLOBAL DEFAULT UND __cxa_finalize@LIBC (2)
2:   FUNC GLOBAL DEFAULT UND __cxa_atexit@LIBC (2)
3:   FUNC GLOBAL DEFAULT UND _ZN7android4base10LogMess
4:   FUNC GLOBAL DEFAULT UND _ZN7android4base10LogMess
5:   FUNC GLOBAL DEFAULT UND _ZN7android4base10LogMess
6:   FUNC GLOBAL DEFAULT UND _ZN7android4base10StartsW
7:   FUNC GLOBAL DEFAULT UND _ZN7android4base12StringP
8:   FUNC GLOBAL DEFAULT UND _ZN7android4base21GetMini
9:   FUNC GLOBAL DEFAULT UND _ZN7android4base5SplitERK
10:   FUNC GLOBAL DEFAULT UND _ZN7android4base7DirnameE
11:   FUNC GLOBAL DEFAULT UND _ZN7android4base8Readlink
12:   FUNC GLOBAL DEFAULT UND _ZNKSt3__112basic_stringI
13:   FUNC GLOBAL DEFAULT UND _ZNKSt3__112basic_stringI
14:   FUNC GLOBAL DEFAULT UND _ZNKSt3__121__basic_strin
15:   FUNC GLOBAL DEFAULT UND _ZNKSt3__16locale9use_fac
16:   FUNC GLOBAL DEFAULT UND _ZNKSt3__18ios_base6getlo
17:   FUNC GLOBAL DEFAULT UND _ZNSt3__112basic_stringIc
18:   FUNC GLOBAL DEFAULT UND _ZNSt3__112basic_stringIc
19:   FUNC GLOBAL DEFAULT UND _ZNSt3__112basic_stringIc
20:   FUNC GLOBAL DEFAULT UND _ZNSt3__113basic_ostreamI
21:   FUNC GLOBAL DEFAULT UND _ZNSt3__113basic_ostreamI
22:   OBJECT GLOBAL DEFAULT UND _ZNSt3__15ctypeIcE2idE
23:   FUNC GLOBAL DEFAULT UND _ZNSt3__16localeD1Ev
24:   FUNC GLOBAL DEFAULT UND _ZNSt3__18ios_base5clearE
25:   FUNC GLOBAL DEFAULT UND _ZdlPv
26:   FUNC GLOBAL DEFAULT UND _Znwm
27:   FUNC GLOBAL DEFAULT UND __android_log_security_bs@LIBLOG_PRIVATE (3)
28:   FUNC GLOBAL DEFAULT UND __errno@LIBC (2)
29:   FUNC GLOBAL DEFAULT UND __open_2@LIBC (2)
30:   FUNC GLOBAL DEFAULT UND __read_chk@LIBC (2)
31:   FUNC GLOBAL DEFAULT UND __stack_chk_fail@LIBC (2)
32:   FUNC WEAK DEFAULT UND android_fdsan_close_with_@LIBC_Q (4)
33:   FUNC WEAK DEFAULT UND android_fdsan_create_owne@LIBC_Q (4)
34:   FUNC WEAK DEFAULT UND android_fdsan_exchange_ow@LIBC_Q (4)
35:   FUNC GLOBAL DEFAULT UND atrace_begin_body
36:   OBJECT GLOBAL DEFAULT UND atrace_enabled_tags
37:   FUNC GLOBAL DEFAULT UND atrace_end_body
38:   OBJECT GLOBAL DEFAULT UND atrace_is_ready
39:   FUNC GLOBAL DEFAULT UND atrace_setup
40:   FUNC GLOBAL DEFAULT UND chown@LIBC (2)
41:   FUNC GLOBAL DEFAULT UND close@LIBC (2)
42:   FUNC GLOBAL DEFAULT UND closedir@LIBC (2)
43:   FUNC GLOBAL DEFAULT UND fchmod@LIBC (2)
44:   FUNC GLOBAL DEFAULT UND fchown@LIBC (2)
45:   FUNC GLOBAL DEFAULT UND fcntl@LIBC (2)
46:   FUNC GLOBAL DEFAULT UND fs_config
47:   FUNC GLOBAL DEFAULT UND lstat@LIBC (2)
48:   FUNC GLOBAL DEFAULT UND lutimes@LIBC_O (5)
49:   FUNC GLOBAL DEFAULT UND memcpy@LIBC (2)
50:   FUNC GLOBAL DEFAULT UND memset@LIBC (2)
51:   FUNC GLOBAL DEFAULT UND mkdir@LIBC (2)
52:   FUNC GLOBAL DEFAULT UND open@LIBC (2)
53:   FUNC GLOBAL DEFAULT UND opendir@LIBC (2)
54:   FUNC GLOBAL DEFAULT UND posix_fadvise@LIBC (2)
55:   FUNC GLOBAL DEFAULT UND readdir@LIBC (2)
56:   FUNC GLOBAL DEFAULT UND removexattr@LIBC (2)
57:   FUNC GLOBAL DEFAULT UND selinux_android_restoreco
58:   FUNC GLOBAL DEFAULT UND setxattr@LIBC (2)
59:   FUNC GLOBAL DEFAULT UND stat@LIBC (2)
60:   FUNC GLOBAL DEFAULT UND strerror@LIBC (2)
61:   FUNC GLOBAL DEFAULT UND strlen@LIBC (2)
62:   FUNC GLOBAL DEFAULT UND strtoul@LIBC (2)
63:   FUNC GLOBAL DEFAULT UND symlink@LIBC (2)
64:   FUNC GLOBAL DEFAULT UND unlink@LIBC (2)
65:   FUNC GLOBAL DEFAULT UND _ZNSt3__112basic_stringIc
66:   FUNC GLOBAL DEFAULT UND _ZNSt3__113basic_ostreamI
67:   FUNC GLOBAL DEFAULT UND _ZNSt3__113basic_ostreamI
68:   FUNC GLOBAL DEFAULT UND _ZNSt3__113basic_ostreamI
69:   FUNC GLOBAL DEFAULT UND _ZNSt3__119__shared_weak_
70:   FUNC GLOBAL DEFAULT UND _ZdaPv
71:   FUNC GLOBAL DEFAULT UND _Znam
72:   FUNC GLOBAL DEFAULT UND __android_log_is_debuggab@LIBLOG_O (6)
73:   FUNC GLOBAL DEFAULT UND abort@LIBC (2)
74:   FUNC GLOBAL DEFAULT UND memchr@LIBC (2)
75:   FUNC GLOBAL DEFAULT UND memcmp@LIBC (2)
76:   FUNC GLOBAL DEFAULT UND pipe2@LIBC (2)
77:   FUNC GLOBAL DEFAULT UND socketpair@LIBC (2)
78:   FUNC GLOBAL DEFAULT UND sscanf@LIBC (2)
79:   FUNC GLOBAL DEFAULT UND _Exit@LIBC (2)
80:   FUNC GLOBAL DEFAULT UND _ZN7android4base11GetProp
81:   FUNC GLOBAL DEFAULT UND _ZNKSt3__120__vector_base
82:   FUNC GLOBAL DEFAULT UND _ZNSt3__112__next_primeEm
83:   FUNC GLOBAL DEFAULT UND _ZNSt3__112basic_stringIc
84:   FUNC GLOBAL DEFAULT UND _ZNSt3__112basic_stringIc
85:   FUNC GLOBAL DEFAULT UND _ZNSt3__112basic_stringIc
86:   FUNC GLOBAL DEFAULT UND _ZNSt3__115__thread_struc
87:   FUNC GLOBAL DEFAULT UND _ZNSt3__115__thread_struc
88:   FUNC GLOBAL DEFAULT UND _ZNSt3__119__thread_local
89:   FUNC GLOBAL DEFAULT UND _ZNSt3__120__throw_system
90:   FUNC GLOBAL DEFAULT UND _ZNSt3__16thread6detachEv
91:   FUNC GLOBAL DEFAULT UND _ZNSt3__16threadD1Ev
92:   FUNC GLOBAL DEFAULT UND _ZNSt3__1plIcNS_11char_tr
93:   FUNC GLOBAL DEFAULT UND __FD_CLR_chk@LIBC (2)
94:   FUNC GLOBAL DEFAULT UND __FD_ISSET_chk@LIBC (2)
95:   FUNC GLOBAL DEFAULT UND __FD_SET_chk@LIBC (2)
96:   FUNC GLOBAL DEFAULT UND __strlen_chk@LIBC (2)
97:   FUNC GLOBAL DEFAULT UND __write_chk@LIBC_N (7)
98:   FUNC GLOBAL DEFAULT UND cfmakeraw@LIBC (2)
99:   FUNC GLOBAL DEFAULT UND dup@LIBC (2)
100:   FUNC GLOBAL DEFAULT UND dup2@LIBC (2)
101:   OBJECT GLOBAL DEFAULT UND environ@LIBC (2)
102:   FUNC GLOBAL DEFAULT UND execle@LIBC (2)
103:   FUNC GLOBAL DEFAULT UND fork@LIBC (2)
104:   FUNC GLOBAL DEFAULT UND forkpty@LIBC (2)
105:   FUNC GLOBAL DEFAULT UND freecon
106:   FUNC GLOBAL DEFAULT UND getcon
107:   FUNC GLOBAL DEFAULT UND gethostname@LIBC (2)
108:   FUNC GLOBAL DEFAULT UND getpwuid@LIBC (2)
109:   FUNC GLOBAL DEFAULT UND getuid@LIBC (2)
110:   FUNC GLOBAL DEFAULT UND ioctl@LIBC (2)
111:   FUNC GLOBAL DEFAULT UND kill@LIBC (2)
112:   FUNC GLOBAL DEFAULT UND pthread_create@LIBC (2)
113:   FUNC GLOBAL DEFAULT UND pthread_self@LIBC (2)
114:   FUNC GLOBAL DEFAULT UND pthread_setname_np@LIBC (2)
115:   FUNC GLOBAL DEFAULT UND pthread_setspecific@LIBC (2)
116:   FUNC GLOBAL DEFAULT UND read@LIBC (2)
117:   FUNC GLOBAL DEFAULT UND select@LIBC (2)
118:   FUNC GLOBAL DEFAULT UND selinux_android_setcon
119:   FUNC GLOBAL DEFAULT UND setsid@LIBC (2)
120:   FUNC GLOBAL DEFAULT UND shutdown@LIBC (2)
121:   FUNC GLOBAL DEFAULT UND signal@LIBC (2)
122:   FUNC GLOBAL DEFAULT UND strchr@LIBC (2)
123:   FUNC GLOBAL DEFAULT UND strcmp@LIBC (2)
124:   FUNC GLOBAL DEFAULT UND strncpy@LIBC (2)
125:   FUNC GLOBAL DEFAULT UND tcgetattr@LIBC (2)
126:   FUNC GLOBAL DEFAULT UND tcsetattr@LIBC (2)
127:   FUNC GLOBAL DEFAULT UND waitpid@LIBC (2)
128:   FUNC GLOBAL DEFAULT UND write@LIBC (2)
129:   FUNC GLOBAL DEFAULT UND execvp@LIBC (2)
130:   FUNC GLOBAL DEFAULT UND DNSServiceRefDeallocate
131:   FUNC GLOBAL DEFAULT UND DNSServiceRegister
132:   FUNC GLOBAL DEFAULT UND _ZN7android4base11SetProp
133:   FUNC GLOBAL DEFAULT UND _ZN7android4base15WaitFor
134:   FUNC GLOBAL DEFAULT UND _ZNSt3__15mutex4lockEv
135:   FUNC GLOBAL DEFAULT UND _ZNSt3__15mutex6unlockEv
136:   FUNC GLOBAL DEFAULT UND _ZN7android4base15GetBool
137:   FUNC GLOBAL DEFAULT UND __strncpy_chk2@LIBC (2)
138:   FUNC GLOBAL DEFAULT UND access@LIBC (2)
139:   FUNC GLOBAL DEFAULT UND connect@LIBC (2)
140:   FUNC GLOBAL DEFAULT UND pause@LIBC (2)
141:   FUNC GLOBAL DEFAULT UND socket@LIBC (2)
142:   FUNC GLOBAL DEFAULT UND sync@LIBC (2)
143:   FUNC GLOBAL DEFAULT UND _exit@LIBC (2)
144:   FUNC GLOBAL DEFAULT UND execl@LIBC (2)
145:   FUNC GLOBAL DEFAULT UND strsignal@LIBC (2)
146:   FUNC GLOBAL DEFAULT UND _Z22fs_mgr_overlayfs_setu
147:   FUNC GLOBAL DEFAULT UND _Z25fs_mgr_overlayfs_tear
148:   FUNC GLOBAL DEFAULT UND _ZN7android6fs_mgr16ReadD
149:   FUNC GLOBAL DEFAULT UND fec_close
150:   FUNC GLOBAL DEFAULT UND fec_open
151:   FUNC GLOBAL DEFAULT UND fec_verity_get_metadata
152:   FUNC GLOBAL DEFAULT UND fec_verity_set_status
153:   FUNC GLOBAL DEFAULT UND __system_property_find@LIBC (2)
154:   FUNC GLOBAL DEFAULT UND __system_property_read_ca@LIBC_O (5)
155:   FUNC GLOBAL DEFAULT UND _ZN7android6fs_mgr17ReadF
156:   FUNC GLOBAL DEFAULT UND _ZN7android6fs_mgr21GetEn
157:   FUNC GLOBAL DEFAULT UND fputs@LIBC (2)
158:   FUNC GLOBAL DEFAULT UND free@LIBC (2)
159:   FUNC GLOBAL DEFAULT UND malloc@LIBC (2)
160:   OBJECT GLOBAL DEFAULT UND stderr@LIBC (2)
161:   FUNC GLOBAL DEFAULT UND calloc@LIBC (2)
162:   FUNC GLOBAL DEFAULT UND lseek@LIBC (2)
163:   FUNC GLOBAL DEFAULT UND strdup@LIBC (2)
164:   FUNC GLOBAL DEFAULT UND strrchr@LIBC (2)
165:   FUNC GLOBAL DEFAULT UND _ZN7android4base17GetExec
166:   FUNC GLOBAL DEFAULT UND _ZN7android4base4JoinINSt
167:   FUNC GLOBAL DEFAULT UND _ZNSt3__111this_thread9sl
168:   FUNC GLOBAL DEFAULT UND _ZNSt3__113basic_ostreamI
169:   FUNC GLOBAL DEFAULT UND memmove@LIBC (2)
170:   FUNC GLOBAL DEFAULT UND printf@LIBC (2)
171:   FUNC GLOBAL DEFAULT UND strncmp@LIBC (2)
172:   FUNC GLOBAL DEFAULT UND _ZN7android4base13StringA
173:   FUNC GLOBAL DEFAULT UND _ZNSt3__112basic_stringIc
174:   FUNC GLOBAL DEFAULT UND sched_yield@LIBC (2)
175:   FUNC GLOBAL DEFAULT UND _ZN7android4base13StringA
176:   FUNC GLOBAL DEFAULT UND accept@LIBC (2)
177:   FUNC GLOBAL DEFAULT UND setsockopt@LIBC (2)
178:   FUNC GLOBAL DEFAULT UND _ZN7android4base10LogdLog
179:   FUNC GLOBAL DEFAULT UND _ZN7android4base10LogdLog
180:   FUNC GLOBAL DEFAULT UND _ZN7android4base11InitLog
181:   FUNC GLOBAL DEFAULT UND _ZN7android4base12StderrL
182:   FUNC GLOBAL DEFAULT UND _ZN7android4base14Default
183:   FUNC GLOBAL DEFAULT UND _ZN7android4base21SetMini
184:   FUNC GLOBAL DEFAULT UND fprintf@LIBC (2)
185:   FUNC GLOBAL DEFAULT UND getenv@LIBC (2)
186:   FUNC GLOBAL DEFAULT UND getpid@LIBC (2)
187:   FUNC GLOBAL DEFAULT UND isatty@LIBC (2)
188:   FUNC GLOBAL DEFAULT UND localtime_r@LIBC (2)
189:   FUNC GLOBAL DEFAULT UND strftime@LIBC (2)
190:   FUNC GLOBAL DEFAULT UND time@LIBC (2)
191:   FUNC GLOBAL DEFAULT UND tzset@LIBC (2)
192:   FUNC GLOBAL DEFAULT UND _ZN7android4base8Basename
193:   FUNC GLOBAL DEFAULT UND _ZNKSt3__112basic_stringI
194:   FUNC GLOBAL DEFAULT UND _ZNSt3__112basic_stringIc
195:   FUNC GLOBAL DEFAULT UND __vsnprintf_chk@LIBC (2)
196:   FUNC GLOBAL DEFAULT UND exit@LIBC (2)
197:   FUNC GLOBAL DEFAULT UND fflush@LIBC (2)
198:   FUNC GLOBAL DEFAULT UND getcwd@LIBC (2)
199:   FUNC GLOBAL DEFAULT UND getpwuid_r@LIBC (2)
200:   FUNC GLOBAL DEFAULT UND isprint@LIBC (2)
201:   FUNC GLOBAL DEFAULT UND isspace@LIBC (2)
202:   FUNC GLOBAL DEFAULT UND putc@LIBC (2)
203:   OBJECT GLOBAL DEFAULT UND stdout@LIBC (2)
204:   FUNC GLOBAL DEFAULT UND strtoll@LIBC (2)
205:   FUNC GLOBAL DEFAULT UND sysconf@LIBC (2)
206:   FUNC GLOBAL DEFAULT UND vfprintf@LIBC (2)
207:   FUNC GLOBAL DEFAULT UND _ZN7android4base10boot_cl
208:   FUNC GLOBAL DEFAULT UND _ZN7android4base11GetThre
209:   FUNC GLOBAL DEFAULT UND _ZNSt3__16chrono12steady_
210:   FUNC GLOBAL DEFAULT UND __cxa_guard_acquire
211:   FUNC GLOBAL DEFAULT UND __cxa_guard_release
212:   FUNC GLOBAL DEFAULT UND poll@LIBC (2)
213:   FUNC GLOBAL DEFAULT UND puts@LIBC (2)
214:   FUNC GLOBAL DEFAULT UND _ZNKSt3__119__shared_weak
215:   FUNC GLOBAL DEFAULT UND _ZNSt3__112basic_stringIc
216:   FUNC GLOBAL DEFAULT UND _ZNSt3__115recursive_mute
217:   FUNC GLOBAL DEFAULT UND _ZNSt3__115recursive_mute
218:   FUNC GLOBAL DEFAULT UND _ZNSt3__115recursive_mute
219:   FUNC GLOBAL DEFAULT UND _ZNSt3__119__shared_weak_
220:   FUNC GLOBAL DEFAULT UND writev@LIBC (2)
221:   FUNC GLOBAL DEFAULT UND _ZN7android4base15ParseNe
222:   FUNC GLOBAL DEFAULT UND _ZNSt3__112basic_stringIc
223:   FUNC GLOBAL DEFAULT UND __strchr_chk@LIBC (2)
224:   FUNC GLOBAL DEFAULT UND bind@LIBC (2)
225:   FUNC GLOBAL DEFAULT UND getsockname@LIBC (2)
226:   FUNC GLOBAL DEFAULT UND listen@LIBC (2)
227:   FUNC GLOBAL DEFAULT UND socket_get_local_port
228:   FUNC GLOBAL DEFAULT UND socket_inaddr_any_server
229:   FUNC GLOBAL DEFAULT UND socket_local_client
230:   FUNC GLOBAL DEFAULT UND socket_local_server
231:   FUNC GLOBAL DEFAULT UND strtoull@LIBC (2)
232:   FUNC GLOBAL DEFAULT UND tolower@LIBC (2)
233:   FUNC GLOBAL DEFAULT UND _ZNSt3__111__call_onceERV
234:   FUNC GLOBAL DEFAULT UND _ZNSt3__113basic_ostreamI
235:   FUNC GLOBAL DEFAULT UND _ZNSt3__113basic_ostreamI
236:   FUNC GLOBAL DEFAULT UND _ZNSt3__113basic_ostreamI
237:   FUNC GLOBAL DEFAULT UND _ZNSt3__113basic_ostreamI
238:   FUNC GLOBAL DEFAULT UND _ZNSt3__115basic_streambu
239:   FUNC GLOBAL DEFAULT UND _ZNSt3__115basic_streambu
240:   FUNC GLOBAL DEFAULT UND _ZNSt3__115basic_streambu
241:   FUNC GLOBAL DEFAULT UND _ZNSt3__115basic_streambu
242:   FUNC GLOBAL DEFAULT UND _ZNSt3__115basic_streambu
243:   FUNC GLOBAL DEFAULT UND _ZNSt3__115basic_streambu
244:   FUNC GLOBAL DEFAULT UND _ZNSt3__115basic_streambu
245:   FUNC GLOBAL DEFAULT UND _ZNSt3__115basic_streambu
246:   FUNC GLOBAL DEFAULT UND _ZNSt3__115basic_streambu
247:   FUNC GLOBAL DEFAULT UND _ZNSt3__118condition_vari
248:   FUNC GLOBAL DEFAULT UND _ZNSt3__118condition_vari
249:   FUNC GLOBAL DEFAULT UND _ZNSt3__118condition_vari
250:   FUNC GLOBAL DEFAULT UND _ZNSt3__118condition_vari
251:   FUNC GLOBAL DEFAULT UND _ZNSt3__15mutexD1Ev
252:   FUNC GLOBAL DEFAULT UND _ZNSt3__16chrono12system_
253:   FUNC GLOBAL DEFAULT UND _ZNSt3__16thread4joinEv
254:   FUNC GLOBAL DEFAULT UND _ZNSt3__18ios_base4initEP
255:   FUNC GLOBAL DEFAULT UND _ZNSt3__19basic_iosIcNS_1
256:   FUNC GLOBAL DEFAULT UND _ZSt9terminatev
257:   FUNC GLOBAL DEFAULT UND _ZTv0_n24_NSt3__113basic_
258:   FUNC GLOBAL DEFAULT UND _ZTv0_n24_NSt3__113basic_
259:   FUNC GLOBAL DEFAULT UND __cxa_pure_virtual
260:   FUNC GLOBAL DEFAULT UND isalnum@LIBC (2)
261:   FUNC GLOBAL DEFAULT UND gai_strerror@LIBC (2)
262:   OBJECT GLOBAL DEFAULT UND in6addr_loopback@LIBC_N (7)
263:   FUNC GLOBAL DEFAULT UND socket_network_client_tim
264:   FUNC GLOBAL DEFAULT UND RSA_free
265:   FUNC GLOBAL DEFAULT UND RSA_verify
266:   FUNC GLOBAL DEFAULT UND _ZN7android4base16ReadFil
267:   FUNC GLOBAL DEFAULT UND __b64_pton@LIBC (2)
268:   FUNC GLOBAL DEFAULT UND android_get_control_socke
269:   FUNC GLOBAL DEFAULT UND android_pubkey_decode
270:   FUNC GLOBAL DEFAULT UND fclose@LIBC (2)
271:   FUNC GLOBAL DEFAULT UND fopen@LIBC (2)
272:   FUNC GLOBAL DEFAULT UND fread@LIBC (2)
273:   FUNC GLOBAL DEFAULT UND strpbrk@LIBC (2)
274:   FUNC GLOBAL DEFAULT UND _ZN7android4base24SendFil
275:   FUNC GLOBAL DEFAULT UND _ZNSt3__19to_stringEi
276:   FUNC GLOBAL DEFAULT UND recvfrom@LIBC (2)
277:   FUNC GLOBAL DEFAULT UND _ZN7android4base10WriteFu
278:   FUNC GLOBAL DEFAULT UND _ZN7android4base9ReadFull
279:   FUNC GLOBAL DEFAULT UND io_getevents
280:   FUNC GLOBAL DEFAULT UND io_prep
281:   FUNC GLOBAL DEFAULT UND io_setup
282:   FUNC GLOBAL DEFAULT UND io_submit
283:   FUNC GLOBAL DEFAULT UND posix_madvise@LIBC (2)
284:   FUNC WEAK DEFAULT UND android_set_abort_message@LIBC (2)
285:   FUNC GLOBAL DEFAULT 14 _Z26create_jdwp_service_s
286:   FUNC GLOBAL DEFAULT 14 avb_strdup
287:   FUNC GLOBAL DEFAULT 14 _ZNK10atransport21connect
288:   FUNC GLOBAL DEFAULT 14 avb_replace
289:   OBJECT GLOBAL DEFAULT 16 adb_device_banner
290:   FUNC WEAK DEFAULT 14 _ZNSt3__110__function6__f
291:   FUNC GLOBAL DEFAULT 14 _Z16directory_existsRKNSt
292:   FUNC GLOBAL DEFAULT 14 _Z18qemu_socket_threadi
293:   FUNC GLOBAL DEFAULT 14 _Z14handle_offlineP10atra
294:   FUNC GLOBAL DEFAULT 14 _ZN9alistenerC2ERKNSt3__1
295:   FUNC GLOBAL DEFAULT 14 _Z11dump_packetPKcS0_PK7a
296:   FUNC WEAK DEFAULT 14 _ZNSt3__112__hash_tableIN
297:   FUNC GLOBAL DEFAULT 14 _Z24daemon_service_to_soc
298:   FUNC GLOBAL DEFAULT 14 _Z10WriteFdFmtiPKcz
299:   FUNC WEAK DEFAULT 14 _ZNSt3__114__split_buffer
300:   FUNC WEAK DEFAULT 14 _ZNSt3__112__hash_tableIN
301:   FUNC GLOBAL DEFAULT 14 __lttf2
302:   FUNC GLOBAL DEFAULT 14 __subtf3
303:   FUNC WEAK DEFAULT 14 _ZNKSt3__110__function6__
304:   FUNC GLOBAL DEFAULT 14 avb_crc32
305:   FUNC GLOBAL DEFAULT 14 _Z16adb_trace_enable8AdbT
306:   FUNC GLOBAL DEFAULT 14 _ZN25BlockingConnectionAd
307:   FUNC WEAK DEFAULT 14 _ZNSt3__120__shared_ptr_p
308:   FUNC WEAK DEFAULT 14 _ZNSt3__16vectorIN7androi
309:   FUNC GLOBAL DEFAULT 14 _Z13handle_onlineP10atran
310:   FUNC WEAK DEFAULT 14 _ZNSt3__14listIP11adiscon
311:   FUNC GLOBAL DEFAULT 14 __eqtf2
312:   FUNC GLOBAL DEFAULT 14 avb_user_verity_get
313:   FUNC GLOBAL DEFAULT 14 avb_strdupv
314:   FUNC GLOBAL DEFAULT 14 _Z16format_listenersv
315:   FUNC WEAK DEFAULT 14 _ZNSt3__1plIcNS_11char_tr
316:   FUNC GLOBAL DEFAULT 14 _ZN12FdConnection5CloseEv
317:   FUNC GLOBAL DEFAULT 14 _Z9usb_writeP10usb_handle
318:   FUNC GLOBAL DEFAULT 14 _Z17check_main_threadv
319:   FUNC GLOBAL DEFAULT 14 _Z17reconnect_serviceN7an
320:   FUNC WEAK DEFAULT 14 _ZNKSt3__110__function6__
321:   FUNC GLOBAL DEFAULT 14 avb_memset
322:   FUNC GLOBAL DEFAULT 14 _Z16start_device_logv
323:   FUNC WEAK DEFAULT 14 _ZNSt3__110__function6__f
324:   FUNC WEAK DEFAULT 14 _ZNSt3__112__hash_tableIN
325:   FUNC WEAK DEFAULT 14 _ZNSt3__120__shared_ptr_p
326:   FUNC GLOBAL DEFAULT 14 qemu_pipe_open
327:   FUNC WEAK DEFAULT 14 _ZNSt3__112__hash_tableIN
328:   OBJECT GLOBAL DEFAULT 18 _ZTV10atransport
329:   FUNC GLOBAL DEFAULT 14 _Z20restart_root_serviceN
330:   FUNC GLOBAL DEFAULT 14 avb_rsa_public_key_header
331:   FUNC GLOBAL DEFAULT 14 _Z6getcwdPNSt3__112basic_
332:   FUNC WEAK DEFAULT 14 _ZNSt3__120__shared_ptr_e
333:   FUNC GLOBAL DEFAULT 14 avb_strv_find_str
334:   FUNC WEAK DEFAULT 14 _ZNSt3__112__hash_tableIN
335:   FUNC GLOBAL DEFAULT 14 _ZN25BlockingConnectionAd
336:   OBJECT GLOBAL DEFAULT 18 kFeatureFixedPushSymlinkT
337:   FUNC GLOBAL DEFAULT 14 _Z14adbd_auth_initv
338:   FUNC GLOBAL DEFAULT 14 _ZN25BlockingConnectionAd
339:   FUNC GLOBAL DEFAULT 14 _Z10setup_mdnsi
340:   FUNC GLOBAL DEFAULT 14 _Z32set_verity_enabled_st
341:   OBJECT WEAK DEFAULT 18 _ZTVNSt3__110__function6_
342:   FUNC GLOBAL DEFAULT 14 avb_sha256_final
343:   FUNC WEAK DEFAULT 14 _ZNSt3__112__hash_tableIN
344:   OBJECT GLOBAL DEFAULT 18 kFeatureAbb
345:   FUNC GLOBAL DEFAULT 14 _Z15StartSubprocessNSt3__
346:   FUNC GLOBAL DEFAULT 14 _Z21tcp_listen_inaddr_any
347:   FUNC GLOBAL DEFAULT 14 avb_ab_data_update_crc_an
348:   FUNC GLOBAL DEFAULT 14 _Z15remove_listenerPKcP10
349:   FUNC WEAK DEFAULT 14 _ZNKSt3__110__function6__
350:   FUNC WEAK DEFAULT 14 _ZNSt3__110__function6__f
351:   FUNC GLOBAL DEFAULT 14 _ZN13ShellProtocolC2Ei
352:   FUNC GLOBAL DEFAULT 14 avb_strlen
353:   FUNC GLOBAL DEFAULT 14 avb_slot_verify
354:   FUNC WEAK DEFAULT 14 _ZNSt3__16vectorI5iovecNS
355:   OBJECT WEAK DEFAULT 18 _ZTVNSt3__110__function6_
356:   FUNC GLOBAL DEFAULT 14 _ZN10atransport14RunDisco
357:   FUNC GLOBAL DEFAULT 14 _Z15open_functionfsPN7and
358:   FUNC GLOBAL DEFAULT 14 _Z15usb_init_legacyv
359:   FUNC GLOBAL DEFAULT 14 avb_ops_user_free
360:   FUNC WEAK DEFAULT 14 _ZNSt3__110__function6__f
361:   FUNC GLOBAL DEFAULT 14 avb_uppercase
362:   FUNC WEAK DEFAULT 14 _ZNSt3__114__split_buffer
363:   OBJECT WEAK DEFAULT 18 _ZTVNSt3__119basic_ostrin
364:   FUNC GLOBAL DEFAULT 14 __addtf3
365:   FUNC WEAK DEFAULT 14 _ZNSt3__124__put_characte
366:   FUNC GLOBAL DEFAULT 14 _Z18adbd_auth_verifiedP10
367:   FUNC GLOBAL DEFAULT 14 _Z9AdbLoggerN7android4bas
368:   FUNC GLOBAL DEFAULT 14 _ZN10atransportD1Ev
369:   OBJECT WEAK DEFAULT 18 _ZTTNSt3__119basic_ostrin
370:   FUNC GLOBAL DEFAULT 14 _Z23getEmulatorSerialStri
371:   FUNC GLOBAL DEFAULT 14 qemu_pipe_frame_send
372:   FUNC GLOBAL DEFAULT 14 _Z29UsbNoPermissionsShort
373:   FUNC GLOBAL DEFAULT 14 _Z13errno_to_wirei
374:   FUNC WEAK DEFAULT 14 _ZNSt3__112__deque_baseIN
375:   FUNC GLOBAL DEFAULT 14 _Z14connect_deviceRKNSt3_
376:   FUNC GLOBAL DEFAULT 14 avb_sub_cmdline
377:   FUNC GLOBAL DEFAULT 14 avb_descriptor_validate_a
378:   FUNC WEAK DEFAULT 14 _ZNSt3__110__function6__f
379:   FUNC GLOBAL DEFAULT 14 _Z22register_usb_transpor
380:   FUNC GLOBAL DEFAULT 14 _Z14reboot_serviceN7andro
381:   FUNC GLOBAL DEFAULT 14 _Z8SendFailiNSt3__117basi
382:   FUNC GLOBAL DEFAULT 14 _Z6mkdirsRKNSt3__112basic
383:   FUNC GLOBAL DEFAULT 14 _ZN13UsbConnectionD2Ev
384:   FUNC WEAK DEFAULT 14 _ZNKSt3__110__function6__
385:   FUNC WEAK DEFAULT 14 _ZNSt3__112__hash_tableIN
386:   FUNC GLOBAL DEFAULT 14 avb_ops_user_new
387:   FUNC GLOBAL DEFAULT 14 avb_strcmp
388:   FUNC GLOBAL DEFAULT 14 _Z15fdevent_destroyP7fdev
389:   FUNC GLOBAL DEFAULT 14 _Z18register_transportP10
390:   OBJECT GLOBAL DEFAULT 18 kFeatureCmd
391:   FUNC WEAK DEFAULT 14 _ZNSt3__16vectorIN7androi
392:   FUNC WEAK DEFAULT 14 _ZNSt3__16vectorIiNS_9all
393:   FUNC GLOBAL DEFAULT 14 _Z14WriteFdExactlyiPKvm
394:   FUNC WEAK DEFAULT 14 _ZNSt3__110__function6__f
395:   FUNC GLOBAL DEFAULT 14 _Z19ReadOrderlyShutdowni
396:   FUNC WEAK DEFAULT 14 _ZNSt3__112__deque_baseIN
397:   FUNC WEAK DEFAULT 14 _ZNSt3__110__function6__f
398:   FUNC GLOBAL DEFAULT 14 __gttf2
399:   FUNC WEAK DEFAULT 14 _ZNKSt3__110__function6__
400:   OBJECT WEAK DEFAULT 18 _ZTVNSt3__110__function6_
401:   FUNC GLOBAL DEFAULT 14 _Z10escape_argRKNSt3__112
402:   FUNC GLOBAL DEFAULT 14 _Z20adb_get_homedir_pathv
403:   FUNC GLOBAL DEFAULT 14 _Z22fdevent_terminate_loo
404:   FUNC WEAK DEFAULT 14 _ZNSt3__112__hash_tableIN
405:   FUNC WEAK DEFAULT 14 _ZNSt3__114__split_buffer
406:   FUNC GLOBAL DEFAULT 14 _Z20daemon_service_to_fdN
407:   FUNC WEAK DEFAULT 14 _ZNSt3__16vectorIPKcNS_9a
408:   FUNC GLOBAL DEFAULT 14 _Z15StartSubprocessNSt3__
409:   FUNC GLOBAL DEFAULT 14 avb_ab_mark_slot_unbootab
410:   FUNC GLOBAL DEFAULT 14 _Z17update_transportsv
411:   FUNC WEAK DEFAULT 14 _ZNSt3__114__split_buffer
412:   OBJECT WEAK DEFAULT 18 _ZTVNSt3__120__shared_ptr
413:   FUNC GLOBAL DEFAULT 14 _Z22restart_unroot_servic
414:   FUNC GLOBAL DEFAULT 14 avb_hash_descriptor_valid
415:   FUNC GLOBAL DEFAULT 14 _Z11adb_versionv
416:   FUNC GLOBAL DEFAULT 14 _Z18socket_spec_listenNSt
417:   FUNC WEAK DEFAULT 14 _ZNSt3__112__hash_tableIN
418:   OBJECT GLOBAL DEFAULT 18 _ZTV10Connection
419:   FUNC WEAK DEFAULT 14 _ZNSt3__114__thread_proxy
420:   FUNC GLOBAL DEFAULT 14 _Z19restart_tcp_serviceN7
421:   FUNC GLOBAL DEFAULT 14 _ZN13ShellProtocolD1Ev
422:   FUNC WEAK DEFAULT 14 _ZNSt3__14listIP10atransp
423:   FUNC GLOBAL DEFAULT 14 _Z13local_connecti
424:   FUNC GLOBAL DEFAULT 14 _ZN13UsbConnectionD0Ev
425:   FUNC WEAK DEFAULT 14 _ZNSt3__114__thread_proxy
426:   FUNC GLOBAL DEFAULT 14 _Z19fdevent_set_timeoutP7
427:   FUNC WEAK DEFAULT 14 _ZNSt3__114__split_buffer
428:   FUNC GLOBAL DEFAULT 14 _ZNK10atransport20get_pro
429:   FUNC GLOBAL DEFAULT 14 __fe_raise_inexact
430:   FUNC WEAK DEFAULT 14 _ZNSt3__110__function6__f
431:   FUNC GLOBAL DEFAULT 14 avb_htobe64
432:   FUNC GLOBAL DEFAULT 14 _Z11send_packetP7apacketP
433:   FUNC GLOBAL DEFAULT 14 _ZN10atransport11SetFeatu
434:   FUNC GLOBAL DEFAULT 14 __netf2
435:   FUNC WEAK DEFAULT 14 _ZNKSt3__110__function6__
436:   FUNC GLOBAL DEFAULT 14 _Z11fdevent_delP7fdeventj
437:   FUNC GLOBAL DEFAULT 14 _Z23fdevent_installed_cou
438:   FUNC WEAK DEFAULT 14 _ZNSt3__114__thread_proxy
439:   FUNC WEAK DEFAULT 14 _ZNSt3__112__hash_tableIN
440:   FUNC GLOBAL DEFAULT 14 _ZN10atransport5ResetEv
441:   FUNC WEAK DEFAULT 14 _ZNSt3__15dequeINS_10uniq
442:   FUNC GLOBAL DEFAULT 14 _Z19restart_usb_serviceN7
443:   FUNC WEAK DEFAULT 14 _ZNSt3__110__function6__f
444:   FUNC GLOBAL DEFAULT 14 _Z14WriteFdExactlyiRKNSt3
445:   FUNC GLOBAL DEFAULT 14 avb_chain_partition_descr
446:   FUNC GLOBAL DEFAULT 14 _Z23network_loopback_clie
447:   FUNC GLOBAL DEFAULT 14 _Z17set_tcp_keepaliveii
448:   FUNC GLOBAL DEFAULT 14 _Z21create_service_thread
449:   FUNC GLOBAL DEFAULT 14 _Z26fdevent_run_on_main_t
450:   FUNC GLOBAL DEFAULT 14 avb_footer_validate_and_b
451:   FUNC GLOBAL DEFAULT 14 avb_vbmeta_image_header_t
452:   FUNC GLOBAL DEFAULT 14 avb_ab_mark_slot_successf
453:   FUNC GLOBAL DEFAULT 14 _Z22handle_forward_reques
454:   FUNC GLOBAL DEFAULT 14 _Z35adbd_notify_framework
455:   FUNC GLOBAL DEFAULT 14 _Z11fdevent_addP7fdeventj
456:   FUNC GLOBAL DEFAULT 14 _Z12parse_bannerRKNSt3__1
457:   FUNC GLOBAL DEFAULT 14 _ZN9alistenerD2Ev
458:   FUNC WEAK DEFAULT 14 _ZNKSt3__110__function6__
459:   FUNC WEAK DEFAULT 14 _ZNSt3__110__function6__f
460:   FUNC GLOBAL DEFAULT 14 _Z24adb_get_android_dir_p
461:   FUNC WEAK DEFAULT 14 _ZNSt3__112__hash_tableIN
462:   FUNC GLOBAL DEFAULT 14 _ZNK10atransport13Matches
463:   OBJECT GLOBAL DEFAULT 18 _ZTV13ShellProtocol
464:   FUNC WEAK DEFAULT 14 _ZNSt3__112__hash_tableIN
465:   FUNC WEAK DEFAULT 14 _ZNSt3__114__thread_proxy
466:   FUNC WEAK DEFAULT 14 _ZNSt3__114__split_buffer
467:   OBJECT GLOBAL DEFAULT 18 kFeatureFixedPushMkdir
468:   FUNC WEAK DEFAULT 14 _ZNKSt3__110__function6__
469:   FUNC GLOBAL DEFAULT 14 avb_add_root_digest_subst
470:   FUNC WEAK DEFAULT 14 _ZN7android4base9ParseUin
471:   FUNC GLOBAL DEFAULT 14 _ZN10atransport13SetConne
472:   FUNC GLOBAL DEFAULT 14 avb_kernel_cmdline_descri
473:   FUNC GLOBAL DEFAULT 14 avb_be32toh
474:   FUNC GLOBAL DEFAULT 14 _Z20remove_all_listenersv
475:   FUNC GLOBAL DEFAULT 14 __multf3
476:   FUNC GLOBAL DEFAULT 14 _Z15reverse_serviceNSt3__
477:   FUNC WEAK DEFAULT 14 _ZNSt3__110__function6__f
478:   FUNC GLOBAL DEFAULT 14 avb_slot_verify_data_free
479:   FUNC GLOBAL DEFAULT 14 _Z13ReadFdExactlyiPvm
480:   FUNC GLOBAL DEFAULT 14 _Z25create_jdwp_connectio
481:   FUNC GLOBAL DEFAULT 14 avb_ab_data_verify_and_by
482:   FUNC GLOBAL DEFAULT 14 _Z14fdevent_createiPFvijP
483:   FUNC GLOBAL DEFAULT 14 _ZNK7asocket15get_max_pay
484:   FUNC GLOBAL DEFAULT 14 avb_bin2hex
485:   OBJECT GLOBAL DEFAULT 18 kFeatureStat2
486:   FUNC WEAK DEFAULT 14 _ZNSt3__110__function6__f
487:   FUNC GLOBAL DEFAULT 14 _Z15network_connectRKNSt3
488:   FUNC GLOBAL DEFAULT 14 avb_htobe32
489:   FUNC WEAK DEFAULT 14 _ZNSt3__112__hash_tableIN
490:   FUNC WEAK DEFAULT 14 _ZNSt3__110__function6__f
491:   FUNC WEAK DEFAULT 14 _ZNSt3__112__hash_tableIN
492:   FUNC GLOBAL DEFAULT 14 _Z13service_to_fdNSt3__11
493:   FUNC GLOBAL DEFAULT 14 _ZN18ConnectionWaitable17
494:   FUNC GLOBAL DEFAULT 14 _Z11tcp_connectRKNSt3__11
495:   FUNC GLOBAL DEFAULT 14 _ZN13ShellProtocol5WriteE
496:   FUNC GLOBAL DEFAULT 14 avb_str_concat
497:   FUNC WEAK DEFAULT 14 _ZNSt3__112__deque_baseIN
498:   FUNC WEAK DEFAULT 14 _ZNSt3__114__split_buffer
499:   FUNC WEAK DEFAULT 14 _ZNSt3__110__function6__f
500:   FUNC WEAK DEFAULT 14 _ZNSt3__110__function6__f
501:   OBJECT WEAK DEFAULT 18 _ZTVNSt3__110__function6_
502:   FUNC GLOBAL DEFAULT 14 avb_sha256_init
503:   FUNC GLOBAL DEFAULT 14 avb_be64toh
504:   FUNC GLOBAL DEFAULT 14 avb_safe_add
505:   FUNC GLOBAL DEFAULT 14 avb_ab_data_write
506:   FUNC GLOBAL DEFAULT 14 _ZN10atransport24SetConne
507:   FUNC GLOBAL DEFAULT 14 _Z10local_initi
508:   FUNC WEAK DEFAULT 14 _ZNKSt3__110__function6__
509:   OBJECT GLOBAL DEFAULT 16 auth_required
510:   FUNC GLOBAL DEFAULT 14 _ZN10atransport16RemoveDi
511:   FUNC GLOBAL DEFAULT 14 __fe_getround
512:   FUNC GLOBAL DEFAULT 14 avb_ab_data_read
513:   FUNC GLOBAL DEFAULT 14 _Z10perror_strPKc
514:   FUNC GLOBAL DEFAULT 14 _Z12fdevent_loopv
515:   FUNC WEAK DEFAULT 14 _ZNKSt3__112__hash_tableI
516:   FUNC WEAK DEFAULT 14 _ZNSt3__16vectorI4iocbNS_
517:   FUNC GLOBAL DEFAULT 14 _Z17file_sync_serviceN7an
518:   FUNC GLOBAL DEFAULT 14 _Z11get_apacketv
519:   FUNC GLOBAL DEFAULT 14 _Z17send_auth_requestP10a
520:   FUNC GLOBAL DEFAULT 14 _Z14is_socket_specNSt3__1
521:   FUNC GLOBAL DEFAULT 14 _ZN13UsbConnection4ReadEP
522:   FUNC GLOBAL DEFAULT 14 avb_malloc_
523:   FUNC GLOBAL DEFAULT 14 _Z26calculate_apacket_che
524:   FUNC GLOBAL DEFAULT 14 _Z26get_trace_setting_fro
525:   FUNC GLOBAL DEFAULT 14 _Z11dump_headerPK8amessag
526:   FUNC GLOBAL DEFAULT 14 _Z15NextTransportIdv
527:   FUNC GLOBAL DEFAULT 14 _Z18SendProtocolStringiNS
528:   FUNC WEAK DEFAULT 14 _ZNKSt3__110__function6__
529:   FUNC GLOBAL DEFAULT 14 avb_slot_verify_data_calc
530:   FUNC GLOBAL DEFAULT 14 _Z21parse_tcp_socket_spec
531:   FUNC GLOBAL DEFAULT 14 _Z9usb_closeP10usb_handle
532:   FUNC WEAK DEFAULT 14 _ZNSt3__110__function6__f
533:   FUNC GLOBAL DEFAULT 14 _ZN13ShellProtocol4ReadEv
534:   FUNC GLOBAL DEFAULT 14 avb_slot_verify_result_to
535:   FUNC GLOBAL DEFAULT 14 avb_div_by_10
536:   FUNC GLOBAL DEFAULT 14 _Z16install_listenerRKNSt
537:   FUNC WEAK DEFAULT 14 _ZNKSt3__110__function6__
538:   FUNC WEAK DEFAULT 14 _ZNSt3__16vectorINS_12bas
539:   FUNC WEAK DEFAULT 14 _ZNSt3__110__function6__f
540:   FUNC WEAK DEFAULT 14 _ZNSt3__110__function6__f
541:   FUNC WEAK DEFAULT 14 _ZNSt3__110__function6__f
542:   FUNC GLOBAL DEFAULT 14 _Z23network_loopback_serv
543:   FUNC GLOBAL DEFAULT 14 _ZN25BlockingConnectionAd
544:   FUNC WEAK DEFAULT 14 _ZNSt3__16vectorI6pollfdN
545:   FUNC GLOBAL DEFAULT 14 _ZNK10atransport11has_fea
546:   OBJECT WEAK DEFAULT 18 _ZTV12SourceSocket
547:   FUNC GLOBAL DEFAULT 14 _ZN25BlockingConnectionAd
548:   FUNC WEAK DEFAULT 14 _ZNSt3__110__function6__f
549:   FUNC GLOBAL DEFAULT 14 avb_sha512_update
550:   FUNC GLOBAL DEFAULT 14 _ZN13UsbConnection5CloseE
551:   FUNC GLOBAL DEFAULT 14 _Z21get_connection_string
552:   FUNC GLOBAL DEFAULT 14 _Z11fdevent_setP7fdeventj
553:   FUNC GLOBAL DEFAULT 14 _Z20is_local_socket_specN
554:   FUNC GLOBAL DEFAULT 14 _ZN25BlockingConnectionAd
555:   OBJECT GLOBAL DEFAULT 18 kFeatureApex
556:   FUNC GLOBAL DEFAULT 14 _Z17create_usb_handlejj
557:   FUNC GLOBAL DEFAULT 14 _Z8dump_hexPKvm
558:   FUNC GLOBAL DEFAULT 14 avb_sha256_update
559:   FUNC WEAK DEFAULT 14 _ZNSt3__114__split_buffer
560:   FUNC GLOBAL DEFAULT 14 avb_malloc
561:   FUNC GLOBAL DEFAULT 14 _Z13handle_packetP7apacke
562:   FUNC GLOBAL DEFAULT 14 _Z9init_jdwpv
563:   FUNC WEAK DEFAULT 14 _ZNSt3__112__hash_tableIN
564:   FUNC GLOBAL DEFAULT 14 __letf2
565:   FUNC GLOBAL DEFAULT 14 _Z19socket_spec_connectPN
566:   FUNC GLOBAL DEFAULT 14 _Z13CanUseFeatureRKNSt3__
567:   FUNC GLOBAL DEFAULT 14 _Z22handle_forward_reques
568:   FUNC GLOBAL DEFAULT 14 avb_vbmeta_verify_result_
569:   OBJECT WEAK DEFAULT 18 _ZTVNSt3__110__function6_
570:   FUNC GLOBAL DEFAULT 14 _Z29local_connect_arbitra
571:   FUNC GLOBAL DEFAULT 14 avb_validate_utf8
572:   FUNC GLOBAL DEFAULT 14 _Z11close_stdinv
573:   FUNC WEAK DEFAULT 14 _ZNKSt3__115basic_stringb
574:   FUNC WEAK DEFAULT 14 _ZNSt3__15dequeINS_10uniq
575:   OBJECT WEAK DEFAULT 18 _ZTVNSt3__115basic_string
576:   FUNC WEAK DEFAULT 14 _ZNSt3__16vectorI8io_even
577:   FUNC GLOBAL DEFAULT 14 _Z18close_smartsocketsv
578:   FUNC GLOBAL DEFAULT 14 _Z15fdevent_releaseP7fdev
579:   OBJECT WEAK DEFAULT 18 _ZTVNSt3__120__shared_ptr
580:   FUNC GLOBAL DEFAULT 14 _Z18init_usb_transportP10
581:   FUNC WEAK DEFAULT 14 _ZNSt3__112__hash_tableIN
582:   FUNC GLOBAL DEFAULT 14 _Z14adb_trace_initPPc
583:   FUNC GLOBAL DEFAULT 14 _Z21StartCommandInProcess
584:   FUNC GLOBAL DEFAULT 14 _Z12send_connectP10atrans
585:   FUNC WEAK DEFAULT 14 _ZNSt3__112__hash_tableIN
586:   FUNC GLOBAL DEFAULT 14 avb_ab_mark_slot_active
587:   FUNC GLOBAL DEFAULT 14 _Z21acquire_one_transport
588:   FUNC WEAK DEFAULT 14 _ZNSt3__114__split_buffer
589:   FUNC WEAK DEFAULT 14 _ZNSt3__16vectorINS_10uni
590:   FUNC GLOBAL DEFAULT 14 _ZN10atransport18SetConne
591:   FUNC GLOBAL DEFAULT 14 _Z25forward_targets_are_v
592:   FUNC GLOBAL DEFAULT 14 _Z19kick_all_transportsv
593:   FUNC GLOBAL DEFAULT 14 _ZN10atransportD2Ev
594:   FUNC GLOBAL DEFAULT 14 _Z17should_use_libusbv
595:   FUNC GLOBAL DEFAULT 14 avb_get_algorithm_data
596:   FUNC GLOBAL DEFAULT 14 avb_ab_data_init
597:   FUNC GLOBAL DEFAULT 14 _ZN13ShellProtocolC1Ei
598:   FUNC GLOBAL DEFAULT 14 avb_abort
599:   FUNC GLOBAL DEFAULT 14 avb_ab_flow
600:   FUNC WEAK DEFAULT 14 _ZNSt3__14listIP7fdeventN
601:   FUNC WEAK DEFAULT 14 _ZNSt3__112__hash_tableIN
602:   FUNC GLOBAL DEFAULT 14 _Z14kick_transportP10atra
603:   FUNC GLOBAL DEFAULT 14 avb_user_verity_set
604:   FUNC GLOBAL DEFAULT 14 _Z20create_remote_socketj
605:   FUNC GLOBAL DEFAULT 14 _Z8SendOkayi
606:   OBJECT GLOBAL DEFAULT 18 kFeatureShell2
607:   FUNC GLOBAL DEFAULT 14 _Z20server_socket_threadN
608:   FUNC GLOBAL DEFAULT 14 _Z14WriteFdExactlyiPKc
609:   FUNC GLOBAL DEFAULT 14 _ZN10atransport13AddDisco
610:   FUNC WEAK DEFAULT 14 _ZNSt3__110__function6__f
611:   FUNC GLOBAL DEFAULT 14 _ZN13UsbConnection5ResetE
612:   FUNC GLOBAL DEFAULT 14 _Z11ReportError18Subproce
613:   FUNC GLOBAL DEFAULT 14 qemu_pipe_frame_recv
614:   FUNC GLOBAL DEFAULT 14 _ZNK10atransport15get_max
615:   FUNC GLOBAL DEFAULT 14 _Z18ReadProtocolStringiPN
616:   FUNC GLOBAL DEFAULT 14 _ZN10atransport9Reconnect
617:   FUNC GLOBAL DEFAULT 14 _ZN12FdConnection4ReadEP7
618:   FUNC GLOBAL DEFAULT 14 _ZN13UsbConnection5WriteE
619:   FUNC WEAK DEFAULT 14 _ZNKSt3__110__function6__
620:   FUNC WEAK DEFAULT 14 _ZNSt3__115basic_stringbu
621:   FUNC GLOBAL DEFAULT 14 _ZN10atransportD0Ev
622:   FUNC WEAK DEFAULT 14 _ZNSt3__115basic_stringbu
623:   FUNC WEAK DEFAULT 14 _ZNSt3__16vectorIP4iocbNS
624:   FUNC GLOBAL DEFAULT 14 _Z18supported_featuresv
625:   FUNC GLOBAL DEFAULT 14 _Z21adbd_auth_confirm_key
626:   FUNC GLOBAL DEFAULT 14 _Z14GetLogFilePathv
627:   FUNC WEAK DEFAULT 14 _ZNSt3__112__hash_tableIN
628:   OBJECT GLOBAL DEFAULT 16 os_desc_compat
629:   FUNC WEAK DEFAULT 14 _ZNSt3__110__function6__f
630:   FUNC WEAK DEFAULT 14 _ZNSt3__115basic_stringbu
631:   OBJECT WEAK DEFAULT 18 _ZTCNSt3__119basic_ostrin
632:   OBJECT WEAK DEFAULT 18 _ZTVNSt3__110__function6_
633:   FUNC GLOBAL DEFAULT 14 _ZNK10atransport18GetConn
634:   FUNC GLOBAL DEFAULT 14 _Z25register_socket_trans
635:   FUNC GLOBAL DEFAULT 14 _ZN13ShellProtocolD2Ev
636:   FUNC GLOBAL DEFAULT 14 avb_memcpy
637:   FUNC GLOBAL DEFAULT 14 _Z14fdevent_createiPFvP7f
638:   FUNC GLOBAL DEFAULT 14 _ZN13UsbConnectionD1Ev
639:   FUNC GLOBAL DEFAULT 14 avb_rsa_verify
640:   FUNC GLOBAL DEFAULT 14 avb_strstr
641:   FUNC GLOBAL DEFAULT 14 _Z22connect_to_smartsocke
642:   FUNC GLOBAL DEFAULT 14 _Z18StringToFeatureSetRKN
643:   OBJECT GLOBAL DEFAULT 18 _ZTV12FdConnection
644:   FUNC GLOBAL DEFAULT 14 __floatditf
645:   FUNC GLOBAL DEFAULT 14 _Z17use_qemu_goldfishv
646:   FUNC GLOBAL DEFAULT 14 __unordtf2
647:   FUNC GLOBAL DEFAULT 14 avb_hashtree_descriptor_v
648:   FUNC GLOBAL DEFAULT 14 avb_safe_memcmp
649:   FUNC GLOBAL DEFAULT 14 _Z11put_apacketP7apacket
650:   FUNC GLOBAL DEFAULT 14 _Z17close_all_socketsP10a
651:   OBJECT GLOBAL DEFAULT 18 _ZTV25BlockingConnectionA
652:   FUNC GLOBAL DEFAULT 14 avb_free
653:   FUNC GLOBAL DEFAULT 14 _Z19create_local_socketN7
654:   FUNC GLOBAL DEFAULT 14 _Z21init_socket_transport
655:   FUNC WEAK DEFAULT 14 _ZNSt3__114__split_buffer
656:   FUNC WEAK DEFAULT 14 _ZNSt3__120__shared_ptr_e
657:   FUNC GLOBAL DEFAULT 14 _Z17find_local_socketjj
658:   FUNC WEAK DEFAULT 14 _ZNSt3__115basic_stringbu
659:   FUNC GLOBAL DEFAULT 14 __getf2
660:   FUNC GLOBAL DEFAULT 14 _ZN13ShellProtocolD0Ev
661:   FUNC GLOBAL DEFAULT 14 _Z20suggest_run_adb_rooti
662:   FUNC GLOBAL DEFAULT 14 avb_memcmp
663:   FUNC WEAK DEFAULT 14 _ZNSt3__15dequeINS_10shar
664:   OBJECT GLOBAL DEFAULT 18 _ZTV13UsbConnection
665:   OBJECT WEAK DEFAULT 18 _ZTV10SinkSocket
666:   FUNC GLOBAL DEFAULT 14 _Z27create_local_service_
667:   FUNC GLOBAL DEFAULT 14 _ZN25BlockingConnectionAd
668:   OBJECT GLOBAL DEFAULT 18 kFeaturePushSync
669:   FUNC GLOBAL DEFAULT 14 _Z8usb_kickP10usb_handle
670:   OBJECT GLOBAL DEFAULT 16 kADBServiceType
671:   FUNC GLOBAL DEFAULT 14 avb_ab_flow_result_to_str
672:   FUNC GLOBAL DEFAULT 14 _Z17get_trace_settingv
673:   FUNC GLOBAL DEFAULT 14 _Z28UsbNoPermissionsLongH
674:   FUNC WEAK DEFAULT 14 _ZN7android4base4JoinINSt
675:   FUNC GLOBAL DEFAULT 14 _Z12ShellServiceNSt3__117
676:   FUNC WEAK DEFAULT 14 _ZNSt3__16vectorINS_12bas
677:   OBJECT GLOBAL DEFAULT 18 kFeatureLibusb
678:   OBJECT WEAK DEFAULT 18 _ZTVNSt3__110__function6_
679:   FUNC WEAK DEFAULT 14 _ZNSt3__16vectorINS_12bas
680:   FUNC GLOBAL DEFAULT 14 _Z13fdevent_resetv
681:   FUNC WEAK DEFAULT 14 _ZNSt3__15dequeINS_8funct
682:   FUNC GLOBAL DEFAULT 14 __cmptf2
683:   FUNC WEAK DEFAULT 14 _ZNSt3__110__function6__f
684:   FUNC GLOBAL DEFAULT 14 _ZN10atransport14update_v
685:   FUNC GLOBAL DEFAULT 14 _ZN10atransport4KickEv
686:   FUNC GLOBAL DEFAULT 14 _ZN25BlockingConnectionAd
687:   FUNC WEAK DEFAULT 14 _ZNKSt3__110__function6__
688:   FUNC GLOBAL DEFAULT 14 _ZN25BlockingConnectionAd
689:   FUNC GLOBAL DEFAULT 14 _Z16is_adb_interfaceiii
690:   FUNC GLOBAL DEFAULT 14 avb_sha512_final
691:   FUNC GLOBAL DEFAULT 14 _ZN9alistenerD1Ev
692:   FUNC WEAK DEFAULT 14 _ZNKSt3__110__function6__
693:   FUNC GLOBAL DEFAULT 14 avb_vbmeta_image_verify
694:   FUNC GLOBAL DEFAULT 14 _Z16adbd_auth_verifyPKcmR
695:   FUNC WEAK DEFAULT 14 _ZNSt3__120__shared_ptr_p
696:   FUNC GLOBAL DEFAULT 14 _Z15remount_serviceN7andr
697:   FUNC WEAK DEFAULT 14 _ZNKSt3__110__function6__
698:   OBJECT WEAK DEFAULT 18 _ZTV13ServiceSocket
699:   FUNC GLOBAL DEFAULT 14 avb_free_cmdline_subst_li
700:   FUNC GLOBAL DEFAULT 14 avb_safe_add_to
701:   FUNC GLOBAL DEFAULT 14 _Z18FeatureSetToStringRKN
702:   OBJECT GLOBAL DEFAULT 23 adb_trace_mask
703:   FUNC GLOBAL DEFAULT 14 _Z11perror_exitPKcz
704:   FUNC WEAK DEFAULT 14 _ZNSt3__15dequeINS_10shar
705:   FUNC GLOBAL DEFAULT 14 _ZN18ConnectionWaitable24
706:   FUNC GLOBAL DEFAULT 14 avb_sha512_init
707:   FUNC GLOBAL DEFAULT 14 avb_calloc
708:   FUNC GLOBAL DEFAULT 14 _Z12check_headerP7apacket
709:   FUNC GLOBAL DEFAULT 14 _Z27init_transport_regist
710:   FUNC WEAK DEFAULT 14 _ZNSt3__114__split_buffer
711:   FUNC GLOBAL DEFAULT 14 _Z8usb_readP10usb_handleP
712:   FUNC GLOBAL DEFAULT 14 _Z9usb_resetP10usb_handle
713:   FUNC GLOBAL DEFAULT 14 _Z13remove_socketP7asocke
714:   FUNC WEAK DEFAULT 14 _ZNSt3__16vectorIP7asocke
715:   FUNC GLOBAL DEFAULT 14 _Z15errno_from_wirei
716:   FUNC GLOBAL DEFAULT 14 _ZN10Connection5ResetEv
717:   OBJECT WEAK DEFAULT 18 _ZTVNSt3__120__shared_ptr
718:   OBJECT WEAK DEFAULT 18 _ZTVNSt3__110__function6_
719:   FUNC GLOBAL DEFAULT 14 avb_descriptor_get_all
720:   FUNC WEAK DEFAULT 14 _ZNSt3__112__hash_tableIN
721:   FUNC GLOBAL DEFAULT 14 _Z24adbd_cloexec_auth_soc
722:   FUNC GLOBAL DEFAULT 14 _Z34create_jdwp_tracker_s
723:   FUNC WEAK DEFAULT 14 _ZNSt3__110__function6__f
724:   FUNC GLOBAL DEFAULT 14 _Z19set_file_block_modeib
725:   FUNC WEAK DEFAULT 14 _ZNSt3__120__shared_ptr_p
726:   FUNC GLOBAL DEFAULT 14 _ZN10atransport5WriteEP7a
727:   FUNC GLOBAL DEFAULT 14 _Z15set_main_threadv
728:   OBJECT GLOBAL DEFAULT 23 gListenAll
729:   FUNC WEAK DEFAULT 14 _ZNSt3__114__split_buffer
730:   FUNC GLOBAL DEFAULT 14 avb_new_cmdline_subst_lis
731:   FUNC GLOBAL DEFAULT 14 _Z20install_local_socketP
732:   FUNC WEAK DEFAULT 14 _ZNSt3__112__hash_tableIN
733:   FUNC GLOBAL DEFAULT 14 _ZN12FdConnection5WriteEP
734:   FUNC WEAK DEFAULT 14 _ZNSt3__112__hash_tableIN
735:   FUNC WEAK DEFAULT 14 _ZNSt3__114__thread_proxy
736:   FUNC GLOBAL DEFAULT 14 _Z19framebuffer_serviceN7
737:   FUNC GLOBAL DEFAULT 14 avb_append_options
738:   FUNC GLOBAL DEFAULT 14 avb_descriptor_foreach
739:   FUNC GLOBAL DEFAULT 14 avb_basename
740:   FUNC GLOBAL DEFAULT 14 avb_print
741:   FUNC GLOBAL DEFAULT 14 avb_printv
742:   FUNC GLOBAL DEFAULT 14 _Z17connect_to_remoteP7as
743:   FUNC GLOBAL DEFAULT 14 _ZN9alistenerC1ERKNSt3__1
744:   FUNC GLOBAL DEFAULT 14 _Z10error_exitPKcz
745:   FUNC WEAK DEFAULT 14 _ZNKSt3__110__function6__
