 0x0000000e (SONAME)                     Library soname: [libdl_android.so]
  
Symbol   contains 17 entries:
Num:   Type Bind Vis Ndx Name
0:   NOTYPE LOCAL DEFAULT UND
1:   FUNC WEAK DEFAULT UND __loader_android_create_n
2:   FUNC WEAK DEFAULT UND __loader_android_dlwarnin
3:   FUNC WEAK DEFAULT UND __loader_android_get_LD_L
4:   FUNC WEAK DEFAULT UND __loader_android_get_expo
5:   FUNC WEAK DEFAULT UND __loader_android_init_ano
6:   FUNC WEAK DEFAULT UND __loader_android_link_nam
7:   FUNC WEAK DEFAULT UND __loader_android_set_appl
8:   FUNC WEAK DEFAULT UND __loader_android_update_L
9:   FUNC WEAK DEFAULT 9 android_get_LD_LIBRARY_PA@@LIBDL_ANDROID
10:   FUNC WEAK DEFAULT 9 android_link_namespaces@@LIBDL_ANDROID
11:   FUNC WEAK DEFAULT 9 android_set_application_t@@LIBDL_ANDROID
12:   FUNC WEAK DEFAULT 9 android_create_namespace@@LIBDL_ANDROID
13:   FUNC WEAK DEFAULT 9 android_dlwarning@@LIBDL_ANDROID
14:   FUNC WEAK DEFAULT 9 android_get_exported_name@@LIBDL_ANDROID
15:   FUNC WEAK DEFAULT 9 android_init_anonymous_na@@LIBDL_ANDROID
16:   FUNC WEAK DEFAULT 9 android_update_LD_LIBRARY@@LIBDL_ANDROID
