 0x000000000000000e (SONAME)             Library soname: [libbacktrace.so]
  
Symbol   contains 242 entries:
Num:   Type Bind Vis Ndx Name
0:   NOTYPE LOCAL DEFAULT UND
1:   FUNC GLOBAL DEFAULT UND __cxa_finalize@LIBC (2)
2:   FUNC GLOBAL DEFAULT UND _ZN7android4base12StringP
3:   FUNC GLOBAL DEFAULT UND _ZN7android4base16ReadFil
4:   FUNC GLOBAL DEFAULT UND _ZNSt3__112basic_stringIc
5:   FUNC GLOBAL DEFAULT UND _ZNSt3__112basic_stringIc
6:   FUNC GLOBAL DEFAULT UND _ZNSt3__112basic_stringIc
7:   FUNC GLOBAL DEFAULT UND _ZNSt3__112basic_stringIc
8:   FUNC GLOBAL DEFAULT UND _ZNSt3__112basic_stringIc
9:   FUNC GLOBAL DEFAULT UND _ZNSt3__19to_stringEi
10:   FUNC GLOBAL DEFAULT UND _ZdlPv
11:   FUNC GLOBAL DEFAULT UND _Znwm
12:   FUNC GLOBAL DEFAULT UND __stack_chk_fail@LIBC (2)
13:   FUNC GLOBAL DEFAULT UND abort@LIBC (2)
14:   FUNC GLOBAL DEFAULT UND getpid@LIBC (2)
15:   FUNC GLOBAL DEFAULT UND isxdigit@LIBC (2)
16:   FUNC GLOBAL DEFAULT UND memmove@LIBC (2)
17:   FUNC GLOBAL DEFAULT UND strchr@LIBC (2)
18:   FUNC GLOBAL DEFAULT UND strtoull@LIBC (2)
19:   FUNC GLOBAL DEFAULT UND _ZN7android4base11GetThre
20:   FUNC GLOBAL DEFAULT UND _ZNSt3__112basic_stringIc
21:   FUNC GLOBAL DEFAULT UND _ZNSt3__112basic_stringIc
22:   FUNC GLOBAL DEFAULT UND _ZNSt3__112basic_stringIc
23:   FUNC GLOBAL DEFAULT UND _ZNSt3__1plIcNS_11char_tr
24:   FUNC GLOBAL DEFAULT UND __android_log_print@LIBLOG (3)
25:   FUNC GLOBAL DEFAULT UND __cxa_pure_virtual
26:   FUNC GLOBAL DEFAULT UND _ZNKSt3__112basic_stringI
27:   FUNC GLOBAL DEFAULT UND _ZNKSt3__121__basic_strin
28:   FUNC GLOBAL DEFAULT UND __errno@LIBC (2)
29:   FUNC GLOBAL DEFAULT UND __gnu_basename@LIBC (2)
30:   FUNC GLOBAL DEFAULT UND memcpy@LIBC (2)
31:   FUNC GLOBAL DEFAULT UND pthread_mutex_lock@LIBC (2)
32:   FUNC GLOBAL DEFAULT UND pthread_mutex_unlock@LIBC (2)
33:   FUNC GLOBAL DEFAULT UND sigaction@LIBC (2)
34:   FUNC GLOBAL DEFAULT UND sigemptyset@LIBC (2)
35:   FUNC GLOBAL DEFAULT UND strerror@LIBC (2)
36:   FUNC GLOBAL DEFAULT UND strlen@LIBC (2)
37:   FUNC GLOBAL DEFAULT UND tgkill@LIBC (2)
38:   FUNC GLOBAL DEFAULT UND ptrace@LIBC (2)
39:   FUNC GLOBAL DEFAULT UND clock_gettime@LIBC (2)
40:   FUNC GLOBAL DEFAULT UND pthread_cond_destroy@LIBC (2)
41:   FUNC GLOBAL DEFAULT UND pthread_cond_init@LIBC (2)
42:   FUNC GLOBAL DEFAULT UND pthread_cond_signal@LIBC (2)
43:   FUNC GLOBAL DEFAULT UND pthread_cond_timedwait@LIBC (2)
44:   FUNC GLOBAL DEFAULT UND pthread_condattr_init@LIBC (2)
45:   FUNC GLOBAL DEFAULT UND pthread_condattr_setclock@LIBC (2)
46:   FUNC GLOBAL DEFAULT UND _ZN11unwindstack12MemoryR
47:   FUNC GLOBAL DEFAULT UND _ZN11unwindstack3Elf17Set
48:   FUNC GLOBAL DEFAULT UND _ZN11unwindstack4Regs11Cu
49:   FUNC GLOBAL DEFAULT UND _ZN11unwindstack4Regs15Cr
50:   FUNC GLOBAL DEFAULT UND _ZN11unwindstack4Regs18Cr
51:   FUNC GLOBAL DEFAULT UND _ZN11unwindstack4Regs9Rem
52:   FUNC GLOBAL DEFAULT UND _ZN11unwindstack8Unwinder
53:   FUNC GLOBAL DEFAULT UND _ZN11unwindstack8Unwinder
54:   FUNC GLOBAL DEFAULT UND _ZN11unwindstack8Unwinder
55:   FUNC GLOBAL DEFAULT UND _ZNKSt3__120__vector_base
56:   FUNC GLOBAL DEFAULT UND _ZNKSt3__120__vector_base
57:   FUNC GLOBAL DEFAULT UND _ZNSt3__119__shared_weak_
58:   OBJECT GLOBAL DEFAULT UND _ZTVN11unwindstack12Memor
59:   FUNC GLOBAL DEFAULT UND memset@LIBC (2)
60:   FUNC GLOBAL DEFAULT UND _ZN11unwindstack19MemoryO
61:   FUNC GLOBAL DEFAULT UND _ZN11unwindstack19MemoryO
62:   FUNC GLOBAL DEFAULT UND _ZN11unwindstack3Elf15Get
63:   FUNC GLOBAL DEFAULT UND _ZN11unwindstack3Elf8GetR
64:   FUNC GLOBAL DEFAULT UND _ZN11unwindstack4Maps3Add
65:   FUNC GLOBAL DEFAULT UND _ZN11unwindstack4Maps4Fin
66:   FUNC GLOBAL DEFAULT UND _ZN11unwindstack4Maps5Par
67:   FUNC GLOBAL DEFAULT UND _ZN11unwindstack6Memory19
68:   FUNC GLOBAL DEFAULT UND _ZN11unwindstack7MapInfo1
69:   FUNC GLOBAL DEFAULT UND _ZN11unwindstack7MapInfo6
70:   FUNC GLOBAL DEFAULT UND _ZN11unwindstack7MapInfoD
71:   FUNC GLOBAL DEFAULT UND _ZN11unwindstack8DexFiles
72:   FUNC GLOBAL DEFAULT UND _ZN11unwindstack8JitDebug
73:   FUNC GLOBAL DEFAULT UND _ZNK11unwindstack10Remote
74:   FUNC GLOBAL DEFAULT UND _ZNKSt3__119__shared_weak
75:   FUNC GLOBAL DEFAULT UND _ZNSt3__119__shared_weak_
76:   OBJECT GLOBAL DEFAULT UND _ZTVN11unwindstack10Remot
77:   OBJECT GLOBAL DEFAULT UND _ZTVN11unwindstack4MapsE
78:   FUNC GLOBAL DEFAULT UND _ZNSt3__112basic_stringIc
79:   FUNC GLOBAL DEFAULT UND __memcpy_chk@LIBC (2)
80:   FUNC GLOBAL DEFAULT UND islower@LIBC (2)
81:   FUNC GLOBAL DEFAULT UND isupper@LIBC (2)
82:   FUNC GLOBAL DEFAULT UND strcmp@LIBC (2)
83:   FUNC GLOBAL DEFAULT UND strtoul@LIBC (2)
84:   FUNC GLOBAL DEFAULT UND __assert@LIBC (2)
85:   FUNC GLOBAL DEFAULT UND __strlcpy_chk@LIBC (2)
86:   FUNC GLOBAL DEFAULT UND __strlen_chk@LIBC (2)
87:   FUNC GLOBAL DEFAULT UND android_set_abort_message@LIBC (2)
88:   FUNC GLOBAL DEFAULT UND connect@LIBC (2)
89:   FUNC GLOBAL DEFAULT UND gettid@LIBC (2)
90:   FUNC GLOBAL DEFAULT UND socket@LIBC (2)
91:   FUNC GLOBAL DEFAULT UND syscall@LIBC (2)
92:   FUNC GLOBAL DEFAULT UND write@LIBC (2)
93:   FUNC GLOBAL DEFAULT UND writev@LIBC (2)
94:   FUNC WEAK DEFAULT 14 _ZNSt3__114__split_buffer
95:   FUNC GLOBAL DEFAULT 14 _ZN14UnwindStackMapC2Ei
96:   FUNC GLOBAL DEFAULT 14 _ZN9Demangler18ParseCompl
97:   FUNC WEAK DEFAULT 14 _ZNSt3__16vectorINS_12bas
98:   FUNC GLOBAL DEFAULT 14 _ZN9BacktraceD0Ev
99:   FUNC GLOBAL DEFAULT 14 _ZN9Demangler13AppendCurr
100:   FUNC GLOBAL DEFAULT 14 _ZN11ThreadEntry4WakeEv
101:   FUNC GLOBAL DEFAULT 14 _ZN16BacktraceCurrent6Unw
102:   FUNC GLOBAL DEFAULT 14 _ZN16BacktraceCurrent8Rea
103:   FUNC GLOBAL DEFAULT 14 _ZN9Demangler16FindFuncti
104:   FUNC WEAK DEFAULT 14 _ZNSt3__114__split_buffer
105:   FUNC GLOBAL DEFAULT 14 _ZN9Demangler5ParseEPKcm
106:   OBJECT WEAK DEFAULT 18 _ZN9Demangler6kTypesE
107:   FUNC WEAK DEFAULT 14 _ZNSt3__114__split_buffer
108:   FUNC WEAK DEFAULT 14 _ZNSt3__114__split_buffer
109:   FUNC GLOBAL DEFAULT 14 _ZN11ThreadEntry26CopyUco
110:   FUNC GLOBAL DEFAULT 14 _ZN18UnwindStackCurrent17
111:   FUNC GLOBAL DEFAULT 14 _ZN18UnwindStackOfflineC2
112:   FUNC GLOBAL DEFAULT 14 _ZN9Demangler24ParseArgum
113:   FUNC WEAK DEFAULT 14 _ZNSt3__1plIcNS_11char_tr
114:   FUNC GLOBAL DEFAULT 14 async_safe_format_fd_va_l
115:   FUNC GLOBAL DEFAULT 14 _ZN18UnwindStackCurrentC1
116:   FUNC GLOBAL DEFAULT 14 _ZN15BacktracePtrace8Read
117:   FUNC GLOBAL DEFAULT 14 _ZN18UnwindStackCurrent18
118:   FUNC WEAK DEFAULT 14 _ZNSt3__120__shared_ptr_p
119:   FUNC GLOBAL DEFAULT 14 _Z8demanglePKc
120:   FUNC GLOBAL DEFAULT 14 _ZN9Backtrace6CreateEiiP1
121:   FUNC WEAK DEFAULT 14 _ZNSt3__15dequeI15backtra
122:   FUNC GLOBAL DEFAULT 14 _ZN12BacktraceMapC2Ei
123:   OBJECT GLOBAL DEFAULT 18 _ZTV9Backtrace
124:   FUNC GLOBAL DEFAULT 14 _ZN11ThreadEntryC2Eii
125:   OBJECT WEAK DEFAULT 18 _ZN9Demangler7kDTypesE
126:   FUNC WEAK DEFAULT 14 _ZNSt3__114__split_buffer
127:   FUNC WEAK DEFAULT 14 _ZNSt3__114__split_buffer
128:   FUNC GLOBAL DEFAULT 14 _ZN9Backtrace14GetErrorSt
129:   FUNC GLOBAL DEFAULT 14 _ZN16BacktraceCurrent12Di
130:   FUNC GLOBAL DEFAULT 14 _ZN15BacktracePtrace4Read
131:   FUNC GLOBAL DEFAULT 14 _ZN18UnwindStackCurrentC2
132:   FUNC WEAK DEFAULT 14 _ZNSt3__15dequeIN9Demangl
133:   FUNC GLOBAL DEFAULT 14 _ZN9BacktraceC2EiiP12Back
134:   OBJECT GLOBAL DEFAULT 22 _ZN11ThreadEntry5list_E
135:   FUNC GLOBAL DEFAULT 14 _ZN11ThreadEntryD1Ev
136:   FUNC GLOBAL DEFAULT 14 _ZN9Demangler17ParseFunct
137:   FUNC GLOBAL DEFAULT 14 _ZN9Demangler19GetStringF
138:   FUNC GLOBAL DEFAULT 14 _ZN12BacktraceMap13Create
139:   FUNC GLOBAL DEFAULT 14 _ZN14UnwindStackMap6FillI
140:   FUNC GLOBAL DEFAULT 14 _ZN21UnwindStackOfflineMa
141:   FUNC GLOBAL DEFAULT 14 _ZN11ThreadEntry3GetEiib
142:   OBJECT GLOBAL DEFAULT 18 _ZTV18UnwindStackOffline
143:   FUNC GLOBAL DEFAULT 14 _ZN9Demangler29ParseTempl
144:   FUNC WEAK DEFAULT 14 _ZNSt3__16vectorINS_12bas
145:   FUNC GLOBAL DEFAULT 14 _ZN16BacktraceCurrent4Rea
146:   FUNC GLOBAL DEFAULT 14 _ZN9Demangler16FinalizeTe
147:   FUNC GLOBAL DEFAULT 14 _ZN9Demangler20ParseCompl
148:   FUNC GLOBAL DEFAULT 14 _ZN9Demangler4SaveERKNSt3
149:   FUNC GLOBAL DEFAULT 14 async_safe_fatal_va_list
150:   FUNC GLOBAL DEFAULT 14 async_safe_format_fd
151:   FUNC GLOBAL DEFAULT 14 _ZN12BacktraceMapD1Ev
152:   OBJECT GLOBAL DEFAULT 18 _ZTV12BacktraceMap
153:   FUNC GLOBAL DEFAULT 14 _ZN18UnwindStackOffline6U
154:   OBJECT WEAK DEFAULT 18 _ZTVN11unwindstack9LocalM
155:   FUNC WEAK DEFAULT 14 _ZNSt3__114__split_buffer
156:   FUNC GLOBAL DEFAULT 14 async_safe_write_log
157:   FUNC GLOBAL DEFAULT 14 _ZNK15backtrace_map_t4Nam
158:   FUNC WEAK DEFAULT 14 _ZNSt3__16vectorIM9Demang
159:   FUNC GLOBAL DEFAULT 14 _ZN18UnwindStackOffline4R
160:   FUNC GLOBAL DEFAULT 14 _ZN18UnwindStackOffline8R
161:   FUNC GLOBAL DEFAULT 14 _ZN9Backtrace13CreateOffl
162:   FUNC GLOBAL DEFAULT 14 _ZN14UnwindStackMap15GetF
163:   FUNC GLOBAL DEFAULT 14 _ZN21UnwindStackOfflineMa
164:   FUNC WEAK DEFAULT 14 _ZNSt3__112__deque_baseI1
165:   FUNC GLOBAL DEFAULT 14 _ZN9BacktraceD1Ev
166:   FUNC GLOBAL DEFAULT 14 async_safe_format_log
167:   FUNC GLOBAL DEFAULT 14 _ZN14UnwindStackMap5Build
168:   FUNC GLOBAL DEFAULT 14 _ZN9Demangler14ParseArgum
169:   FUNC GLOBAL DEFAULT 14 _ZN17UnwindStackPtrace6Un
170:   OBJECT GLOBAL DEFAULT 18 _ZTV14UnwindStackMap
171:   FUNC GLOBAL DEFAULT 14 _ZN12BacktraceMap5BuildEv
172:   FUNC GLOBAL DEFAULT 14 _ZN21UnwindStackOfflineMa
173:   OBJECT WEAK DEFAULT 18 _ZTVN11unwindstack8Unwind
174:   FUNC GLOBAL DEFAULT 14 _ZN9Demangler14AppendArgu
175:   FUNC GLOBAL DEFAULT 14 _ZN9Demangler22ParseTempl
176:   FUNC WEAK DEFAULT 14 _ZNSt3__16vectorINS_12bas
177:   FUNC GLOBAL DEFAULT 14 _ZN14UnwindStackMapC1Ei
178:   FUNC GLOBAL DEFAULT 14 _ZN9Demangler18GetArgumen
179:   FUNC GLOBAL DEFAULT 14 _ZN9Backtrace15GetFunctio
180:   FUNC GLOBAL DEFAULT 14 _ZN14UnwindStackMap11GetL
181:   FUNC GLOBAL DEFAULT 14 _ZN9Backtrace6UnwindEPN11
182:   FUNC GLOBAL DEFAULT 14 _ZN11ThreadEntry6RemoveEP
183:   FUNC GLOBAL DEFAULT 14 _ZN17UnwindStackPtraceC2E
184:   FUNC GLOBAL DEFAULT 14 _ZN18UnwindStackOfflineC1
185:   OBJECT GLOBAL DEFAULT 18 _ZTV18UnwindStackCurrent
186:   FUNC GLOBAL DEFAULT 14 _ZN12BacktraceMap6CreateE
187:   FUNC GLOBAL DEFAULT 14 _ZN9Backtrace15FormatFram
188:   FUNC GLOBAL DEFAULT 14 _ZN11ThreadEntry4WaitEi
189:   FUNC GLOBAL DEFAULT 14 _ZN16BacktraceCurrent12Un
190:   FUNC GLOBAL DEFAULT 14 _ZN9Backtrace9FillInMapEm
191:   OBJECT GLOBAL DEFAULT 18 _ZTV15BacktracePtrace
192:   FUNC GLOBAL DEFAULT 14 _ZN11ThreadEntryD2Ev
193:   FUNC GLOBAL DEFAULT 14 _ZN9Backtrace17SetGlobalE
194:   FUNC WEAK DEFAULT 14 _ZNSt3__16vectorIN11unwin
195:   FUNC WEAK DEFAULT 14 _ZNSt3__120__shared_ptr_p
196:   OBJECT WEAK DEFAULT 18 _ZTVNSt3__120__shared_ptr
197:   FUNC GLOBAL DEFAULT 14 async_safe_fatal_no_abort
198:   FUNC WEAK DEFAULT 14 _ZN7android8procinfo18Rea
199:   FUNC WEAK DEFAULT 14 _ZNSt3__114__split_buffer
200:   FUNC WEAK DEFAULT 14 _ZNSt3__15dequeI15backtra
201:   FUNC WEAK DEFAULT 14 _ZNSt3__112__deque_baseIN
202:   FUNC GLOBAL DEFAULT 14 _ZN17UnwindStackPtraceC1E
203:   FUNC GLOBAL DEFAULT 14 _ZN9Backtrace13UnwindOffl
204:   FUNC GLOBAL DEFAULT 14 _ZN9Demangler25ParseFunct
205:   FUNC GLOBAL DEFAULT 14 _ZN12BacktraceMapC1Ei
206:   FUNC WEAK DEFAULT 14 _ZNSt3__15dequeI15backtra
207:   OBJECT GLOBAL DEFAULT 18 _ZTV17UnwindStackPtrace
208:   FUNC GLOBAL DEFAULT 14 _ZN9Demangler20AppendOper
209:   FUNC GLOBAL DEFAULT 14 _ZN9Demangler21ParseFunct
210:   FUNC GLOBAL DEFAULT 14 async_safe_format_log_va_
211:   FUNC GLOBAL DEFAULT 14 _ZN9Backtrace15FormatFram
212:   FUNC GLOBAL DEFAULT 14 _ZN14UnwindStackMap16GetP
213:   FUNC GLOBAL DEFAULT 14 _ZN9Demangler6ParseTEPKc
214:   OBJECT WEAK DEFAULT 18 _ZN9Demangler7kSTypesE
215:   FUNC GLOBAL DEFAULT 14 async_safe_format_buffer_
216:   FUNC GLOBAL DEFAULT 14 _ZN12BacktraceMapD2Ev
217:   FUNC GLOBAL DEFAULT 14 _ZN9Backtrace18VerifyRead
218:   OBJECT GLOBAL DEFAULT 22 _ZN11ThreadEntry11list_mu
219:   FUNC GLOBAL DEFAULT 14 _ZN21UnwindStackOfflineMa
220:   FUNC GLOBAL DEFAULT 14 _ZN9Demangler20ParseTempl
221:   FUNC WEAK DEFAULT 14 _ZNSt3__1plIcNS_11char_tr
222:   OBJECT GLOBAL DEFAULT 18 _ZTV16BacktraceCurrent
223:   FUNC GLOBAL DEFAULT 14 _ZN9Demangler13AppendCurr
224:   FUNC GLOBAL DEFAULT 14 async_safe_format_buffer
225:   FUNC GLOBAL DEFAULT 14 _ZN18UnwindStackOffline18
226:   FUNC GLOBAL DEFAULT 14 _ZN9Backtrace13CreateOffl
227:   FUNC WEAK DEFAULT 14 _ZNSt3__16vectorI22backtr
228:   FUNC GLOBAL DEFAULT 14 _ZN21UnwindStackOfflineMa
229:   FUNC GLOBAL DEFAULT 14 _ZN9Demangler6ParseSEPKc
230:   FUNC GLOBAL DEFAULT 14 _ZN9BacktraceD2Ev
231:   FUNC WEAK DEFAULT 14 _ZNSt3__16vectorIM9Demang
232:   FUNC GLOBAL DEFAULT 14 _ZN12BacktraceMap6FillInE
233:   FUNC WEAK DEFAULT 14 _ZNSt3__15dequeI15backtra
234:   FUNC GLOBAL DEFAULT 14 _ZN11ThreadEntryC1Eii
235:   FUNC GLOBAL DEFAULT 14 _ZN17UnwindStackPtrace18G
236:   FUNC GLOBAL DEFAULT 14 _ZN17UnwindStackPtrace4Re
237:   OBJECT GLOBAL DEFAULT 18 _ZTV21UnwindStackOfflineM
238:   FUNC GLOBAL DEFAULT 14 _ZN9Demangler30ParseFunct
239:   FUNC WEAK DEFAULT 14 _ZNSt3__1plIcNS_11char_tr
240:   FUNC GLOBAL DEFAULT 14 _ZN12BacktraceMapD0Ev
241:   FUNC WEAK DEFAULT 14 _ZNSt3__16vectorINS_12bas
