 0x000000000000000e (SONAME)             Library soname: [libunwindstack.so]
  
Symbol   contains 796 entries:
Num:   Type Bind Vis Ndx Name
0:   NOTYPE LOCAL DEFAULT UND
1:   FUNC GLOBAL DEFAULT UND __cxa_finalize@LIBC (2)
2:   FUNC GLOBAL DEFAULT UND _ZN7android4base12StringP
3:   FUNC GLOBAL DEFAULT UND _ZNSt3__112basic_stringIc
4:   FUNC GLOBAL DEFAULT UND _ZNSt3__112basic_stringIc
5:   FUNC GLOBAL DEFAULT UND _ZdlPv
6:   FUNC GLOBAL DEFAULT UND _Znwm
7:   FUNC GLOBAL DEFAULT UND __stack_chk_fail@LIBC (2)
8:   FUNC GLOBAL DEFAULT UND abort@LIBC (2)
9:   FUNC GLOBAL DEFAULT UND memmove@LIBC (2)
10:   FUNC GLOBAL DEFAULT UND _ZNKSt3__120__vector_base
11:   FUNC GLOBAL DEFAULT UND _ZNKSt3__121__basic_strin
12:   FUNC GLOBAL DEFAULT UND _ZNSt3__112__next_primeEm
13:   FUNC GLOBAL DEFAULT UND _ZNSt3__112basic_stringIc
14:   FUNC GLOBAL DEFAULT UND _ZNSt3__112basic_stringIc
15:   FUNC GLOBAL DEFAULT UND _ZNSt3__19to_stringEi
16:   FUNC GLOBAL DEFAULT UND _ZNSt3__19to_stringEl
17:   FUNC GLOBAL DEFAULT UND _ZNSt3__19to_stringEm
18:   FUNC GLOBAL DEFAULT UND memcpy@LIBC (2)
19:   FUNC GLOBAL DEFAULT UND strlen@LIBC (2)
20:   FUNC GLOBAL DEFAULT UND __cxa_pure_virtual
21:   FUNC GLOBAL DEFAULT UND _ZNSt3__112basic_stringIc
22:   FUNC GLOBAL DEFAULT UND _ZNSt3__112basic_stringIc
23:   FUNC GLOBAL DEFAULT UND _ZNSt3__112basic_stringIc
24:   FUNC GLOBAL DEFAULT UND _ZNSt3__119__shared_weak_
25:   FUNC GLOBAL DEFAULT UND _ZNSt3__15mutex4lockEv
26:   FUNC GLOBAL DEFAULT UND _ZNSt3__15mutex6unlockEv
27:   FUNC GLOBAL DEFAULT UND _ZNSt3__15mutexD1Ev
28:   FUNC GLOBAL DEFAULT UND __android_log_print@LIBLOG (3)
29:   FUNC GLOBAL DEFAULT UND memcmp@LIBC (2)
30:   FUNC GLOBAL DEFAULT UND Crc64GenerateTable
31:   FUNC GLOBAL DEFAULT UND CrcGenerateTable
32:   FUNC GLOBAL DEFAULT UND XzUnpacker_Code
33:   FUNC GLOBAL DEFAULT UND XzUnpacker_Construct
34:   FUNC GLOBAL DEFAULT UND XzUnpacker_Free
35:   FUNC GLOBAL DEFAULT UND XzUnpacker_IsStreamWasFin
36:   FUNC GLOBAL DEFAULT UND _ZNKSt3__112basic_stringI
37:   FUNC GLOBAL DEFAULT UND _ZNSt3__112basic_stringIc
38:   FUNC GLOBAL DEFAULT UND free@LIBC (2)
39:   FUNC GLOBAL DEFAULT UND malloc@LIBC (2)
40:   FUNC GLOBAL DEFAULT UND memset@LIBC (2)
41:   FUNC GLOBAL DEFAULT UND __gnu_basename@LIBC (2)
42:   FUNC GLOBAL DEFAULT UND __android_log_vprint@LIBLOG (3)
43:   FUNC GLOBAL DEFAULT UND vprintf@LIBC (2)
44:   FUNC GLOBAL DEFAULT UND _ZNKSt3__119__shared_weak
45:   FUNC GLOBAL DEFAULT UND _ZNSt3__119__shared_weak_
46:   FUNC GLOBAL DEFAULT UND _ZN7android4base16ReadFil
47:   FUNC GLOBAL DEFAULT UND isxdigit@LIBC (2)
48:   FUNC GLOBAL DEFAULT UND strchr@LIBC (2)
49:   FUNC GLOBAL DEFAULT UND strncmp@LIBC (2)
50:   FUNC GLOBAL DEFAULT UND strtoull@LIBC (2)
51:   FUNC GLOBAL DEFAULT UND __errno@LIBC (2)
52:   FUNC GLOBAL DEFAULT UND __open_2@LIBC (2)
53:   FUNC WEAK DEFAULT UND android_fdsan_close_with_@LIBC_Q (4)
54:   FUNC WEAK DEFAULT UND android_fdsan_create_owne@LIBC_Q (4)
55:   FUNC WEAK DEFAULT UND android_fdsan_exchange_ow@LIBC_Q (4)
56:   FUNC GLOBAL DEFAULT UND close@LIBC (2)
57:   FUNC GLOBAL DEFAULT UND fstat@LIBC (2)
58:   FUNC GLOBAL DEFAULT UND getpagesize@LIBC (2)
59:   FUNC GLOBAL DEFAULT UND getpid@LIBC (2)
60:   FUNC GLOBAL DEFAULT UND mmap@LIBC (2)
61:   FUNC GLOBAL DEFAULT UND munmap@LIBC (2)
62:   FUNC GLOBAL DEFAULT UND process_vm_readv@LIBC (2)
63:   FUNC GLOBAL DEFAULT UND ptrace@LIBC (2)
64:   FUNC GLOBAL DEFAULT UND pthread_rwlock_init@LIBC (2)
65:   FUNC GLOBAL DEFAULT UND pthread_rwlock_rdlock@LIBC (2)
66:   FUNC GLOBAL DEFAULT UND pthread_rwlock_unlock@LIBC (2)
67:   FUNC GLOBAL DEFAULT UND pthread_rwlock_wrlock@LIBC (2)
68:   FUNC GLOBAL DEFAULT UND _ZN7android4base10StartsW
69:   FUNC GLOBAL DEFAULT UND _ZNKSt3__112basic_stringI
70:   FUNC GLOBAL DEFAULT UND _ZNKSt3__120__vector_base
71:   FUNC GLOBAL DEFAULT UND _ZNSt3__112basic_stringIc
72:   FUNC GLOBAL DEFAULT UND _ZNSt3__112basic_stringIc
73:   FUNC GLOBAL DEFAULT UND _ZNSt3__1plIcNS_11char_tr
74:   FUNC GLOBAL DEFAULT UND __memcpy_chk@LIBC (2)
75:   FUNC GLOBAL DEFAULT UND islower@LIBC (2)
76:   FUNC GLOBAL DEFAULT UND isupper@LIBC (2)
77:   FUNC GLOBAL DEFAULT UND strcmp@LIBC (2)
78:   FUNC GLOBAL DEFAULT UND strtoul@LIBC (2)
79:   FUNC WEAK DEFAULT 14 _ZNSt3__112__hash_tableIN
80:   FUNC WEAK DEFAULT 14 _ZN11unwindstack7DwarfOpI
81:   FUNC WEAK DEFAULT 14 _ZNSt3__16vectorIPN11unwi
82:   FUNC WEAK DEFAULT 14 _ZNSt3__127__insertion_so
83:   FUNC WEAK DEFAULT 14 _ZN11unwindstack19DwarfEh
84:   FUNC WEAK DEFAULT 14 _ZN11unwindstack7DwarfOpI
85:   OBJECT GLOBAL DEFAULT 18 _ZTVN11unwindstack12Memor
86:   FUNC GLOBAL DEFAULT 14 _ZN11unwindstack8JitDebug
87:   FUNC WEAK DEFAULT 14 _ZN11unwindstack8DwarfCfa
88:   FUNC WEAK DEFAULT 14 _ZN11unwindstack8DwarfCfa
89:   FUNC WEAK DEFAULT 14 _ZN11unwindstack7DwarfOpI
90:   FUNC WEAK DEFAULT 14 _ZN11unwindstack11DwarfMe
91:   FUNC WEAK DEFAULT 14 _ZN11unwindstack7DwarfOpI
92:   FUNC WEAK DEFAULT 14 _ZN11unwindstack8DwarfCfa
93:   FUNC WEAK DEFAULT 14 _ZN11unwindstack7DwarfOpI
94:   OBJECT GLOBAL DEFAULT 18 _ZTVN11unwindstack12Memor
95:   FUNC GLOBAL DEFAULT 14 _ZN11unwindstack7RegsArm2
96:   FUNC GLOBAL DEFAULT 14 _ZN11unwindstack7RegsX862
97:   FUNC GLOBAL DEFAULT 14 _ZN11unwindstack10RegsX86
98:   FUNC GLOBAL DEFAULT 14 _ZN9Demangler16FindFuncti
99:   FUNC WEAK DEFAULT 14 _ZN11unwindstack21DwarfSe
100:   FUNC GLOBAL DEFAULT 14 _ZN11unwindstack3Elf12Get
101:   FUNC GLOBAL DEFAULT 14 _ZN9Demangler17ParseFunct
102:   FUNC GLOBAL DEFAULT 14 _ZN11unwindstack7MapInfoD
103:   OBJECT GLOBAL DEFAULT 18 _ZTVN11unwindstack15ElfIn
104:   FUNC WEAK DEFAULT 14 _ZN11unwindstack7DwarfOpI
105:   FUNC WEAK DEFAULT 14 _ZN11unwindstack7DwarfOpI
106:   FUNC WEAK DEFAULT 14 _ZN11unwindstack7DwarfOpI
107:   FUNC WEAK DEFAULT 14 _ZN11unwindstack16DwarfSe
108:   FUNC GLOBAL DEFAULT 14 _ZN11unwindstack9RegsArm6
109:   FUNC WEAK DEFAULT 14 _ZNSt3__1plIcNS_11char_tr
110:   FUNC WEAK DEFAULT 14 _ZNSt3__16vectorINS_10uni
111:   FUNC WEAK DEFAULT 14 _ZN11unwindstack7DwarfOpI
112:   FUNC WEAK DEFAULT 14 _ZN11unwindstack7DwarfOpI
113:   FUNC WEAK DEFAULT 14 _ZN11unwindstack16DwarfSe
114:   FUNC GLOBAL DEFAULT 14 _ZN11unwindstack9RegsArm6
115:   FUNC WEAK DEFAULT 14 _ZN11unwindstack8DwarfCfa
116:   FUNC WEAK DEFAULT 14 _ZN11unwindstack7DwarfOpI
117:   FUNC WEAK DEFAULT 14 _ZN11unwindstack16DwarfSe
118:   FUNC GLOBAL DEFAULT 14 _ZN11unwindstack7RegsArm2
119:   FUNC GLOBAL DEFAULT 14 _ZN11unwindstack7RegsX864
120:   FUNC WEAK DEFAULT 14 _ZN11unwindstack16DwarfSe
121:   FUNC WEAK DEFAULT 14 _ZN11unwindstack12ElfInte
122:   FUNC WEAK DEFAULT 14 _ZNSt3__16vectorINS_4pair
123:   FUNC GLOBAL DEFAULT 14 _ZN11unwindstack15ElfInte
124:   OBJECT GLOBAL DEFAULT 18 _ZTVN11unwindstack18Memor
125:   FUNC WEAK DEFAULT 14 _ZN11unwindstack8DwarfCfa
126:   FUNC WEAK DEFAULT 14 _ZNSt3__112__deque_baseIN
127:   FUNC WEAK DEFAULT 14 _ZN11unwindstack19DwarfEh
128:   FUNC WEAK DEFAULT 14 _ZN11unwindstack19DwarfEh
129:   FUNC WEAK DEFAULT 14 _ZN11unwindstack8DwarfCfa
130:   FUNC WEAK DEFAULT 14 _ZN11unwindstack8DwarfCfa
131:   FUNC WEAK DEFAULT 14 _ZN11unwindstack19DwarfEh
132:   FUNC GLOBAL DEFAULT 14 _ZN11unwindstack12MemoryR
133:   FUNC WEAK DEFAULT 14 _ZN11unwindstack7DwarfOpI
134:   FUNC GLOBAL DEFAULT 14 _ZN11unwindstack18LocalUp
135:   FUNC GLOBAL DEFAULT 14 _ZN11unwindstack9RegsArm6
136:   FUNC WEAK DEFAULT 14 _ZNSt3__16vectorINS_12bas
137:   FUNC WEAK DEFAULT 14 _ZNSt3__114__split_buffer
138:   FUNC GLOBAL DEFAULT 14 _ZN11unwindstack10RegsX86
139:   FUNC WEAK DEFAULT 14 _ZN11unwindstack8DwarfCfa
140:   FUNC WEAK DEFAULT 14 _ZN11unwindstack8DwarfCfa
141:   FUNC WEAK DEFAULT 14 _ZN11unwindstack7DwarfOpI
142:   FUNC WEAK DEFAULT 14 _ZN11unwindstack21DwarfSe
143:   FUNC WEAK DEFAULT 14 _ZNSt3__16__treeINS_12__v
144:   OBJECT GLOBAL DEFAULT 18 _ZTVN11unwindstack6Memory
145:   FUNC GLOBAL DEFAULT 14 _ZN11unwindstack8ArmExidx
146:   FUNC WEAK DEFAULT 14 _ZN11unwindstack11DwarfMe
147:   FUNC GLOBAL DEFAULT 14 _ZN11unwindstack8JitDebug
148:   FUNC WEAK DEFAULT 14 _ZNSt3__16__treeINS_12__v
149:   FUNC WEAK DEFAULT 14 _ZN11unwindstack7DwarfOpI
150:   FUNC GLOBAL DEFAULT 14 _ZN11unwindstack12ElfInte
151:   FUNC GLOBAL DEFAULT 14 _ZN11unwindstack7MapInfo6
152:   FUNC WEAK DEFAULT 14 _ZNSt3__17__sort4IRZN11un
153:   FUNC GLOBAL DEFAULT 14 _ZN9Demangler20ParseCompl
154:   FUNC WEAK DEFAULT 14 _ZN11unwindstack16DwarfSe
155:   FUNC WEAK DEFAULT 14 _ZNSt3__16vectorINS_12bas
156:   OBJECT WEAK DEFAULT 18 _ZTVN11unwindstack14ElfIn
157:   FUNC WEAK DEFAULT 14 _ZNSt3__112__hash_tableIN
158:   FUNC GLOBAL DEFAULT 14 _ZN11unwindstack9RegsArm6
159:   FUNC WEAK DEFAULT 14 _ZN11unwindstack19DwarfEh
160:   FUNC WEAK DEFAULT 14 _ZN11unwindstack7DwarfOpI
161:   FUNC WEAK DEFAULT 14 _ZN11unwindstack16DwarfSe
162:   FUNC GLOBAL DEFAULT 14 _ZN11unwindstack8RegsMips
163:   FUNC GLOBAL DEFAULT 14 _ZN11unwindstack10RegsX86
164:   FUNC GLOBAL DEFAULT 14 _ZN11unwindstack8RegsMips
165:   OBJECT GLOBAL DEFAULT 18 _ZTVN11unwindstack10RegsM
166:   OBJECT WEAK DEFAULT 18 _ZTVN11unwindstack19Dwarf
167:   FUNC GLOBAL DEFAULT 14 _ZN11unwindstack7MapInfo1
168:   FUNC WEAK DEFAULT 14 _ZNSt3__120__shared_ptr_e
169:   FUNC WEAK DEFAULT 14 _ZNSt3__17__sort4IRZN11un
170:   FUNC WEAK DEFAULT 14 _ZN11unwindstack16DwarfSe
171:   FUNC GLOBAL DEFAULT 14 _ZN11unwindstack8JitDebug
172:   FUNC GLOBAL DEFAULT 14 _ZN11unwindstack6Memory25
173:   FUNC WEAK DEFAULT 14 _ZNSt3__16__treeINS_12__v
174:   FUNC GLOBAL DEFAULT 14 _ZN11unwindstack8Unwinder
175:   FUNC WEAK DEFAULT 14 _ZNSt3__16__sortIRZN11unw
176:   FUNC WEAK DEFAULT 14 _ZN11unwindstack7DwarfOpI
177:   FUNC WEAK DEFAULT 14 _ZN11unwindstack7DwarfOpI
178:   FUNC WEAK DEFAULT 14 _ZN11unwindstack7DwarfOpI
179:   FUNC WEAK DEFAULT 14 _ZN11unwindstack7DwarfOpI
180:   FUNC GLOBAL DEFAULT 14 _ZN9Demangler6ParseTEPKc
181:   FUNC WEAK DEFAULT 14 _ZN11unwindstack12ElfInte
182:   FUNC WEAK DEFAULT 14 _ZN11unwindstack21DwarfSe
183:   FUNC GLOBAL DEFAULT 14 _ZN11unwindstack11MemoryR
184:   FUNC WEAK DEFAULT 14 _ZNSt3__114__split_buffer
185:   FUNC WEAK DEFAULT 14 _ZN11unwindstack8DwarfCfa
186:   FUNC WEAK DEFAULT 14 _ZN11unwindstack12ElfInte
187:   FUNC GLOBAL DEFAULT 14 _ZN11unwindstack3Elf9Cach
188:   FUNC WEAK DEFAULT 14 _ZNSt3__1plIcNS_11char_tr
189:   FUNC GLOBAL DEFAULT 14 _ZN11unwindstack10RegsMip
190:   FUNC WEAK DEFAULT 14 _ZN11unwindstack8DwarfCfa
191:   FUNC WEAK DEFAULT 14 _ZN11unwindstack7DwarfOpI
192:   FUNC GLOBAL DEFAULT 14 _ZN11unwindstack12ElfInte
193:   FUNC GLOBAL DEFAULT 14 _ZN11unwindstack3Elf10IsV
194:   FUNC WEAK DEFAULT 14 _ZN11unwindstack8DwarfCfa
195:   FUNC WEAK DEFAULT 14 _ZN11unwindstack8DwarfCfa
196:   FUNC WEAK DEFAULT 14 _ZN11unwindstack7DwarfOpI
197:   FUNC WEAK DEFAULT 14 _ZNSt3__112__hash_tableIN
198:   FUNC WEAK DEFAULT 14 _ZNSt3__112__hash_tableIN
199:   FUNC WEAK DEFAULT 14 _ZNSt3__112__hash_tableIN
200:   FUNC GLOBAL DEFAULT 14 _ZN11unwindstack6Global7S
201:   FUNC GLOBAL DEFAULT 14 _ZN11unwindstack7MapInfo1
202:   FUNC GLOBAL DEFAULT 14 _ZN11unwindstack6Memory19
203:   FUNC GLOBAL DEFAULT 14 _ZN11unwindstack9RegsArm6
204:   FUNC WEAK DEFAULT 14 _ZN11unwindstack7DwarfOpI
205:   FUNC WEAK DEFAULT 14 _ZN11unwindstack7DwarfOpI
206:   FUNC GLOBAL DEFAULT 14 _ZN11unwindstack3Elf17Set
207:   FUNC WEAK DEFAULT 14 _ZNSt3__127__tree_balance
208:   FUNC WEAK DEFAULT 14 _ZN11unwindstack8DwarfCfa
209:   FUNC WEAK DEFAULT 14 _ZNSt3__112__hash_tableIN
210:   FUNC WEAK DEFAULT 14 _ZN11unwindstack7DwarfOpI
211:   FUNC GLOBAL DEFAULT 14 _ZN11unwindstack8ArmExidx
212:   OBJECT WEAK DEFAULT 18 _ZTVN11unwindstack7DwarfO
213:   FUNC WEAK DEFAULT 14 _ZN11unwindstack7DwarfOpI
214:   FUNC GLOBAL DEFAULT 14 _ZN11unwindstack19MemoryO
215:   FUNC WEAK DEFAULT 14 _ZNSt3__120__shared_ptr_e
216:   FUNC WEAK DEFAULT 14 _ZNSt3__114__split_buffer
217:   FUNC WEAK DEFAULT 14 _ZNSt3__112__hash_tableIN
218:   FUNC GLOBAL DEFAULT 14 _ZN11unwindstack6GlobalC2
219:   FUNC GLOBAL DEFAULT 14 _ZN11unwindstack7MapInfo1
220:   FUNC WEAK DEFAULT 14 _ZNSt3__112__hash_tableIN
221:   OBJECT WEAK DEFAULT 18 _ZTVNSt3__120__shared_ptr
222:   FUNC WEAK DEFAULT 14 _ZN11unwindstack7DwarfOpI
223:   FUNC WEAK DEFAULT 14 _ZNSt3__15dequeIjNS_9allo
224:   FUNC GLOBAL DEFAULT 14 _ZN11unwindstack9RegsArm6
225:   FUNC GLOBAL DEFAULT 14 _ZN11unwindstack7RegsX86C
226:   OBJECT WEAK DEFAULT 18 _ZN9Demangler7kSTypesE
227:   FUNC WEAK DEFAULT 14 _ZN11unwindstack8DwarfCfa
228:   FUNC GLOBAL DEFAULT 14 _ZN11unwindstack4Maps5Par
229:   FUNC GLOBAL DEFAULT 14 _ZN9Demangler18GetArgumen
230:   FUNC WEAK DEFAULT 14 _ZN11unwindstack7DwarfOpI
231:   FUNC WEAK DEFAULT 14 _ZN11unwindstack15DwarfDe
232:   FUNC GLOBAL DEFAULT 14 _ZN11unwindstack7RegsX866
233:   FUNC WEAK DEFAULT 14 _ZN11unwindstack8DwarfCfa
234:   FUNC WEAK DEFAULT 14 _ZNSt3__114__split_buffer
235:   FUNC WEAK DEFAULT 14 _ZN11unwindstack12DwarfEh
236:   FUNC WEAK DEFAULT 14 _ZN11unwindstack7Symbols9
237:   FUNC GLOBAL DEFAULT 14 _ZN11unwindstack8JitDebug
238:   FUNC WEAK DEFAULT 14 _ZNSt3__112__hash_tableIN
239:   FUNC GLOBAL DEFAULT 14 _ZN11unwindstack13LocalUn
240:   FUNC GLOBAL DEFAULT 14 _ZN11unwindstack7RegsArm1
241:   FUNC WEAK DEFAULT 14 _ZNSt3__112__deque_baseIN
242:   FUNC WEAK DEFAULT 14 _ZNSt3__16vectorIM9Demang
243:   FUNC WEAK DEFAULT 14 _ZN11unwindstack7DwarfOpI
244:   FUNC WEAK DEFAULT 14 _ZN11unwindstack15DwarfDe
245:   FUNC WEAK DEFAULT 14 _ZNSt3__112__hash_tableIN
246:   OBJECT WEAK DEFAULT 18 _ZTVN11unwindstack8RegsIm
247:   FUNC GLOBAL DEFAULT 14 _ZN11unwindstack10RegsX86
248:   FUNC GLOBAL DEFAULT 14 _ZN11unwindstack8RegsMips
249:   OBJECT WEAK DEFAULT 18 _ZTVN11unwindstack16Dwarf
250:   FUNC GLOBAL DEFAULT 14 _ZN11unwindstack3Elf9IsVa
251:   FUNC GLOBAL DEFAULT 14 _ZN11unwindstack8ArmExidx
252:   FUNC WEAK DEFAULT 14 _ZN11unwindstack11DwarfMe
253:   FUNC WEAK DEFAULT 14 _ZN11unwindstack11DwarfMe
254:   FUNC WEAK DEFAULT 14 _ZNSt3__112__hash_tableIN
255:   OBJECT WEAK DEFAULT 18 _ZTVN11unwindstack11Dwarf
256:   OBJECT WEAK DEFAULT 18 _ZTVN11unwindstack15Dwarf
257:   FUNC WEAK DEFAULT 14 _ZNSt3__120__shared_ptr_p
258:   FUNC GLOBAL DEFAULT 14 _ZN11unwindstack7RegsArm1
259:   FUNC GLOBAL DEFAULT 14 _ZN11unwindstack7RegsX861
260:   FUNC WEAK DEFAULT 14 _ZNSt3__114__split_buffer
261:   FUNC WEAK DEFAULT 14 _ZN11unwindstack7DwarfOpI
262:   FUNC WEAK DEFAULT 14 _ZN11unwindstack7DwarfOpI
263:   FUNC WEAK DEFAULT 14 _ZN11unwindstack16DwarfSe
264:   FUNC GLOBAL DEFAULT 14 _ZN11unwindstack4Regs11Cu
265:   FUNC GLOBAL DEFAULT 14 _ZN9Demangler21ParseFunct
266:   FUNC WEAK DEFAULT 14 _ZNSt3__114__split_buffer
267:   FUNC WEAK DEFAULT 14 _ZN11unwindstack8DwarfCfa
268:   FUNC WEAK DEFAULT 14 _ZN11unwindstack16DwarfSe
269:   FUNC WEAK DEFAULT 14 _ZN11unwindstack7DwarfOpI
270:   FUNC GLOBAL DEFAULT 14 _ZN11unwindstack3Elf16Get
271:   FUNC GLOBAL DEFAULT 14 _ZN9Demangler18ParseCompl
272:   FUNC WEAK DEFAULT 14 _ZN11unwindstack8DwarfCfa
273:   FUNC GLOBAL DEFAULT 14 _ZN11unwindstack11MemoryR
274:   FUNC GLOBAL DEFAULT 14 _ZN11unwindstack7RegsX865
275:   FUNC WEAK DEFAULT 14 _ZNSt3__16vectorIN11unwin
276:   FUNC WEAK DEFAULT 14 _ZN11unwindstack7DwarfOpI
277:   FUNC WEAK DEFAULT 14 _ZNSt3__114__split_buffer
278:   OBJECT WEAK DEFAULT 18 _ZTVN11unwindstack12Dwarf
279:   FUNC GLOBAL DEFAULT 14 _ZN11unwindstack9RegsArm6
280:   FUNC GLOBAL DEFAULT 14 _ZN9Demangler14ParseArgum
281:   FUNC WEAK DEFAULT 14 _ZN11unwindstack8DwarfCfa
282:   FUNC WEAK DEFAULT 14 _ZNSt3__112__hash_tableIN
283:   FUNC WEAK DEFAULT 14 _ZN11unwindstack7DwarfOpI
284:   FUNC WEAK DEFAULT 14 _ZN11unwindstack21DwarfSe
285:   FUNC GLOBAL DEFAULT 14 _ZN11unwindstack7RegsArm4
286:   FUNC WEAK DEFAULT 14 _ZN11unwindstack7DwarfOpI
287:   FUNC GLOBAL DEFAULT 14 _ZN11unwindstack6GlobalC2
288:   OBJECT WEAK DEFAULT 18 _ZN9Demangler6kTypesE
289:   OBJECT WEAK DEFAULT 18 _ZN11unwindstack8DwarfCfa
290:   FUNC GLOBAL DEFAULT 14 _ZN11unwindstack3Elf15Get
291:   FUNC GLOBAL DEFAULT 14 _ZN11unwindstack7RegsX86C
292:   FUNC WEAK DEFAULT 14 _ZN11unwindstack7DwarfOpI
293:   FUNC WEAK DEFAULT 14 _ZN11unwindstack12DwarfEh
294:   FUNC WEAK DEFAULT 14 _ZN11unwindstack8DwarfCfa
295:   FUNC WEAK DEFAULT 14 _ZN11unwindstack7DwarfOpI
296:   FUNC WEAK DEFAULT 14 _ZN11unwindstack7DwarfOpI
297:   FUNC GLOBAL DEFAULT 14 _ZN11unwindstack8Unwinder
298:   FUNC WEAK DEFAULT 14 _ZN11unwindstack8DwarfCfa
299:   FUNC WEAK DEFAULT 14 _ZN11unwindstack19DwarfEh
300:   FUNC WEAK DEFAULT 14 _ZN11unwindstack7DwarfOpI
301:   FUNC WEAK DEFAULT 14 _ZN11unwindstack12ElfInte
302:   FUNC GLOBAL DEFAULT 14 _ZN11unwindstack3Elf4Init
303:   FUNC GLOBAL DEFAULT 14 _ZN11unwindstack8JitDebug
304:   FUNC WEAK DEFAULT 14 _ZN11unwindstack7DwarfOpI
305:   FUNC WEAK DEFAULT 14 _ZN11unwindstack7DwarfOpI
306:   FUNC WEAK DEFAULT 14 _ZN11unwindstack7DwarfOpI
307:   FUNC WEAK DEFAULT 14 _ZN11unwindstack7DwarfOpI
308:   FUNC GLOBAL DEFAULT 14 _ZN11unwindstack3Elf11Get
309:   FUNC WEAK DEFAULT 14 _ZNSt3__16vectorIhNS_9all
310:   OBJECT WEAK DEFAULT 18 _ZTVN11unwindstack21Dwarf
311:   FUNC GLOBAL DEFAULT 14 _ZN11unwindstack15ElfInte
312:   FUNC GLOBAL DEFAULT 14 _ZN11unwindstack6Global17
313:   FUNC GLOBAL DEFAULT 14 _ZN11unwindstack10RegsMip
314:   FUNC WEAK DEFAULT 14 _ZN11unwindstack8DwarfCfa
315:   FUNC WEAK DEFAULT 14 _ZN11unwindstack8DwarfCfa
316:   FUNC WEAK DEFAULT 14 _ZN11unwindstack8DwarfCfa
317:   FUNC WEAK DEFAULT 14 _ZN11unwindstack11DwarfMe
318:   FUNC WEAK DEFAULT 14 _ZN11unwindstack7DwarfOpI
319:   FUNC GLOBAL DEFAULT 14 _ZN11unwindstack8RegsMips
320:   FUNC WEAK DEFAULT 14 _ZN11unwindstack7Symbols7
321:   FUNC GLOBAL DEFAULT 14 _ZN11unwindstack19MemoryO
322:   OBJECT WEAK DEFAULT 18 _ZTVN11unwindstack7Symbol
323:   FUNC WEAK DEFAULT 14 _ZNSt3__15dequeIN11unwind
324:   FUNC WEAK DEFAULT 14 _ZN11unwindstack7DwarfOpI
325:   FUNC WEAK DEFAULT 14 _ZN11unwindstack16DwarfSe
326:   FUNC WEAK DEFAULT 14 _ZNSt3__16vectorINS_10uni
327:   FUNC WEAK DEFAULT 14 _ZN11unwindstack8DwarfCfa
328:   FUNC GLOBAL DEFAULT 14 _ZN11unwindstack15ElfInte
329:   FUNC GLOBAL DEFAULT 14 _ZN11unwindstack8JitDebug
330:   FUNC GLOBAL DEFAULT 14 _ZN11unwindstack11MemoryL
331:   OBJECT WEAK DEFAULT 18 _ZTVN11unwindstack9LocalM
332:   FUNC WEAK DEFAULT 14 _ZN11unwindstack19DwarfEh
333:   FUNC WEAK DEFAULT 14 _ZNSt3__120__shared_ptr_p
334:   OBJECT GLOBAL DEFAULT 11 _ZN11unwindstack12DwarfCf
335:   FUNC WEAK DEFAULT 14 _ZNSt3__112__hash_tableIN
336:   FUNC WEAK DEFAULT 14 _ZNSt3__112__hash_tableIN
337:   FUNC WEAK DEFAULT 14 _ZN11unwindstack7DwarfOpI
338:   FUNC WEAK DEFAULT 14 _ZN11unwindstack7DwarfOpI
339:   FUNC GLOBAL DEFAULT 14 _ZN11unwindstack15ElfInte
340:   FUNC WEAK DEFAULT 14 _ZNSt3__112__hash_tableIN
341:   FUNC WEAK DEFAULT 14 _ZN11unwindstack7DwarfOpI
342:   FUNC WEAK DEFAULT 14 _ZN11unwindstack7DwarfOpI
343:   FUNC GLOBAL DEFAULT 14 _ZN11unwindstack3Elf17Get
344:   FUNC GLOBAL DEFAULT 14 _ZN11unwindstack3Elf7GetI
345:   FUNC GLOBAL DEFAULT 14 _ZN11unwindstack10RegsX86
346:   FUNC WEAK DEFAULT 14 _ZN11unwindstack8DwarfCfa
347:   FUNC WEAK DEFAULT 14 _ZN11unwindstack7DwarfOpI
348:   FUNC WEAK DEFAULT 14 _ZN11unwindstack7DwarfOpI
349:   OBJECT GLOBAL DEFAULT 18 _ZTVN11unwindstack18Local
350:   FUNC GLOBAL DEFAULT 14 _ZN11unwindstack12MemoryB
351:   FUNC GLOBAL DEFAULT 14 _ZN11unwindstack9RegsArm6
352:   FUNC GLOBAL DEFAULT 14 _ZN11unwindstack7RegsArm1
353:   FUNC GLOBAL DEFAULT 14 _ZN11unwindstack7RegsArm5
354:   FUNC GLOBAL DEFAULT 14 _ZN11unwindstack7RegsX862
355:   FUNC WEAK DEFAULT 14 _ZNSt3__1plIcNS_11char_tr
356:   OBJECT WEAK DEFAULT 18 _ZTVN11unwindstack8DwarfC
357:   OBJECT WEAK DEFAULT 18 _ZTVN11unwindstack19Dwarf
358:   FUNC WEAK DEFAULT 14 _ZN11unwindstack7DwarfOpI
359:   FUNC WEAK DEFAULT 14 _ZN11unwindstack7DwarfOpI
360:   FUNC WEAK DEFAULT 14 _ZN11unwindstack16DwarfSe
361:   FUNC GLOBAL DEFAULT 14 _ZN9Demangler20ParseTempl
362:   FUNC GLOBAL DEFAULT 14 _ZN11unwindstack11DwarfMe
363:   FUNC WEAK DEFAULT 14 _ZN11unwindstack8DwarfCfa
364:   FUNC GLOBAL DEFAULT 14 _ZN11unwindstack12MemoryR
365:   FUNC WEAK DEFAULT 14 _ZNSt3__16vectorINS_10uni
366:   FUNC WEAK DEFAULT 14 _ZN11unwindstack8DwarfCfa
367:   FUNC WEAK DEFAULT 14 _ZNSt3__114__split_buffer
368:   OBJECT GLOBAL DEFAULT 22 _ZN11unwindstack3Elf6cach
369:   FUNC GLOBAL DEFAULT 14 _ZN11unwindstack10RegsMip
370:   FUNC WEAK DEFAULT 14 _ZN11unwindstack8DwarfCfa
371:   FUNC WEAK DEFAULT 14 _ZNSt3__112__hash_tableIN
372:   FUNC WEAK DEFAULT 14 _ZNSt3__114__split_buffer
373:   FUNC WEAK DEFAULT 14 _ZNSt3__15dequeImNS_9allo
374:   FUNC GLOBAL DEFAULT 14 _ZN11unwindstack7RegsArm6
375:   FUNC GLOBAL DEFAULT 14 _ZN9Demangler25ParseFunct
376:   FUNC GLOBAL DEFAULT 14 _ZN11unwindstack4Regs15Cr
377:   FUNC WEAK DEFAULT 14 _ZN11unwindstack8DwarfCfa
378:   FUNC GLOBAL DEFAULT 14 _ZN11unwindstack3Elf10Inv
379:   FUNC GLOBAL DEFAULT 14 _ZN11unwindstack10BufferM
380:   FUNC GLOBAL DEFAULT 14 _ZN11unwindstack10RegsMip
381:   FUNC GLOBAL DEFAULT 14 _ZN9Demangler30ParseFunct
382:   FUNC WEAK DEFAULT 14 _ZN11unwindstack7DwarfOpI
383:   FUNC WEAK DEFAULT 14 _ZNSt3__112__hash_tableIN
384:   FUNC GLOBAL DEFAULT 14 _ZN11unwindstack10RegsX86
385:   FUNC WEAK DEFAULT 14 _ZNSt3__114__split_buffer
386:   FUNC GLOBAL DEFAULT 14 _ZN11unwindstack3logEhPKc
387:   FUNC WEAK DEFAULT 14 _ZN11unwindstack19DwarfEh
388:   FUNC WEAK DEFAULT 14 _ZN11unwindstack7DwarfOpI
389:   FUNC WEAK DEFAULT 14 _ZNSt3__16vectorIPKN11unw
390:   FUNC WEAK DEFAULT 14 _ZNSt3__120__shared_ptr_p
391:   FUNC GLOBAL DEFAULT 14 _ZN11unwindstack18MemoryF
392:   FUNC GLOBAL DEFAULT 14 _ZN9Demangler13AppendCurr
393:   FUNC WEAK DEFAULT 14 _ZN11unwindstack7DwarfOpI
394:   FUNC GLOBAL DEFAULT 14 _ZN11unwindstack10RegsX86
395:   FUNC GLOBAL DEFAULT 14 _ZN11unwindstack9RegsArm6
396:   FUNC GLOBAL DEFAULT 14 _ZN11unwindstack10RegsMip
397:   FUNC WEAK DEFAULT 14 _ZN11unwindstack8DwarfCfa
398:   FUNC WEAK DEFAULT 14 _ZN11unwindstack8DwarfCfa
399:   FUNC GLOBAL DEFAULT 14 _ZN11unwindstack12DwarfSe
400:   OBJECT WEAK DEFAULT 18 _ZN11unwindstack7DwarfOpI
401:   FUNC WEAK DEFAULT 14 _ZN11unwindstack12ElfInte
402:   FUNC WEAK DEFAULT 14 _ZN11unwindstack14GetBuil
403:   FUNC GLOBAL DEFAULT 14 _ZN11unwindstack8JitDebug
404:   OBJECT GLOBAL DEFAULT 18 _ZTVN11unwindstack11Memor
405:   FUNC GLOBAL DEFAULT 14 _ZN11unwindstack7RegsArm2
406:   FUNC WEAK DEFAULT 14 _ZNSt3__16vectorIN11unwin
407:   FUNC WEAK DEFAULT 14 _ZNSt3__16__sortIRZN11unw
408:   FUNC WEAK DEFAULT 14 _ZNSt3__16vectorINS_12bas
409:   FUNC WEAK DEFAULT 14 _ZN11unwindstack8DwarfCfa
410:   FUNC WEAK DEFAULT 14 _ZN11unwindstack16DwarfSe
411:   FUNC WEAK DEFAULT 14 _ZN11unwindstack19DwarfEh
412:   FUNC WEAK DEFAULT 14 _ZN11unwindstack7DwarfOpI
413:   FUNC WEAK DEFAULT 14 _ZNSt3__114__split_buffer
414:   FUNC GLOBAL DEFAULT 14 _ZN11unwindstack4Regs9Rem
415:   FUNC WEAK DEFAULT 14 _ZN11unwindstack7DwarfOpI
416:   FUNC WEAK DEFAULT 14 _ZN11unwindstack7DwarfOpI
417:   FUNC GLOBAL DEFAULT 14 _ZN11unwindstack8ArmExidx
418:   FUNC WEAK DEFAULT 14 _ZNSt3__112__hash_tableIN
419:   FUNC WEAK DEFAULT 14 _ZN11unwindstack12ElfInte
420:   FUNC WEAK DEFAULT 14 _ZNSt3__16vectorIN11unwin
421:   FUNC WEAK DEFAULT 14 _ZN11unwindstack19DwarfEh
422:   FUNC WEAK DEFAULT 14 _ZN11unwindstack7DwarfOpI
423:   FUNC WEAK DEFAULT 14 _ZN11unwindstack7DwarfOpI
424:   FUNC WEAK DEFAULT 14 _ZNSt3__120__shared_ptr_p
425:   FUNC WEAK DEFAULT 14 _ZNSt3__120__shared_ptr_p
426:   FUNC GLOBAL DEFAULT 14 _ZN11unwindstack7RegsArmC
427:   FUNC WEAK DEFAULT 14 _ZN11unwindstack21DwarfSe
428:   FUNC GLOBAL DEFAULT 14 _ZN11unwindstack10RegsMip
429:   FUNC WEAK DEFAULT 14 _ZNSt3__112__hash_tableIN
430:   FUNC WEAK DEFAULT 14 _ZN11unwindstack7DwarfOpI
431:   FUNC WEAK DEFAULT 14 _ZNSt3__114__split_buffer
432:   FUNC GLOBAL DEFAULT 14 _ZN11unwindstack3Elf19Ste
433:   OBJECT WEAK DEFAULT 18 _ZTVN11unwindstack6Global
434:   FUNC GLOBAL DEFAULT 14 _ZN11unwindstack8RegsMips
435:   FUNC GLOBAL DEFAULT 14 _ZN11unwindstack8Unwinder
436:   FUNC WEAK DEFAULT 14 _ZNSt3__15dequeIN11unwind
437:   FUNC WEAK DEFAULT 14 _ZNSt3__16vectorImNS_9all
438:   FUNC WEAK DEFAULT 14 _ZN11unwindstack7DwarfOpI
439:   FUNC WEAK DEFAULT 14 _ZN11unwindstack7DwarfOpI
440:   FUNC WEAK DEFAULT 14 _ZNSt3__120__shared_ptr_p
441:   FUNC WEAK DEFAULT 14 _ZN11unwindstack16DwarfSe
442:   FUNC WEAK DEFAULT 14 _ZN11unwindstack16DwarfSe
443:   OBJECT GLOBAL DEFAULT 18 _ZTVN11unwindstack18Memor
444:   FUNC WEAK DEFAULT 14 _ZN11unwindstack8DwarfCfa
445:   FUNC WEAK DEFAULT 14 _ZN11unwindstack7DwarfOpI
446:   FUNC GLOBAL DEFAULT 14 _ZN11unwindstack7SymbolsC
447:   FUNC GLOBAL DEFAULT 14 _ZN11unwindstack12MemoryR
448:   FUNC WEAK DEFAULT 14 _ZN11unwindstack8DwarfCfa
449:   FUNC WEAK DEFAULT 14 _ZNSt3__112__hash_tableIN
450:   FUNC WEAK DEFAULT 14 _ZN11unwindstack7DwarfOpI
451:   FUNC WEAK DEFAULT 14 _ZN11unwindstack7DwarfOpI
452:   FUNC WEAK DEFAULT 14 _ZN11unwindstack16DwarfSe
453:   FUNC GLOBAL DEFAULT 14 _ZN11unwindstack8JitDebug
454:   FUNC WEAK DEFAULT 14 _ZN11unwindstack7DwarfOpI
455:   FUNC GLOBAL DEFAULT 14 _ZNK11unwindstack10Remote
456:   FUNC WEAK DEFAULT 14 _ZN11unwindstack8DwarfCfa
457:   FUNC WEAK DEFAULT 14 _ZN7android8procinfo18Rea
458:   FUNC GLOBAL DEFAULT 14 _ZN11unwindstack18MemoryF
459:   FUNC WEAK DEFAULT 14 _ZN11unwindstack8DwarfCfa
460:   FUNC WEAK DEFAULT 14 _ZN11unwindstack16DwarfSe
461:   FUNC WEAK DEFAULT 14 _ZNSt3__16vectorIPKN11unw
462:   FUNC WEAK DEFAULT 14 _ZN11unwindstack7DwarfOpI
463:   FUNC GLOBAL DEFAULT 14 _ZN11unwindstack3Elf9GetS
464:   FUNC WEAK DEFAULT 14 _ZN11unwindstack21DwarfSe
465:   FUNC WEAK DEFAULT 14 _ZN11unwindstack12ElfInte
466:   FUNC GLOBAL DEFAULT 14 _ZN11unwindstack3Elf25Cre
467:   FUNC GLOBAL DEFAULT 14 _ZN11unwindstack9RegsArm6
468:   FUNC WEAK DEFAULT 14 _ZN11unwindstack11DwarfMe
469:   FUNC WEAK DEFAULT 14 _ZN11unwindstack7DwarfOpI
470:   FUNC WEAK DEFAULT 14 _ZN11unwindstack7Symbols9
471:   FUNC GLOBAL DEFAULT 14 _ZN11unwindstack4Maps3Add
472:   OBJECT WEAK DEFAULT 18 _ZTVN11unwindstack12Dwarf
473:   OBJECT GLOBAL DEFAULT 18 _ZTVN11unwindstack12ElfIn
474:   FUNC GLOBAL DEFAULT 14 _ZN11unwindstack15Unwinde
475:   FUNC GLOBAL DEFAULT 14 _ZN11unwindstack8Unwinder
476:   FUNC WEAK DEFAULT 14 _ZN11unwindstack8DwarfCfa
477:   FUNC WEAK DEFAULT 14 _ZNSt3__114__split_buffer
478:   FUNC WEAK DEFAULT 14 _ZNSt3__112__hash_tableIN
479:   FUNC WEAK DEFAULT 14 _ZN11unwindstack12ElfInte
480:   FUNC WEAK DEFAULT 14 _ZN11unwindstack14GetBuil
481:   FUNC WEAK DEFAULT 14 _ZN11unwindstack12ElfInte
482:   OBJECT GLOBAL DEFAULT 18 _ZTVN11unwindstack8JitDeb
483:   FUNC WEAK DEFAULT 14 _ZN11unwindstack7DwarfOpI
484:   FUNC GLOBAL DEFAULT 14 _ZN11unwindstack3Elf8Cach
485:   FUNC WEAK DEFAULT 14 _ZNSt3__112__hash_tableIN
486:   OBJECT GLOBAL DEFAULT 18 _ZTVN11unwindstack12Memor
487:   FUNC GLOBAL DEFAULT 14 _ZN11unwindstack7RegsArmC
488:   FUNC WEAK DEFAULT 14 _ZN11unwindstack8DwarfCfa
489:   FUNC GLOBAL DEFAULT 14 _ZN11unwindstack11DwarfMe
490:   FUNC GLOBAL DEFAULT 14 _ZN11unwindstack3Elf11Cac
491:   FUNC WEAK DEFAULT 14 _ZNSt3__112__hash_tableIN
492:   FUNC GLOBAL DEFAULT 14 _ZN11unwindstack8JitDebug
493:   FUNC WEAK DEFAULT 14 _ZNSt3__114__split_buffer
494:   FUNC WEAK DEFAULT 14 _ZNSt3__112__hash_tableIN
495:   FUNC GLOBAL DEFAULT 14 _ZN11unwindstack11DwarfMe
496:   FUNC WEAK DEFAULT 14 _ZN11unwindstack7DwarfOpI
497:   OBJECT WEAK DEFAULT 18 _ZTVNSt3__120__shared_ptr
498:   FUNC GLOBAL DEFAULT 14 _ZN9Demangler5ParseEPKcm
499:   FUNC WEAK DEFAULT 14 _ZN11unwindstack8DwarfCfa
500:   FUNC WEAK DEFAULT 14 _ZN11unwindstack19DwarfEh
501:   OBJECT WEAK DEFAULT 18 _ZTVN11unwindstack21Dwarf
502:   FUNC WEAK DEFAULT 14 _ZNSt3__112__hash_tableIN
503:   FUNC WEAK DEFAULT 14 _ZN11unwindstack12DwarfEh
504:   FUNC GLOBAL DEFAULT 14 _ZN11unwindstack7RegsX861
505:   FUNC GLOBAL DEFAULT 14 _ZN11unwindstack8Unwinder
506:   FUNC GLOBAL DEFAULT 14 _ZN9Demangler14AppendArgu
507:   FUNC GLOBAL DEFAULT 14 _ZN9Demangler19GetStringF
508:   FUNC WEAK DEFAULT 14 _ZNSt3__114__split_buffer
509:   FUNC WEAK DEFAULT 14 _ZN11unwindstack7DwarfOpI
510:   FUNC WEAK DEFAULT 14 _ZN11unwindstack15DwarfDe
511:   FUNC WEAK DEFAULT 14 _ZN11unwindstack16DwarfSe
512:   OBJECT GLOBAL DEFAULT 18 _ZTVN11unwindstack7RegsX8
513:   FUNC GLOBAL DEFAULT 14 _ZN11unwindstack3Elf10Get
514:   FUNC GLOBAL DEFAULT 14 _ZN11unwindstack13LocalUn
515:   FUNC GLOBAL DEFAULT 14 _ZN11unwindstack7RegsX861
516:   FUNC WEAK DEFAULT 14 _ZN11unwindstack19DwarfEh
517:   FUNC WEAK DEFAULT 14 _ZN11unwindstack16DwarfSe
518:   FUNC WEAK DEFAULT 14 _ZNSt3__120__shared_ptr_p
519:   FUNC WEAK DEFAULT 14 _ZN11unwindstack8DwarfCfa
520:   FUNC WEAK DEFAULT 14 _ZN11unwindstack7DwarfOpI
521:   FUNC GLOBAL DEFAULT 14 _ZN11unwindstack18MemoryF
522:   FUNC WEAK DEFAULT 14 _ZN11unwindstack7DwarfOpI
523:   FUNC WEAK DEFAULT 14 _ZN11unwindstack7DwarfOpI
524:   FUNC WEAK DEFAULT 14 _ZN11unwindstack7DwarfOpI
525:   FUNC GLOBAL DEFAULT 14 _ZN11unwindstack7MapInfo3
526:   OBJECT GLOBAL DEFAULT 18 _ZTVN11unwindstack19Memor
527:   FUNC GLOBAL DEFAULT 14 _ZN11unwindstack4Regs18Cr
528:   FUNC WEAK DEFAULT 14 _ZN11unwindstack19DwarfEh
529:   FUNC WEAK DEFAULT 14 _ZN11unwindstack7DwarfOpI
530:   FUNC GLOBAL DEFAULT 14 _ZN11unwindstack3Elf8GetR
531:   FUNC WEAK DEFAULT 14 _ZNSt3__16vectorIN11unwin
532:   FUNC GLOBAL DEFAULT 14 _ZN11unwindstack8ArmExidx
533:   FUNC GLOBAL DEFAULT 14 _ZN11unwindstack10RegsX86
534:   FUNC GLOBAL DEFAULT 14 _ZN11unwindstack8RegsMips
535:   FUNC GLOBAL DEFAULT 14 _ZN9Demangler20AppendOper
536:   FUNC GLOBAL DEFAULT 14 _ZN11unwindstack12MemoryB
537:   FUNC GLOBAL DEFAULT 14 _ZN11unwindstack8JitDebug
538:   FUNC GLOBAL DEFAULT 14 _ZN11unwindstack13MemoryO
539:   FUNC WEAK DEFAULT 14 _ZNSt3__112__hash_tableIN
540:   FUNC WEAK DEFAULT 14 _ZNSt3__112__hash_tableIN
541:   FUNC WEAK DEFAULT 14 _ZNSt3__16__treeINS_12__v
542:   FUNC GLOBAL DEFAULT 14 _ZN11unwindstack8JitDebug
543:   FUNC GLOBAL DEFAULT 14 _ZN11unwindstack10RegsMip
544:   FUNC WEAK DEFAULT 14 _ZN11unwindstack8DwarfCfa
545:   FUNC WEAK DEFAULT 14 _ZN11unwindstack8DwarfCfa
546:   OBJECT WEAK DEFAULT 18 _ZTVN11unwindstack8DwarfC
547:   FUNC WEAK DEFAULT 14 _ZNSt3__112__hash_tableIN
548:   FUNC GLOBAL DEFAULT 14 _ZN11unwindstack15ElfInte
549:   FUNC GLOBAL DEFAULT 14 _ZN11unwindstack4Maps4Fin
550:   FUNC GLOBAL DEFAULT 14 _ZN11unwindstack10RegsX86
551:   FUNC GLOBAL DEFAULT 14 _ZN9Demangler4SaveERKNSt3
552:   FUNC GLOBAL DEFAULT 14 _ZN11unwindstack15ElfInte
553:   FUNC GLOBAL DEFAULT 14 _ZN11unwindstack8RegsMips
554:   FUNC WEAK DEFAULT 14 _ZN11unwindstack7DwarfOpI
555:   FUNC WEAK DEFAULT 14 _ZN11unwindstack12ElfInte
556:   FUNC WEAK DEFAULT 14 _ZN11unwindstack8DwarfCfa
557:   FUNC WEAK DEFAULT 14 _ZN11unwindstack7DwarfOpI
558:   FUNC WEAK DEFAULT 14 _ZN11unwindstack7DwarfOpI
559:   FUNC WEAK DEFAULT 14 _ZN11unwindstack12DwarfEh
560:   OBJECT WEAK DEFAULT 18 _ZTVN11unwindstack8ArmExi
561:   FUNC GLOBAL DEFAULT 14 _ZN11unwindstack6Memory10
562:   FUNC GLOBAL DEFAULT 14 _ZN11unwindstack9RegsArm6
563:   FUNC GLOBAL DEFAULT 14 _ZN11unwindstack7SymbolsC
564:   FUNC WEAK DEFAULT 14 _ZN11unwindstack8DwarfCfa
565:   OBJECT WEAK DEFAULT 18 _ZN11unwindstack7DwarfOpI
566:   FUNC WEAK DEFAULT 14 _ZN11unwindstack7DwarfOpI
567:   FUNC WEAK DEFAULT 14 _ZN11unwindstack21DwarfSe
568:   FUNC WEAK DEFAULT 14 _ZN11unwindstack7Symbols7
569:   FUNC WEAK DEFAULT 14 _ZNSt3__112__hash_tableIN
570:   FUNC WEAK DEFAULT 14 _ZNSt3__16vectorIPN11unwi
571:   OBJECT GLOBAL DEFAULT 18 _ZTVN11unwindstack11Memor
572:   FUNC GLOBAL DEFAULT 14 _ZN11unwindstack10RegsMip
573:   FUNC WEAK DEFAULT 14 _ZN11unwindstack8DwarfCfa
574:   FUNC WEAK DEFAULT 14 _ZN11unwindstack7DwarfOpI
575:   OBJECT GLOBAL DEFAULT 18 _ZTVN11unwindstack10RegsX
576:   FUNC WEAK DEFAULT 14 _ZN11unwindstack8DwarfCfa
577:   FUNC GLOBAL DEFAULT 14 _ZN11unwindstack18MemoryF
578:   FUNC GLOBAL DEFAULT 14 _ZN11unwindstack9RegsArm6
579:   FUNC WEAK DEFAULT 14 _ZNSt3__16vectorIjNS_9all
580:   FUNC WEAK DEFAULT 14 _ZN11unwindstack7DwarfOpI
581:   FUNC WEAK DEFAULT 14 _ZN11unwindstack7DwarfOpI
582:   FUNC WEAK DEFAULT 14 _ZN11unwindstack7DwarfOpI
583:   FUNC WEAK DEFAULT 14 _ZNSt3__114__split_buffer
584:   FUNC WEAK DEFAULT 14 _ZN11unwindstack12ElfInte
585:   OBJECT WEAK DEFAULT 18 _ZTVN11unwindstack3ElfE
586:   FUNC GLOBAL DEFAULT 14 _ZN11unwindstack7MapInfo1
587:   FUNC WEAK DEFAULT 14 _ZN11unwindstack7DwarfOpI
588:   FUNC WEAK DEFAULT 14 _ZNSt3__112__hash_tableIN
589:   OBJECT GLOBAL DEFAULT 18 _ZTVN11unwindstack4MapsE
590:   FUNC GLOBAL DEFAULT 14 _ZN11unwindstack13LocalUn
591:   FUNC WEAK DEFAULT 14 _ZNSt3__114__split_buffer
592:   FUNC WEAK DEFAULT 14 _ZN11unwindstack11DwarfMe
593:   FUNC WEAK DEFAULT 14 _ZNSt3__112__hash_tableIN
594:   FUNC WEAK DEFAULT 14 _ZN11unwindstack8DwarfCfa
595:   FUNC WEAK DEFAULT 14 _ZNSt3__112__hash_tableIN
596:   FUNC WEAK DEFAULT 14 _ZN11unwindstack12ElfInte
597:   OBJECT GLOBAL DEFAULT 18 _ZTVN11unwindstack9RegsAr
598:   FUNC WEAK DEFAULT 14 _ZN11unwindstack8DwarfCfa
599:   FUNC WEAK DEFAULT 14 _ZN11unwindstack7DwarfOpI
600:   FUNC GLOBAL DEFAULT 14 _ZN11unwindstack18MemoryO
601:   FUNC GLOBAL DEFAULT 14 _ZN11unwindstack18MemoryO
602:   FUNC GLOBAL DEFAULT 14 _ZN11unwindstack10RegsX86
603:   FUNC WEAK DEFAULT 14 _ZN11unwindstack8DwarfCfa
604:   FUNC WEAK DEFAULT 14 _ZNSt3__112__hash_tableIN
605:   FUNC GLOBAL DEFAULT 14 _ZN11unwindstack8JitDebug
606:   FUNC WEAK DEFAULT 14 _ZN11unwindstack8DwarfCfa
607:   FUNC WEAK DEFAULT 14 _ZNSt3__112__hash_tableIN
608:   FUNC WEAK DEFAULT 14 _ZN11unwindstack7DwarfOpI
609:   FUNC WEAK DEFAULT 14 _ZN11unwindstack7DwarfOpI
610:   FUNC WEAK DEFAULT 14 _ZNSt3__112__hash_tableIN
611:   FUNC GLOBAL DEFAULT 14 _ZN11unwindstack8JitDebug
612:   FUNC WEAK DEFAULT 14 _ZN11unwindstack7DwarfOpI
613:   FUNC WEAK DEFAULT 14 _ZNSt3__112__hash_tableIN
614:   FUNC GLOBAL DEFAULT 14 _ZN11unwindstack8JitDebug
615:   FUNC WEAK DEFAULT 14 _ZN11unwindstack16DwarfSe
616:   FUNC GLOBAL DEFAULT 14 _ZN11unwindstack12ElfInte
617:   FUNC GLOBAL DEFAULT 14 _ZN11unwindstack19MemoryO
618:   FUNC GLOBAL DEFAULT 14 _ZN11unwindstack8RegsMips
619:   FUNC WEAK DEFAULT 14 _ZNSt3__112__hash_tableIN
620:   FUNC WEAK DEFAULT 14 _ZN11unwindstack7DwarfOpI
621:   FUNC WEAK DEFAULT 14 _ZN11unwindstack7DwarfOpI
622:   FUNC WEAK DEFAULT 14 _ZN11unwindstack7DwarfOpI
623:   OBJECT WEAK DEFAULT 18 _ZTVN11unwindstack14ElfIn
624:   FUNC GLOBAL DEFAULT 14 _ZN11unwindstack10RegsX86
625:   FUNC GLOBAL DEFAULT 14 _ZN11unwindstack8RegsMips
626:   FUNC GLOBAL DEFAULT 14 _ZN11unwindstack10RegsMip
627:   FUNC WEAK DEFAULT 14 _ZN11unwindstack16DwarfSe
628:   FUNC WEAK DEFAULT 14 _ZNSt3__112__hash_tableIN
629:   FUNC WEAK DEFAULT 14 _ZN11unwindstack7DwarfOpI
630:   FUNC WEAK DEFAULT 14 _ZNSt3__16vectorINS_12bas
631:   FUNC GLOBAL DEFAULT 14 _ZN11unwindstack8JitDebug
632:   FUNC GLOBAL DEFAULT 14 _ZN11unwindstack13LocalUn
633:   FUNC GLOBAL DEFAULT 14 _ZN9Demangler29ParseTempl
634:   FUNC WEAK DEFAULT 14 _ZNSt3__112__hash_tableIN
635:   FUNC WEAK DEFAULT 14 _ZN11unwindstack12ElfInte
636:   FUNC GLOBAL DEFAULT 14 _ZN11unwindstack10RegsMip
637:   FUNC WEAK DEFAULT 14 _ZN11unwindstack8DwarfCfa
638:   FUNC WEAK DEFAULT 14 _ZN11unwindstack12ElfInte
639:   FUNC WEAK DEFAULT 14 _ZNSt3__112__hash_tableIN
640:   FUNC GLOBAL DEFAULT 14 _ZN11unwindstack8RegsMips
641:   OBJECT WEAK DEFAULT 18 _ZN11unwindstack8DwarfCfa
642:   FUNC GLOBAL DEFAULT 14 _ZN11unwindstack3Elf16Ini
643:   OBJECT WEAK DEFAULT 18 _ZTVNSt3__120__shared_ptr
644:   OBJECT GLOBAL DEFAULT 18 _ZTVN11unwindstack8RegsMi
645:   FUNC WEAK DEFAULT 14 _ZN11unwindstack7DwarfOpI
646:   FUNC GLOBAL DEFAULT 14 _ZN11unwindstack7MapInfo1
647:   FUNC GLOBAL DEFAULT 14 _ZN11unwindstack8RegsMips
648:   FUNC WEAK DEFAULT 14 _ZN11unwindstack16DwarfSe
649:   FUNC WEAK DEFAULT 14 _ZNSt3__112__hash_tableIN
650:   FUNC GLOBAL DEFAULT 14 _ZN11unwindstack10RegsX86
651:   FUNC GLOBAL DEFAULT 14 _ZN11unwindstack10RegsMip
652:   FUNC WEAK DEFAULT 14 _ZN11unwindstack8DwarfCfa
653:   FUNC WEAK DEFAULT 14 _ZN11unwindstack21DwarfSe
654:   FUNC WEAK DEFAULT 14 _ZN11unwindstack21DwarfSe
655:   FUNC GLOBAL DEFAULT 14 _ZN11unwindstack18MemoryO
656:   FUNC WEAK DEFAULT 14 _ZN11unwindstack16DwarfSe
657:   OBJECT WEAK DEFAULT 18 _ZTVN11unwindstack12Dwarf
658:   FUNC GLOBAL DEFAULT 14 _ZN11unwindstack18MemoryF
659:   FUNC GLOBAL DEFAULT 14 _ZN11unwindstack7RegsArm6
660:   FUNC WEAK DEFAULT 14 _ZN11unwindstack8DwarfCfa
661:   FUNC GLOBAL DEFAULT 14 _ZN11unwindstack3Elf10Get
662:   FUNC GLOBAL DEFAULT 14 _ZN11unwindstack3Elf4Step
663:   FUNC WEAK DEFAULT 14 _ZN11unwindstack7DwarfOpI
664:   FUNC WEAK DEFAULT 14 _ZN11unwindstack7DwarfOpI
665:   FUNC WEAK DEFAULT 14 _ZNSt3__114__split_buffer
666:   FUNC WEAK DEFAULT 14 _ZN11unwindstack8DwarfCfa
667:   FUNC WEAK DEFAULT 14 _ZN11unwindstack19DwarfEh
668:   FUNC WEAK DEFAULT 14 _ZN11unwindstack7DwarfOpI
669:   FUNC WEAK DEFAULT 14 _ZNSt3__112__hash_tableIN
670:   FUNC GLOBAL DEFAULT 14 _ZN11unwindstack11MemoryR
671:   FUNC GLOBAL DEFAULT 14 _ZN11unwindstack9RegsArm6
672:   FUNC WEAK DEFAULT 14 _ZN11unwindstack7DwarfOpI
673:   FUNC WEAK DEFAULT 14 _ZN11unwindstack7DwarfOpI
674:   FUNC GLOBAL DEFAULT 14 _ZN11unwindstack8RegsMips
675:   FUNC WEAK DEFAULT 14 _ZN11unwindstack8DwarfCfa
676:   FUNC WEAK DEFAULT 14 _ZNSt3__112__hash_tableIN
677:   FUNC GLOBAL DEFAULT 14 _ZN11unwindstack12ElfInte
678:   OBJECT GLOBAL DEFAULT 18 _ZTVN11unwindstack11Memor
679:   FUNC WEAK DEFAULT 14 _ZN11unwindstack8DwarfCfa
680:   FUNC GLOBAL DEFAULT 14 _ZN11unwindstack13MemoryO
681:   FUNC GLOBAL DEFAULT 14 _ZN11unwindstack10RegsMip
682:   FUNC WEAK DEFAULT 14 _ZN11unwindstack8DwarfCfa
683:   FUNC GLOBAL DEFAULT 14 _ZN11unwindstack7RegsX864
684:   FUNC GLOBAL DEFAULT 14 _ZN11unwindstack7RegsX866
685:   FUNC WEAK DEFAULT 14 _ZN11unwindstack7DwarfOpI
686:   FUNC WEAK DEFAULT 14 _ZNSt3__112__hash_tableIN
687:   FUNC GLOBAL DEFAULT 14 _ZN11unwindstack18MemoryF
688:   FUNC WEAK DEFAULT 14 _ZN11unwindstack12ElfInte
689:   FUNC WEAK DEFAULT 14 _ZNSt3__114__split_buffer
690:   FUNC GLOBAL DEFAULT 14 _ZN11unwindstack7RegsX861
691:   FUNC GLOBAL DEFAULT 14 _ZN11unwindstack10RegsMip
692:   FUNC WEAK DEFAULT 14 _ZN11unwindstack8DwarfCfa
693:   FUNC WEAK DEFAULT 14 _ZN11unwindstack7DwarfOpI
694:   OBJECT WEAK DEFAULT 18 _ZTVNSt3__120__shared_ptr
695:   FUNC GLOBAL DEFAULT 14 _ZN11unwindstack10RegsMip
696:   FUNC GLOBAL DEFAULT 14 _ZN11unwindstack11DwarfMe
697:   FUNC WEAK DEFAULT 14 _ZN11unwindstack8DwarfCfa
698:   FUNC WEAK DEFAULT 14 _ZN11unwindstack8DwarfCfa
699:   FUNC WEAK DEFAULT 14 _ZN11unwindstack16DwarfSe
700:   FUNC WEAK DEFAULT 14 _ZN11unwindstack7DwarfOpI
701:   FUNC WEAK DEFAULT 14 _ZN11unwindstack15DwarfDe
702:   OBJECT GLOBAL DEFAULT 22 _ZN11unwindstack3Elf11cac
703:   OBJECT WEAK DEFAULT 18 _ZTVNSt3__120__shared_ptr
704:   FUNC GLOBAL DEFAULT 14 _ZN9Demangler24ParseArgum
705:   FUNC WEAK DEFAULT 14 _ZN11unwindstack8DwarfCfa
706:   FUNC WEAK DEFAULT 14 _ZN11unwindstack7DwarfOpI
707:   FUNC WEAK DEFAULT 14 _ZNSt3__112__hash_tableIN
708:   FUNC GLOBAL DEFAULT 14 _ZN11unwindstack9RegsArm6
709:   FUNC GLOBAL DEFAULT 14 _ZN9Demangler16FinalizeTe
710:   FUNC WEAK DEFAULT 14 _ZN11unwindstack7DwarfOpI
711:   FUNC WEAK DEFAULT 14 _ZN11unwindstack12ElfInte
712:   OBJECT GLOBAL DEFAULT 18 _ZTVN11unwindstack10Remot
713:   FUNC GLOBAL DEFAULT 14 _ZN11unwindstack18MemoryO
714:   FUNC GLOBAL DEFAULT 14 _ZN11unwindstack10RegsX86
715:   FUNC WEAK DEFAULT 14 _ZN11unwindstack7DwarfOpI
716:   FUNC GLOBAL DEFAULT 14 _ZN11unwindstack12ElfInte
717:   FUNC GLOBAL DEFAULT 14 _ZN11unwindstack4Maps4Sor
718:   FUNC WEAK DEFAULT 14 _ZN11unwindstack8DwarfCfa
719:   FUNC WEAK DEFAULT 14 _ZN11unwindstack7DwarfOpI
720:   FUNC GLOBAL DEFAULT 14 _ZN11unwindstack19MemoryO
721:   FUNC GLOBAL DEFAULT 14 _ZN11unwindstack3Elf8Cach
722:   FUNC WEAK DEFAULT 14 _ZNSt3__120__shared_ptr_p
723:   FUNC GLOBAL DEFAULT 14 _ZN9Demangler6ParseSEPKc
724:   FUNC WEAK DEFAULT 14 _ZN11unwindstack7DwarfOpI
725:   FUNC GLOBAL DEFAULT 14 _ZN11unwindstack13log_to_
726:   FUNC WEAK DEFAULT 14 _ZNSt3__112__hash_tableIN
727:   FUNC GLOBAL DEFAULT 14 _ZN9Demangler13AppendCurr
728:   OBJECT GLOBAL DEFAULT 22 _ZN11unwindstack3Elf14cac
729:   FUNC GLOBAL DEFAULT 14 _ZNK11unwindstack18LocalU
730:   FUNC GLOBAL DEFAULT 14 _ZN11unwindstack7Symbols1
731:   FUNC GLOBAL DEFAULT 14 _ZN11unwindstack12ElfInte
732:   FUNC GLOBAL DEFAULT 14 _ZN11unwindstack8RegsMips
733:   FUNC GLOBAL DEFAULT 14 _Z8demanglePKc
734:   OBJECT WEAK DEFAULT 18 _ZN9Demangler7kDTypesE
735:   FUNC WEAK DEFAULT 14 _ZN11unwindstack8DwarfCfa
736:   FUNC WEAK DEFAULT 14 _ZN11unwindstack8DwarfCfa
737:   FUNC WEAK DEFAULT 14 _ZN11unwindstack12ElfInte
738:   FUNC GLOBAL DEFAULT 14 _ZN11unwindstack8JitDebug
739:   OBJECT GLOBAL DEFAULT 18 _ZTVN11unwindstack10Buffe
740:   FUNC WEAK DEFAULT 14 _ZN11unwindstack7DwarfOpI
741:   FUNC WEAK DEFAULT 14 _ZN11unwindstack7DwarfOpI
742:   FUNC WEAK DEFAULT 14 _ZNSt3__16vectorIcNS_9all
743:   FUNC GLOBAL DEFAULT 14 _ZN11unwindstack10RegsX86
744:   OBJECT GLOBAL DEFAULT 18 _ZTVN11unwindstack13Memor
745:   FUNC WEAK DEFAULT 14 _ZN11unwindstack8DwarfCfa
746:   FUNC WEAK DEFAULT 14 _ZNSt3__114__split_buffer
747:   FUNC GLOBAL DEFAULT 14 _ZN11unwindstack6Global19
748:   FUNC GLOBAL DEFAULT 14 _ZN11unwindstack7MapInfo1
749:   FUNC GLOBAL DEFAULT 14 _ZN11unwindstack11MemoryC
750:   FUNC GLOBAL DEFAULT 14 _ZN9Demangler22ParseTempl
751:   FUNC GLOBAL DEFAULT 14 _ZN11unwindstack10RegsX86
752:   FUNC WEAK DEFAULT 14 _ZN11unwindstack8DwarfCfa
753:   FUNC WEAK DEFAULT 14 _ZN11unwindstack7DwarfOpI
754:   FUNC WEAK DEFAULT 14 _ZN11unwindstack12ElfInte
755:   FUNC WEAK DEFAULT 14 _ZNSt3__15dequeIhNS_9allo
756:   OBJECT WEAK DEFAULT 18 _ZTVN11unwindstack7DwarfO
757:   FUNC GLOBAL DEFAULT 14 _ZN11unwindstack6Memory9R
758:   FUNC WEAK DEFAULT 14 _ZN11unwindstack7DwarfOpI
759:   FUNC WEAK DEFAULT 14 _ZN11unwindstack7DwarfOpI
760:   FUNC WEAK DEFAULT 14 _ZN11unwindstack7DwarfOpI
761:   FUNC WEAK DEFAULT 14 _ZN11unwindstack21DwarfSe
762:   FUNC GLOBAL DEFAULT 14 _ZN11unwindstack7MapInfoD
763:   FUNC GLOBAL DEFAULT 14 _ZN11unwindstack7RegsArm4
764:   FUNC GLOBAL DEFAULT 14 _ZN11unwindstack7RegsX861
765:   FUNC WEAK DEFAULT 14 _ZNSt3__15dequeIN9Demangl
766:   FUNC WEAK DEFAULT 14 _ZNSt3__16vectorIM9Demang
767:   FUNC WEAK DEFAULT 14 _ZN11unwindstack7DwarfOpI
768:   FUNC GLOBAL DEFAULT 14 _ZN11unwindstack12DwarfSe
769:   FUNC WEAK DEFAULT 14 _ZN11unwindstack21DwarfSe
770:   FUNC WEAK DEFAULT 14 _ZN11unwindstack16DwarfSe
771:   FUNC GLOBAL DEFAULT 14 _ZN11unwindstack3Elf22Cac
772:   FUNC WEAK DEFAULT 14 _ZN11unwindstack16DwarfSe
773:   FUNC WEAK DEFAULT 14 _ZN11unwindstack12ElfInte
774:   FUNC WEAK DEFAULT 14 _ZN11unwindstack11DwarfMe
775:   FUNC WEAK DEFAULT 14 _ZN11unwindstack7DwarfOpI
776:   FUNC WEAK DEFAULT 14 _ZN11unwindstack21DwarfSe
777:   FUNC WEAK DEFAULT 14 _ZN11unwindstack12ElfInte
778:   FUNC WEAK DEFAULT 14 _ZN11unwindstack12ElfInte
779:   FUNC WEAK DEFAULT 14 _ZNSt3__112__hash_tableIN
780:   FUNC GLOBAL DEFAULT 14 _ZN11unwindstack15ElfInte
781:   FUNC GLOBAL DEFAULT 14 _ZN11unwindstack7RegsArm1
782:   OBJECT GLOBAL DEFAULT 18 _ZTVN11unwindstack7RegsAr
783:   OBJECT WEAK DEFAULT 18 _ZTVN11unwindstack8RegsIm
784:   FUNC WEAK DEFAULT 14 _ZN11unwindstack8DwarfCfa
785:   FUNC WEAK DEFAULT 14 _ZNSt3__15dequeIN11unwind
786:   FUNC WEAK DEFAULT 14 _ZN11unwindstack16DwarfSe
787:   FUNC WEAK DEFAULT 14 _ZNSt3__16__treeINS_12__v
788:   OBJECT WEAK DEFAULT 18 _ZTVN11unwindstack16Dwarf
789:   FUNC GLOBAL DEFAULT 14 _ZN11unwindstack3Elf19Get
790:   FUNC GLOBAL DEFAULT 14 _ZN11unwindstack8RegsMips
791:   FUNC WEAK DEFAULT 14 _ZNSt3__127__insertion_so
792:   OBJECT WEAK DEFAULT 18 _ZTVN11unwindstack15Dwarf
793:   FUNC WEAK DEFAULT 14 _ZN11unwindstack12ElfInte
794:   FUNC GLOBAL DEFAULT 14 _ZN11unwindstack7RegsX862
795:   FUNC GLOBAL DEFAULT 14 _ZN11unwindstack8Unwinder
