 0x0000000e (SONAME)                     Library soname: [libpackagelistparser.so]
  
Symbol   contains 30 entries:
Num:   Type Bind Vis Ndx Name
0:   NOTYPE LOCAL DEFAULT UND
1:   FUNC GLOBAL DEFAULT UND __cxa_finalize@LIBC (2)
2:   FUNC GLOBAL DEFAULT UND __android_log_is_loggable@LIBLOG_O (3)
3:   FUNC GLOBAL DEFAULT UND __android_log_print@LIBLOG (4)
4:   FUNC GLOBAL DEFAULT UND __errno@LIBC (2)
5:   FUNC GLOBAL DEFAULT UND __stack_chk_fail@LIBC (2)
6:   OBJECT GLOBAL DEFAULT UND __stack_chk_guard@LIBC (2)
7:   FUNC GLOBAL DEFAULT UND calloc@LIBC (2)
8:   FUNC GLOBAL DEFAULT UND fclose@LIBC (2)
9:   FUNC GLOBAL DEFAULT UND fopen@LIBC (2)
10:   FUNC GLOBAL DEFAULT UND free@LIBC (2)
11:   FUNC GLOBAL DEFAULT UND getline@LIBC (2)
12:   FUNC GLOBAL DEFAULT UND strcmp@LIBC (2)
13:   FUNC GLOBAL DEFAULT UND strdup@LIBC (2)
14:   FUNC GLOBAL DEFAULT UND strerror@LIBC (2)
15:   FUNC GLOBAL DEFAULT UND strsep@LIBC (2)
16:   FUNC GLOBAL DEFAULT UND strtoul@LIBC (2)
17:   FUNC GLOBAL DEFAULT UND abort@LIBC (2)
18:   FUNC WEAK DEFAULT UND android_set_abort_message@LIBC (2)
19:   FUNC GLOBAL DEFAULT UND strlen@LIBC (2)
20:   FUNC GLOBAL DEFAULT UND write@LIBC (2)
21:   FUNC GLOBAL DEFAULT UND memset@LIBC (2)
22:   FUNC GLOBAL DEFAULT 13 packagelist_free
23:   FUNC GLOBAL DEFAULT 13 __aeabi_memclr
24:   FUNC GLOBAL DEFAULT 13 __aeabi_memclr4
25:   FUNC GLOBAL DEFAULT 13 __aeabi_memclr8
26:   FUNC GLOBAL DEFAULT 13 packagelist_parse
27:   FUNC GLOBAL DEFAULT 13 __aeabi_memset
28:   FUNC GLOBAL DEFAULT 13 __aeabi_memset4
29:   FUNC GLOBAL DEFAULT 13 __aeabi_memset8
