 0x0000000e (SONAME)                     Library soname: [libpng.so]
  
Symbol   contains 457 entries:
Num:   Type Bind Vis Ndx Name
0:   NOTYPE LOCAL DEFAULT UND
1:   FUNC GLOBAL DEFAULT UND __cxa_finalize@LIBC (2)
2:   FUNC GLOBAL DEFAULT UND __stack_chk_fail@LIBC (2)
3:   OBJECT GLOBAL DEFAULT UND __stack_chk_guard@LIBC (2)
4:   FUNC GLOBAL DEFAULT UND adler32
5:   FUNC GLOBAL DEFAULT UND crc32
6:   FUNC GLOBAL DEFAULT UND fclose@LIBC (2)
7:   FUNC GLOBAL DEFAULT UND floor@LIBC (3)
8:   FUNC GLOBAL DEFAULT UND free@LIBC (2)
9:   FUNC GLOBAL DEFAULT UND frexp@LIBC (3)
10:   FUNC GLOBAL DEFAULT UND inflateReset
11:   FUNC GLOBAL DEFAULT UND longjmp@LIBC (2)
12:   FUNC GLOBAL DEFAULT UND memcmp@LIBC (2)
13:   FUNC GLOBAL DEFAULT UND modf@LIBC (3)
14:   FUNC GLOBAL DEFAULT UND pow@LIBC (3)
15:   FUNC GLOBAL DEFAULT UND setjmp@LIBC (2)
16:   FUNC GLOBAL DEFAULT UND abort@LIBC (2)
17:   FUNC GLOBAL DEFAULT UND fprintf@LIBC (2)
18:   FUNC GLOBAL DEFAULT UND fputc@LIBC (2)
19:   OBJECT GLOBAL DEFAULT UND stderr@LIBC (2)
20:   FUNC GLOBAL DEFAULT UND atof@LIBC (2)
21:   FUNC GLOBAL DEFAULT UND malloc@LIBC (2)
22:   FUNC GLOBAL DEFAULT UND __memcpy_chk@LIBC (2)
23:   FUNC GLOBAL DEFAULT UND __errno@LIBC (2)
24:   FUNC GLOBAL DEFAULT UND fopen@LIBC (2)
25:   FUNC GLOBAL DEFAULT UND inflateEnd
26:   FUNC GLOBAL DEFAULT UND strerror@LIBC (2)
27:   FUNC GLOBAL DEFAULT UND fread@LIBC (2)
28:   FUNC GLOBAL DEFAULT UND inflate
29:   FUNC GLOBAL DEFAULT UND inflateInit2_
30:   FUNC GLOBAL DEFAULT UND inflateReset2
31:   FUNC GLOBAL DEFAULT UND inflateValidate
32:   FUNC GLOBAL DEFAULT UND strlen@LIBC (2)
33:   FUNC GLOBAL DEFAULT UND fflush@LIBC (2)
34:   FUNC GLOBAL DEFAULT UND fwrite@LIBC (2)
35:   FUNC GLOBAL DEFAULT UND deflateEnd
36:   FUNC GLOBAL DEFAULT UND ferror@LIBC (2)
37:   FUNC GLOBAL DEFAULT UND gmtime@LIBC (2)
38:   FUNC GLOBAL DEFAULT UND remove@LIBC (2)
39:   FUNC GLOBAL DEFAULT UND deflate
40:   FUNC GLOBAL DEFAULT UND deflateInit2_
41:   FUNC GLOBAL DEFAULT UND deflateReset
42:   FUNC GLOBAL DEFAULT UND memcpy@LIBC (2)
43:   FUNC GLOBAL DEFAULT UND memset@LIBC (2)
44:   FUNC GLOBAL DEFAULT 14 png_colorspace_sync
45:   FUNC GLOBAL DEFAULT 14 png_fixed_error
46:   FUNC GLOBAL DEFAULT 14 png_set_shift
47:   FUNC GLOBAL DEFAULT 14 png_set_gAMA
48:   FUNC GLOBAL DEFAULT 14 png_write_cHRM_fixed
49:   FUNC GLOBAL DEFAULT 14 png_icc_check_length
50:   FUNC GLOBAL DEFAULT 14 png_process_data
51:   FUNC GLOBAL DEFAULT 14 png_push_read_IDAT
52:   FUNC GLOBAL DEFAULT 14 png_push_read_chunk
53:   FUNC GLOBAL DEFAULT 14 png_default_write_data
54:   FUNC GLOBAL DEFAULT 14 png_read_filter_row_avg4_
55:   FUNC GLOBAL DEFAULT 14 png_get_sCAL_fixed
56:   FUNC GLOBAL DEFAULT 14 png_push_process_row
57:   FUNC GLOBAL DEFAULT 14 png_calloc
58:   FUNC GLOBAL DEFAULT 14 png_check_chunk_length
59:   FUNC GLOBAL DEFAULT 14 __aeabi_memset8
60:   FUNC GLOBAL DEFAULT 14 png_read_filter_row_up_ne
61:   OBJECT GLOBAL DEFAULT 13 png_sRGB_delta
62:   FUNC GLOBAL DEFAULT 14 png_get_palette_max
63:   FUNC GLOBAL DEFAULT 14 png_destroy_png_struct
64:   FUNC GLOBAL DEFAULT 14 png_write_iTXt
65:   FUNC GLOBAL DEFAULT 14 png_icc_check_tag_table
66:   FUNC GLOBAL DEFAULT 14 png_safe_error
67:   FUNC GLOBAL DEFAULT 14 png_get_rgb_to_gray_statu
68:   FUNC GLOBAL DEFAULT 14 png_image_finish_read
69:   FUNC GLOBAL DEFAULT 14 png_build_grayscale_palet
70:   FUNC GLOBAL DEFAULT 14 png_handle_sRGB
71:   FUNC GLOBAL DEFAULT 14 png_set_sCAL_fixed
72:   FUNC GLOBAL DEFAULT 14 png_benign_error
73:   FUNC GLOBAL DEFAULT 14 png_image_error
74:   FUNC GLOBAL DEFAULT 14 png_get_cHRM_fixed
75:   FUNC GLOBAL DEFAULT 14 png_get_x_offset_inches_f
76:   FUNC GLOBAL DEFAULT 14 png_set_invalid
77:   FUNC GLOBAL DEFAULT 14 png_set_text_compression_
78:   FUNC GLOBAL DEFAULT 14 png_ascii_from_fp
79:   FUNC GLOBAL DEFAULT 14 png_malloc_base
80:   FUNC GLOBAL DEFAULT 14 png_set_interlace_handlin
81:   FUNC GLOBAL DEFAULT 14 png_set_sCAL_s
82:   FUNC GLOBAL DEFAULT 14 png_read_filter_row_paeth
83:   FUNC GLOBAL DEFAULT 14 png_combine_row
84:   FUNC GLOBAL DEFAULT 14 png_permit_mng_features
85:   FUNC GLOBAL DEFAULT 14 png_get_libpng_ver
86:   FUNC GLOBAL DEFAULT 14 png_realloc_array
87:   FUNC GLOBAL DEFAULT 14 png_format_number
88:   FUNC GLOBAL DEFAULT 14 png_handle_iTXt
89:   FUNC GLOBAL DEFAULT 14 png_handle_unknown
90:   FUNC GLOBAL DEFAULT 14 png_push_have_info
91:   FUNC GLOBAL DEFAULT 14 png_read_info
92:   FUNC GLOBAL DEFAULT 14 png_get_signature
93:   FUNC GLOBAL DEFAULT 14 png_do_read_interlace
94:   FUNC GLOBAL DEFAULT 14 png_do_swap
95:   FUNC GLOBAL DEFAULT 14 png_set_cHRM
96:   FUNC GLOBAL DEFAULT 14 png_build_gamma_table
97:   FUNC GLOBAL DEFAULT 14 png_write_row
98:   FUNC GLOBAL DEFAULT 14 png_reciprocal
99:   FUNC GLOBAL DEFAULT 14 png_get_PLTE
100:   FUNC GLOBAL DEFAULT 14 png_get_bit_depth
101:   FUNC GLOBAL DEFAULT 14 png_push_read_sig
102:   FUNC GLOBAL DEFAULT 14 png_set_filter_heuristics
103:   FUNC GLOBAL DEFAULT 14 png_init_io
104:   FUNC GLOBAL DEFAULT 14 png_get_unknown_chunks
105:   FUNC GLOBAL DEFAULT 14 png_do_strip_channel
106:   FUNC GLOBAL DEFAULT 14 png_check_keyword
107:   FUNC GLOBAL DEFAULT 14 png_set_compression_buffe
108:   FUNC GLOBAL DEFAULT 14 png_write_PLTE
109:   FUNC GLOBAL DEFAULT 14 png_write_image
110:   FUNC GLOBAL DEFAULT 14 png_destroy_read_struct
111:   FUNC GLOBAL DEFAULT 14 png_save_uint_32
112:   FUNC GLOBAL DEFAULT 14 png_read_row
113:   FUNC GLOBAL DEFAULT 14 png_set_read_status_fn
114:   FUNC GLOBAL DEFAULT 14 png_set_text_compression_
115:   FUNC GLOBAL DEFAULT 14 png_write_chunk_start
116:   FUNC GLOBAL DEFAULT 14 png_colorspace_set_rgb_co
117:   FUNC GLOBAL DEFAULT 14 png_destroy_gamma_table
118:   FUNC GLOBAL DEFAULT 14 png_set_swap_alpha
119:   FUNC GLOBAL DEFAULT 14 png_get_x_offset_inches
120:   FUNC GLOBAL DEFAULT 14 png_crc_finish
121:   FUNC GLOBAL DEFAULT 14 png_create_write_struct
122:   FUNC GLOBAL DEFAULT 14 png_write_end
123:   FUNC GLOBAL DEFAULT 14 png_get_user_height_max
124:   FUNC GLOBAL DEFAULT 14 png_get_y_offset_inches
125:   FUNC GLOBAL DEFAULT 14 png_image_begin_read_from
126:   FUNC GLOBAL DEFAULT 14 png_set_flush
127:   FUNC GLOBAL DEFAULT 14 png_write_flush
128:   FUNC GLOBAL DEFAULT 14 png_gamma_correct
129:   FUNC GLOBAL DEFAULT 14 png_convert_to_rfc1123_bu
130:   FUNC GLOBAL DEFAULT 14 png_do_read_transformatio
131:   FUNC GLOBAL DEFAULT 14 png_read_end
132:   FUNC GLOBAL DEFAULT 14 png_set_IHDR
133:   FUNC GLOBAL DEFAULT 14 png_set_unknown_chunk_loc
134:   FUNC GLOBAL DEFAULT 14 png_convert_from_time_t
135:   FUNC GLOBAL DEFAULT 14 png_get_filter_type
136:   FUNC GLOBAL DEFAULT 14 png_get_iCCP
137:   FUNC GLOBAL DEFAULT 14 png_handle_PLTE
138:   FUNC GLOBAL DEFAULT 14 png_set_background
139:   FUNC GLOBAL DEFAULT 14 png_set_error_fn
140:   FUNC GLOBAL DEFAULT 14 png_set_rows
141:   FUNC GLOBAL DEFAULT 14 png_write_iCCP
142:   FUNC GLOBAL DEFAULT 14 png_chunk_unknown_handlin
143:   FUNC GLOBAL DEFAULT 14 png_destroy_write_struct
144:   FUNC GLOBAL DEFAULT 14 png_get_channels
145:   FUNC GLOBAL DEFAULT 14 png_set_write_fn
146:   FUNC GLOBAL DEFAULT 14 png_create_write_struct_2
147:   FUNC GLOBAL DEFAULT 14 png_do_write_interlace
148:   FUNC GLOBAL DEFAULT 14 __aeabi_uidivmod
149:   FUNC GLOBAL DEFAULT 14 png_zfree
150:   FUNC GLOBAL DEFAULT 14 png_get_int_32
151:   FUNC GLOBAL DEFAULT 14 png_set_sCAL
152:   FUNC GLOBAL DEFAULT 14 png_compress_IDAT
153:   FUNC GLOBAL DEFAULT 14 png_get_cHRM_XYZ_fixed
154:   FUNC GLOBAL DEFAULT 14 png_do_invert
155:   FUNC GLOBAL DEFAULT 14 png_get_io_ptr
156:   FUNC GLOBAL DEFAULT 14 png_set_cHRM_XYZ
157:   FUNC GLOBAL DEFAULT 14 png_set_compression_level
158:   FUNC GLOBAL DEFAULT 14 png_check_chunk_name
159:   FUNC GLOBAL DEFAULT 14 png_image_begin_read_from
160:   FUNC GLOBAL DEFAULT 14 png_read_finish_row
161:   FUNC GLOBAL DEFAULT 14 png_save_int_32
162:   FUNC GLOBAL DEFAULT 14 png_zalloc
163:   FUNC GLOBAL DEFAULT 14 png_get_mem_ptr
164:   FUNC GLOBAL DEFAULT 14 png_set_user_limits
165:   FUNC GLOBAL DEFAULT 14 png_write_start_row
166:   FUNC GLOBAL DEFAULT 14 png_get_tRNS
167:   FUNC GLOBAL DEFAULT 14 png_handle_iCCP
168:   FUNC GLOBAL DEFAULT 14 png_read_rows
169:   FUNC GLOBAL DEFAULT 14 png_set_sPLT
170:   FUNC GLOBAL DEFAULT 14 png_muldiv_warn
171:   FUNC GLOBAL DEFAULT 14 png_get_y_offset_inches_f
172:   FUNC GLOBAL DEFAULT 14 png_set_invert_mono
173:   FUNC GLOBAL DEFAULT 14 png_write_tRNS
174:   FUNC GLOBAL DEFAULT 14 png_set_sBIT
175:   FUNC GLOBAL DEFAULT 14 __aeabi_uidiv
176:   FUNC GLOBAL DEFAULT 14 png_colorspace_set_gamma
177:   FUNC GLOBAL DEFAULT 14 png_set_mem_fn
178:   FUNC GLOBAL DEFAULT 14 png_get_gAMA
179:   FUNC GLOBAL DEFAULT 14 png_process_data_pause
180:   FUNC GLOBAL DEFAULT 14 png_process_some_data
181:   FUNC GLOBAL DEFAULT 14 png_read_finish_IDAT
182:   FUNC GLOBAL DEFAULT 14 png_set_bKGD
183:   FUNC GLOBAL DEFAULT 14 png_safecat
184:   FUNC GLOBAL DEFAULT 14 png_get_io_state
185:   FUNC GLOBAL DEFAULT 14 png_get_progressive_ptr
186:   FUNC GLOBAL DEFAULT 14 png_set_oFFs
187:   FUNC GLOBAL DEFAULT 14 png_convert_to_rfc1123
188:   OBJECT GLOBAL DEFAULT 13 png_sRGB_base
189:   FUNC GLOBAL DEFAULT 14 png_get_pixels_per_meter
190:   FUNC GLOBAL DEFAULT 14 png_set_packswap
191:   FUNC GLOBAL DEFAULT 14 png_set_chunk_cache_max
192:   FUNC GLOBAL DEFAULT 14 png_write_chunk_data
193:   FUNC GLOBAL DEFAULT 14 png_access_version_number
194:   FUNC GLOBAL DEFAULT 14 png_muldiv
195:   FUNC GLOBAL DEFAULT 14 png_zlib_inflate
196:   FUNC GLOBAL DEFAULT 14 png_get_image_width
197:   FUNC GLOBAL DEFAULT 14 png_set_scale_16
198:   FUNC GLOBAL DEFAULT 14 png_do_packswap
199:   FUNC GLOBAL DEFAULT 14 png_set_tIME
200:   FUNC GLOBAL DEFAULT 14 png_set_text_2
201:   FUNC GLOBAL DEFAULT 14 png_gamma_8bit_correct
202:   FUNC GLOBAL DEFAULT 14 png_get_gAMA_fixed
203:   FUNC GLOBAL DEFAULT 14 png_handle_tRNS
204:   FUNC GLOBAL DEFAULT 14 png_set_keep_unknown_chun
205:   FUNC GLOBAL DEFAULT 14 png_write_info
206:   FUNC GLOBAL DEFAULT 14 png_process_data_skip
207:   FUNC GLOBAL DEFAULT 14 png_write_tEXt
208:   FUNC GLOBAL DEFAULT 14 png_app_error
209:   FUNC GLOBAL DEFAULT 14 png_get_color_type
210:   FUNC GLOBAL DEFAULT 14 png_get_valid
211:   FUNC GLOBAL DEFAULT 14 png_get_y_pixels_per_inch
212:   FUNC GLOBAL DEFAULT 14 png_set_expand_16
213:   FUNC GLOBAL DEFAULT 14 png_free_buffer_list
214:   FUNC GLOBAL DEFAULT 14 png_write_zTXt
215:   FUNC GLOBAL DEFAULT 14 png_handle_gAMA
216:   FUNC GLOBAL DEFAULT 14 png_get_interlace_type
217:   FUNC GLOBAL DEFAULT 14 png_set_crc_action
218:   FUNC GLOBAL DEFAULT 14 png_set_gAMA_fixed
219:   FUNC GLOBAL DEFAULT 14 png_get_current_pass_numb
220:   FUNC GLOBAL DEFAULT 14 png_create_png_struct
221:   FUNC GLOBAL DEFAULT 14 __udivmodsi4
222:   FUNC GLOBAL DEFAULT 14 png_safe_execute
223:   FUNC GLOBAL DEFAULT 14 png_default_read_data
224:   FUNC GLOBAL DEFAULT 14 png_set_compression_mem_l
225:   FUNC GLOBAL DEFAULT 14 png_set_write_user_transf
226:   FUNC GLOBAL DEFAULT 14 png_free_data
227:   FUNC GLOBAL DEFAULT 14 png_get_cHRM
228:   FUNC GLOBAL DEFAULT 14 png_get_user_width_max
229:   FUNC GLOBAL DEFAULT 14 png_malloc_array
230:   FUNC GLOBAL DEFAULT 14 __aeabi_memcpy4
231:   FUNC GLOBAL DEFAULT 14 png_handle_tEXt
232:   FUNC GLOBAL DEFAULT 14 png_progressive_combine_r
233:   FUNC GLOBAL DEFAULT 14 png_set_eXIf
234:   FUNC GLOBAL DEFAULT 14 png_set_filter
235:   FUNC GLOBAL DEFAULT 14 png_fixed
236:   FUNC GLOBAL DEFAULT 14 png_free_jmpbuf
237:   FUNC GLOBAL DEFAULT 14 png_handle_zTXt
238:   FUNC GLOBAL DEFAULT 14 png_set_alpha_mode
239:   FUNC GLOBAL DEFAULT 14 __aeabi_memset
240:   FUNC GLOBAL DEFAULT 14 png_push_fill_buffer
241:   FUNC GLOBAL DEFAULT 14 png_set_background_fixed
242:   FUNC GLOBAL DEFAULT 14 png_set_rgb_to_gray
243:   FUNC GLOBAL DEFAULT 14 png_set_eXIf_1
244:   FUNC GLOBAL DEFAULT 14 png_set_pHYs
245:   FUNC GLOBAL DEFAULT 14 png_write_find_filter
246:   FUNC GLOBAL DEFAULT 14 png_get_io_chunk_type
247:   FUNC GLOBAL DEFAULT 14 png_get_uint_31
248:   FUNC GLOBAL DEFAULT 14 png_set_bgr
249:   FUNC GLOBAL DEFAULT 14 png_set_gamma
250:   FUNC GLOBAL DEFAULT 14 png_do_write_transformati
251:   FUNC GLOBAL DEFAULT 14 png_get_error_ptr
252:   FUNC GLOBAL DEFAULT 14 png_crc_read
253:   FUNC GLOBAL DEFAULT 14 png_get_uint_32
254:   FUNC GLOBAL DEFAULT 14 __aeabi_memcpy8
255:   FUNC GLOBAL DEFAULT 14 png_read_data
256:   FUNC GLOBAL DEFAULT 14 png_image_write_to_stdio
257:   FUNC GLOBAL DEFAULT 14 png_data_freer
258:   FUNC GLOBAL DEFAULT 14 png_icc_set_sRGB
259:   FUNC GLOBAL DEFAULT 14 png_read_IDAT_data
260:   FUNC GLOBAL DEFAULT 14 png_set_unknown_chunks
261:   FUNC GLOBAL DEFAULT 14 png_image_write_to_file
262:   FUNC GLOBAL DEFAULT 14 png_write_png
263:   FUNC GLOBAL DEFAULT 14 png_handle_as_unknown
264:   FUNC GLOBAL DEFAULT 14 png_handle_cHRM
265:   FUNC GLOBAL DEFAULT 14 png_read_push_finish_row
266:   FUNC GLOBAL DEFAULT 14 png_image_write_to_memory
267:   FUNC GLOBAL DEFAULT 14 __aeabi_memclr
268:   FUNC GLOBAL DEFAULT 14 png_colorspace_set_ICC
269:   FUNC GLOBAL DEFAULT 14 png_get_IHDR
270:   FUNC GLOBAL DEFAULT 14 png_get_sCAL_s
271:   FUNC GLOBAL DEFAULT 14 png_user_version_check
272:   FUNC GLOBAL DEFAULT 14 png_get_user_chunk_ptr
273:   FUNC GLOBAL DEFAULT 14 png_read_png
274:   FUNC GLOBAL DEFAULT 14 png_set_pCAL
275:   FUNC GLOBAL DEFAULT 14 png_set_compression_metho
276:   FUNC GLOBAL DEFAULT 14 png_write_IHDR
277:   FUNC GLOBAL DEFAULT 14 png_get_chunk_cache_max
278:   FUNC GLOBAL DEFAULT 14 png_get_pixel_aspect_rati
279:   FUNC GLOBAL DEFAULT 14 png_get_rows
280:   FUNC GLOBAL DEFAULT 14 png_ascii_from_fixed
281:   FUNC GLOBAL DEFAULT 14 png_set_option
282:   FUNC GLOBAL DEFAULT 14 png_longjmp
283:   FUNC GLOBAL DEFAULT 14 png_push_save_buffer
284:   FUNC GLOBAL DEFAULT 14 png_set_compression_windo
285:   FUNC GLOBAL DEFAULT 14 png_write_rows
286:   FUNC GLOBAL DEFAULT 14 png_save_uint_16
287:   FUNC GLOBAL DEFAULT 14 png_colorspace_set_sRGB
288:   FUNC GLOBAL DEFAULT 14 png_get_chunk_malloc_max
289:   FUNC GLOBAL DEFAULT 14 png_get_sCAL
290:   FUNC GLOBAL DEFAULT 14 png_do_bgr
291:   FUNC GLOBAL DEFAULT 14 png_init_filter_functions
292:   FUNC GLOBAL DEFAULT 14 png_set_text_compression_
293:   FUNC GLOBAL DEFAULT 14 png_colorspace_set_chroma
294:   FUNC GLOBAL DEFAULT 14 png_free_default
295:   FUNC GLOBAL DEFAULT 14 png_set_rgb_to_gray_fixed
296:   FUNC GLOBAL DEFAULT 14 png_convert_from_struct_t
297:   FUNC GLOBAL DEFAULT 14 png_read_filter_row_sub3_
298:   FUNC GLOBAL DEFAULT 14 png_get_x_offset_pixels
299:   FUNC GLOBAL DEFAULT 14 png_get_y_offset_pixels
300:   FUNC GLOBAL DEFAULT 14 png_set_expand
301:   FUNC GLOBAL DEFAULT 14 png_set_gamma_fixed
302:   FUNC GLOBAL DEFAULT 14 png_set_read_user_transfo
303:   FUNC GLOBAL DEFAULT 14 png_set_hIST
304:   FUNC GLOBAL DEFAULT 14 png_set_filter_heuristics
305:   FUNC GLOBAL DEFAULT 14 png_get_y_offset_microns
306:   FUNC GLOBAL DEFAULT 14 png_handle_IHDR
307:   FUNC GLOBAL DEFAULT 14 png_set_read_user_chunk_f
308:   FUNC GLOBAL DEFAULT 14 png_get_copyright
309:   FUNC GLOBAL DEFAULT 14 png_get_cHRM_XYZ
310:   FUNC GLOBAL DEFAULT 14 png_get_sPLT
311:   FUNC GLOBAL DEFAULT 14 png_get_x_pixels_per_mete
312:   FUNC GLOBAL DEFAULT 14 png_create_read_struct_2
313:   FUNC GLOBAL DEFAULT 14 png_set_cHRM_XYZ_fixed
314:   FUNC GLOBAL DEFAULT 14 png_default_flush
315:   FUNC GLOBAL DEFAULT 14 png_write_chunk
316:   FUNC GLOBAL DEFAULT 14 png_get_header_ver
317:   FUNC GLOBAL DEFAULT 14 png_set_tRNS_to_alpha
318:   FUNC GLOBAL DEFAULT 14 png_init_read_transformat
319:   FUNC GLOBAL DEFAULT 14 png_write_sPLT
320:   FUNC GLOBAL DEFAULT 14 png_write_sig
321:   FUNC GLOBAL DEFAULT 14 png_zstream_error
322:   FUNC GLOBAL DEFAULT 14 png_get_sBIT
323:   FUNC GLOBAL DEFAULT 14 png_set_swap
324:   FUNC GLOBAL DEFAULT 14 png_set_text
325:   FUNC GLOBAL DEFAULT 14 png_get_bKGD
326:   FUNC GLOBAL DEFAULT 14 png_handle_sCAL
327:   FUNC GLOBAL DEFAULT 14 png_process_IDAT_data
328:   FUNC GLOBAL DEFAULT 14 png_set_quantize
329:   FUNC GLOBAL DEFAULT 14 png_write_sBIT
330:   FUNC GLOBAL DEFAULT 14 png_free
331:   FUNC GLOBAL DEFAULT 14 png_app_warning
332:   FUNC GLOBAL DEFAULT 14 png_get_oFFs
333:   FUNC GLOBAL DEFAULT 14 png_push_have_row
334:   FUNC GLOBAL DEFAULT 14 png_create_read_struct
335:   FUNC GLOBAL DEFAULT 14 png_read_sig
336:   FUNC GLOBAL DEFAULT 14 png_read_update_info
337:   FUNC GLOBAL DEFAULT 14 png_write_bKGD
338:   FUNC GLOBAL DEFAULT 14 png_set_sRGB
339:   FUNC GLOBAL DEFAULT 14 png_write_oFFs
340:   FUNC GLOBAL DEFAULT 14 png_get_header_version
341:   FUNC GLOBAL DEFAULT 14 png_get_tIME
342:   FUNC GLOBAL DEFAULT 14 png_read_start_row
343:   FUNC GLOBAL DEFAULT 14 png_set_compression_strat
344:   FUNC GLOBAL DEFAULT 14 png_error
345:   FUNC GLOBAL DEFAULT 14 png_sig_cmp
346:   FUNC GLOBAL DEFAULT 14 png_handle_sPLT
347:   FUNC GLOBAL DEFAULT 14 png_set_gray_to_rgb
348:   FUNC GLOBAL DEFAULT 14 png_set_sRGB_gAMA_and_cHR
349:   FUNC GLOBAL DEFAULT 14 png_write_gAMA_fixed
350:   FUNC GLOBAL DEFAULT 14 png_write_tIME
351:   FUNC GLOBAL DEFAULT 14 png_write_chunk_end
352:   FUNC GLOBAL DEFAULT 14 png_image_free
353:   FUNC GLOBAL DEFAULT 14 png_push_have_end
354:   FUNC GLOBAL DEFAULT 14 png_create_info_struct
355:   FUNC GLOBAL DEFAULT 14 png_reset_zstream
356:   FUNC GLOBAL DEFAULT 14 png_set_sig_bytes
357:   FUNC GLOBAL DEFAULT 14 png_handle_sBIT
358:   FUNC GLOBAL DEFAULT 14 png_set_expand_gray_1_2_4
359:   FUNC GLOBAL DEFAULT 14 png_handle_bKGD
360:   FUNC GLOBAL DEFAULT 14 png_set_cHRM_fixed
361:   FUNC GLOBAL DEFAULT 14 png_set_chunk_malloc_max
362:   FUNC GLOBAL DEFAULT 14 png_handle_oFFs
363:   FUNC GLOBAL DEFAULT 14 png_set_strip_alpha
364:   FUNC GLOBAL DEFAULT 14 png_set_text_compression_
365:   FUNC GLOBAL DEFAULT 14 png_read_filter_row_avg3_
366:   FUNC GLOBAL DEFAULT 14 png_chunk_report
367:   FUNC GLOBAL DEFAULT 14 png_malloc
368:   FUNC GLOBAL DEFAULT 14 png_write_sCAL_s
369:   FUNC GLOBAL DEFAULT 14 png_icc_check_header
370:   FUNC GLOBAL DEFAULT 14 png_get_pHYs_dpi
371:   FUNC GLOBAL DEFAULT 14 png_get_y_pixels_per_mete
372:   FUNC GLOBAL DEFAULT 14 png_malloc_default
373:   FUNC GLOBAL DEFAULT 14 png_handle_tIME
374:   FUNC GLOBAL DEFAULT 14 png_set_add_alpha
375:   FUNC GLOBAL DEFAULT 14 png_set_alpha_mode_fixed
376:   FUNC GLOBAL DEFAULT 14 png_write_data
377:   FUNC GLOBAL DEFAULT 14 png_get_eXIf
378:   FUNC GLOBAL DEFAULT 14 png_push_restore_buffer
379:   FUNC GLOBAL DEFAULT 14 png_start_read_image
380:   FUNC GLOBAL DEFAULT 14 png_get_image_height
381:   FUNC GLOBAL DEFAULT 14 png_read_image
382:   FUNC GLOBAL DEFAULT 14 png_write_eXIf
383:   FUNC GLOBAL DEFAULT 14 png_check_fp_string
384:   FUNC GLOBAL DEFAULT 14 png_gamma_16bit_correct
385:   FUNC GLOBAL DEFAULT 14 png_get_pHYs
386:   FUNC GLOBAL DEFAULT 14 png_colorspace_sync_info
387:   FUNC GLOBAL DEFAULT 14 png_set_progressive_read_
388:   FUNC GLOBAL DEFAULT 14 png_write_pHYs
389:   FUNC GLOBAL DEFAULT 14 png_calculate_crc
390:   FUNC GLOBAL DEFAULT 14 png_malloc_warn
391:   FUNC GLOBAL DEFAULT 14 png_set_write_status_fn
392:   FUNC GLOBAL DEFAULT 14 png_read_filter_row_paeth
393:   FUNC GLOBAL DEFAULT 14 png_read_filter_row
394:   FUNC GLOBAL DEFAULT 14 png_set_read_fn
395:   FUNC GLOBAL DEFAULT 14 png_set_PLTE
396:   FUNC GLOBAL DEFAULT 14 png_get_current_row_numbe
397:   FUNC GLOBAL DEFAULT 14 png_write_info_before_PLT
398:   FUNC GLOBAL DEFAULT 14 png_destroy_info_struct
399:   FUNC GLOBAL DEFAULT 14 png_get_x_pixels_per_inch
400:   FUNC GLOBAL DEFAULT 14 png_check_IHDR
401:   FUNC GLOBAL DEFAULT 14 png_get_compression_buffe
402:   FUNC GLOBAL DEFAULT 14 png_handle_eXIf
403:   FUNC GLOBAL DEFAULT 14 png_set_benign_errors
404:   FUNC GLOBAL DEFAULT 14 png_set_text_compression_
405:   FUNC GLOBAL DEFAULT 14 png_read_filter_row_sub4_
406:   FUNC GLOBAL DEFAULT 14 png_set_longjmp_fn
407:   FUNC GLOBAL DEFAULT 14 png_get_compression_type
408:   FUNC GLOBAL DEFAULT 14 png_get_pCAL
409:   FUNC GLOBAL DEFAULT 14 png_get_user_transform_pt
410:   FUNC GLOBAL DEFAULT 14 __udivsi3
411:   FUNC GLOBAL DEFAULT 14 png_colorspace_set_endpoi
412:   FUNC GLOBAL DEFAULT 14 png_handle_pHYs
413:   FUNC GLOBAL DEFAULT 14 png_do_check_palette_inde
414:   FUNC GLOBAL DEFAULT 14 png_set_check_for_invalid
415:   FUNC GLOBAL DEFAULT 14 png_set_filler
416:   FUNC GLOBAL DEFAULT 14 png_write_finish_row
417:   FUNC GLOBAL DEFAULT 14 png_write_pCAL
418:   FUNC GLOBAL DEFAULT 14 __aeabi_memcpy
419:   FUNC GLOBAL DEFAULT 14 png_image_begin_read_from
420:   FUNC GLOBAL DEFAULT 14 png_get_uint_16
421:   FUNC GLOBAL DEFAULT 14 png_write_IEND
422:   FUNC GLOBAL DEFAULT 14 png_gamma_significant
423:   FUNC GLOBAL DEFAULT 14 png_chunk_error
424:   FUNC GLOBAL DEFAULT 14 png_set_palette_to_rgb
425:   FUNC GLOBAL DEFAULT 14 png_set_iCCP
426:   FUNC GLOBAL DEFAULT 14 png_set_invert_alpha
427:   FUNC GLOBAL DEFAULT 14 png_reset_crc
428:   OBJECT GLOBAL DEFAULT 13 png_sRGB_table
429:   FUNC GLOBAL DEFAULT 14 png_get_eXIf_1
430:   FUNC GLOBAL DEFAULT 14 png_get_hIST
431:   FUNC GLOBAL DEFAULT 14 __aeabi_memclr4
432:   FUNC GLOBAL DEFAULT 14 png_check_fp_number
433:   FUNC GLOBAL DEFAULT 14 png_read_chunk_header
434:   FUNC GLOBAL DEFAULT 14 png_set_packing
435:   FUNC GLOBAL DEFAULT 14 png_write_hIST
436:   FUNC GLOBAL DEFAULT 14 png_handle_pCAL
437:   FUNC GLOBAL DEFAULT 14 png_read_transform_info
438:   FUNC GLOBAL DEFAULT 14 png_info_init_3
439:   FUNC GLOBAL DEFAULT 14 png_get_x_offset_microns
440:   FUNC GLOBAL DEFAULT 14 png_set_user_transform_in
441:   FUNC GLOBAL DEFAULT 14 __aeabi_memclr8
442:   FUNC GLOBAL DEFAULT 14 png_get_text
443:   FUNC GLOBAL DEFAULT 14 png_handle_IEND
444:   FUNC GLOBAL DEFAULT 14 png_chunk_benign_error
445:   FUNC GLOBAL DEFAULT 14 png_get_pixel_aspect_rati
446:   FUNC GLOBAL DEFAULT 14 png_get_rowbytes
447:   FUNC GLOBAL DEFAULT 14 png_reciprocal2
448:   FUNC GLOBAL DEFAULT 14 png_set_strip_16
449:   FUNC GLOBAL DEFAULT 14 png_set_tRNS
450:   FUNC GLOBAL DEFAULT 14 png_flush
451:   FUNC GLOBAL DEFAULT 14 png_get_pixels_per_inch
452:   FUNC GLOBAL DEFAULT 14 png_get_sRGB
453:   FUNC GLOBAL DEFAULT 14 png_handle_hIST
454:   FUNC GLOBAL DEFAULT 14 png_crc_error
455:   FUNC GLOBAL DEFAULT 14 png_write_sRGB
456:   FUNC GLOBAL DEFAULT 14 __aeabi_memset4
