 0x0000000e (SONAME)                     Library soname: [libunwindstack.so]
  
Symbol   contains 860 entries:
Num:   Type Bind Vis Ndx Name
0:   NOTYPE LOCAL DEFAULT UND
1:   FUNC GLOBAL DEFAULT UND __cxa_finalize@LIBC (2)
2:   FUNC GLOBAL DEFAULT UND _ZN7android4base12StringP
3:   FUNC GLOBAL DEFAULT UND _ZNSt3__112basic_stringIc
4:   FUNC GLOBAL DEFAULT UND _ZNSt3__112basic_stringIc
5:   FUNC GLOBAL DEFAULT UND _ZdlPv
6:   FUNC GLOBAL DEFAULT UND _Znwj
7:   FUNC GLOBAL DEFAULT UND __stack_chk_fail@LIBC (2)
8:   OBJECT GLOBAL DEFAULT UND __stack_chk_guard@LIBC (2)
9:   FUNC GLOBAL DEFAULT UND abort@LIBC (2)
10:   FUNC GLOBAL DEFAULT UND _ZN7art_api3dex22LoadLibd
11:   FUNC GLOBAL DEFAULT UND _ZN7art_api3dex7DexFile16
12:   OBJECT GLOBAL DEFAULT UND _ZN7art_api3dex7DexFile22
13:   OBJECT GLOBAL DEFAULT UND _ZN7art_api3dex7DexFile26
14:   OBJECT GLOBAL DEFAULT UND _ZN7art_api3dex7DexFile34
15:   FUNC GLOBAL DEFAULT UND _ZN7art_api3dex7DexFileD2
16:   OBJECT GLOBAL DEFAULT UND _ZN7art_api3dex9DexString
17:   OBJECT GLOBAL DEFAULT UND _ZN7art_api3dex9DexString
18:   OBJECT GLOBAL DEFAULT UND _ZN7art_api3dex9DexString
19:   FUNC GLOBAL DEFAULT UND _ZNKSt3__120__vector_base
20:   FUNC GLOBAL DEFAULT UND _ZNKSt3__121__basic_strin
21:   FUNC GLOBAL DEFAULT UND _ZNSt3__112basic_stringIc
22:   OBJECT GLOBAL DEFAULT UND _ZTVN7art_api3dex7DexFile
23:   FUNC GLOBAL DEFAULT UND __errno@LIBC (2)
24:   FUNC GLOBAL DEFAULT UND __open_2@LIBC (2)
25:   FUNC GLOBAL DEFAULT UND __strlen_chk@LIBC (2)
26:   FUNC WEAK DEFAULT UND android_fdsan_close_with_@LIBC_Q (3)
27:   FUNC WEAK DEFAULT UND android_fdsan_create_owne@LIBC_Q (3)
28:   FUNC WEAK DEFAULT UND android_fdsan_exchange_ow@LIBC_Q (3)
29:   FUNC GLOBAL DEFAULT UND close@LIBC (2)
30:   FUNC GLOBAL DEFAULT UND _ZNSt3__112__next_primeEj
31:   FUNC GLOBAL DEFAULT UND _ZNSt3__119__shared_weak_
32:   FUNC GLOBAL DEFAULT UND _ZNSt3__15mutex4lockEv
33:   FUNC GLOBAL DEFAULT UND _ZNSt3__15mutex6unlockEv
34:   FUNC GLOBAL DEFAULT UND _ZNSt3__15mutexD1Ev
35:   FUNC GLOBAL DEFAULT UND __cxa_pure_virtual
36:   FUNC GLOBAL DEFAULT UND ceilf@LIBC (4)
37:   FUNC GLOBAL DEFAULT UND _ZNSt3__112basic_stringIc
38:   FUNC GLOBAL DEFAULT UND _ZNSt3__112basic_stringIc
39:   FUNC GLOBAL DEFAULT UND _ZNSt3__19to_stringEi
40:   FUNC GLOBAL DEFAULT UND _ZNSt3__19to_stringEx
41:   FUNC GLOBAL DEFAULT UND _ZNSt3__19to_stringEy
42:   FUNC GLOBAL DEFAULT UND strlen@LIBC (2)
43:   FUNC GLOBAL DEFAULT UND _ZNSt3__112basic_stringIc
44:   FUNC GLOBAL DEFAULT UND _ZNSt3__112basic_stringIc
45:   FUNC GLOBAL DEFAULT UND _ZNSt3__112basic_stringIc
46:   FUNC GLOBAL DEFAULT UND __android_log_print@LIBLOG (5)
47:   FUNC GLOBAL DEFAULT UND memcmp@LIBC (2)
48:   FUNC GLOBAL DEFAULT UND Crc64GenerateTable
49:   FUNC GLOBAL DEFAULT UND CrcGenerateTable
50:   FUNC GLOBAL DEFAULT UND XzUnpacker_Code
51:   FUNC GLOBAL DEFAULT UND XzUnpacker_Construct
52:   FUNC GLOBAL DEFAULT UND XzUnpacker_Free
53:   FUNC GLOBAL DEFAULT UND XzUnpacker_IsStreamWasFin
54:   FUNC GLOBAL DEFAULT UND _ZNKSt3__112basic_stringI
55:   FUNC GLOBAL DEFAULT UND _ZNSt3__112basic_stringIc
56:   FUNC GLOBAL DEFAULT UND free@LIBC (2)
57:   FUNC GLOBAL DEFAULT UND malloc@LIBC (2)
58:   FUNC GLOBAL DEFAULT UND __gnu_basename@LIBC (2)
59:   FUNC GLOBAL DEFAULT UND __android_log_vprint@LIBLOG (5)
60:   FUNC GLOBAL DEFAULT UND vprintf@LIBC (2)
61:   FUNC GLOBAL DEFAULT UND _ZNKSt3__119__shared_weak
62:   FUNC GLOBAL DEFAULT UND _ZNSt3__119__shared_weak_
63:   FUNC GLOBAL DEFAULT UND _ZN7android4base16ReadFil
64:   FUNC GLOBAL DEFAULT UND isxdigit@LIBC (2)
65:   FUNC GLOBAL DEFAULT UND strchr@LIBC (2)
66:   FUNC GLOBAL DEFAULT UND strncmp@LIBC (2)
67:   FUNC GLOBAL DEFAULT UND strtoull@LIBC (2)
68:   FUNC GLOBAL DEFAULT UND fstat@LIBC (2)
69:   FUNC GLOBAL DEFAULT UND getpagesize@LIBC (2)
70:   FUNC GLOBAL DEFAULT UND getpid@LIBC (2)
71:   FUNC GLOBAL DEFAULT UND mmap@LIBC (2)
72:   FUNC GLOBAL DEFAULT UND munmap@LIBC (2)
73:   FUNC GLOBAL DEFAULT UND process_vm_readv@LIBC (2)
74:   FUNC GLOBAL DEFAULT UND ptrace@LIBC (2)
75:   FUNC GLOBAL DEFAULT UND pthread_rwlock_init@LIBC (2)
76:   FUNC GLOBAL DEFAULT UND pthread_rwlock_rdlock@LIBC (2)
77:   FUNC GLOBAL DEFAULT UND pthread_rwlock_unlock@LIBC (2)
78:   FUNC GLOBAL DEFAULT UND pthread_rwlock_wrlock@LIBC (2)
79:   FUNC GLOBAL DEFAULT UND _ZNSt3__19to_stringEj
80:   FUNC GLOBAL DEFAULT UND _ZN7android4base10StartsW
81:   FUNC GLOBAL DEFAULT UND _ZNKSt3__112basic_stringI
82:   FUNC GLOBAL DEFAULT UND _ZNKSt3__120__vector_base
83:   FUNC GLOBAL DEFAULT UND _ZNSt3__112basic_stringIc
84:   FUNC GLOBAL DEFAULT UND _ZNSt3__112basic_stringIc
85:   FUNC GLOBAL DEFAULT UND _ZNSt3__1plIcNS_11char_tr
86:   FUNC GLOBAL DEFAULT UND __memcpy_chk@LIBC (2)
87:   FUNC GLOBAL DEFAULT UND islower@LIBC (2)
88:   FUNC GLOBAL DEFAULT UND isupper@LIBC (2)
89:   FUNC GLOBAL DEFAULT UND strcmp@LIBC (2)
90:   FUNC GLOBAL DEFAULT UND strtoul@LIBC (2)
91:   FUNC GLOBAL DEFAULT UND memcpy@LIBC (2)
92:   FUNC GLOBAL DEFAULT UND memmove@LIBC (2)
93:   FUNC GLOBAL DEFAULT UND memset@LIBC (2)
94:   FUNC WEAK DEFAULT 14 _ZN11unwindstack8DwarfCfa
95:   FUNC WEAK DEFAULT 14 _ZN11unwindstack8DwarfCfa
96:   FUNC WEAK DEFAULT 14 _ZN11unwindstack21DwarfSe
97:   FUNC GLOBAL DEFAULT 14 _ZN9Demangler6ParseSEPKc
98:   FUNC WEAK DEFAULT 14 _ZNSt3__16vectorIyNS_9all
99:   FUNC WEAK DEFAULT 14 _ZN11unwindstack8DwarfCfa
100:   FUNC GLOBAL DEFAULT 14 _ZN11unwindstack18MemoryF
101:   FUNC WEAK DEFAULT 14 _ZN11unwindstack8DwarfCfa
102:   FUNC GLOBAL DEFAULT 14 _ZN9Demangler6ParseTEPKc
103:   FUNC GLOBAL DEFAULT 14 _ZN11unwindstack8ArmExidx
104:   FUNC GLOBAL DEFAULT 14 _ZN11unwindstack8ArmExidx
105:   FUNC WEAK DEFAULT 14 _ZN11unwindstack7DwarfOpI
106:   OBJECT GLOBAL DEFAULT 18 _ZTVN11unwindstack7RegsAr
107:   OBJECT GLOBAL DEFAULT 12 _ZN11unwindstack12DwarfCf
108:   FUNC GLOBAL DEFAULT 14 _ZN11unwindstack7MapInfo1
109:   FUNC GLOBAL DEFAULT 14 _ZN11unwindstack8RegsMips
110:   FUNC GLOBAL DEFAULT 14 _ZN9Demangler13AppendCurr
111:   FUNC GLOBAL DEFAULT 14 _ZN9Demangler25ParseFunct
112:   FUNC WEAK DEFAULT 14 _ZN11unwindstack8DwarfCfa
113:   FUNC WEAK DEFAULT 14 _ZN11unwindstack16DwarfSe
114:   FUNC WEAK DEFAULT 14 _ZN11unwindstack7DwarfOpI
115:   FUNC GLOBAL DEFAULT 14 _ZN11unwindstack3Elf8GetR
116:   FUNC WEAK DEFAULT 14 _ZNSt3__112__hash_tableIN
117:   FUNC WEAK DEFAULT 14 _ZNSt3__16__sortIRZN11unw
118:   FUNC WEAK DEFAULT 14 _ZN11unwindstack7DwarfOpI
119:   FUNC WEAK DEFAULT 14 _ZN11unwindstack7DwarfOpI
120:   FUNC WEAK DEFAULT 14 _ZN11unwindstack12ElfInte
121:   OBJECT GLOBAL DEFAULT 18 _ZTVN11unwindstack10RegsM
122:   FUNC WEAK DEFAULT 14 _ZN11unwindstack8DwarfCfa
123:   FUNC GLOBAL DEFAULT 14 _ZN11unwindstack12ElfInte
124:   FUNC GLOBAL DEFAULT 14 _ZN11unwindstack15ElfInte
125:   FUNC GLOBAL DEFAULT 14 _ZN11unwindstack12MemoryR
126:   FUNC WEAK DEFAULT 14 _ZN11unwindstack8DwarfCfa
127:   FUNC GLOBAL DEFAULT 14 _ZN11unwindstack3Elf4Init
128:   FUNC GLOBAL DEFAULT 14 _ZN11unwindstack8JitDebug
129:   OBJECT WEAK DEFAULT 18 _ZTVN11unwindstack17DexFi
130:   FUNC WEAK DEFAULT 14 _ZN11unwindstack8DwarfCfa
131:   FUNC WEAK DEFAULT 14 _ZN11unwindstack8DwarfCfa
132:   FUNC WEAK DEFAULT 14 _ZN11unwindstack7DwarfOpI
133:   FUNC WEAK DEFAULT 14 _ZNSt3__16__treeINS_12__v
134:   FUNC WEAK DEFAULT 14 _ZN11unwindstack8DwarfCfa
135:   FUNC WEAK DEFAULT 14 _ZN11unwindstack12ElfInte
136:   FUNC GLOBAL DEFAULT 14 _ZN11unwindstack13LocalUn
137:   FUNC GLOBAL DEFAULT 14 _ZN11unwindstack10RegsMip
138:   FUNC WEAK DEFAULT 14 _ZN11unwindstack7DwarfOpI
139:   FUNC WEAK DEFAULT 14 _ZN11unwindstack7DwarfOpI
140:   FUNC WEAK DEFAULT 14 _ZN11unwindstack7DwarfOpI
141:   FUNC WEAK DEFAULT 14 _ZNSt3__120__shared_ptr_p
142:   FUNC WEAK DEFAULT 14 _ZNSt3__16vectorINS_10uni
143:   FUNC GLOBAL DEFAULT 14 _ZN11unwindstack7RegsX864
144:   FUNC WEAK DEFAULT 14 _ZN11unwindstack19DwarfEh
145:   FUNC GLOBAL DEFAULT 14 _ZN11unwindstack12ElfInte
146:   FUNC GLOBAL DEFAULT 14 _ZN11unwindstack7RegsArm1
147:   FUNC GLOBAL DEFAULT 14 _ZN9Demangler19GetStringF
148:   FUNC GLOBAL DEFAULT 14 _ZN11unwindstack8DexFiles
149:   FUNC WEAK DEFAULT 14 _ZN11unwindstack7DwarfOpI
150:   OBJECT WEAK DEFAULT 18 _ZTVN11unwindstack8ArmExi
151:   FUNC GLOBAL DEFAULT 14 _ZN11unwindstack18MemoryO
152:   FUNC WEAK DEFAULT 14 _ZN11unwindstack8DwarfCfa
153:   OBJECT WEAK DEFAULT 18 _ZN9Demangler7kDTypesE
154:   FUNC WEAK DEFAULT 14 _ZNSt3__16vectorINS_10uni
155:   FUNC WEAK DEFAULT 14 _ZN11unwindstack8DwarfCfa
156:   FUNC WEAK DEFAULT 14 _ZN11unwindstack7DwarfOpI
157:   FUNC WEAK DEFAULT 14 _ZN11unwindstack7DwarfOpI
158:   FUNC WEAK DEFAULT 14 _ZN11unwindstack21DwarfSe
159:   FUNC GLOBAL DEFAULT 14 _ZN11unwindstack3Elf9Cach
160:   FUNC WEAK DEFAULT 14 _ZNSt3__16vectorINS_10uni
161:   FUNC WEAK DEFAULT 14 _ZNSt3__112__hash_tableIN
162:   FUNC WEAK DEFAULT 14 _ZNSt3__16__treeINS_12__v
163:   FUNC GLOBAL DEFAULT 14 _ZN11unwindstack3Elf22Cac
164:   OBJECT WEAK DEFAULT 18 _ZTVNSt3__120__shared_ptr
165:   OBJECT GLOBAL DEFAULT 18 _ZTVN11unwindstack19Memor
166:   FUNC GLOBAL DEFAULT 14 _ZN11unwindstack10RegsX86
167:   OBJECT WEAK DEFAULT 18 _ZN11unwindstack7DwarfOpI
168:   FUNC GLOBAL DEFAULT 14 _ZN11unwindstack8RegsMips
169:   FUNC GLOBAL DEFAULT 14 _ZN11unwindstack8RegsMips
170:   FUNC GLOBAL DEFAULT 14 _ZN11unwindstack10RegsMip
171:   FUNC WEAK DEFAULT 14 _ZN11unwindstack7DwarfOpI
172:   FUNC WEAK DEFAULT 14 _ZN11unwindstack16DwarfSe
173:   FUNC GLOBAL DEFAULT 14 _ZN11unwindstack7RegsArm1
174:   FUNC GLOBAL DEFAULT 14 _ZN11unwindstack8Unwinder
175:   FUNC WEAK DEFAULT 14 _ZN11unwindstack8DwarfCfa
176:   FUNC GLOBAL DEFAULT 14 _ZN9Demangler22ParseTempl
177:   FUNC GLOBAL DEFAULT 14 _ZN11unwindstack8DexFiles
178:   FUNC WEAK DEFAULT 14 _ZN11unwindstack7DwarfOpI
179:   FUNC WEAK DEFAULT 14 _ZN11unwindstack7DwarfOpI
180:   FUNC GLOBAL DEFAULT 14 _ZN11unwindstack7RegsX862
181:   FUNC GLOBAL DEFAULT 14 _ZN9Demangler4SaveERKNSt3
182:   OBJECT WEAK DEFAULT 18 _ZTVN11unwindstack7DwarfO
183:   FUNC WEAK DEFAULT 14 _ZNSt3__1plIcNS_11char_tr
184:   FUNC GLOBAL DEFAULT 14 _ZN11unwindstack19MemoryO
185:   FUNC WEAK DEFAULT 14 _ZN11unwindstack11DwarfMe
186:   FUNC WEAK DEFAULT 14 _ZNSt3__112__hash_tableIN
187:   OBJECT GLOBAL DEFAULT 18 _ZTVN11unwindstack13Memor
188:   FUNC WEAK DEFAULT 14 _ZNSt3__112__hash_tableIN
189:   FUNC WEAK DEFAULT 14 _ZN11unwindstack19DwarfEh
190:   FUNC WEAK DEFAULT 14 _ZN11unwindstack16DwarfSe
191:   FUNC WEAK DEFAULT 14 _ZN11unwindstack7DwarfOpI
192:   FUNC GLOBAL DEFAULT 14 _ZN9Demangler29ParseTempl
193:   OBJECT WEAK DEFAULT 18 _ZN11unwindstack8DwarfCfa
194:   FUNC WEAK DEFAULT 14 _ZN11unwindstack8DwarfCfa
195:   FUNC WEAK DEFAULT 14 _ZN11unwindstack8DwarfCfa
196:   FUNC GLOBAL DEFAULT 14 _ZN11unwindstack6Memory19
197:   FUNC GLOBAL DEFAULT 14 _ZN11unwindstack7RegsArm2
198:   FUNC GLOBAL DEFAULT 14 _ZN11unwindstack8RegsMips
199:   FUNC GLOBAL DEFAULT 14 __aeabi_memset4
200:   FUNC WEAK DEFAULT 14 _ZN11unwindstack8DwarfCfa
201:   FUNC WEAK DEFAULT 14 _ZN11unwindstack19DwarfEh
202:   FUNC WEAK DEFAULT 14 _ZN11unwindstack16DwarfSe
203:   FUNC WEAK DEFAULT 14 _ZNSt3__112__hash_tableIN
204:   FUNC WEAK DEFAULT 14 _ZNSt3__120__shared_ptr_p
205:   FUNC WEAK DEFAULT 14 _ZN11unwindstack7DwarfOpI
206:   FUNC WEAK DEFAULT 14 _ZN11unwindstack21DwarfSe
207:   FUNC WEAK DEFAULT 14 _ZN11unwindstack12ElfInte
208:   FUNC GLOBAL DEFAULT 14 _ZN11unwindstack7RegsX86C
209:   FUNC GLOBAL DEFAULT 14 _ZN11unwindstack10RegsX86
210:   FUNC WEAK DEFAULT 14 _ZN11unwindstack7DwarfOpI
211:   FUNC WEAK DEFAULT 14 _ZN11unwindstack7DwarfOpI
212:   FUNC GLOBAL DEFAULT 14 _ZN11unwindstack6Memory25
213:   OBJECT GLOBAL DEFAULT 18 _ZTVN11unwindstack12Memor
214:   FUNC GLOBAL DEFAULT 14 _ZN11unwindstack10RegsX86
215:   FUNC GLOBAL DEFAULT 14 _ZN9Demangler5ParseEPKcj
216:   FUNC GLOBAL DEFAULT 14 __aeabi_memset8
217:   FUNC GLOBAL DEFAULT 14 _ZN11unwindstack8ArmExidx
218:   FUNC WEAK DEFAULT 14 _ZN11unwindstack7DwarfOpI
219:   FUNC WEAK DEFAULT 14 _ZN11unwindstack7DwarfOpI
220:   OBJECT WEAK DEFAULT 18 _ZTVN11unwindstack16Dwarf
221:   FUNC WEAK DEFAULT 14 _ZNSt3__16vectorINS_12bas
222:   FUNC WEAK DEFAULT 14 _ZN11unwindstack11DwarfMe
223:   FUNC WEAK DEFAULT 14 _ZN11unwindstack7DwarfOpI
224:   FUNC WEAK DEFAULT 14 _ZN11unwindstack12ElfInte
225:   FUNC WEAK DEFAULT 14 _ZN11unwindstack8DwarfCfa
226:   FUNC WEAK DEFAULT 14 _ZNSt3__114__split_buffer
227:   FUNC WEAK DEFAULT 14 _ZN11unwindstack19DwarfEh
228:   FUNC WEAK DEFAULT 14 _ZN11unwindstack11DwarfMe
229:   FUNC WEAK DEFAULT 14 _ZN11unwindstack15DwarfDe
230:   FUNC WEAK DEFAULT 14 _ZNSt3__112__hash_tableIN
231:   FUNC GLOBAL DEFAULT 14 _ZN11unwindstack4Maps4Sor
232:   FUNC GLOBAL DEFAULT 14 _ZN11unwindstack9RegsArm6
233:   FUNC WEAK DEFAULT 14 _ZNSt3__15dequeIN11unwind
234:   FUNC WEAK DEFAULT 14 _ZN11unwindstack7DwarfOpI
235:   FUNC WEAK DEFAULT 14 _ZNSt3__16__treeINS_12__v
236:   FUNC GLOBAL DEFAULT 14 _ZN11unwindstack12MemoryR
237:   FUNC WEAK DEFAULT 14 _ZN11unwindstack8DwarfCfa
238:   FUNC WEAK DEFAULT 14 _ZN11unwindstack7DwarfOpI
239:   FUNC WEAK DEFAULT 14 _ZN11unwindstack12ElfInte
240:   FUNC GLOBAL DEFAULT 14 _ZN11unwindstack7RegsArmC
241:   FUNC GLOBAL DEFAULT 14 _ZN11unwindstack3logEhPKc
242:   FUNC GLOBAL DEFAULT 14 _ZN11unwindstack4Regs18Cr
243:   FUNC WEAK DEFAULT 14 _ZNSt3__1plIcNS_11char_tr
244:   FUNC WEAK DEFAULT 14 _ZN11unwindstack8DwarfCfa
245:   FUNC WEAK DEFAULT 14 _ZN11unwindstack21DwarfSe
246:   OBJECT GLOBAL DEFAULT 18 _ZTVN11unwindstack11Memor
247:   FUNC WEAK DEFAULT 14 _ZNSt3__15dequeIyNS_9allo
248:   FUNC GLOBAL DEFAULT 14 _ZN11unwindstack7MapInfo1
249:   FUNC GLOBAL DEFAULT 14 _ZN11unwindstack6Memory9R
250:   FUNC WEAK DEFAULT 14 _ZN11unwindstack12DwarfEh
251:   FUNC GLOBAL DEFAULT 14 _ZN11unwindstack3Elf17Get
252:   FUNC WEAK DEFAULT 14 _ZNSt3__112__hash_tableIN
253:   OBJECT GLOBAL DEFAULT 18 _ZTVN11unwindstack15ElfIn
254:   FUNC GLOBAL DEFAULT 14 _ZN11unwindstack13MemoryO
255:   FUNC WEAK DEFAULT 14 _ZNSt3__17__sort4IRZN11un
256:   FUNC GLOBAL DEFAULT 14 _ZN9Demangler14AppendArgu
257:   FUNC WEAK DEFAULT 14 _ZNSt3__112__hash_tableIN
258:   FUNC GLOBAL DEFAULT 14 _ZN11unwindstack8JitDebug
259:   FUNC GLOBAL DEFAULT 14 _ZN11unwindstack18MemoryF
260:   FUNC GLOBAL DEFAULT 14 _ZN9Demangler14ParseArgum
261:   FUNC GLOBAL DEFAULT 14 __divmoddi4
262:   FUNC WEAK DEFAULT 14 _ZNSt3__112__deque_baseIN
263:   FUNC WEAK DEFAULT 14 _ZNSt3__114__split_buffer
264:   FUNC GLOBAL DEFAULT 14 _ZN11unwindstack3Elf16Ini
265:   FUNC WEAK DEFAULT 14 _ZNSt3__120__shared_ptr_p
266:   FUNC GLOBAL DEFAULT 14 _ZN11unwindstack10RegsMip
267:   OBJECT WEAK DEFAULT 18 _ZTVN11unwindstack8DwarfC
268:   FUNC WEAK DEFAULT 14 _ZN11unwindstack7DwarfOpI
269:   FUNC GLOBAL DEFAULT 14 _ZN11unwindstack18MemoryF
270:   FUNC GLOBAL DEFAULT 14 __divsi3
271:   FUNC WEAK DEFAULT 14 _ZNSt3__112__hash_tableIN
272:   FUNC WEAK DEFAULT 14 _ZN11unwindstack14GetBuil
273:   FUNC GLOBAL DEFAULT 14 _ZN11unwindstack8JitDebug
274:   FUNC WEAK DEFAULT 14 _ZNSt3__120__shared_ptr_e
275:   FUNC WEAK DEFAULT 14 _ZN11unwindstack7DwarfOpI
276:   FUNC WEAK DEFAULT 14 _ZNSt3__114__split_buffer
277:   FUNC GLOBAL DEFAULT 14 _ZN11unwindstack3Elf10IsV
278:   FUNC GLOBAL DEFAULT 14 _ZN11unwindstack9RegsArm6
279:   FUNC WEAK DEFAULT 14 _ZNSt3__114__split_buffer
280:   FUNC WEAK DEFAULT 14 _ZNSt3__16vectorINS_4pair
281:   FUNC GLOBAL DEFAULT 14 _ZN11unwindstack8ArmExidx
282:   FUNC WEAK DEFAULT 14 _ZN11unwindstack7DwarfOpI
283:   FUNC WEAK DEFAULT 14 _ZN11unwindstack21DwarfSe
284:   FUNC GLOBAL DEFAULT 14 _ZN11unwindstack15Unwinde
285:   FUNC GLOBAL DEFAULT 14 __udivmodsi4
286:   FUNC WEAK DEFAULT 14 _ZNSt3__114__split_buffer
287:   FUNC WEAK DEFAULT 14 _ZN11unwindstack8DwarfCfa
288:   OBJECT WEAK DEFAULT 18 _ZTVN11unwindstack19Dwarf
289:   FUNC WEAK DEFAULT 14 _ZNSt3__112__hash_tableIN
290:   FUNC GLOBAL DEFAULT 14 _ZN11unwindstack8JitDebug
291:   FUNC WEAK DEFAULT 14 _ZN11unwindstack8DwarfCfa
292:   FUNC GLOBAL DEFAULT 14 __aeabi_memclr4
293:   OBJECT WEAK DEFAULT 18 _ZN9Demangler7kSTypesE
294:   FUNC GLOBAL DEFAULT 14 _ZN11unwindstack6Global19
295:   FUNC WEAK DEFAULT 14 _ZNSt3__112__hash_tableIN
296:   FUNC WEAK DEFAULT 14 _ZN11unwindstack7DwarfOpI
297:   FUNC WEAK DEFAULT 14 _ZN11unwindstack16DwarfSe
298:   FUNC WEAK DEFAULT 14 _ZNSt3__120__shared_ptr_p
299:   FUNC WEAK DEFAULT 14 _ZNSt3__16vectorINS_12bas
300:   FUNC WEAK DEFAULT 14 _ZN11unwindstack7Symbols9
301:   FUNC WEAK DEFAULT 14 _ZN11unwindstack8DwarfCfa
302:   FUNC WEAK DEFAULT 14 _ZNSt3__15dequeIjNS_9allo
303:   FUNC GLOBAL DEFAULT 14 _ZN11unwindstack15ElfInte
304:   FUNC GLOBAL DEFAULT 14 _ZN11unwindstack10RegsMip
305:   FUNC GLOBAL DEFAULT 14 _ZN11unwindstack10RegsMip
306:   FUNC GLOBAL DEFAULT 14 _ZN11unwindstack8Unwinder
307:   FUNC GLOBAL DEFAULT 14 __aeabi_memcpy4
308:   FUNC WEAK DEFAULT 14 _ZNSt3__114__split_buffer
309:   FUNC GLOBAL DEFAULT 14 __aeabi_memclr8
310:   FUNC WEAK DEFAULT 14 _ZN11unwindstack8DwarfCfa
311:   FUNC WEAK DEFAULT 14 _ZNSt3__112__hash_tableIN
312:   FUNC WEAK DEFAULT 14 _ZN11unwindstack7DwarfOpI
313:   FUNC WEAK DEFAULT 14 _ZNSt3__16vectorIPN11unwi
314:   FUNC GLOBAL DEFAULT 14 _ZN11unwindstack7MapInfo1
315:   FUNC GLOBAL DEFAULT 14 _ZN11unwindstack18MemoryF
316:   FUNC GLOBAL DEFAULT 14 _ZN9Demangler13AppendCurr
317:   OBJECT WEAK DEFAULT 18 _ZN9Demangler6kTypesE
318:   FUNC GLOBAL DEFAULT 14 __aeabi_uidiv
319:   FUNC GLOBAL DEFAULT 14 _ZN11unwindstack8DexFiles
320:   FUNC GLOBAL DEFAULT 14 _ZN11unwindstack3Elf9IsVa
321:   OBJECT WEAK DEFAULT 18 _ZTVN11unwindstack14ElfIn
322:   FUNC GLOBAL DEFAULT 14 _ZN11unwindstack7RegsX866
323:   FUNC WEAK DEFAULT 14 _ZNSt3__112__hash_tableIN
324:   FUNC WEAK DEFAULT 14 _ZN11unwindstack12ElfInte
325:   FUNC WEAK DEFAULT 14 _ZNSt3__112__hash_tableIN
326:   OBJECT WEAK DEFAULT 18 _ZTVN11unwindstack8RegsIm
327:   OBJECT GLOBAL DEFAULT 18 _ZTVN11unwindstack7RegsX8
328:   FUNC GLOBAL DEFAULT 14 __aeabi_memcpy8
329:   FUNC WEAK DEFAULT 14 _ZN11unwindstack8DwarfCfa
330:   FUNC WEAK DEFAULT 14 _ZN11unwindstack7DwarfOpI
331:   FUNC WEAK DEFAULT 14 _ZN11unwindstack7Symbols7
332:   FUNC GLOBAL DEFAULT 14 _ZN11unwindstack7Symbols1
333:   FUNC GLOBAL DEFAULT 14 _ZN11unwindstack3Elf11Cac
334:   FUNC GLOBAL DEFAULT 14 _ZN11unwindstack8DexFiles
335:   FUNC WEAK DEFAULT 14 _ZNSt3__112__hash_tableIN
336:   FUNC WEAK DEFAULT 14 _ZN11unwindstack12ElfInte
337:   FUNC WEAK DEFAULT 14 _ZN11unwindstack12ElfInte
338:   FUNC GLOBAL DEFAULT 14 _ZN11unwindstack8Unwinder
339:   FUNC WEAK DEFAULT 14 _ZNSt3__114__split_buffer
340:   FUNC WEAK DEFAULT 14 _ZN11unwindstack7DwarfOpI
341:   FUNC WEAK DEFAULT 14 _ZN11unwindstack15DwarfDe
342:   FUNC GLOBAL DEFAULT 14 _ZN11unwindstack19MemoryO
343:   FUNC GLOBAL DEFAULT 14 _ZN11unwindstack9RegsArm6
344:   FUNC GLOBAL DEFAULT 14 _ZN11unwindstack7RegsX865
345:   FUNC GLOBAL DEFAULT 14 _ZN11unwindstack10RegsX86
346:   FUNC GLOBAL DEFAULT 14 _ZN11unwindstack10RegsMip
347:   FUNC GLOBAL DEFAULT 14 _ZN9Demangler18ParseCompl
348:   OBJECT GLOBAL DEFAULT 22 _ZN11unwindstack3Elf14cac
349:   FUNC WEAK DEFAULT 14 _ZN11unwindstack16DwarfSe
350:   FUNC WEAK DEFAULT 14 _ZN11unwindstack12ElfInte
351:   FUNC WEAK DEFAULT 14 _ZN11unwindstack12ElfInte
352:   FUNC GLOBAL DEFAULT 14 _ZN11unwindstack3Elf10Inv
353:   OBJECT GLOBAL DEFAULT 18 _ZTVN11unwindstack4MapsE
354:   FUNC GLOBAL DEFAULT 14 _ZN11unwindstack4Regs15Cr
355:   FUNC GLOBAL DEFAULT 14 _ZN9Demangler20AppendOper
356:   FUNC WEAK DEFAULT 14 _ZN11unwindstack8DwarfCfa
357:   FUNC WEAK DEFAULT 14 _ZN11unwindstack7DwarfOpI
358:   FUNC GLOBAL DEFAULT 14 _ZN11unwindstack3Elf10Get
359:   FUNC GLOBAL DEFAULT 14 _ZN11unwindstack8JitDebug
360:   FUNC WEAK DEFAULT 14 _ZN11unwindstack7DwarfOpI
361:   FUNC WEAK DEFAULT 14 _ZN11unwindstack7DwarfOpI
362:   FUNC WEAK DEFAULT 14 _ZN11unwindstack7DwarfOpI
363:   FUNC WEAK DEFAULT 14 _ZN11unwindstack7DwarfOpI
364:   FUNC GLOBAL DEFAULT 14 _ZN11unwindstack7RegsArm1
365:   FUNC GLOBAL DEFAULT 14 _ZN11unwindstack10RegsX86
366:   FUNC WEAK DEFAULT 14 _ZN11unwindstack7DwarfOpI
367:   FUNC WEAK DEFAULT 14 _ZNSt3__112__hash_tableIN
368:   FUNC WEAK DEFAULT 14 _ZN11unwindstack12ElfInte
369:   OBJECT WEAK DEFAULT 18 _ZTVNSt3__120__shared_ptr
370:   FUNC GLOBAL DEFAULT 14 _ZN9Demangler24ParseArgum
371:   FUNC WEAK DEFAULT 14 _ZNSt3__114__split_buffer
372:   FUNC GLOBAL DEFAULT 14 _ZN11unwindstack8DexFiles
373:   FUNC WEAK DEFAULT 14 _ZN11unwindstack7DwarfOpI
374:   FUNC WEAK DEFAULT 14 _ZN11unwindstack8DwarfCfa
375:   FUNC WEAK DEFAULT 14 _ZN11unwindstack16DwarfSe
376:   FUNC WEAK DEFAULT 14 _ZN11unwindstack7DwarfOpI
377:   FUNC WEAK DEFAULT 14 _ZN11unwindstack7DwarfOpI
378:   FUNC WEAK DEFAULT 14 _ZN11unwindstack7DwarfOpI
379:   FUNC GLOBAL DEFAULT 14 _ZN11unwindstack3Elf7GetI
380:   FUNC GLOBAL DEFAULT 14 _ZN11unwindstack12ElfInte
381:   FUNC GLOBAL DEFAULT 14 _ZN11unwindstack10BufferM
382:   FUNC GLOBAL DEFAULT 14 _ZN11unwindstack12MemoryR
383:   FUNC GLOBAL DEFAULT 14 _ZN11unwindstack9RegsArm6
384:   FUNC WEAK DEFAULT 14 _ZNSt3__16vectorIN11unwin
385:   FUNC WEAK DEFAULT 14 _ZN11unwindstack7DwarfOpI
386:   OBJECT GLOBAL DEFAULT 18 _ZTVN11unwindstack12Memor
387:   FUNC GLOBAL DEFAULT 14 _ZN11unwindstack7RegsX862
388:   FUNC GLOBAL DEFAULT 14 _ZN11unwindstack8RegsMips
389:   FUNC GLOBAL DEFAULT 14 _ZN11unwindstack10RegsMip
390:   FUNC WEAK DEFAULT 14 _ZN11unwindstack8DwarfCfa
391:   FUNC WEAK DEFAULT 14 _ZNSt3__112__hash_tableIN
392:   FUNC WEAK DEFAULT 14 _ZN11unwindstack19DwarfEh
393:   FUNC WEAK DEFAULT 14 _ZN11unwindstack7DwarfOpI
394:   FUNC WEAK DEFAULT 14 _ZN11unwindstack8DwarfCfa
395:   FUNC WEAK DEFAULT 14 _ZNSt3__114__split_buffer
396:   FUNC WEAK DEFAULT 14 _ZN11unwindstack7DwarfOpI
397:   FUNC WEAK DEFAULT 14 _ZN11unwindstack21DwarfSe
398:   FUNC GLOBAL DEFAULT 14 _ZN11unwindstack8JitDebug
399:   FUNC GLOBAL DEFAULT 14 _ZN11unwindstack8DexFiles
400:   FUNC GLOBAL DEFAULT 14 _ZN11unwindstack11DwarfMe
401:   FUNC WEAK DEFAULT 14 _ZN11unwindstack7DwarfOpI
402:   FUNC WEAK DEFAULT 14 _ZN11unwindstack7DwarfOpI
403:   FUNC WEAK DEFAULT 14 _ZN11unwindstack7DwarfOpI
404:   FUNC GLOBAL DEFAULT 14 _ZN11unwindstack12ElfInte
405:   FUNC WEAK DEFAULT 14 _ZNSt3__112__hash_tableIN
406:   FUNC GLOBAL DEFAULT 14 _ZN11unwindstack8Unwinder
407:   FUNC WEAK DEFAULT 14 _ZNSt3__114__split_buffer
408:   FUNC WEAK DEFAULT 14 _ZN11unwindstack12DwarfEh
409:   FUNC WEAK DEFAULT 14 _ZNSt3__120__shared_ptr_p
410:   FUNC WEAK DEFAULT 14 _ZNSt3__16vectorIjNS_9all
411:   FUNC WEAK DEFAULT 14 _ZN11unwindstack19DwarfEh
412:   FUNC WEAK DEFAULT 14 _ZN11unwindstack11DwarfMe
413:   FUNC WEAK DEFAULT 14 _ZN11unwindstack7DwarfOpI
414:   FUNC GLOBAL DEFAULT 14 _ZN11unwindstack8JitDebug
415:   FUNC WEAK DEFAULT 14 _ZN11unwindstack7DwarfOpI
416:   FUNC GLOBAL DEFAULT 14 _ZN11unwindstack15ElfInte
417:   FUNC WEAK DEFAULT 14 _ZN11unwindstack7DwarfOpI
418:   FUNC WEAK DEFAULT 14 _ZN11unwindstack16DwarfSe
419:   FUNC WEAK DEFAULT 14 _ZNSt3__112__hash_tableIN
420:   FUNC GLOBAL DEFAULT 14 _ZN11unwindstack7DexFile2
421:   FUNC WEAK DEFAULT 14 _ZN11unwindstack8DwarfCfa
422:   OBJECT WEAK DEFAULT 18 _ZTVN11unwindstack21Dwarf
423:   FUNC GLOBAL DEFAULT 14 _ZN11unwindstack9RegsArm6
424:   FUNC WEAK DEFAULT 14 _ZN11unwindstack7DwarfOpI
425:   FUNC WEAK DEFAULT 14 _ZNSt3__112__hash_tableIN
426:   FUNC GLOBAL DEFAULT 14 _ZN11unwindstack9RegsArm6
427:   FUNC GLOBAL DEFAULT 14 _ZN11unwindstack7RegsX864
428:   FUNC WEAK DEFAULT 14 _ZN11unwindstack16DwarfSe
429:   FUNC WEAK DEFAULT 14 _ZN11unwindstack16DwarfSe
430:   FUNC WEAK DEFAULT 14 _ZNSt3__112__hash_tableIN
431:   FUNC WEAK DEFAULT 14 _ZNSt3__16vectorIN11unwin
432:   FUNC WEAK DEFAULT 14 _ZN11unwindstack8DwarfCfa
433:   FUNC WEAK DEFAULT 14 _ZN11unwindstack8DwarfCfa
434:   FUNC WEAK DEFAULT 14 _ZN11unwindstack8DwarfCfa
435:   FUNC GLOBAL DEFAULT 14 _ZN11unwindstack11DwarfMe
436:   FUNC WEAK DEFAULT 14 _ZN11unwindstack7DwarfOpI
437:   FUNC GLOBAL DEFAULT 14 _ZN11unwindstack12MemoryB
438:   FUNC WEAK DEFAULT 14 _ZN11unwindstack8DwarfCfa
439:   FUNC WEAK DEFAULT 14 _ZN11unwindstack7DwarfOpI
440:   FUNC GLOBAL DEFAULT 14 _ZN11unwindstack3Elf8Cach
441:   FUNC GLOBAL DEFAULT 14 _ZN11unwindstack15ElfInte
442:   FUNC GLOBAL DEFAULT 14 _ZN11unwindstack15ElfInte
443:   FUNC WEAK DEFAULT 14 _ZNSt3__112__hash_tableIN
444:   FUNC WEAK DEFAULT 14 _ZN11unwindstack8DwarfCfa
445:   FUNC WEAK DEFAULT 14 _ZN11unwindstack21DwarfSe
446:   FUNC GLOBAL DEFAULT 14 _ZN11unwindstack13log_to_
447:   FUNC GLOBAL DEFAULT 14 _ZN11unwindstack10RegsX86
448:   FUNC GLOBAL DEFAULT 14 _ZN11unwindstack10RegsX86
449:   FUNC GLOBAL DEFAULT 14 _ZN11unwindstack10RegsMip
450:   FUNC GLOBAL DEFAULT 14 _ZN9Demangler17ParseFunct
451:   FUNC WEAK DEFAULT 14 _ZNSt3__112__hash_tableIN
452:   OBJECT WEAK DEFAULT 18 _ZTVN11unwindstack15Dwarf
453:   FUNC WEAK DEFAULT 14 _ZN11unwindstack7DwarfOpI
454:   FUNC WEAK DEFAULT 14 _ZN11unwindstack8DwarfCfa
455:   FUNC WEAK DEFAULT 14 _ZNSt3__112__hash_tableIN
456:   FUNC WEAK DEFAULT 14 _ZN11unwindstack7DwarfOpI
457:   FUNC WEAK DEFAULT 14 _ZNSt3__16vectorIPKN11unw
458:   OBJECT WEAK DEFAULT 18 _ZTVN11unwindstack12Dwarf
459:   FUNC GLOBAL DEFAULT 14 _ZN11unwindstack7MapInfo6
460:   FUNC GLOBAL DEFAULT 14 _ZN11unwindstack7RegsX86C
461:   FUNC WEAK DEFAULT 14 _ZN11unwindstack8DwarfCfa
462:   FUNC GLOBAL DEFAULT 14 _ZN11unwindstack12DwarfSe
463:   FUNC WEAK DEFAULT 14 _ZN11unwindstack19DwarfEh
464:   FUNC WEAK DEFAULT 14 _ZN11unwindstack12DwarfEh
465:   FUNC WEAK DEFAULT 14 _ZN11unwindstack16DwarfSe
466:   FUNC WEAK DEFAULT 14 _ZNSt3__112__hash_tableIN
467:   FUNC GLOBAL DEFAULT 14 _ZN11unwindstack3Elf15Get
468:   FUNC GLOBAL DEFAULT 14 _ZN11unwindstack3Elf19Ste
469:   OBJECT GLOBAL DEFAULT 18 _ZTVN11unwindstack12Memor
470:   FUNC GLOBAL DEFAULT 14 _ZN11unwindstack18MemoryO
471:   FUNC GLOBAL DEFAULT 14 _ZN9Demangler21ParseFunct
472:   FUNC WEAK DEFAULT 14 _ZN11unwindstack7DwarfOpI
473:   FUNC GLOBAL DEFAULT 14 _ZN11unwindstack3Elf19Get
474:   OBJECT GLOBAL DEFAULT 18 _ZTVN11unwindstack6Memory
475:   FUNC GLOBAL DEFAULT 14 __aeabi_memmove4
476:   FUNC WEAK DEFAULT 14 _ZN11unwindstack16DwarfSe
477:   FUNC WEAK DEFAULT 14 _ZN11unwindstack21DwarfSe
478:   FUNC GLOBAL DEFAULT 14 _ZN11unwindstack7RegsArm6
479:   FUNC WEAK DEFAULT 14 _ZN11unwindstack7DwarfOpI
480:   FUNC WEAK DEFAULT 14 _ZN11unwindstack7DwarfOpI
481:   FUNC GLOBAL DEFAULT 14 __aeabi_memmove8
482:   FUNC WEAK DEFAULT 14 _ZN11unwindstack7DwarfOpI
483:   FUNC GLOBAL DEFAULT 14 _ZN11unwindstack19MemoryO
484:   FUNC WEAK DEFAULT 14 _ZNSt3__15dequeIN9Demangl
485:   FUNC GLOBAL DEFAULT 14 _ZN11unwindstack7RegsArm4
486:   FUNC GLOBAL DEFAULT 14 _ZN11unwindstack8DexFiles
487:   FUNC WEAK DEFAULT 14 _ZN11unwindstack19DwarfEh
488:   OBJECT WEAK DEFAULT 18 _ZTVN11unwindstack12Dwarf
489:   OBJECT WEAK DEFAULT 18 _ZTVN11unwindstack9LocalM
490:   FUNC WEAK DEFAULT 14 _ZNSt3__112__hash_tableIN
491:   FUNC WEAK DEFAULT 14 _ZNSt3__112__hash_tableIN
492:   FUNC GLOBAL DEFAULT 14 _ZN11unwindstack9RegsArm6
493:   OBJECT GLOBAL DEFAULT 18 _ZTVN11unwindstack8DexFil
494:   FUNC GLOBAL DEFAULT 14 __aeabi_uidivmod
495:   FUNC GLOBAL DEFAULT 14 _ZN11unwindstack3Elf17Set
496:   FUNC GLOBAL DEFAULT 14 _ZN11unwindstack8RegsMips
497:   FUNC GLOBAL DEFAULT 14 _ZN11unwindstack8Unwinder
498:   FUNC WEAK DEFAULT 14 _ZN11unwindstack7DwarfOpI
499:   FUNC GLOBAL DEFAULT 14 _ZN11unwindstack7MapInfo1
500:   OBJECT GLOBAL DEFAULT 18 _ZTVN11unwindstack18Memor
501:   FUNC GLOBAL DEFAULT 14 _ZN11unwindstack7RegsX862
502:   FUNC GLOBAL DEFAULT 14 _ZN11unwindstack3Elf8Cach
503:   FUNC GLOBAL DEFAULT 14 _ZN11unwindstack11MemoryR
504:   FUNC GLOBAL DEFAULT 14 _ZN11unwindstack7MapInfoD
505:   FUNC WEAK DEFAULT 14 _ZNSt3__16vectorIN11unwin
506:   FUNC GLOBAL DEFAULT 14 _ZN11unwindstack8RegsMips
507:   FUNC WEAK DEFAULT 14 _ZN11unwindstack8DwarfCfa
508:   FUNC WEAK DEFAULT 14 _ZN11unwindstack16DwarfSe
509:   FUNC WEAK DEFAULT 14 _ZN11unwindstack12ElfInte
510:   FUNC GLOBAL DEFAULT 14 _ZNK11unwindstack18LocalU
511:   FUNC GLOBAL DEFAULT 14 _ZN11unwindstack7SymbolsC
512:   FUNC GLOBAL DEFAULT 14 _ZN11unwindstack8DexFiles
513:   FUNC WEAK DEFAULT 14 _ZN11unwindstack8DwarfCfa
514:   FUNC WEAK DEFAULT 14 _ZNSt3__112__hash_tableIN
515:   FUNC GLOBAL DEFAULT 14 _ZN11unwindstack18MemoryF
516:   FUNC GLOBAL DEFAULT 14 _ZN11unwindstack10RegsX86
517:   FUNC WEAK DEFAULT 14 _ZN11unwindstack8DwarfCfa
518:   FUNC WEAK DEFAULT 14 _ZNSt3__112__hash_tableIN
519:   FUNC WEAK DEFAULT 14 _ZN11unwindstack7DwarfOpI
520:   FUNC GLOBAL DEFAULT 14 _ZN11unwindstack3Elf16Get
521:   FUNC GLOBAL DEFAULT 14 _ZN11unwindstack15ElfInte
522:   FUNC GLOBAL DEFAULT 14 _ZN11unwindstack7RegsArm4
523:   FUNC GLOBAL DEFAULT 14 _ZN11unwindstack9RegsArm6
524:   FUNC GLOBAL DEFAULT 14 _ZN11unwindstack7RegsArm2
525:   FUNC GLOBAL DEFAULT 14 _ZN11unwindstack7RegsX861
526:   OBJECT GLOBAL DEFAULT 18 _ZTVN11unwindstack8RegsMi
527:   FUNC GLOBAL DEFAULT 14 _ZN11unwindstack10RegsMip
528:   FUNC WEAK DEFAULT 14 _ZNSt3__16vectorIM9Demang
529:   OBJECT WEAK DEFAULT 18 _ZTVN11unwindstack15DexFi
530:   FUNC WEAK DEFAULT 14 _ZN11unwindstack8DwarfCfa
531:   FUNC WEAK DEFAULT 14 _ZN11unwindstack7DwarfOpI
532:   FUNC WEAK DEFAULT 14 _ZN11unwindstack12ElfInte
533:   FUNC GLOBAL DEFAULT 14 _ZN11unwindstack8RegsMips
534:   FUNC WEAK DEFAULT 14 _ZN11unwindstack7DwarfOpI
535:   FUNC GLOBAL DEFAULT 14 _ZN11unwindstack3Elf11Get
536:   FUNC GLOBAL DEFAULT 14 __aeabi_memcpy
537:   FUNC WEAK DEFAULT 14 _ZN11unwindstack8DwarfCfa
538:   FUNC WEAK DEFAULT 14 _ZN11unwindstack7DwarfOpI
539:   FUNC WEAK DEFAULT 14 _ZN11unwindstack7DwarfOpI
540:   FUNC WEAK DEFAULT 14 _ZN11unwindstack15DwarfDe
541:   OBJECT GLOBAL DEFAULT 18 _ZTVN11unwindstack8JitDeb
542:   FUNC WEAK DEFAULT 14 _ZNSt3__120__shared_ptr_p
543:   OBJECT GLOBAL DEFAULT 18 _ZTVN11unwindstack11Memor
544:   FUNC WEAK DEFAULT 14 _ZN11unwindstack16DwarfSe
545:   FUNC WEAK DEFAULT 14 _ZN11unwindstack7DwarfOpI
546:   FUNC WEAK DEFAULT 14 _ZN11unwindstack7DwarfOpI
547:   FUNC WEAK DEFAULT 14 _ZN11unwindstack7DwarfOpI
548:   OBJECT GLOBAL DEFAULT 18 _ZTVN11unwindstack10RegsX
549:   FUNC WEAK DEFAULT 14 _ZN11unwindstack8DwarfCfa
550:   FUNC WEAK DEFAULT 14 _ZN11unwindstack8DwarfCfa
551:   FUNC WEAK DEFAULT 14 _ZN11unwindstack7DwarfOpI
552:   FUNC WEAK DEFAULT 14 _ZNSt3__16vectorIPN11unwi
553:   FUNC GLOBAL DEFAULT 14 _ZN11unwindstack10RegsMip
554:   OBJECT WEAK DEFAULT 18 _ZTVN11unwindstack7DwarfO
555:   FUNC GLOBAL DEFAULT 14 _ZN11unwindstack13MemoryO
556:   FUNC GLOBAL DEFAULT 14 _ZN11unwindstack7MapInfo3
557:   FUNC GLOBAL DEFAULT 14 _ZN11unwindstack13LocalUn
558:   FUNC GLOBAL DEFAULT 14 _ZN11unwindstack8DexFiles
559:   FUNC WEAK DEFAULT 14 _ZN11unwindstack7DwarfOpI
560:   FUNC WEAK DEFAULT 14 _ZN11unwindstack12ElfInte
561:   FUNC GLOBAL DEFAULT 14 _ZN11unwindstack17DexFile
562:   FUNC WEAK DEFAULT 14 _ZN11unwindstack7DwarfOpI
563:   FUNC WEAK DEFAULT 14 _ZN11unwindstack8DwarfCfa
564:   FUNC GLOBAL DEFAULT 14 _ZN11unwindstack12DwarfSe
565:   FUNC WEAK DEFAULT 14 _ZNSt3__112__hash_tableIN
566:   FUNC WEAK DEFAULT 14 _ZN11unwindstack7DwarfOpI
567:   FUNC WEAK DEFAULT 14 _ZN11unwindstack14GetBuil
568:   FUNC GLOBAL DEFAULT 14 _ZN11unwindstack15ElfInte
569:   FUNC GLOBAL DEFAULT 14 _ZN11unwindstack8DexFiles
570:   FUNC WEAK DEFAULT 14 _ZNSt3__15dequeIN11unwind
571:   FUNC WEAK DEFAULT 14 _ZN11unwindstack7DwarfOpI
572:   FUNC WEAK DEFAULT 14 _ZN11unwindstack7Symbols7
573:   FUNC GLOBAL DEFAULT 14 _ZN11unwindstack8JitDebug
574:   FUNC WEAK DEFAULT 14 _ZNSt3__15dequeIhNS_9allo
575:   FUNC WEAK DEFAULT 14 _ZN11unwindstack16DwarfSe
576:   FUNC WEAK DEFAULT 14 _ZN11unwindstack7DwarfOpI
577:   FUNC WEAK DEFAULT 14 _ZNSt3__114__split_buffer
578:   FUNC WEAK DEFAULT 14 _ZN11unwindstack7DwarfOpI
579:   FUNC WEAK DEFAULT 14 _ZN11unwindstack7DwarfOpI
580:   FUNC WEAK DEFAULT 14 _ZN11unwindstack12DwarfEh
581:   FUNC GLOBAL DEFAULT 14 _ZN11unwindstack12ElfInte
582:   FUNC GLOBAL DEFAULT 14 _ZN11unwindstack9RegsArm6
583:   FUNC WEAK DEFAULT 14 _ZN11unwindstack7DwarfOpI
584:   FUNC WEAK DEFAULT 14 _ZN11unwindstack7DwarfOpI
585:   FUNC WEAK DEFAULT 14 _ZN11unwindstack7DwarfOpI
586:   FUNC GLOBAL DEFAULT 14 _ZN11unwindstack8RegsMips
587:   FUNC WEAK DEFAULT 14 _ZN11unwindstack7DwarfOpI
588:   FUNC WEAK DEFAULT 14 _ZN11unwindstack16DwarfSe
589:   FUNC WEAK DEFAULT 14 _ZN11unwindstack16DwarfSe
590:   FUNC WEAK DEFAULT 14 _ZN7android8procinfo18Rea
591:   FUNC WEAK DEFAULT 14 _ZNSt3__16vectorIhNS_9all
592:   FUNC GLOBAL DEFAULT 14 _ZN11unwindstack8DexFiles
593:   FUNC WEAK DEFAULT 14 _ZNSt3__16vectorIyNS_9all
594:   FUNC WEAK DEFAULT 14 _ZN11unwindstack8DwarfCfa
595:   FUNC WEAK DEFAULT 14 _ZN11unwindstack8DwarfCfa
596:   FUNC WEAK DEFAULT 14 _ZNSt3__112__hash_tableIN
597:   FUNC WEAK DEFAULT 14 _ZN11unwindstack12ElfInte
598:   FUNC GLOBAL DEFAULT 14 _ZN11unwindstack8DexFiles
599:   FUNC GLOBAL DEFAULT 14 _ZN11unwindstack12ElfInte
600:   FUNC GLOBAL DEFAULT 14 _ZN11unwindstack7MapInfo1
601:   FUNC GLOBAL DEFAULT 14 _ZN11unwindstack4Maps3Add
602:   FUNC WEAK DEFAULT 14 _ZN11unwindstack12ElfInte
603:   FUNC GLOBAL DEFAULT 14 _ZNK11unwindstack10Remote
604:   OBJECT WEAK DEFAULT 18 _ZTVNSt3__120__shared_ptr
605:   FUNC GLOBAL DEFAULT 14 _ZN9Demangler16FindFuncti
606:   FUNC WEAK DEFAULT 14 _ZN11unwindstack8DwarfCfa
607:   FUNC GLOBAL DEFAULT 14 _ZN11unwindstack11DwarfMe
608:   FUNC WEAK DEFAULT 14 _ZN11unwindstack7DwarfOpI
609:   FUNC WEAK DEFAULT 14 _ZN11unwindstack16DwarfSe
610:   FUNC GLOBAL DEFAULT 14 _ZN11unwindstack9RegsArm6
611:   FUNC GLOBAL DEFAULT 14 _ZN11unwindstack10RegsMip
612:   FUNC GLOBAL DEFAULT 14 _ZN11unwindstack7DexFile6
613:   FUNC WEAK DEFAULT 14 _ZN11unwindstack11DwarfMe
614:   FUNC WEAK DEFAULT 14 _ZN11unwindstack16DwarfSe
615:   FUNC WEAK DEFAULT 14 _ZN11unwindstack7DwarfOpI
616:   FUNC GLOBAL DEFAULT 14 _ZN11unwindstack8JitDebug
617:   FUNC WEAK DEFAULT 14 _ZN11unwindstack7DwarfOpI
618:   FUNC WEAK DEFAULT 14 _ZNSt3__112__hash_tableIN
619:   FUNC WEAK DEFAULT 14 _ZNSt3__112__hash_tableIN
620:   OBJECT WEAK DEFAULT 18 _ZTVN11unwindstack16Dwarf
621:   FUNC GLOBAL DEFAULT 14 _ZN11unwindstack11MemoryR
622:   FUNC WEAK DEFAULT 14 _ZN11unwindstack7DwarfOpI
623:   FUNC GLOBAL DEFAULT 14 _ZN11unwindstack7RegsArm1
624:   FUNC WEAK DEFAULT 14 _ZNSt3__114__split_buffer
625:   FUNC WEAK DEFAULT 14 _ZN11unwindstack7DwarfOpI
626:   FUNC GLOBAL DEFAULT 14 _ZN11unwindstack7RegsArm2
627:   FUNC GLOBAL DEFAULT 14 _ZN11unwindstack7RegsX861
628:   OBJECT GLOBAL DEFAULT 22 _ZN11unwindstack3Elf6cach
629:   FUNC GLOBAL DEFAULT 14 _ZN11unwindstack18MemoryF
630:   FUNC GLOBAL DEFAULT 14 _ZN11unwindstack6Memory10
631:   FUNC GLOBAL DEFAULT 14 _ZN11unwindstack4Regs11Cu
632:   FUNC WEAK DEFAULT 14 _ZN11unwindstack8DwarfCfa
633:   OBJECT WEAK DEFAULT 18 _ZTVN11unwindstack8DwarfC
634:   FUNC WEAK DEFAULT 14 _ZN11unwindstack12ElfInte
635:   OBJECT WEAK DEFAULT 18 _ZTVN11unwindstack3ElfE
636:   FUNC GLOBAL DEFAULT 14 __divdi3
637:   OBJECT GLOBAL DEFAULT 18 _ZTVN11unwindstack12ElfIn
638:   FUNC WEAK DEFAULT 14 _ZNSt3__114__split_buffer
639:   FUNC WEAK DEFAULT 14 _ZN11unwindstack8DwarfCfa
640:   FUNC WEAK DEFAULT 14 _ZN11unwindstack19DwarfEh
641:   FUNC WEAK DEFAULT 14 _ZN11unwindstack7DwarfOpI
642:   FUNC GLOBAL DEFAULT 14 _ZN9Demangler20ParseCompl
643:   FUNC GLOBAL DEFAULT 14 _ZN11unwindstack8ArmExidx
644:   FUNC WEAK DEFAULT 14 _ZN11unwindstack8DwarfCfa
645:   FUNC WEAK DEFAULT 14 _ZNSt3__16__treeINS_12__v
646:   FUNC GLOBAL DEFAULT 14 _ZN11unwindstack6Global17
647:   FUNC GLOBAL DEFAULT 14 _ZN11unwindstack6Global7S
648:   FUNC WEAK DEFAULT 14 _ZNSt3__16__treeINS_12__v
649:   FUNC GLOBAL DEFAULT 14 _ZN11unwindstack7RegsX866
650:   FUNC GLOBAL DEFAULT 14 _ZN11unwindstack8RegsMips
651:   FUNC GLOBAL DEFAULT 14 _ZN11unwindstack8DexFiles
652:   FUNC WEAK DEFAULT 14 _ZN11unwindstack19DwarfEh
653:   FUNC WEAK DEFAULT 14 _ZN11unwindstack7DwarfOpI
654:   FUNC WEAK DEFAULT 14 _ZN11unwindstack7DwarfOpI
655:   FUNC WEAK DEFAULT 14 _ZN11unwindstack7DwarfOpI
656:   FUNC GLOBAL DEFAULT 14 _ZN11unwindstack3Elf9GetS
657:   FUNC GLOBAL DEFAULT 14 __udivmoddi4
658:   FUNC GLOBAL DEFAULT 14 _ZN11unwindstack15DexFile
659:   FUNC GLOBAL DEFAULT 14 _ZN11unwindstack11DwarfMe
660:   FUNC WEAK DEFAULT 14 _ZN11unwindstack12ElfInte
661:   FUNC GLOBAL DEFAULT 14 _ZN11unwindstack4Regs9Rem
662:   FUNC WEAK DEFAULT 14 _ZN11unwindstack8DwarfCfa
663:   FUNC WEAK DEFAULT 14 _ZN11unwindstack7DwarfOpI
664:   FUNC WEAK DEFAULT 14 _ZN11unwindstack7DwarfOpI
665:   FUNC WEAK DEFAULT 14 _ZN11unwindstack12ElfInte
666:   FUNC GLOBAL DEFAULT 14 _ZN11unwindstack11MemoryL
667:   FUNC GLOBAL DEFAULT 14 _ZN11unwindstack18MemoryO
668:   FUNC WEAK DEFAULT 14 _ZN11unwindstack8DwarfCfa
669:   FUNC WEAK DEFAULT 14 _ZN11unwindstack16DwarfSe
670:   FUNC GLOBAL DEFAULT 14 _ZN11unwindstack3Elf12Get
671:   OBJECT GLOBAL DEFAULT 18 _ZTVN11unwindstack11Memor
672:   FUNC WEAK DEFAULT 14 _ZNSt3__17__sort4IRZN11un
673:   FUNC WEAK DEFAULT 14 _ZN11unwindstack7DwarfOpI
674:   FUNC WEAK DEFAULT 14 _ZN11unwindstack21DwarfSe
675:   FUNC GLOBAL DEFAULT 14 _ZN11unwindstack3Elf25Cre
676:   FUNC WEAK DEFAULT 14 _ZN11unwindstack7DwarfOpI
677:   FUNC WEAK DEFAULT 14 _ZNSt3__112__hash_tableIN
678:   FUNC WEAK DEFAULT 14 _ZNSt3__120__shared_ptr_e
679:   FUNC GLOBAL DEFAULT 14 _ZN11unwindstack8DexFiles
680:   FUNC WEAK DEFAULT 14 _ZN11unwindstack7DwarfOpI
681:   FUNC WEAK DEFAULT 14 _ZN11unwindstack16DwarfSe
682:   FUNC WEAK DEFAULT 14 _ZNSt3__1plIcNS_11char_tr
683:   FUNC WEAK DEFAULT 14 _ZN11unwindstack19DwarfEh
684:   FUNC WEAK DEFAULT 14 _ZN11unwindstack7DwarfOpI
685:   FUNC WEAK DEFAULT 14 _ZNSt3__112__hash_tableIN
686:   FUNC GLOBAL DEFAULT 14 _ZN11unwindstack18MemoryO
687:   FUNC GLOBAL DEFAULT 14 _ZN11unwindstack7RegsX861
688:   OBJECT WEAK DEFAULT 18 _ZTVN11unwindstack7Symbol
689:   FUNC GLOBAL DEFAULT 14 _ZN11unwindstack8JitDebug
690:   FUNC WEAK DEFAULT 14 _ZN11unwindstack7DwarfOpI
691:   FUNC WEAK DEFAULT 14 _ZN11unwindstack7DwarfOpI
692:   FUNC WEAK DEFAULT 14 _ZN11unwindstack21DwarfSe
693:   OBJECT GLOBAL DEFAULT 22 _ZN11unwindstack3Elf11cac
694:   FUNC WEAK DEFAULT 14 _ZN11unwindstack19DwarfEh
695:   FUNC WEAK DEFAULT 14 _ZN11unwindstack7DwarfOpI
696:   FUNC WEAK DEFAULT 14 _ZN11unwindstack7DwarfOpI
697:   FUNC WEAK DEFAULT 14 _ZN11unwindstack12ElfInte
698:   FUNC GLOBAL DEFAULT 14 _ZN11unwindstack9RegsArm6
699:   FUNC GLOBAL DEFAULT 14 _ZN11unwindstack7RegsX861
700:   OBJECT WEAK DEFAULT 18 _ZTVN11unwindstack19Dwarf
701:   FUNC WEAK DEFAULT 14 _ZN11unwindstack16DwarfSe
702:   FUNC GLOBAL DEFAULT 14 _ZN11unwindstack8RegsMips
703:   FUNC GLOBAL DEFAULT 14 _ZN11unwindstack10RegsMip
704:   FUNC WEAK DEFAULT 14 _ZN11unwindstack8DwarfCfa
705:   FUNC GLOBAL DEFAULT 14 _ZN11unwindstack3Elf10Get
706:   FUNC GLOBAL DEFAULT 14 _ZN11unwindstack13LocalUn
707:   FUNC GLOBAL DEFAULT 14 __aeabi_ldivmod
708:   FUNC GLOBAL DEFAULT 14 _ZN11unwindstack8JitDebug
709:   FUNC GLOBAL DEFAULT 14 _ZN11unwindstack4Maps4Fin
710:   FUNC WEAK DEFAULT 14 _ZN11unwindstack16DwarfSe
711:   FUNC WEAK DEFAULT 14 _ZN11unwindstack7DwarfOpI
712:   FUNC WEAK DEFAULT 14 _ZNSt3__114__split_buffer
713:   FUNC GLOBAL DEFAULT 14 _ZN11unwindstack13LocalUn
714:   FUNC WEAK DEFAULT 14 _ZNSt3__112__hash_tableIN
715:   FUNC GLOBAL DEFAULT 14 _ZN11unwindstack10RegsMip
716:   FUNC WEAK DEFAULT 14 _ZN11unwindstack16DwarfSe
717:   FUNC GLOBAL DEFAULT 14 _ZN11unwindstack10RegsX86
718:   FUNC GLOBAL DEFAULT 14 _ZN11unwindstack10RegsX86
719:   FUNC WEAK DEFAULT 14 _ZNSt3__16vectorIM9Demang
720:   FUNC GLOBAL DEFAULT 14 __udivsi3
721:   FUNC WEAK DEFAULT 14 _ZN11unwindstack8DwarfCfa
722:   FUNC WEAK DEFAULT 14 _ZN11unwindstack7DwarfOpI
723:   FUNC GLOBAL DEFAULT 14 _ZN11unwindstack8JitDebug
724:   OBJECT GLOBAL DEFAULT 18 _ZTVN11unwindstack18Memor
725:   FUNC WEAK DEFAULT 14 _ZN11unwindstack7DwarfOpI
726:   FUNC WEAK DEFAULT 14 _ZN11unwindstack7DwarfOpI
727:   FUNC WEAK DEFAULT 14 _ZN11unwindstack16DwarfSe
728:   FUNC WEAK DEFAULT 14 _ZNSt3__112__hash_tableIN
729:   FUNC GLOBAL DEFAULT 14 _ZN11unwindstack11MemoryR
730:   FUNC GLOBAL DEFAULT 14 _ZN11unwindstack7RegsArm5
731:   FUNC WEAK DEFAULT 14 _ZN11unwindstack11DwarfMe
732:   FUNC WEAK DEFAULT 14 _ZN11unwindstack7DwarfOpI
733:   FUNC WEAK DEFAULT 14 _ZNSt3__16vectorIcNS_9all
734:   FUNC GLOBAL DEFAULT 14 _ZN11unwindstack9RegsArm6
735:   OBJECT WEAK DEFAULT 18 _ZTVN11unwindstack8RegsIm
736:   FUNC WEAK DEFAULT 14 _ZN11unwindstack8DwarfCfa
737:   FUNC GLOBAL DEFAULT 14 _ZN11unwindstack7MapInfoD
738:   FUNC GLOBAL DEFAULT 14 _ZN11unwindstack8RegsMips
739:   FUNC GLOBAL DEFAULT 14 __aeabi_memmove
740:   FUNC WEAK DEFAULT 14 _ZN11unwindstack8DwarfCfa
741:   FUNC GLOBAL DEFAULT 14 __aeabi_memclr
742:   FUNC WEAK DEFAULT 14 _ZN11unwindstack8DwarfCfa
743:   FUNC WEAK DEFAULT 14 _ZNSt3__16vectorIPKN11unw
744:   OBJECT WEAK DEFAULT 18 _ZTVN11unwindstack11Dwarf
745:   FUNC GLOBAL DEFAULT 14 _ZN11unwindstack18LocalUp
746:   FUNC GLOBAL DEFAULT 14 _ZN11unwindstack11MemoryC
747:   FUNC GLOBAL DEFAULT 14 _ZN11unwindstack8DexFiles
748:   FUNC WEAK DEFAULT 14 _ZNSt3__112__hash_tableIN
749:   OBJECT WEAK DEFAULT 18 _ZN11unwindstack7DwarfOpI
750:   OBJECT WEAK DEFAULT 18 _ZTVN11unwindstack14ElfIn
751:   OBJECT WEAK DEFAULT 18 _ZTVNSt3__120__shared_ptr
752:   FUNC GLOBAL DEFAULT 14 _ZN11unwindstack8Unwinder
753:   FUNC WEAK DEFAULT 14 _ZNSt3__127__insertion_so
754:   FUNC WEAK DEFAULT 14 _ZNSt3__114__split_buffer
755:   FUNC WEAK DEFAULT 14 _ZNSt3__112__hash_tableIN
756:   FUNC GLOBAL DEFAULT 14 _ZN11unwindstack10RegsX86
757:   FUNC GLOBAL DEFAULT 14 _ZN11unwindstack10RegsX86
758:   FUNC GLOBAL DEFAULT 14 _ZN11unwindstack10RegsX86
759:   FUNC WEAK DEFAULT 14 _ZN11unwindstack21DwarfSe
760:   FUNC GLOBAL DEFAULT 14 _ZN11unwindstack8RegsMips
761:   FUNC GLOBAL DEFAULT 14 _Z8demanglePKc
762:   OBJECT WEAK DEFAULT 18 _ZN11unwindstack8DwarfCfa
763:   FUNC WEAK DEFAULT 14 _ZN11unwindstack7DwarfOpI
764:   FUNC GLOBAL DEFAULT 14 _ZN11unwindstack10RegsMip
765:   FUNC WEAK DEFAULT 14 _ZNSt3__114__split_buffer
766:   FUNC GLOBAL DEFAULT 14 _ZN11unwindstack4Maps5Par
767:   FUNC GLOBAL DEFAULT 14 _ZN11unwindstack9RegsArm6
768:   FUNC WEAK DEFAULT 14 _ZNSt3__16__sortIRZN11unw
769:   FUNC GLOBAL DEFAULT 14 __aeabi_memset
770:   FUNC WEAK DEFAULT 14 _ZNSt3__114__split_buffer
771:   FUNC GLOBAL DEFAULT 14 _ZN11unwindstack3Elf4Step
772:   FUNC WEAK DEFAULT 14 _ZNSt3__112__hash_tableIN
773:   FUNC WEAK DEFAULT 14 _ZN11unwindstack8DwarfCfa
774:   FUNC WEAK DEFAULT 14 _ZN11unwindstack8DwarfCfa
775:   FUNC WEAK DEFAULT 14 _ZN11unwindstack21DwarfSe
776:   FUNC GLOBAL DEFAULT 14 _ZN11unwindstack7RegsArmC
777:   OBJECT GLOBAL DEFAULT 18 _ZTVN11unwindstack9RegsAr
778:   FUNC GLOBAL DEFAULT 14 _ZN11unwindstack10RegsX86
779:   OBJECT WEAK DEFAULT 18 _ZTVN11unwindstack6Global
780:   FUNC WEAK DEFAULT 14 _ZN11unwindstack8DwarfCfa
781:   FUNC WEAK DEFAULT 14 _ZN11unwindstack7DwarfOpI
782:   FUNC WEAK DEFAULT 14 _ZN11unwindstack7DwarfOpI
783:   FUNC WEAK DEFAULT 14 _ZN11unwindstack7DwarfOpI
784:   FUNC WEAK DEFAULT 14 _ZN11unwindstack12ElfInte
785:   FUNC GLOBAL DEFAULT 14 _ZN11unwindstack8JitDebug
786:   FUNC WEAK DEFAULT 14 _ZN11unwindstack19DwarfEh
787:   FUNC WEAK DEFAULT 14 _ZN11unwindstack7DwarfOpI
788:   FUNC GLOBAL DEFAULT 14 _ZN9Demangler18GetArgumen
789:   FUNC GLOBAL DEFAULT 14 _ZN9Demangler20ParseTempl
790:   FUNC WEAK DEFAULT 14 _ZNSt3__112__deque_baseIN
791:   FUNC WEAK DEFAULT 14 _ZNSt3__114__split_buffer
792:   FUNC WEAK DEFAULT 14 _ZN11unwindstack12ElfInte
793:   FUNC WEAK DEFAULT 14 _ZNSt3__112__hash_tableIN
794:   FUNC WEAK DEFAULT 14 _ZNSt3__16vectorIN11unwin
795:   FUNC WEAK DEFAULT 14 _ZNSt3__127__tree_balance
796:   FUNC WEAK DEFAULT 14 _ZNSt3__112__hash_tableIN
797:   FUNC GLOBAL DEFAULT 14 _ZN11unwindstack19MemoryO
798:   FUNC WEAK DEFAULT 14 _ZNSt3__114__split_buffer
799:   FUNC WEAK DEFAULT 14 _ZNSt3__112__hash_tableIN
800:   FUNC GLOBAL DEFAULT 14 _ZN11unwindstack12MemoryB
801:   FUNC GLOBAL DEFAULT 14 _ZN11unwindstack7SymbolsC
802:   OBJECT GLOBAL DEFAULT 18 _ZTVN11unwindstack18Local
803:   FUNC GLOBAL DEFAULT 14 _ZN11unwindstack7RegsArm6
804:   FUNC GLOBAL DEFAULT 14 _ZN11unwindstack8DexFiles
805:   FUNC WEAK DEFAULT 14 _ZNSt3__112__hash_tableIN
806:   OBJECT WEAK DEFAULT 18 _ZTVN11unwindstack15Dwarf
807:   FUNC GLOBAL DEFAULT 14 _ZN11unwindstack8JitDebug
808:   FUNC GLOBAL DEFAULT 14 _ZN11unwindstack8Unwinder
809:   FUNC WEAK DEFAULT 14 _ZN11unwindstack15DwarfDe
810:   OBJECT WEAK DEFAULT 18 _ZTVNSt3__120__shared_ptr
811:   FUNC GLOBAL DEFAULT 14 _ZN11unwindstack10RegsX86
812:   FUNC GLOBAL DEFAULT 14 _ZN9Demangler30ParseFunct
813:   FUNC GLOBAL DEFAULT 14 _ZN11unwindstack6GlobalC2
814:   FUNC WEAK DEFAULT 14 _ZNSt3__16vectorINS_12bas
815:   OBJECT WEAK DEFAULT 18 _ZTVN11unwindstack21Dwarf
816:   FUNC WEAK DEFAULT 14 _ZNSt3__127__insertion_so
817:   FUNC GLOBAL DEFAULT 14 _ZN9Demangler16FinalizeTe
818:   FUNC WEAK DEFAULT 14 _ZN11unwindstack8DwarfCfa
819:   FUNC WEAK DEFAULT 14 _ZN11unwindstack11DwarfMe
820:   FUNC GLOBAL DEFAULT 14 __aeabi_idiv
821:   FUNC WEAK DEFAULT 14 _ZNSt3__120__shared_ptr_p
822:   FUNC WEAK DEFAULT 14 _ZN11unwindstack8DwarfCfa
823:   FUNC WEAK DEFAULT 14 _ZN11unwindstack7DwarfOpI
824:   FUNC WEAK DEFAULT 14 _ZNSt3__112__hash_tableIN
825:   FUNC GLOBAL DEFAULT 14 _ZN11unwindstack7RegsX861
826:   FUNC GLOBAL DEFAULT 14 _ZN11unwindstack9RegsArm6
827:   FUNC WEAK DEFAULT 14 _ZN11unwindstack8DwarfCfa
828:   FUNC WEAK DEFAULT 14 _ZN11unwindstack8DwarfCfa
829:   FUNC WEAK DEFAULT 14 _ZN11unwindstack7DwarfOpI
830:   FUNC WEAK DEFAULT 14 _ZN11unwindstack8DwarfCfa
831:   FUNC WEAK DEFAULT 14 _ZN11unwindstack8DwarfCfa
832:   FUNC WEAK DEFAULT 14 _ZN11unwindstack7DwarfOpI
833:   FUNC GLOBAL DEFAULT 14 _ZN11unwindstack8RegsMips
834:   FUNC GLOBAL DEFAULT 14 _ZN11unwindstack6GlobalC2
835:   FUNC GLOBAL DEFAULT 14 _ZN11unwindstack8DexFiles
836:   FUNC WEAK DEFAULT 14 _ZNSt3__112__hash_tableIN
837:   FUNC WEAK DEFAULT 14 _ZN11unwindstack8DwarfCfa
838:   FUNC GLOBAL DEFAULT 14 __aeabi_uldivmod
839:   FUNC GLOBAL DEFAULT 14 _ZN11unwindstack7MapInfo1
840:   OBJECT GLOBAL DEFAULT 18 _ZTVN11unwindstack10Buffe
841:   FUNC WEAK DEFAULT 14 _ZN11unwindstack11DwarfMe
842:   FUNC WEAK DEFAULT 14 _ZN11unwindstack19DwarfEh
843:   FUNC WEAK DEFAULT 14 _ZN11unwindstack7DwarfOpI
844:   FUNC WEAK DEFAULT 14 _ZN11unwindstack16DwarfSe
845:   FUNC WEAK DEFAULT 14 _ZNSt3__120__shared_ptr_p
846:   FUNC WEAK DEFAULT 14 _ZNSt3__114__split_buffer
847:   OBJECT WEAK DEFAULT 18 _ZTVN11unwindstack12Dwarf
848:   FUNC WEAK DEFAULT 14 _ZN11unwindstack7Symbols9
849:   FUNC GLOBAL DEFAULT 14 _ZN11unwindstack8JitDebug
850:   FUNC WEAK DEFAULT 14 _ZN11unwindstack8DwarfCfa
851:   FUNC WEAK DEFAULT 14 _ZNSt3__15dequeIN11unwind
852:   FUNC WEAK DEFAULT 14 _ZNSt3__112__hash_tableIN
853:   OBJECT GLOBAL DEFAULT 18 _ZTVN11unwindstack10Remot
854:   FUNC WEAK DEFAULT 14 _ZNSt3__16vectorINS_12bas
855:   FUNC WEAK DEFAULT 14 _ZN11unwindstack7DwarfOpI
856:   FUNC GLOBAL DEFAULT 14 _ZN11unwindstack8JitDebug
857:   FUNC WEAK DEFAULT 14 _ZN11unwindstack7DwarfOpI
858:   FUNC WEAK DEFAULT 14 _ZN11unwindstack7DwarfOpI
859:   FUNC WEAK DEFAULT 14 _ZN11unwindstack7DwarfOpI
