 0x000000000000000e (SONAME)             Library soname: [libhidlbase.so]
  
Symbol   contains 1528 entries:
Num:   Type Bind Vis Ndx Name
0:   NOTYPE LOCAL DEFAULT UND
1:   FUNC GLOBAL DEFAULT UND __cxa_finalize@LIBC (2)
2:   FUNC GLOBAL DEFAULT UND __cxa_atexit@LIBC (2)
3:   FUNC GLOBAL DEFAULT UND _ZN7android27add_sysprop_
4:   FUNC GLOBAL DEFAULT UND _ZN7android4base10LogMess
5:   FUNC GLOBAL DEFAULT UND _ZN7android4base10LogMess
6:   FUNC GLOBAL DEFAULT UND _ZN7android4base10LogMess
7:   FUNC GLOBAL DEFAULT UND _ZN7android4base11GetProp
8:   FUNC GLOBAL DEFAULT UND _ZN7android4base12StringP
9:   FUNC GLOBAL DEFAULT UND _ZN7android4base21GetMini
10:   FUNC GLOBAL DEFAULT UND _ZNKSt3__112basic_stringI
11:   FUNC GLOBAL DEFAULT UND _ZNKSt3__119__shared_weak
12:   FUNC GLOBAL DEFAULT UND _ZNKSt3__120__vector_base
13:   FUNC GLOBAL DEFAULT UND _ZNKSt3__121__basic_strin
14:   FUNC GLOBAL DEFAULT UND _ZNKSt3__123__match_any_b
15:   FUNC GLOBAL DEFAULT UND _ZNKSt3__16locale4nameEv
16:   FUNC GLOBAL DEFAULT UND _ZNKSt3__16locale9use_fac
17:   FUNC GLOBAL DEFAULT UND _ZNKSt3__18ios_base6getlo
18:   FUNC GLOBAL DEFAULT UND _ZNSt3__112basic_stringIc
19:   FUNC GLOBAL DEFAULT UND _ZNSt3__112basic_stringIc
20:   FUNC GLOBAL DEFAULT UND _ZNSt3__112basic_stringIc
21:   FUNC GLOBAL DEFAULT UND _ZNSt3__112basic_stringIc
22:   FUNC GLOBAL DEFAULT UND _ZNSt3__112basic_stringIc
23:   FUNC GLOBAL DEFAULT UND _ZNSt3__112basic_stringIc
24:   FUNC GLOBAL DEFAULT UND _ZNSt3__112basic_stringIc
25:   FUNC GLOBAL DEFAULT UND _ZNSt3__112basic_stringIc
26:   FUNC GLOBAL DEFAULT UND _ZNSt3__113basic_ostreamI
27:   FUNC GLOBAL DEFAULT UND _ZNSt3__113basic_ostreamI
28:   FUNC GLOBAL DEFAULT UND _ZNSt3__115__get_classnam
29:   FUNC GLOBAL DEFAULT UND _ZNSt3__119__shared_weak_
30:   FUNC GLOBAL DEFAULT UND _ZNSt3__119__shared_weak_
31:   FUNC GLOBAL DEFAULT UND _ZNSt3__120__get_collatio
32:   OBJECT GLOBAL DEFAULT UND _ZNSt3__15ctypeIcE2idE
33:   FUNC GLOBAL DEFAULT UND _ZNSt3__16localeC1ERKS0_
34:   FUNC GLOBAL DEFAULT UND _ZNSt3__16localeC1Ev
35:   FUNC GLOBAL DEFAULT UND _ZNSt3__16localeD1Ev
36:   OBJECT GLOBAL DEFAULT UND _ZNSt3__17collateIcE2idE
37:   FUNC GLOBAL DEFAULT UND _ZNSt3__18ios_base5clearE
38:   FUNC GLOBAL DEFAULT UND _ZNSt3__19to_stringEi
39:   FUNC GLOBAL DEFAULT UND _ZNSt3__1plIcNS_11char_tr
40:   FUNC GLOBAL DEFAULT UND _ZdlPv
41:   FUNC GLOBAL DEFAULT UND _Znwm
42:   FUNC GLOBAL DEFAULT UND __cxa_guard_acquire
43:   FUNC GLOBAL DEFAULT UND __cxa_guard_release
44:   FUNC GLOBAL DEFAULT UND __errno@LIBC (2)
45:   NOTYPE WEAK DEFAULT UND __sanitizer_cov_dump
46:   FUNC GLOBAL DEFAULT UND __stack_chk_fail@LIBC (2)
47:   FUNC GLOBAL DEFAULT UND abort@LIBC (2)
48:   FUNC GLOBAL DEFAULT UND closedir@LIBC (2)
49:   FUNC GLOBAL DEFAULT UND dl_iterate_phdr@LIBC (3)
50:   FUNC GLOBAL DEFAULT UND dlerror@LIBC (3)
51:   FUNC GLOBAL DEFAULT UND dlopen@LIBC (3)
52:   FUNC GLOBAL DEFAULT UND dlsym@LIBC (3)
53:   FUNC GLOBAL DEFAULT UND getenv@LIBC (2)
54:   FUNC GLOBAL DEFAULT UND getpid@LIBC (2)
55:   FUNC GLOBAL DEFAULT UND memcmp@LIBC (2)
56:   FUNC GLOBAL DEFAULT UND memcpy@LIBC (2)
57:   FUNC GLOBAL DEFAULT UND memmove@LIBC (2)
58:   FUNC GLOBAL DEFAULT UND memset@LIBC (2)
59:   FUNC GLOBAL DEFAULT UND opendir@LIBC (2)
60:   FUNC GLOBAL DEFAULT UND property_get
61:   FUNC GLOBAL DEFAULT UND property_get_bool
62:   FUNC GLOBAL DEFAULT UND readdir@LIBC (2)
63:   FUNC GLOBAL DEFAULT UND setenv@LIBC (2)
64:   FUNC GLOBAL DEFAULT UND strcmp@LIBC (2)
65:   FUNC GLOBAL DEFAULT UND strlen@LIBC (2)
66:   FUNC GLOBAL DEFAULT UND _ZN7android7RefBase10onFi
67:   FUNC GLOBAL DEFAULT UND _ZN7android7RefBase13onLa
68:   FUNC GLOBAL DEFAULT UND _ZN7android7RefBase15onLa
69:   FUNC GLOBAL DEFAULT UND _ZN7android7RefBase20onIn
70:   FUNC GLOBAL DEFAULT UND _ZN7android7RefBaseC2Ev
71:   FUNC GLOBAL DEFAULT UND _ZN7android7RefBaseD2Ev
72:   FUNC GLOBAL DEFAULT UND _ZNK7android7RefBase9incS
73:   FUNC GLOBAL DEFAULT UND _ZNSt3__113basic_ostreamI
74:   FUNC GLOBAL DEFAULT UND __strlen_chk@LIBC (2)
75:   FUNC GLOBAL DEFAULT UND close@LIBC (2)
76:   FUNC GLOBAL DEFAULT UND free@LIBC (2)
77:   FUNC GLOBAL DEFAULT UND malloc@LIBC (2)
78:   FUNC GLOBAL DEFAULT UND native_handle_clone
79:   FUNC GLOBAL DEFAULT UND native_handle_close
80:   FUNC GLOBAL DEFAULT UND native_handle_create
81:   FUNC GLOBAL DEFAULT UND native_handle_delete
82:   NOTYPE WEAK DEFAULT UND _ZN7android9CallStack11de
83:   NOTYPE WEAK DEFAULT UND _ZN7android9CallStack16lo
84:   NOTYPE WEAK DEFAULT UND _ZN7android9CallStack18ge
85:   FUNC GLOBAL DEFAULT UND _ZNSt3__112__next_primeEm
86:   FUNC GLOBAL DEFAULT UND _ZNSt3__112basic_stringIc
87:   FUNC GLOBAL DEFAULT UND _ZNSt3__112basic_stringIc
88:   FUNC GLOBAL DEFAULT UND _ZNSt3__112basic_stringIc
89:   FUNC GLOBAL DEFAULT UND _ZNSt3__113basic_ostreamI
90:   FUNC GLOBAL DEFAULT UND _ZNSt3__113basic_ostreamI
91:   FUNC GLOBAL DEFAULT UND _ZNSt3__113basic_ostreamI
92:   FUNC GLOBAL DEFAULT UND _ZNSt3__115basic_streambu
93:   FUNC GLOBAL DEFAULT UND _ZNSt3__115basic_streambu
94:   FUNC GLOBAL DEFAULT UND _ZNSt3__115basic_streambu
95:   FUNC GLOBAL DEFAULT UND _ZNSt3__115basic_streambu
96:   FUNC GLOBAL DEFAULT UND _ZNSt3__115basic_streambu
97:   FUNC GLOBAL DEFAULT UND _ZNSt3__115basic_streambu
98:   FUNC GLOBAL DEFAULT UND _ZNSt3__115basic_streambu
99:   FUNC GLOBAL DEFAULT UND _ZNSt3__115basic_streambu
100:   FUNC GLOBAL DEFAULT UND _ZNSt3__115basic_streambu
101:   FUNC GLOBAL DEFAULT UND _ZNSt3__18ios_base4initEP
102:   FUNC GLOBAL DEFAULT UND _ZNSt3__19basic_iosIcNS_1
103:   FUNC GLOBAL DEFAULT UND _ZTv0_n24_NSt3__113basic_
104:   FUNC GLOBAL DEFAULT UND _ZTv0_n24_NSt3__113basic_
105:   FUNC GLOBAL DEFAULT UND __android_log_print@LIBLOG (4)
106:   FUNC GLOBAL DEFAULT UND strerror@LIBC (2)
107:   FUNC GLOBAL DEFAULT UND _ZNSt3__115__thread_struc
108:   FUNC GLOBAL DEFAULT UND _ZNSt3__115__thread_struc
109:   FUNC GLOBAL DEFAULT UND _ZNSt3__118condition_vari
110:   FUNC GLOBAL DEFAULT UND _ZNSt3__118condition_vari
111:   FUNC GLOBAL DEFAULT UND _ZNSt3__118condition_vari
112:   FUNC GLOBAL DEFAULT UND _ZNSt3__119__thread_local
113:   FUNC GLOBAL DEFAULT UND _ZNSt3__120__throw_system
114:   FUNC GLOBAL DEFAULT UND _ZNSt3__15mutex4lockEv
115:   FUNC GLOBAL DEFAULT UND _ZNSt3__15mutex6unlockEv
116:   FUNC GLOBAL DEFAULT UND _ZNSt3__15mutexD1Ev
117:   FUNC GLOBAL DEFAULT UND _ZNSt3__16thread6detachEv
118:   FUNC GLOBAL DEFAULT UND _ZNSt3__16threadD1Ev
119:   FUNC GLOBAL DEFAULT UND androidSetThreadName
120:   FUNC GLOBAL DEFAULT UND pthread_create@LIBC (2)
121:   FUNC GLOBAL DEFAULT UND pthread_setspecific@LIBC (2)
122:   FUNC GLOBAL DEFAULT UND _ZN7android14sp_report_ra
123:   FUNC GLOBAL DEFAULT UND _ZN7android7RefBase12weak
124:   FUNC GLOBAL DEFAULT UND _ZN7android7RefBase12weak
125:   FUNC GLOBAL DEFAULT UND _ZN7android7RefBase12weak
126:   FUNC GLOBAL DEFAULT UND _ZN7android7String8C1ERKN
127:   FUNC GLOBAL DEFAULT UND _ZN7android7String8D1Ev
128:   FUNC GLOBAL DEFAULT UND _ZN7android8String16C1EPK
129:   FUNC GLOBAL DEFAULT UND _ZN7android8String16C1Ev
130:   FUNC GLOBAL DEFAULT UND _ZN7android8String16D1Ev
131:   FUNC GLOBAL DEFAULT UND _ZNK7android7RefBase10cre
132:   FUNC GLOBAL DEFAULT UND _ZNK7android7RefBase9decS
133:   FUNC GLOBAL DEFAULT UND __android_log_assert@LIBLOG (4)
134:   FUNC GLOBAL DEFAULT UND __cxa_pure_virtual
135:   FUNC GLOBAL DEFAULT UND _ZNSt3__113basic_ostreamI
136:   FUNC GLOBAL DEFAULT UND exit@LIBC (2)
137:   FUNC GLOBAL DEFAULT UND _ZNSt3__113basic_ostreamI
138:   FUNC GLOBAL DEFAULT UND _ZN7android12uptimeMillis
139:   FUNC GLOBAL DEFAULT UND _ZN7android4base10StartsW
140:   FUNC GLOBAL DEFAULT UND _ZN7android4base15WaitFor
141:   FUNC GLOBAL DEFAULT UND _ZN7android4base16ReadFil
142:   FUNC GLOBAL DEFAULT UND _ZN7android4base5SplitERK
143:   FUNC GLOBAL DEFAULT UND _ZN7android4base8EndsWith
144:   FUNC GLOBAL DEFAULT UND _ZNKSt3__112basic_stringI
145:   FUNC GLOBAL DEFAULT UND _ZNKSt3__112basic_stringI
146:   FUNC GLOBAL DEFAULT UND _ZNKSt3__16locale9has_fac
147:   FUNC GLOBAL DEFAULT UND _ZNSt3__112basic_stringIc
148:   FUNC GLOBAL DEFAULT UND _ZNSt3__113basic_istreamI
149:   FUNC GLOBAL DEFAULT UND _ZNSt3__113basic_istreamI
150:   FUNC GLOBAL DEFAULT UND _ZNSt3__113basic_istreamI
151:   FUNC GLOBAL DEFAULT UND _ZNSt3__113basic_istreamI
152:   FUNC GLOBAL DEFAULT UND _ZNSt3__113basic_istreamI
153:   FUNC GLOBAL DEFAULT UND _ZNSt3__113basic_ostreamI
154:   FUNC GLOBAL DEFAULT UND _ZNSt3__114basic_iostream
155:   FUNC GLOBAL DEFAULT UND _ZNSt3__114basic_iostream
156:   FUNC GLOBAL DEFAULT UND _ZNSt3__114basic_iostream
157:   FUNC GLOBAL DEFAULT UND _ZNSt3__118condition_vari
158:   FUNC GLOBAL DEFAULT UND _ZNSt3__16chrono12steady_
159:   FUNC GLOBAL DEFAULT UND _ZNSt3__16chrono12system_
160:   OBJECT GLOBAL DEFAULT UND _ZNSt3__17codecvtIcc9mbst
161:   FUNC GLOBAL DEFAULT UND _ZThn16_NSt3__114basic_io
162:   FUNC GLOBAL DEFAULT UND _ZThn16_NSt3__114basic_io
163:   FUNC GLOBAL DEFAULT UND _ZTv0_n24_NSt3__113basic_
164:   FUNC GLOBAL DEFAULT UND _ZTv0_n24_NSt3__113basic_
165:   FUNC GLOBAL DEFAULT UND _ZTv0_n24_NSt3__114basic_
166:   FUNC GLOBAL DEFAULT UND _ZTv0_n24_NSt3__114basic_
167:   FUNC GLOBAL DEFAULT UND _ZdaPv
168:   FUNC GLOBAL DEFAULT UND _Znam
169:   FUNC GLOBAL DEFAULT UND __strchr_chk@LIBC (2)
170:   FUNC GLOBAL DEFAULT UND access@LIBC (2)
171:   FUNC GLOBAL DEFAULT UND dlclose@LIBC (3)
172:   FUNC GLOBAL DEFAULT UND fclose@LIBC (2)
173:   FUNC GLOBAL DEFAULT UND fflush@LIBC (2)
174:   FUNC GLOBAL DEFAULT UND fopen@LIBC (2)
175:   FUNC GLOBAL DEFAULT UND fread@LIBC (2)
176:   FUNC GLOBAL DEFAULT UND fseeko@LIBC (2)
177:   FUNC GLOBAL DEFAULT UND ftello@LIBC (2)
178:   FUNC GLOBAL DEFAULT UND fwrite@LIBC (2)
179:   FUNC GLOBAL DEFAULT UND isspace@LIBC (2)
180:   FUNC GLOBAL DEFAULT UND memchr@LIBC (2)
181:   FUNC GLOBAL DEFAULT UND sleep@LIBC (2)
182:   FUNC GLOBAL DEFAULT UND strtoll@LIBC (2)
183:   FUNC GLOBAL DEFAULT UND strtoull@LIBC (2)
184:   FUNC GLOBAL DEFAULT UND sysconf@LIBC (2)
185:   FUNC GLOBAL DEFAULT UND tolower@LIBC (2)
186:   FUNC GLOBAL DEFAULT UND _ZN7android21report_syspr
187:   FUNC GLOBAL DEFAULT UND _ZNK7android7RefBase11get
188:   FUNC GLOBAL DEFAULT UND atrace_begin_body
189:   OBJECT GLOBAL DEFAULT UND atrace_enabled_tags
190:   FUNC GLOBAL DEFAULT UND atrace_end_body
191:   OBJECT GLOBAL DEFAULT UND atrace_is_ready
192:   FUNC GLOBAL DEFAULT UND atrace_setup
193:   FUNC GLOBAL DEFAULT UND pthread_mutex_lock@LIBC (2)
194:   FUNC GLOBAL DEFAULT UND pthread_mutex_unlock@LIBC (2)
195:   FUNC GLOBAL DEFAULT UND pthread_mutex_destroy@LIBC (2)
196:   FUNC GLOBAL DEFAULT UND pthread_mutex_init@LIBC (2)
197:   FUNC GLOBAL DEFAULT UND _ZN7android7RefBase20exte
198:   FUNC GLOBAL DEFAULT UND _ZN7android10VectorImpl13
199:   FUNC GLOBAL DEFAULT UND _ZN7android16SortedVector
200:   FUNC GLOBAL DEFAULT UND _ZN7android16SortedVector
201:   FUNC GLOBAL DEFAULT UND _ZNK7android16SortedVecto
202:   FUNC GLOBAL DEFAULT UND _ZN7android16SortedVector
203:   FUNC GLOBAL DEFAULT UND _ZN7android16SortedVector
204:   FUNC GLOBAL DEFAULT UND _ZN7android10VectorImpl5c
205:   FUNC GLOBAL DEFAULT UND _ZN7android10VectorImplC2
206:   FUNC GLOBAL DEFAULT UND _ZN7android10VectorImplD2
207:   FUNC GLOBAL DEFAULT UND _ZN7android10VectorImpl3a
208:   FUNC GLOBAL DEFAULT UND _ZN7android10VectorImpl13
209:   FUNC GLOBAL DEFAULT UND thread_store_get
210:   FUNC GLOBAL DEFAULT UND thread_store_set
211:   FUNC GLOBAL DEFAULT UND _ZN7android7RefBase10rena
212:   FUNC GLOBAL DEFAULT UND _ZN7android7RefBase11rena
213:   FUNC GLOBAL DEFAULT UND _ZN7android10VectorImpl16
214:   FUNC GLOBAL DEFAULT UND realloc@LIBC (2)
215:   FUNC GLOBAL DEFAULT UND printf@LIBC (2)
216:   FUNC GLOBAL DEFAULT UND __vsprintf_chk@LIBC (2)
217:   FUNC GLOBAL DEFAULT UND pthread_getspecific@LIBC (2)
218:   FUNC GLOBAL DEFAULT UND pthread_key_create@LIBC (2)
219:   FUNC GLOBAL DEFAULT UND pthread_key_delete@LIBC (2)
220:   FUNC GLOBAL DEFAULT UND getuid@LIBC (2)
221:   FUNC GLOBAL DEFAULT UND pthread_cond_wait@LIBC (2)
222:   FUNC GLOBAL DEFAULT UND pthread_cond_broadcast@LIBC (2)
223:   FUNC GLOBAL DEFAULT UND _ZN7android18IPCThreadSta
224:   FUNC GLOBAL DEFAULT UND ioctl@LIBC (2)
225:   FUNC GLOBAL DEFAULT UND _ZN7android18IPCThreadSta
226:   FUNC GLOBAL DEFAULT UND _ZN7android18IPCThreadSta
227:   FUNC GLOBAL DEFAULT UND _ZN7android18IPCThreadSta
228:   FUNC GLOBAL DEFAULT UND _ZN7android10VectorImpl4p
229:   FUNC GLOBAL DEFAULT UND _ZNK7android8String164siz
230:   FUNC GLOBAL DEFAULT UND _ZN7android8String16C1EPK
231:   FUNC GLOBAL DEFAULT UND _ZnwmRKSt9nothrow_t
232:   FUNC GLOBAL DEFAULT UND _ZN7android8String165setT
233:   FUNC GLOBAL DEFAULT UND calloc@LIBC (2)
234:   FUNC GLOBAL DEFAULT UND getrlimit@LIBC (2)
235:   FUNC GLOBAL DEFAULT UND _ZN7android8String165setT
236:   FUNC GLOBAL DEFAULT UND _ZNSt3__113basic_ostreamI
237:   FUNC GLOBAL DEFAULT UND _ZNSt3__113basic_ostreamI
238:   OBJECT GLOBAL DEFAULT UND _ZSt7nothrow
239:   FUNC GLOBAL DEFAULT UND __android_log_error_write@LIBLOG_M (5)
240:   FUNC GLOBAL DEFAULT UND _ZN7android7RefBase12weak
241:   FUNC GLOBAL DEFAULT UND _ZN7android7String8C1Ev
242:   FUNC GLOBAL DEFAULT UND _ZN7android7String812appe
243:   FUNC GLOBAL DEFAULT UND mmap@LIBC (2)
244:   FUNC GLOBAL DEFAULT UND munmap@LIBC (2)
245:   FUNC GLOBAL DEFAULT UND _ZN7android6ThreadC2Eb
246:   FUNC GLOBAL DEFAULT UND _ZN7android6ThreadD1Ev
247:   FUNC GLOBAL DEFAULT UND _ZN7android6ThreadD0Ev
248:   FUNC GLOBAL DEFAULT UND _ZN7android6Thread3runEPK
249:   FUNC GLOBAL DEFAULT UND _ZN7android6Thread11reque
250:   FUNC GLOBAL DEFAULT UND _ZN7android6Thread10ready
251:   FUNC GLOBAL DEFAULT UND _ZTv0_n24_N7android6Threa
252:   FUNC GLOBAL DEFAULT UND _ZTv0_n24_N7android6Threa
253:   FUNC GLOBAL DEFAULT UND _ZN7android6ThreadD2Ev
254:   FUNC GLOBAL DEFAULT UND __open_2@LIBC (2)
255:   FUNC GLOBAL DEFAULT UND _ZN7android8String16C1ERK
256:   FUNC GLOBAL DEFAULT UND strzcmp16
257:   FUNC GLOBAL DEFAULT UND _ZN7android10VectorImpl8i
258:   FUNC GLOBAL DEFAULT UND _ZNK7android7RefBase14for
259:   FUNC GLOBAL DEFAULT UND writev@LIBC (2)
260:   FUNC GLOBAL DEFAULT UND write@LIBC (2)
261:   FUNC WEAK DEFAULT UND android_set_abort_message@LIBC (2)
262:   FUNC GLOBAL DEFAULT 14 _ZN7android4hidl7manager4
263:   OBJECT WEAK DEFAULT 18 _ZTCN7android8hardware7de
264:   OBJECT GLOBAL DEFAULT 18 _ZTTN7android4hidl7manage
265:   FUNC GLOBAL DEFAULT 14 _ZNK7android8hardware14IP
266:   FUNC WEAK DEFAULT 14 _ZNKSt3__110__function6__
267:   FUNC GLOBAL DEFAULT 14 _ZN7android8hardware11BpH
268:   FUNC WEAK DEFAULT 14 _ZNSt3__15dequeINS_7__sta
269:   FUNC WEAK DEFAULT 14 _ZNSt3__113basic_filebufI
270:   OBJECT GLOBAL DEFAULT 18 _ZTVN7android4hidl7manage
271:   FUNC WEAK DEFAULT 14 _ZNSt3__111basic_regexIcN
272:   FUNC GLOBAL DEFAULT 14 _ZNK7android8hardware6Par
273:   FUNC GLOBAL DEFAULT 14 _ZN7android8hardware6Stat
274:   FUNC GLOBAL DEFAULT 14 _ZThn32_N7android4hidl7ma
275:   OBJECT WEAK DEFAULT 18 _ZTVNSt3__120__shared_ptr
276:   FUNC WEAK DEFAULT 14 _ZNSt3__114__split_buffer
277:   FUNC WEAK DEFAULT 14 _ZNSt3__113basic_filebufI
278:   FUNC GLOBAL DEFAULT 14 _ZN7android8hardware10BpH
279:   FUNC GLOBAL DEFAULT 14 _ZN7android8hardware6Parc
280:   FUNC GLOBAL DEFAULT 14 _ZN7android8hardware11hid
281:   FUNC GLOBAL DEFAULT 14 _ZN7android8hardware21wri
282:   FUNC GLOBAL DEFAULT 14 _ZN7android4hidl7manager4
283:   FUNC GLOBAL DEFAULT 14 _ZN7android8hardware14IPC
284:   FUNC GLOBAL DEFAULT 14 _ZN7android8hardware11hid
285:   FUNC GLOBAL DEFAULT 14 _ZN7android8hardware6Stat
286:   FUNC WEAK DEFAULT 14 _ZNKSt3__115basic_stringb
287:   FUNC WEAK DEFAULT 14 _ZN7android8hardware10fro
288:   FUNC GLOBAL DEFAULT 14 _ZN7android4hidl7manager4
289:   FUNC GLOBAL DEFAULT 14 _ZN7android4hidl7manager4
290:   FUNC WEAK DEFAULT 14 _ZNSt3__111basic_regexIcN
291:   FUNC GLOBAL DEFAULT 14 _ZN7android8hardware27hid
292:   FUNC GLOBAL DEFAULT 14 _ZN7android4hidl7manager4
293:   OBJECT GLOBAL DEFAULT 18 _ZTCN7android8hardware9BH
294:   FUNC GLOBAL DEFAULT 14 _ZN7android4hidl7manager4
295:   FUNC GLOBAL DEFAULT 14 _ZN7android4hidl4base4V1_
296:   OBJECT WEAK DEFAULT 18 _ZTVN7android8hardware13L
297:   FUNC WEAK DEFAULT 14 _ZNKSt3__113__empty_state
298:   FUNC GLOBAL DEFAULT 14 _ZN7android4hidl7manager4
299:   OBJECT GLOBAL DEFAULT 18 _ZTTN7android8hardware10I
300:   FUNC WEAK DEFAULT 14 _ZN7android2spINS_8hardwa
301:   FUNC WEAK DEFAULT 14 _ZNSt3__111basic_regexIcN
302:   FUNC WEAK DEFAULT 14 _ZNSt3__111basic_regexIcN
303:   FUNC GLOBAL DEFAULT 14 _ZN7android8hardware7IBin
304:   FUNC GLOBAL DEFAULT 14 _ZN7android8hardware6Parc
305:   FUNC GLOBAL DEFAULT 14 _ZN7android8hardware6Parc
306:   FUNC WEAK DEFAULT 14 _ZNKSt3__111basic_regexIc
307:   FUNC WEAK DEFAULT 14 _ZNSt3__111basic_regexIcN
308:   FUNC GLOBAL DEFAULT 14 _ZN7android8hardware18add
309:   FUNC GLOBAL DEFAULT 14 _ZN7android4hidl7manager4
310:   FUNC GLOBAL DEFAULT 14 _ZN7android4hidl7manager4
311:   FUNC GLOBAL DEFAULT 14 _ZN7android8hardware11BpH
312:   FUNC GLOBAL DEFAULT 14 _ZN7android8hardware7deta
313:   FUNC GLOBAL DEFAULT 14 _ZN7android8hardware14IPC
314:   FUNC GLOBAL DEFAULT 14 _ZN7android8hardware11hid
315:   FUNC GLOBAL DEFAULT 14 _ZN7android8hardware11hid
316:   OBJECT GLOBAL DEFAULT 18 _ZTTN7android4hidl7manage
317:   FUNC GLOBAL DEFAULT 14 _ZN7android8hardware6Parc
318:   OBJECT WEAK DEFAULT 18 _ZTVNSt3__16__loopIcEE
319:   FUNC WEAK DEFAULT 14 _ZN7android2spINS_4hidl7m
320:   FUNC GLOBAL DEFAULT 14 _ZN7android8hardware16mat
321:   FUNC GLOBAL DEFAULT 14 _ZN7android8hardware9BHwB
322:   FUNC GLOBAL DEFAULT 14 _ZN7android4hidl7manager4
323:   FUNC GLOBAL DEFAULT 14 _ZN7android4hidl4base4V1_
324:   FUNC GLOBAL DEFAULT 14 _ZN7android8hardware10BpH
325:   FUNC GLOBAL DEFAULT 14 _ZN7android8hardware16unf
326:   FUNC GLOBAL DEFAULT 14 _ZN7android8hardware6Parc
327:   FUNC GLOBAL DEFAULT 14 _ZN7android8hardware10BpH
328:   OBJECT GLOBAL DEFAULT 18 _ZTVN7android8hardware10I
329:   FUNC GLOBAL DEFAULT 14 _ZN7android4hidl7manager4
330:   FUNC GLOBAL DEFAULT 14 _ZN7android4hidl7manager4
331:   FUNC WEAK DEFAULT 14 _ZNKSt3__111__lookaheadIc
332:   FUNC WEAK DEFAULT 14 _ZNSt3__111basic_regexIcN
333:   FUNC GLOBAL DEFAULT 14 _ZN7android4hidl7manager4
334:   FUNC GLOBAL DEFAULT 14 _ZTv0_n24_N7android4hidl7
335:   FUNC GLOBAL DEFAULT 14 _ZN7android4hidl7manager4
336:   FUNC GLOBAL DEFAULT 14 _ZN7android4hidl7manager4
337:   FUNC GLOBAL DEFAULT 14 _ZN7android4hidl7manager4
338:   FUNC GLOBAL DEFAULT 14 _ZN7android4hidl4base4V1_
339:   FUNC GLOBAL DEFAULT 14 _ZN7android8hardware6Parc
340:   FUNC GLOBAL DEFAULT 14 _ZN7android4hidl7manager4
341:   FUNC GLOBAL DEFAULT 14 _ZN7android8hardware7deta
342:   FUNC WEAK DEFAULT 14 _ZNSt3__110__function6__f
343:   FUNC GLOBAL DEFAULT 14 _ZN7android8hardware7deta
344:   FUNC GLOBAL DEFAULT 14 _ZN7android8hardware6Parc
345:   FUNC GLOBAL DEFAULT 14 _ZTv0_n24_N7android8hardw
346:   OBJECT GLOBAL DEFAULT 18 _ZTCN7android4hidl7manage
347:   FUNC GLOBAL DEFAULT 14 _ZN7android8hardware14fla
348:   FUNC GLOBAL DEFAULT 14 _ZN7android8hardware6Parc
349:   FUNC GLOBAL DEFAULT 14 _ZN7android8hardware20Laz
350:   FUNC WEAK DEFAULT 14 _ZNSt3__111basic_regexIcN
351:   FUNC GLOBAL DEFAULT 14 _ZN7android8hardware12Pro
352:   FUNC WEAK DEFAULT 14 _ZNKSt3__110__r_anchorIcE
353:   OBJECT WEAK DEFAULT 18 _ZTVNSt3__113basic_fstrea
354:   FUNC GLOBAL DEFAULT 14 _ZN7android4hidl7manager4
355:   OBJECT GLOBAL DEFAULT 18 _ZTCN7android4hidl7manage
356:   FUNC GLOBAL DEFAULT 14 _ZN7android4hidl7manager4
357:   FUNC GLOBAL DEFAULT 14 _ZN7android8hardware11hid
358:   FUNC GLOBAL DEFAULT 14 _ZN7android8hardware14rea
359:   FUNC GLOBAL DEFAULT 14 _ZN7android8hardware21def
360:   OBJECT GLOBAL DEFAULT 18 _ZTVN7android4hidl7manage
361:   FUNC GLOBAL DEFAULT 14 _ZN7android4hidl4base4V1_
362:   OBJECT GLOBAL DEFAULT 18 _ZN7android8hardware4aerr
363:   FUNC WEAK DEFAULT 14 _ZNSt3__16vectorINS_9sub_
364:   FUNC WEAK DEFAULT 14 _ZN7android8hardware7deta
365:   FUNC GLOBAL DEFAULT 14 _ZN7android4hidl7manager4
366:   OBJECT GLOBAL DEFAULT 18 _ZTCN7android4hidl7manage
367:   FUNC GLOBAL DEFAULT 14 _ZN7android4hidl4base4V1_
368:   FUNC GLOBAL DEFAULT 14 _ZN7android8hardware6Parc
369:   OBJECT GLOBAL DEFAULT 18 _ZTTN7android4hidl7manage
370:   FUNC GLOBAL DEFAULT 14 _ZN7android8hardware10Hid
371:   FUNC GLOBAL DEFAULT 14 _ZN7android4hidl4base4V1_
372:   OBJECT GLOBAL DEFAULT 18 _ZTCN7android4hidl4base4V
373:   OBJECT GLOBAL DEFAULT 18 _ZTVN7android8hardware12P
374:   FUNC GLOBAL DEFAULT 14 _ZN7android4hidl7manager4
375:   FUNC GLOBAL DEFAULT 14 _ZNK7android8hardware6Par
376:   FUNC GLOBAL DEFAULT 14 _ZN7android4hidl7manager4
377:   OBJECT GLOBAL DEFAULT 18 _ZTCN7android4hidl7manage
378:   FUNC GLOBAL DEFAULT 14 _ZN7android8hardware14IPC
379:   FUNC GLOBAL DEFAULT 14 _ZN7android8hardware18Buf
380:   FUNC GLOBAL DEFAULT 14 _ZNK7android8hardware6Par
381:   FUNC GLOBAL DEFAULT 14 _ZN7android4hidl7manager4
382:   FUNC GLOBAL DEFAULT 14 _ZN7android8hardware14IPC
383:   FUNC GLOBAL DEFAULT 14 _ZN7android8hardware6Parc
384:   FUNC GLOBAL DEFAULT 14 _ZN7android8hardware12Pro
385:   FUNC GLOBAL DEFAULT 14 _ZN7android4hidl7manager4
386:   FUNC WEAK DEFAULT 14 _ZN7android8hardware7deta
387:   FUNC GLOBAL DEFAULT 14 _ZN7android4hidl7manager4
388:   FUNC GLOBAL DEFAULT 14 _ZN7android8hardware6Parc
389:   FUNC GLOBAL DEFAULT 14 _ZN7android8hardware6Parc
390:   OBJECT GLOBAL DEFAULT 18 _ZTVN7android8hardware27h
391:   FUNC GLOBAL DEFAULT 14 _ZN7android4hidl7manager4
392:   FUNC WEAK DEFAULT 14 _ZNSt3__16vectorINS_9sub_
393:   FUNC GLOBAL DEFAULT 14 _ZN7android4hidl7manager4
394:   OBJECT GLOBAL DEFAULT 18 _ZTCN7android4hidl7manage
395:   OBJECT WEAK DEFAULT 18 _ZTVN7android12SortedVect
396:   FUNC GLOBAL DEFAULT 14 _ZNK7android8hardware6Par
397:   FUNC GLOBAL DEFAULT 14 _ZN7android8hardware10Tex
398:   FUNC GLOBAL DEFAULT 14 _ZN7android8hardware11hid
399:   FUNC GLOBAL DEFAULT 14 _ZNK7android8hardware11hi
400:   FUNC GLOBAL DEFAULT 14 _ZN7android4hidl7manager4
401:   FUNC GLOBAL DEFAULT 14 _ZN7android4hidl7manager4
402:   FUNC GLOBAL DEFAULT 14 _ZN7android8hardware14IPC
403:   FUNC GLOBAL DEFAULT 14 _ZN7android4hidl7manager4
404:   FUNC GLOBAL DEFAULT 14 _ZN7android8hardware10BpH
405:   FUNC GLOBAL DEFAULT 14 _ZTv0_n24_N7android8hardw
406:   FUNC GLOBAL DEFAULT 14 _ZN7android8hardware6Parc
407:   FUNC WEAK DEFAULT 14 _ZNKSt3__118__match_char_
408:   FUNC WEAK DEFAULT 14 _ZNSt3__111basic_regexIcN
409:   OBJECT WEAK DEFAULT 18 _ZTVNSt3__111__end_stateI
410:   OBJECT GLOBAL DEFAULT 16 _ZN7android4hidl4base4V1_
411:   FUNC WEAK DEFAULT 14 _ZNSt3__111basic_regexIcN
412:   FUNC GLOBAL DEFAULT 14 _ZN7android8hardware18Buf
413:   FUNC WEAK DEFAULT 14 _ZNKSt3__111__alternateIc
414:   OBJECT GLOBAL DEFAULT 18 _ZTCN7android4hidl7manage
415:   OBJECT WEAK DEFAULT 18 _ZTVN7android4hidl7manage
416:   FUNC GLOBAL DEFAULT 14 _ZN7android8hardware14IPC
417:   FUNC GLOBAL DEFAULT 14 _ZNK7android8hardware6Par
418:   FUNC WEAK DEFAULT 14 _ZNSt3__113basic_filebufI
419:   FUNC GLOBAL DEFAULT 14 _ZTv0_n24_N7android8hardw
420:   OBJECT GLOBAL DEFAULT 18 _ZTCN7android4hidl7manage
421:   FUNC GLOBAL DEFAULT 14 _ZN7android8hardware12Pro
422:   FUNC GLOBAL DEFAULT 14 _ZN7android8hardware12Pro
423:   FUNC GLOBAL DEFAULT 14 _ZN7android8hardware6Stat
424:   FUNC WEAK DEFAULT 14 _ZNSt3__113basic_filebufI
425:   FUNC GLOBAL DEFAULT 14 _ZN7android4hidl7manager4
426:   FUNC GLOBAL DEFAULT 14 _ZN7android4hidl7manager4
427:   OBJECT GLOBAL DEFAULT 18 _ZTCN7android4hidl7manage
428:   FUNC GLOBAL DEFAULT 14 _ZN7android8hardware9BHwB
429:   FUNC GLOBAL DEFAULT 14 _ZN7android8hardware11BpH
430:   FUNC GLOBAL DEFAULT 14 _ZN7android8hardware14IPC
431:   FUNC WEAK DEFAULT 14 _ZNSt3__16vectorINS_4pair
432:   FUNC GLOBAL DEFAULT 14 _ZN7android4hidl4base4V1_
433:   FUNC GLOBAL DEFAULT 14 _ZN7android4hidl7manager4
434:   FUNC GLOBAL DEFAULT 14 _ZNK7android8hardware6Par
435:   FUNC GLOBAL DEFAULT 14 _ZN7android4hidl7manager4
436:   FUNC WEAK DEFAULT 14 _ZN7android8hardware6Parc
437:   FUNC GLOBAL DEFAULT 14 _ZN7android8hardware12Pro
438:   FUNC GLOBAL DEFAULT 14 __addtf3
439:   FUNC WEAK DEFAULT 14 _ZNSt3__111basic_regexIcN
440:   FUNC GLOBAL DEFAULT 14 _ZN7android4hidl7manager4
441:   OBJECT GLOBAL DEFAULT 18 _ZTCN7android4hidl4base4V
442:   OBJECT WEAK DEFAULT 18 _ZTCNSt3__118basic_string
443:   OBJECT GLOBAL DEFAULT 18 _ZTCN7android4hidl7manage
444:   OBJECT GLOBAL DEFAULT 23 _ZN7android8hardware12gTe
445:   OBJECT WEAK DEFAULT 18 _ZTVN7android6VectorIPNS_
446:   OBJECT WEAK DEFAULT 18 _ZTCNSt3__118basic_string
447:   FUNC WEAK DEFAULT 14 _ZNSt3__113basic_filebufI
448:   FUNC GLOBAL DEFAULT 14 _ZN7android4hidl7manager4
449:   FUNC GLOBAL DEFAULT 14 _ZN7android8hardware6Parc
450:   FUNC GLOBAL DEFAULT 14 _ZN7android8hardware7IBin
451:   FUNC GLOBAL DEFAULT 14 _ZN7android4hidl7manager4
452:   FUNC GLOBAL DEFAULT 14 _ZN7android8hardware10BpH
453:   FUNC GLOBAL DEFAULT 14 _ZN7android8hardware12Pro
454:   FUNC GLOBAL DEFAULT 14 _ZN7android4hidl7manager4
455:   OBJECT GLOBAL DEFAULT 18 _ZTTN7android4hidl7manage
456:   FUNC GLOBAL DEFAULT 14 _ZTv0_n24_N7android4hidl7
457:   FUNC GLOBAL DEFAULT 14 _ZN7android8hardware10Hid
458:   FUNC GLOBAL DEFAULT 14 _ZN7android8hardware12Pro
459:   FUNC GLOBAL DEFAULT 14 _ZN7android4hidl4base4V1_
460:   FUNC GLOBAL DEFAULT 14 _ZNK7android8hardware6Par
461:   FUNC WEAK DEFAULT 14 _ZNSt3__111basic_regexIcN
462:   FUNC GLOBAL DEFAULT 14 _ZN7android4hidl7manager4
463:   OBJECT GLOBAL DEFAULT 18 _ZTVN7android4hidl7manage
464:   OBJECT GLOBAL DEFAULT 18 _ZTVN7android4hidl7manage
465:   FUNC GLOBAL DEFAULT 14 _ZN7android8hardware12Pro
466:   OBJECT WEAK DEFAULT 18 _ZTVN7android8hardware10P
467:   FUNC GLOBAL DEFAULT 14 _ZN7android8hardware7deta
468:   FUNC WEAK DEFAULT 14 _ZNKSt3__112regex_traitsI
469:   FUNC WEAK DEFAULT 14 _ZNSt3__111basic_regexIcN
470:   FUNC GLOBAL DEFAULT 14 _ZN7android8hardware21wri
471:   OBJECT GLOBAL DEFAULT 16 _ZN7android4hidl7manager4
472:   FUNC WEAK DEFAULT 14 _ZNKSt3__112regex_traitsI
473:   FUNC GLOBAL DEFAULT 14 _ZN7android4hidl7manager4
474:   FUNC GLOBAL DEFAULT 14 _ZN7android4hidl7manager4
475:   FUNC GLOBAL DEFAULT 14 _ZN7android8hardware12Pro
476:   FUNC WEAK DEFAULT 14 _ZNSt3__16__treeINS_12__v
477:   FUNC GLOBAL DEFAULT 14 _ZN7android4hidl4base4V1_
478:   FUNC GLOBAL DEFAULT 14 _ZN7android4hidl4base4V1_
479:   FUNC GLOBAL DEFAULT 14 _ZN7android8hardware14IPC
480:   OBJECT WEAK DEFAULT 18 _ZTVN7android6VectorIPNS_
481:   FUNC GLOBAL DEFAULT 14 _ZN7android8hardware7deta
482:   FUNC GLOBAL DEFAULT 14 _ZN7android8hardware22rea
483:   FUNC WEAK DEFAULT 14 _ZNSt3__16__treeINS_12__v
484:   FUNC GLOBAL DEFAULT 14 _ZN7android4hidl4base4V1_
485:   FUNC GLOBAL DEFAULT 14 _ZN7android8hardware6Parc
486:   FUNC GLOBAL DEFAULT 14 _ZNK7android8hardware6Par
487:   FUNC GLOBAL DEFAULT 14 _ZN7android8hardware7deta
488:   FUNC GLOBAL DEFAULT 14 _ZN7android8hardware14IPC
489:   FUNC GLOBAL DEFAULT 14 _ZN7android8hardware14IPC
490:   FUNC GLOBAL DEFAULT 14 _ZNK7android8hardware6Par
491:   FUNC GLOBAL DEFAULT 14 _ZN7android4hidl7manager4
492:   FUNC GLOBAL DEFAULT 14 _ZThn32_N7android4hidl7ma
493:   FUNC GLOBAL DEFAULT 14 _ZNK7android8hardware6Par
494:   FUNC GLOBAL DEFAULT 14 _ZNK7android8hardware6Par
495:   FUNC GLOBAL DEFAULT 14 _ZNK7android8hardware6Par
496:   FUNC GLOBAL DEFAULT 14 _ZNK7android8hardware6Par
497:   FUNC GLOBAL DEFAULT 14 _ZN7android8hardware11hid
498:   FUNC GLOBAL DEFAULT 14 _ZN7android8hardware11hid
499:   FUNC GLOBAL DEFAULT 14 _ZN7android4hidl7manager4
500:   OBJECT GLOBAL DEFAULT 18 _ZTCN7android4hidl7manage
501:   FUNC GLOBAL DEFAULT 14 _ZN7android4hidl4base4V1_
502:   FUNC GLOBAL DEFAULT 14 _ZNK7android8hardware6Par
503:   FUNC GLOBAL DEFAULT 14 __eqtf2
504:   OBJECT WEAK DEFAULT 18 _ZTVNSt3__110__l_anchorIc
505:   FUNC GLOBAL DEFAULT 14 _ZN7android8hardware6Stat
506:   OBJECT WEAK DEFAULT 23 _ZGVZN7android8hardware25
507:   FUNC GLOBAL DEFAULT 14 _ZN7android8hardware12Pro
508:   FUNC GLOBAL DEFAULT 14 _ZNK7android8hardware6Par
509:   FUNC GLOBAL DEFAULT 14 __gttf2
510:   FUNC GLOBAL DEFAULT 14 _ZN7android4hidl7manager4
511:   OBJECT GLOBAL DEFAULT 18 _ZTCN7android4hidl7manage
512:   FUNC GLOBAL DEFAULT 14 _ZN7android8hardware6Parc
513:   OBJECT WEAK DEFAULT 18 _ZTCN7android8hardware10P
514:   FUNC GLOBAL DEFAULT 14 _ZN7android4hidl7manager4
515:   FUNC GLOBAL DEFAULT 14 _ZN7android4hidl7manager4
516:   FUNC GLOBAL DEFAULT 14 _ZN7android8hardware18Buf
517:   FUNC GLOBAL DEFAULT 14 _ZN7android8hardware23get
518:   FUNC GLOBAL DEFAULT 14 _ZN7android8hardware7deta
519:   FUNC WEAK DEFAULT 14 _ZNSt3__111basic_regexIcN
520:   FUNC WEAK DEFAULT 14 _ZNSt3__124__put_characte
521:   OBJECT WEAK DEFAULT 18 _ZTVNSt3__121__empty_non_
522:   FUNC GLOBAL DEFAULT 14 _ZN7android8hardware7deta
523:   FUNC GLOBAL DEFAULT 14 _ZN7android4hidl7manager4
524:   FUNC GLOBAL DEFAULT 14 _ZThn32_N7android4hidl4ba
525:   OBJECT GLOBAL DEFAULT 18 _ZTTN7android8hardware7de
526:   FUNC GLOBAL DEFAULT 14 _ZN7android8hardware12Pro
527:   FUNC GLOBAL DEFAULT 14 __unordtf2
528:   FUNC WEAK DEFAULT 14 _ZNSt3__111basic_regexIcN
529:   FUNC GLOBAL DEFAULT 14 _ZN7android8hardware21wri
530:   FUNC GLOBAL DEFAULT 14 _ZN7android4hidl7manager4
531:   FUNC GLOBAL DEFAULT 14 _ZN7android4hidl7manager4
532:   OBJECT WEAK DEFAULT 18 _ZTVN7android8hardware12F
533:   FUNC GLOBAL DEFAULT 14 _ZN7android8hardware6Parc
534:   FUNC GLOBAL DEFAULT 14 _ZN7android4hidl7manager4
535:   FUNC GLOBAL DEFAULT 14 _ZN7android4hidl7manager4
536:   FUNC WEAK DEFAULT 14 _ZNSt3__115basic_stringbu
537:   FUNC GLOBAL DEFAULT 14 _ZNK7android8hardware6Par
538:   FUNC GLOBAL DEFAULT 14 _ZN7android8hardware11hid
539:   FUNC GLOBAL DEFAULT 14 _ZN7android8hardware6Stat
540:   FUNC WEAK DEFAULT 14 _ZNSt3__16vectorIN7androi
541:   FUNC GLOBAL DEFAULT 14 _ZN7android8hardware28get
542:   FUNC WEAK DEFAULT 14 _ZNKSt3__112regex_traitsI
543:   FUNC WEAK DEFAULT 14 _ZNSt3__111basic_regexIcN
544:   OBJECT GLOBAL DEFAULT 18 _ZTTN7android4hidl4base4V
545:   FUNC WEAK DEFAULT 14 _ZNSt3__111basic_regexIcN
546:   FUNC GLOBAL DEFAULT 14 _ZN7android4hidl7manager4
547:   FUNC GLOBAL DEFAULT 14 _ZN7android8hardware6Parc
548:   FUNC GLOBAL DEFAULT 14 _ZN7android4hidl7manager4
549:   FUNC GLOBAL DEFAULT 14 _ZN7android4hidl7manager4
550:   FUNC GLOBAL DEFAULT 14 _ZN7android4hidl4base4V1_
551:   OBJECT WEAK DEFAULT 18 _ZTCN7android4hidl7manage
552:   FUNC GLOBAL DEFAULT 14 _ZN7android4hidl7manager4
553:   FUNC GLOBAL DEFAULT 14 _ZN7android4hidl7manager4
554:   FUNC GLOBAL DEFAULT 14 _ZN7android4hidl7manager4
555:   FUNC GLOBAL DEFAULT 14 _ZN7android8hardware18set
556:   FUNC GLOBAL DEFAULT 14 _ZN7android4hidl7manager4
557:   FUNC GLOBAL DEFAULT 14 _ZN7android4hidl7manager4
558:   FUNC WEAK DEFAULT 14 _ZNSt3__111basic_regexIcN
559:   FUNC GLOBAL DEFAULT 14 _ZN7android8hardware11hid
560:   FUNC GLOBAL DEFAULT 14 _ZN7android8hardware6Stat
561:   FUNC WEAK DEFAULT 14 _ZNSt3__16vectorIN7androi
562:   FUNC GLOBAL DEFAULT 14 _ZTv0_n24_N7android8hardw
563:   OBJECT GLOBAL DEFAULT 18 _ZTTN7android4hidl7manage
564:   OBJECT WEAK DEFAULT 18 _ZTVN7android4hidl7manage
565:   FUNC GLOBAL DEFAULT 14 _ZN7android4hidl4base4V1_
566:   FUNC GLOBAL DEFAULT 14 _ZN7android4hidl7manager4
567:   FUNC GLOBAL DEFAULT 14 _ZN7android4hidl7manager4
568:   FUNC GLOBAL DEFAULT 14 _ZN7android8hardware18Buf
569:   FUNC GLOBAL DEFAULT 14 _ZN7android4hidl7manager4
570:   FUNC GLOBAL DEFAULT 14 _ZN7android4hidl4base4V1_
571:   FUNC GLOBAL DEFAULT 14 _ZNK7android8hardware6Par
572:   OBJECT WEAK DEFAULT 18 _ZTTNSt3__119basic_ostrin
573:   FUNC GLOBAL DEFAULT 14 _ZN7android4hidl7manager4
574:   FUNC GLOBAL DEFAULT 14 _ZN7android8hardware10IIn
575:   OBJECT GLOBAL DEFAULT 18 _ZTCN7android4hidl7manage
576:   OBJECT GLOBAL DEFAULT 18 _ZTTN7android4hidl7manage
577:   OBJECT GLOBAL DEFAULT 18 _ZTCN7android4hidl7manage
578:   FUNC GLOBAL DEFAULT 14 _ZTv0_n24_N7android4hidl7
579:   OBJECT GLOBAL DEFAULT 18 _ZTCN7android4hidl4base4V
580:   FUNC GLOBAL DEFAULT 14 _ZNK7android8hardware14IP
581:   FUNC GLOBAL DEFAULT 14 _ZN7android8hardware10Hid
582:   FUNC WEAK DEFAULT 14 _ZNSt3__16__treeINS_12__v
583:   OBJECT WEAK DEFAULT 18 _ZTVNSt3__114basic_ifstre
584:   OBJECT GLOBAL DEFAULT 18 _ZTTN7android4hidl7manage
585:   FUNC GLOBAL DEFAULT 14 _ZN7android8hardware6Parc
586:   FUNC WEAK DEFAULT 14 _ZNSt3__111basic_regexIcN
587:   FUNC WEAK DEFAULT 14 _ZNSt3__111basic_regexIcN
588:   FUNC WEAK DEFAULT 14 _ZNSt3__16__treeINS_12__v
589:   FUNC GLOBAL DEFAULT 14 _ZN7android4hidl7manager4
590:   FUNC GLOBAL DEFAULT 14 _ZN7android4hidl7manager4
591:   FUNC WEAK DEFAULT 14 _ZNSt3__111basic_regexIcN
592:   OBJECT GLOBAL DEFAULT 23 _ZN7android8hardware7deta
593:   FUNC GLOBAL DEFAULT 14 _ZN7android4hidl7manager4
594:   FUNC GLOBAL DEFAULT 14 _ZN7android8hardware12Pro
595:   FUNC GLOBAL DEFAULT 14 _ZN7android8hardware11hid
596:   FUNC GLOBAL DEFAULT 14 _ZN7android4hidl7manager4
597:   FUNC GLOBAL DEFAULT 14 _ZN7android4hidl7manager4
598:   FUNC GLOBAL DEFAULT 14 _ZN7android8hardware18Buf
599:   FUNC GLOBAL DEFAULT 14 _ZN7android8hardware14IPC
600:   FUNC WEAK DEFAULT 14 _ZNSt3__113basic_filebufI
601:   FUNC GLOBAL DEFAULT 14 _ZN7android4hidl4base4V1_
602:   FUNC GLOBAL DEFAULT 14 _ZN7android8hardware6Parc
603:   FUNC GLOBAL DEFAULT 14 _ZN7android4hidl7manager4
604:   FUNC GLOBAL DEFAULT 14 _ZN7android4hidl7manager4
605:   FUNC WEAK DEFAULT 14 _ZNSt3__111basic_regexIcN
606:   FUNC WEAK DEFAULT 14 _ZNSt3__111basic_regexIcN
607:   FUNC GLOBAL DEFAULT 14 _ZN7android4hidl7manager4
608:   FUNC GLOBAL DEFAULT 14 _ZN7android4hidl7manager4
609:   FUNC GLOBAL DEFAULT 14 _ZN7android8hardware10BpH
610:   FUNC WEAK DEFAULT 14 _ZN7android2spINS_8hardwa
611:   OBJECT WEAK DEFAULT 18 _ZTVN7android8hardware25P
612:   FUNC WEAK DEFAULT 14 _ZNSt3__110__function6__f
613:   FUNC GLOBAL DEFAULT 14 _ZN7android8hardwarelsERN
614:   FUNC GLOBAL DEFAULT 14 _ZN7android4hidl7manager4
615:   FUNC GLOBAL DEFAULT 14 _ZN7android4hidl7manager4
616:   FUNC GLOBAL DEFAULT 14 _ZN7android8hardware14IPC
617:   FUNC WEAK DEFAULT 14 _ZNSt3__112__deque_baseIN
618:   FUNC GLOBAL DEFAULT 14 _ZN7android4hidl7manager4
619:   FUNC GLOBAL DEFAULT 14 _ZN7android8hardware10BpH
620:   FUNC GLOBAL DEFAULT 14 _ZNK7android8hardware6Par
621:   FUNC GLOBAL DEFAULT 14 _ZN7android4hidl4base4V1_
622:   FUNC GLOBAL DEFAULT 14 _ZNK7android8hardware6Par
623:   FUNC GLOBAL DEFAULT 14 _ZNK7android8hardware6Par
624:   FUNC GLOBAL DEFAULT 14 _ZNK7android8hardware6Par
625:   FUNC GLOBAL DEFAULT 14 _ZNK7android8hardware6Par
626:   OBJECT GLOBAL DEFAULT 18 _ZTVN7android8hardware7de
627:   FUNC WEAK DEFAULT 14 _ZNSt3__113basic_filebufI
628:   FUNC WEAK DEFAULT 14 _ZNSt3__16vectorINS_8func
629:   OBJECT WEAK DEFAULT 18 _ZTVN7android4hidl7manage
630:   FUNC GLOBAL DEFAULT 14 _ZN7android4hidl7manager4
631:   FUNC GLOBAL DEFAULT 14 _ZN7android8hardware12Pro
632:   FUNC WEAK DEFAULT 14 _ZNKSt3__110__function6__
633:   FUNC WEAK DEFAULT 14 _ZNSt3__111basic_regexIcN
634:   FUNC GLOBAL DEFAULT 14 _ZN7android4hidl7manager4
635:   FUNC GLOBAL DEFAULT 14 _ZN7android4hidl7manager4
636:   FUNC GLOBAL DEFAULT 14 _ZN7android4hidl7manager4
637:   FUNC GLOBAL DEFAULT 14 _ZN7android8hardware6Parc
638:   FUNC GLOBAL DEFAULT 14 _ZNK7android8hardware6Par
639:   FUNC GLOBAL DEFAULT 14 _ZN7android8hardware7deta
640:   FUNC GLOBAL DEFAULT 14 _ZN7android4hidl7manager4
641:   FUNC GLOBAL DEFAULT 14 _ZTv0_n24_N7android4hidl7
642:   FUNC GLOBAL DEFAULT 14 _ZN7android4hidl4base4V1_
643:   FUNC WEAK DEFAULT 14 _ZNK7android8hardware6Par
644:   FUNC WEAK DEFAULT 14 _ZNSt3__114__split_buffer
645:   FUNC GLOBAL DEFAULT 14 _ZN7android4hidl7manager4
646:   FUNC GLOBAL DEFAULT 14 _ZThn32_N7android4hidl7ma
647:   FUNC GLOBAL DEFAULT 14 _ZN7android4hidl7manager4
648:   FUNC GLOBAL DEFAULT 14 _ZN7android4hidl7manager4
649:   FUNC GLOBAL DEFAULT 14 _ZNK7android8hardware6Par
650:   FUNC GLOBAL DEFAULT 14 _ZN7android8hardware17joi
651:   FUNC GLOBAL DEFAULT 14 _ZN7android4hidl7manager4
652:   OBJECT GLOBAL DEFAULT 18 _ZTCN7android4hidl7manage
653:   FUNC GLOBAL DEFAULT 14 _ZN7android4hidl7manager4
654:   FUNC GLOBAL DEFAULT 14 _ZN7android4hidl7manager4
655:   FUNC GLOBAL DEFAULT 14 _ZN7android4hidl7manager4
656:   FUNC GLOBAL DEFAULT 14 _ZN7android4hidl7manager4
657:   FUNC GLOBAL DEFAULT 14 _ZN7android8hardware22rea
658:   FUNC WEAK DEFAULT 14 _ZNSt3__16__treeIiNS_4les
659:   OBJECT GLOBAL DEFAULT 18 _ZTVN7android4hidl7manage
660:   FUNC GLOBAL DEFAULT 14 _ZN7android8hardware7IBin
661:   OBJECT WEAK DEFAULT 18 _ZTVNSt3__111__lookaheadI
662:   FUNC GLOBAL DEFAULT 14 _ZN7android8hardware11hid
663:   OBJECT GLOBAL DEFAULT 18 _ZTCN7android4hidl7manage
664:   FUNC WEAK DEFAULT 14 _ZN7android2wpINS_8hardwa
665:   FUNC GLOBAL DEFAULT 14 _ZN7android4hidl7manager4
666:   FUNC GLOBAL DEFAULT 14 _ZTv0_n24_N7android8hardw
667:   FUNC GLOBAL DEFAULT 14 _ZN7android8hardware14IPC
668:   FUNC GLOBAL DEFAULT 14 _ZN7android8hardware6Parc
669:   FUNC GLOBAL DEFAULT 14 _ZTv0_n24_N7android8hardw
670:   FUNC WEAK DEFAULT 14 _ZNSt3__1rsIcNS_11char_tr
671:   FUNC GLOBAL DEFAULT 14 _ZTv0_n24_N7android4hidl7
672:   FUNC GLOBAL DEFAULT 14 _ZN7android8hardware14IPC
673:   OBJECT WEAK DEFAULT 18 _ZTVNSt3__116__owns_one_s
674:   FUNC GLOBAL DEFAULT 14 _ZN7android8hardware11hid
675:   FUNC GLOBAL DEFAULT 14 _ZN7android8hardware13wri
676:   OBJECT GLOBAL DEFAULT 18 _ZTVN7android4hidl7manage
677:   FUNC GLOBAL DEFAULT 14 _ZN7android4hidl4base4V1_
678:   FUNC GLOBAL DEFAULT 14 _ZN7android8hardware10BpH
679:   FUNC GLOBAL DEFAULT 14 _ZNK7android8hardware10Bp
680:   FUNC WEAK DEFAULT 14 _ZNSt3__115basic_stringbu
681:   FUNC GLOBAL DEFAULT 14 __getf2
682:   OBJECT WEAK DEFAULT 18 _ZTVNSt3__115basic_string
683:   FUNC WEAK DEFAULT 14 _ZNSt3__16vectorINS_12bas
684:   OBJECT GLOBAL DEFAULT 18 _ZTVN7android4hidl7manage
685:   FUNC GLOBAL DEFAULT 14 _ZN7android4hidl4base4V1_
686:   OBJECT GLOBAL DEFAULT 18 _ZTTN7android4hidl7manage
687:   FUNC GLOBAL DEFAULT 14 _ZN7android4hidl7manager4
688:   FUNC WEAK DEFAULT 14 _ZNKSt3__121__empty_non_o
689:   FUNC GLOBAL DEFAULT 14 _ZN7android8hardware24def
690:   FUNC GLOBAL DEFAULT 14 _ZN7android8hardware14IPC
691:   FUNC GLOBAL DEFAULT 14 _ZN7android4hidl7manager4
692:   FUNC GLOBAL DEFAULT 14 _ZN7android4hidl7manager4
693:   FUNC GLOBAL DEFAULT 14 _ZN7android8hardware9BHwB
694:   FUNC GLOBAL DEFAULT 14 _ZN7android4hidl7manager4
695:   FUNC GLOBAL DEFAULT 14 _ZN7android4hidl7manager4
696:   FUNC GLOBAL DEFAULT 14 _ZNK7android8hardware6Sta
697:   FUNC GLOBAL DEFAULT 14 _ZN7android4hidl7manager4
698:   FUNC GLOBAL DEFAULT 14 _ZN7android4hidl7manager4
699:   OBJECT WEAK DEFAULT 18 _ZTCN7android4hidl7manage
700:   FUNC WEAK DEFAULT 14 _ZN7android8hardware6Parc
701:   FUNC GLOBAL DEFAULT 14 _ZN7android8hardware6Parc
702:   OBJECT WEAK DEFAULT 18 _ZTVNSt3__111__alternateI
703:   FUNC GLOBAL DEFAULT 14 _ZN7android8hardware11hid
704:   OBJECT GLOBAL DEFAULT 18 _ZTCN7android8hardware7de
705:   FUNC GLOBAL DEFAULT 14 _ZN7android4hidl7manager4
706:   FUNC GLOBAL DEFAULT 14 _ZNK7android8hardware6Par
707:   FUNC GLOBAL DEFAULT 14 _ZN7android8hardware14rea
708:   FUNC GLOBAL DEFAULT 14 _ZN7android8hardware19han
709:   FUNC GLOBAL DEFAULT 14 _ZN7android4hidl7manager4
710:   OBJECT GLOBAL DEFAULT 18 _ZTCN7android4hidl7manage
711:   FUNC GLOBAL DEFAULT 14 _ZN7android8hardware6Parc
712:   FUNC GLOBAL DEFAULT 14 _ZN7android8hardware6Parc
713:   FUNC GLOBAL DEFAULT 14 _ZNK7android8hardware6Par
714:   FUNC GLOBAL DEFAULT 14 _ZN7android4hidl7manager4
715:   FUNC GLOBAL DEFAULT 14 _ZNK7android8hardware6Par
716:   FUNC GLOBAL DEFAULT 14 _ZN7android8hardware12Pro
717:   FUNC GLOBAL DEFAULT 14 _ZN7android8hardware9BHwB
718:   FUNC GLOBAL DEFAULT 14 _ZN7android8hardware6Parc
719:   FUNC GLOBAL DEFAULT 14 _ZNK7android8hardware6Par
720:   FUNC WEAK DEFAULT 14 _ZNSt3__111basic_regexIcN
721:   FUNC GLOBAL DEFAULT 14 _ZN7android4hidl7manager4
722:   FUNC WEAK DEFAULT 14 _ZNSt3__15dequeINS_7__sta
723:   OBJECT WEAK DEFAULT 18 _ZTVNSt3__120__bracket_ex
724:   FUNC WEAK DEFAULT 14 _ZN7android8hardware7deta
725:   FUNC GLOBAL DEFAULT 14 _ZN7android4hidl7manager4
726:   OBJECT GLOBAL DEFAULT 18 _ZTCN7android4hidl7manage
727:   FUNC GLOBAL DEFAULT 14 _ZN7android8hardware14IPC
728:   FUNC GLOBAL DEFAULT 14 _ZN7android8hardware6Parc
729:   FUNC GLOBAL DEFAULT 14 _ZN7android4hidl7manager4
730:   FUNC GLOBAL DEFAULT 14 _ZN7android4hidl4base4V1_
731:   FUNC GLOBAL DEFAULT 14 _ZN7android8hardware10BpH
732:   FUNC GLOBAL DEFAULT 14 _ZN7android8hardware10Hid
733:   FUNC GLOBAL DEFAULT 14 _ZN7android4hidl4base4V1_
734:   OBJECT GLOBAL DEFAULT 18 _ZTCN7android4hidl7manage
735:   FUNC GLOBAL DEFAULT 14 _ZN7android8hardware14IPC
736:   FUNC GLOBAL DEFAULT 14 _ZNK7android8hardware14IP
737:   FUNC WEAK DEFAULT 14 _ZNSt3__112__hash_tableIN
738:   FUNC GLOBAL DEFAULT 14 _ZN7android4hidl7manager4
739:   FUNC GLOBAL DEFAULT 14 _ZThn32_N7android4hidl7ma
740:   FUNC GLOBAL DEFAULT 14 _ZNK7android8hardware11hi
741:   FUNC GLOBAL DEFAULT 14 _ZN7android4hidl7manager4
742:   FUNC GLOBAL DEFAULT 14 _ZN7android4hidl7manager4
743:   FUNC GLOBAL DEFAULT 14 _ZN7android4hidl7manager4
744:   FUNC GLOBAL DEFAULT 14 _ZN7android8hardware18Buf
745:   FUNC GLOBAL DEFAULT 14 _ZN7android8hardware11hid
746:   FUNC GLOBAL DEFAULT 14 _ZN7android4hidl4base4V1_
747:   FUNC GLOBAL DEFAULT 14 _ZN7android4hidl7manager4
748:   FUNC GLOBAL DEFAULT 14 _ZN7android4hidl7manager4
749:   FUNC GLOBAL DEFAULT 14 _ZN7android8hardware12Pro
750:   FUNC GLOBAL DEFAULT 14 _ZN7android4hidl7manager4
751:   FUNC GLOBAL DEFAULT 14 _ZN7android8hardware14IPC
752:   FUNC WEAK DEFAULT 14 _ZNSt3__111basic_regexIcN
753:   FUNC GLOBAL DEFAULT 14 _ZNK7android8hardware11hi
754:   OBJECT WEAK DEFAULT 23 _ZGVZN7android8hardware25
755:   FUNC WEAK DEFAULT 14 _ZNSt3__113basic_filebufI
756:   FUNC GLOBAL DEFAULT 14 _ZN7android4hidl7manager4
757:   FUNC GLOBAL DEFAULT 14 _ZN7android4hidl4base4V1_
758:   FUNC GLOBAL DEFAULT 14 _ZNK7android8hardware6Par
759:   FUNC WEAK DEFAULT 14 _ZNSt3__15dequeINS_7__sta
760:   FUNC GLOBAL DEFAULT 14 _ZN7android8hardware11hid
761:   FUNC GLOBAL DEFAULT 14 _ZN7android8hardware7deta
762:   OBJECT GLOBAL DEFAULT 18 _ZTCN7android4hidl7manage
763:   FUNC GLOBAL DEFAULT 14 _ZNK7android8hardware6Par
764:   FUNC GLOBAL DEFAULT 14 _ZNK7android8hardware6Par
765:   FUNC GLOBAL DEFAULT 14 _ZN7android4hidl7manager4
766:   OBJECT GLOBAL DEFAULT 18 _ZTCN7android4hidl7manage
767:   FUNC GLOBAL DEFAULT 14 _ZN7android4hidl7manager4
768:   OBJECT GLOBAL DEFAULT 18 _ZTVN7android8hardware18B
769:   FUNC GLOBAL DEFAULT 14 _ZNK7android8hardware6Par
770:   FUNC GLOBAL DEFAULT 14 _ZNK7android8hardware7det
771:   FUNC WEAK DEFAULT 14 _ZNSt3__112__hash_tableIN
772:   FUNC GLOBAL DEFAULT 14 _ZN7android4hidl7manager4
773:   FUNC GLOBAL DEFAULT 14 _ZN7android4hidl7manager4
774:   FUNC GLOBAL DEFAULT 14 _ZN7android8hardware22rea
775:   FUNC GLOBAL DEFAULT 14 _ZN7android4hidl7manager4
776:   FUNC GLOBAL DEFAULT 14 _ZThn32_N7android4hidl7ma
777:   FUNC GLOBAL DEFAULT 14 _ZN7android8hardware21acq
778:   FUNC WEAK DEFAULT 14 _ZNSt3__16__treeINS_12__v
779:   FUNC GLOBAL DEFAULT 14 _ZN7android8hardware14IPC
780:   FUNC GLOBAL DEFAULT 14 _ZN7android4hidl7manager4
781:   OBJECT GLOBAL DEFAULT 18 _ZTCN7android4hidl7manage
782:   FUNC GLOBAL DEFAULT 14 _ZN7android4hidl4base4V1_
783:   FUNC GLOBAL DEFAULT 14 _ZN7android8hardware6Parc
784:   FUNC WEAK DEFAULT 14 _ZNSt3__111basic_regexIcN
785:   FUNC GLOBAL DEFAULT 14 _ZN7android8hardware6Stat
786:   FUNC GLOBAL DEFAULT 14 _ZN7android4hidl7manager4
787:   FUNC GLOBAL DEFAULT 14 _ZN7android4hidl7manager4
788:   FUNC GLOBAL DEFAULT 14 _ZN7android8hardware14acq
789:   FUNC WEAK DEFAULT 14 _ZNSt3__120__shared_ptr_e
790:   OBJECT WEAK DEFAULT 23 _ZZN7android8hardware25Pa
791:   FUNC GLOBAL DEFAULT 14 _ZN7android8hardware9BHwB
792:   OBJECT WEAK DEFAULT 18 _ZTVN7android4hidl7manage
793:   FUNC GLOBAL DEFAULT 14 _ZN7android4hidl7manager4
794:   OBJECT GLOBAL DEFAULT 18 _ZTVN7android4hidl7manage
795:   FUNC GLOBAL DEFAULT 14 _ZN7android4hidl7manager4
796:   FUNC GLOBAL DEFAULT 14 _ZN7android4hidl7manager4
797:   OBJECT GLOBAL DEFAULT 18 _ZTTN7android8hardware11B
798:   FUNC GLOBAL DEFAULT 14 _ZN7android8hardware10BpH
799:   FUNC WEAK DEFAULT 14 _ZNSt3__115basic_stringbu
800:   FUNC GLOBAL DEFAULT 14 _ZN7android8hardware14IPC
801:   FUNC GLOBAL DEFAULT 14 _ZN7android4hidl7manager4
802:   FUNC GLOBAL DEFAULT 14 _ZN7android8hardware14rel
803:   FUNC GLOBAL DEFAULT 14 __cmptf2
804:   FUNC WEAK DEFAULT 14 _ZNSt3__111basic_regexIcN
805:   OBJECT WEAK DEFAULT 18 _ZTVN7android8hardware7de
806:   FUNC GLOBAL DEFAULT 14 _ZN7android4hidl7manager4
807:   FUNC GLOBAL DEFAULT 14 _ZN7android8hardware10IIn
808:   OBJECT GLOBAL DEFAULT 18 _ZTCN7android4hidl7manage
809:   FUNC GLOBAL DEFAULT 14 _ZN7android4hidl7manager4
810:   FUNC GLOBAL DEFAULT 14 _ZN7android8hardware10BpH
811:   FUNC GLOBAL DEFAULT 14 _ZNK7android8hardware6Par
812:   FUNC GLOBAL DEFAULT 14 _ZNK7android8hardware6Par
813:   FUNC GLOBAL DEFAULT 14 _ZNK7android8hardware6Par
814:   FUNC GLOBAL DEFAULT 14 _ZN7android8hardware7deta
815:   FUNC WEAK DEFAULT 14 _ZNKSt3__115__word_bounda
816:   FUNC GLOBAL DEFAULT 14 _ZN7android8hardware10Hid
817:   FUNC WEAK DEFAULT 14 _ZNSt3__111basic_regexIcN
818:   FUNC GLOBAL DEFAULT 14 _ZN7android4hidl7manager4
819:   FUNC GLOBAL DEFAULT 14 _ZN7android4hidl7manager4
820:   OBJECT WEAK DEFAULT 18 _ZTVN7android4hidl7manage
821:   OBJECT GLOBAL DEFAULT 11 _ZN7android8hardware11hid
822:   OBJECT GLOBAL DEFAULT 23 _ZN7android8hardware7deta
823:   FUNC GLOBAL DEFAULT 14 _ZN7android8hardware22con
824:   FUNC GLOBAL DEFAULT 14 _ZNK7android8hardware6Par
825:   FUNC WEAK DEFAULT 14 _ZNSt3__110__function6__f
826:   FUNC GLOBAL DEFAULT 14 _ZN7android8hardware31set
827:   FUNC GLOBAL DEFAULT 14 _ZN7android4hidl4base4V1_
828:   FUNC GLOBAL DEFAULT 14 _ZN7android8hardware7deta
829:   FUNC GLOBAL DEFAULT 14 _ZN7android8hardware6Parc
830:   FUNC GLOBAL DEFAULT 14 _ZN7android4hidl7manager4
831:   FUNC GLOBAL DEFAULT 14 _ZN7android8hardware18Buf
832:   FUNC GLOBAL DEFAULT 14 _ZN7android8hardware6Parc
833:   FUNC GLOBAL DEFAULT 14 _ZN7android8hardwarelsERN
834:   OBJECT WEAK DEFAULT 18 _ZTVN7android6VectorINS_8
835:   FUNC GLOBAL DEFAULT 14 _ZN7android8hardware6Parc
836:   FUNC GLOBAL DEFAULT 14 _ZTv0_n24_N7android8hardw
837:   FUNC GLOBAL DEFAULT 14 _ZN7android8hardware31get
838:   FUNC WEAK DEFAULT 14 _ZNSt3__120__shared_ptr_p
839:   FUNC WEAK DEFAULT 14 _ZNSt3__120__shared_ptr_e
840:   FUNC GLOBAL DEFAULT 14 _ZN7android4hidl4base4V1_
841:   FUNC GLOBAL DEFAULT 14 _ZN7android8hardware11hid
842:   FUNC GLOBAL DEFAULT 14 _ZN7android8hardware6Parc
843:   FUNC GLOBAL DEFAULT 14 _ZN7android8hardware9BHwB
844:   OBJECT GLOBAL DEFAULT 18 _ZTCN7android4hidl7manage
845:   FUNC GLOBAL DEFAULT 14 _ZNK7android8hardware6Par
846:   FUNC GLOBAL DEFAULT 14 _ZN7android8hardware27hid
847:   FUNC GLOBAL DEFAULT 14 _ZN7android4hidl7manager4
848:   FUNC GLOBAL DEFAULT 14 _ZN7android8hardware7deta
849:   FUNC WEAK DEFAULT 14 _ZNKSt3__111__match_anyIc
850:   FUNC WEAK DEFAULT 14 _ZNSt3__114__split_buffer
851:   FUNC GLOBAL DEFAULT 14 _ZN7android4hidl7manager4
852:   FUNC GLOBAL DEFAULT 14 _ZN7android4hidl7manager4
853:   FUNC GLOBAL DEFAULT 14 _ZNK7android8hardware6Par
854:   FUNC GLOBAL DEFAULT 14 _ZN7android8hardware12Pro
855:   FUNC WEAK DEFAULT 14 _ZN7android4base9ParseUin
856:   OBJECT GLOBAL DEFAULT 16 _ZN7android4hidl7manager4
857:   FUNC GLOBAL DEFAULT 14 _ZN7android8hardware11hid
858:   FUNC GLOBAL DEFAULT 14 _ZN7android8hardware11hid
859:   FUNC GLOBAL DEFAULT 14 _ZN7android8hardware11hid
860:   FUNC WEAK DEFAULT 14 _ZNSt3__111basic_regexIcN
861:   OBJECT GLOBAL DEFAULT 18 _ZTCN7android4hidl7manage
862:   FUNC GLOBAL DEFAULT 14 _ZNK7android8hardware6Par
863:   OBJECT GLOBAL DEFAULT 18 _ZTCN7android4hidl7manage
864:   FUNC GLOBAL DEFAULT 14 _ZN7android4hidl7manager4
865:   OBJECT GLOBAL DEFAULT 18 _ZTVN7android4hidl7manage
866:   FUNC GLOBAL DEFAULT 14 _ZN7android8hardware14IPC
867:   OBJECT WEAK DEFAULT 18 _ZTVN7android6VectorINS_2
868:   FUNC WEAK DEFAULT 14 _ZNSt3__111basic_regexIcN
869:   OBJECT WEAK DEFAULT 18 _ZTCN7android8hardware7de
870:   FUNC GLOBAL DEFAULT 14 _ZN7android4hidl7manager4
871:   FUNC GLOBAL DEFAULT 14 _ZN7android8hardware7deta
872:   FUNC GLOBAL DEFAULT 14 __subtf3
873:   FUNC GLOBAL DEFAULT 14 _ZN7android4hidl7manager4
874:   FUNC GLOBAL DEFAULT 14 _ZN7android4hidl7manager4
875:   FUNC GLOBAL DEFAULT 14 _ZN7android4hidl4base4V1_
876:   OBJECT WEAK DEFAULT 18 _ZTTN7android8hardware11B
877:   FUNC GLOBAL DEFAULT 14 _ZN7android8hardware10IIn
878:   FUNC GLOBAL DEFAULT 14 _ZN7android8hardware6Parc
879:   FUNC WEAK DEFAULT 14 _ZNSt3__16vectorINS_12bas
880:   OBJECT GLOBAL DEFAULT 18 _ZTTN7android4hidl7manage
881:   FUNC WEAK DEFAULT 14 _ZN7android8hardware7deta
882:   FUNC GLOBAL DEFAULT 14 _ZN7android8hardware14IPC
883:   FUNC GLOBAL DEFAULT 14 _ZNK7android8hardware6Par
884:   FUNC WEAK DEFAULT 14 _ZNSt3__16__treeINS_12__v
885:   FUNC GLOBAL DEFAULT 14 _ZN7android8hardware11BpH
886:   OBJECT GLOBAL DEFAULT 18 _ZTVN7android4hidl4base4V
887:   FUNC GLOBAL DEFAULT 14 _ZN7android8hardware10BpH
888:   FUNC WEAK DEFAULT 14 _ZNKSt3__126__end_marked_
889:   FUNC GLOBAL DEFAULT 14 _ZN7android8hardware11hid
890:   FUNC WEAK DEFAULT 14 _ZN7android8hardware10fro
891:   OBJECT GLOBAL DEFAULT 18 _ZTCN7android4hidl7manage
892:   FUNC WEAK DEFAULT 14 _ZNSt3__16vectorINS_4pair
893:   OBJECT WEAK DEFAULT 18 _ZTVNSt3__120__match_char
894:   FUNC GLOBAL DEFAULT 14 _ZN7android8hardware11BpH
895:   FUNC GLOBAL DEFAULT 14 _ZNK7android8hardware6Par
896:   OBJECT GLOBAL DEFAULT 18 _ZTVN7android4hidl7manage
897:   FUNC GLOBAL DEFAULT 14 _ZN7android4hidl7manager4
898:   FUNC WEAK DEFAULT 14 _ZNSt3__114__split_buffer
899:   FUNC GLOBAL DEFAULT 14 _ZN7android8hardware7deta
900:   OBJECT WEAK DEFAULT 23 _ZZN7android8hardware25Pa
901:   FUNC GLOBAL DEFAULT 14 _ZN7android8hardware10BpH
902:   FUNC WEAK DEFAULT 14 _ZNKSt3__118__back_ref_co
903:   FUNC GLOBAL DEFAULT 14 _ZN7android8hardware11hid
904:   OBJECT WEAK DEFAULT 18 _ZTTN7android8hardware7de
905:   OBJECT GLOBAL DEFAULT 18 _ZTCN7android4hidl7manage
906:   FUNC WEAK DEFAULT 14 _ZNKSt3__111__alternateIc
907:   OBJECT GLOBAL DEFAULT 23 _ZN7android8hardware7deta
908:   FUNC WEAK DEFAULT 14 _ZNSt3__1plIcNS_11char_tr
909:   OBJECT WEAK DEFAULT 18 _ZTCN7android4hidl7manage
910:   FUNC GLOBAL DEFAULT 14 _ZN7android8hardware21set
911:   FUNC WEAK DEFAULT 14 _ZNSt3__111basic_regexIcN
912:   OBJECT GLOBAL DEFAULT 18 _ZTCN7android8hardware10B
913:   FUNC GLOBAL DEFAULT 14 _ZN7android4hidl7manager4
914:   FUNC GLOBAL DEFAULT 14 _ZN7android8hardware6Parc
915:   FUNC GLOBAL DEFAULT 14 printHexData
916:   FUNC GLOBAL DEFAULT 14 _ZN7android4hidl7manager4
917:   FUNC GLOBAL DEFAULT 14 _ZN7android8hardware6Parc
918:   FUNC GLOBAL DEFAULT 14 _ZN7android4hidl7manager4
919:   FUNC WEAK DEFAULT 14 _ZNSt3__111basic_regexIcN
920:   FUNC WEAK DEFAULT 14 _ZNSt3__114__split_buffer
921:   FUNC GLOBAL DEFAULT 14 _ZN7android4hidl4base4V1_
922:   FUNC GLOBAL DEFAULT 14 _ZTv0_n24_N7android4hidl4
923:   FUNC WEAK DEFAULT 14 _ZNKSt3__120__match_char_
924:   OBJECT WEAK DEFAULT 18 _ZTVNSt3__110__function6_
925:   FUNC GLOBAL DEFAULT 14 _ZN7android8hardware20Laz
926:   FUNC WEAK DEFAULT 14 _ZNSt3__16vectorIN7androi
927:   FUNC GLOBAL DEFAULT 14 _ZN7android8hardware16set
928:   FUNC GLOBAL DEFAULT 14 _ZN7android4hidl7manager4
929:   FUNC GLOBAL DEFAULT 14 _ZNK7android8hardware6Par
930:   FUNC WEAK DEFAULT 14 _ZNKSt3__16__loopIcE12__e
931:   FUNC WEAK DEFAULT 14 _ZNSt3__16vectorINS_4pair
932:   FUNC GLOBAL DEFAULT 14 _ZN7android8hardware14IPC
933:   FUNC WEAK DEFAULT 14 _ZNK7android8hardware6Par
934:   FUNC GLOBAL DEFAULT 14 _ZN7android8hardware10Hid
935:   FUNC GLOBAL DEFAULT 14 _ZN7android8hardware14IPC
936:   FUNC GLOBAL DEFAULT 14 _ZN7android8hardware6Parc
937:   FUNC GLOBAL DEFAULT 14 _ZN7android4hidl7manager4
938:   OBJECT WEAK DEFAULT 18 _ZTVNSt3__112__match_char
939:   FUNC WEAK DEFAULT 14 _ZNKSt3__112regex_traitsI
940:   FUNC GLOBAL DEFAULT 14 _ZN7android4hidl7manager4
941:   FUNC GLOBAL DEFAULT 14 _ZN7android4hidl7manager4
942:   FUNC GLOBAL DEFAULT 14 _ZN7android8hardware10Hid
943:   FUNC GLOBAL DEFAULT 14 _ZN7android8hardware11hid
944:   FUNC WEAK DEFAULT 14 _ZNK7android8hardware6Par
945:   FUNC WEAK DEFAULT 14 _ZNKSt3__120__bracket_exp
946:   OBJECT WEAK DEFAULT 18 _ZTVNSt3__117__owns_two_s
947:   FUNC GLOBAL DEFAULT 14 _ZN7android4hidl7manager4
948:   OBJECT WEAK DEFAULT 18 _ZTVNSt3__118basic_string
949:   FUNC WEAK DEFAULT 14 _ZNSt3__114__split_buffer
950:   FUNC GLOBAL DEFAULT 14 _ZN7android4hidl4base4V1_
951:   OBJECT GLOBAL DEFAULT 18 _ZTTN7android4hidl7manage
952:   FUNC WEAK DEFAULT 14 _ZNSt3__111basic_regexIcN
953:   FUNC GLOBAL DEFAULT 14 _ZN7android4hidl7manager4
954:   FUNC GLOBAL DEFAULT 14 _ZN7android4hidl7manager4
955:   FUNC WEAK DEFAULT 14 _ZNSt3__114__split_buffer
956:   OBJECT GLOBAL DEFAULT 18 _ZTCN7android4hidl7manage
957:   FUNC GLOBAL DEFAULT 14 _ZNK7android8hardware6Par
958:   FUNC GLOBAL DEFAULT 14 _ZN7android4hidl7manager4
959:   FUNC GLOBAL DEFAULT 14 _ZN7android8hardware6Parc
960:   FUNC WEAK DEFAULT 14 _ZN7android8hardware7deta
961:   FUNC GLOBAL DEFAULT 14 _ZN7android8hardware10Tex
962:   FUNC GLOBAL DEFAULT 14 _ZN7android8hardware27hid
963:   FUNC GLOBAL DEFAULT 14 _ZN7android8hardware7deta
964:   FUNC WEAK DEFAULT 14 _ZNSt3__16__treeINS_12__v
965:   FUNC GLOBAL DEFAULT 14 _ZN7android4hidl7manager4
966:   FUNC GLOBAL DEFAULT 14 getHWBinderKernelReferenc
967:   FUNC WEAK DEFAULT 14 _ZNSt3__117__owns_two_sta
968:   FUNC GLOBAL DEFAULT 14 _ZN7android4hidl4base4V1_
969:   FUNC WEAK DEFAULT 14 _ZNSt3__16__treeINS_12__v
970:   FUNC GLOBAL DEFAULT 14 _ZTv0_n24_N7android8hardw
971:   OBJECT GLOBAL DEFAULT 23 _ZN7android8hardware13gPr
972:   FUNC GLOBAL DEFAULT 14 _ZN7android4hidl7manager4
973:   FUNC GLOBAL DEFAULT 14 _ZNK7android8hardware6Par
974:   OBJECT WEAK DEFAULT 18 _ZTVNSt3__118__back_ref_c
975:   FUNC GLOBAL DEFAULT 14 _ZN7android4hidl4base4V1_
976:   FUNC GLOBAL DEFAULT 14 _ZN7android4hidl7manager4
977:   FUNC GLOBAL DEFAULT 14 _ZN7android4hidl7manager4
978:   FUNC GLOBAL DEFAULT 14 _ZN7android4hidl7manager4
979:   FUNC GLOBAL DEFAULT 14 _ZNK7android8hardware6Par
980:   FUNC WEAK DEFAULT 14 _ZNSt3__111basic_regexIcN
981:   OBJECT GLOBAL DEFAULT 18 _ZTVN7android4hidl7manage
982:   OBJECT GLOBAL DEFAULT 18 _ZTVN7android4hidl7manage
983:   FUNC GLOBAL DEFAULT 14 _ZThn32_N7android4hidl7ma
984:   FUNC GLOBAL DEFAULT 14 _ZNK7android8hardware6Par
985:   FUNC GLOBAL DEFAULT 14 _ZN7android8hardware10Hid
986:   FUNC GLOBAL DEFAULT 14 _ZN7android4hidl7manager4
987:   FUNC GLOBAL DEFAULT 14 _ZTv0_n24_N7android8hardw
988:   FUNC GLOBAL DEFAULT 14 _ZNK7android8hardware11hi
989:   FUNC GLOBAL DEFAULT 14 _ZN7android8hardware14IPC
990:   FUNC GLOBAL DEFAULT 14 _ZN7android4hidl7manager4
991:   FUNC GLOBAL DEFAULT 14 __fe_getround
992:   FUNC GLOBAL DEFAULT 14 _ZN7android8hardware14IPC
993:   FUNC WEAK DEFAULT 14 _ZNSt3__16__treeINS_12__v
994:   FUNC GLOBAL DEFAULT 14 _ZN7android4hidl7manager4
995:   OBJECT WEAK DEFAULT 18 _ZTCNSt3__118basic_string
996:   FUNC GLOBAL DEFAULT 14 _ZN7android8hardware12Pro
997:   FUNC WEAK DEFAULT 14 _ZNSt3__16vectorINS_8func
998:   FUNC GLOBAL DEFAULT 14 _ZN7android8hardware16han
999:   FUNC GLOBAL DEFAULT 14 _ZN7android8hardware27hid
1000:   FUNC GLOBAL DEFAULT 14 _ZN7android4hidl7manager4
1001:   FUNC GLOBAL DEFAULT 14 _ZN7android4hidl7manager4
1002:   OBJECT WEAK DEFAULT 18 _ZTVN7android6VectorIiEE
1003:   FUNC GLOBAL DEFAULT 14 _ZN7android8hardware6Stat
1004:   OBJECT GLOBAL DEFAULT 18 _ZTCN7android8hardware7de
1005:   FUNC GLOBAL DEFAULT 14 _ZN7android4hidl7manager4
1006:   FUNC GLOBAL DEFAULT 14 _ZN7android8hardware9BHwB
1007:   FUNC GLOBAL DEFAULT 14 _ZN7android4hidl7manager4
1008:   OBJECT GLOBAL DEFAULT 18 _ZTCN7android4hidl7manage
1009:   FUNC WEAK DEFAULT 14 _ZNSt3__111basic_regexIcN
1010:   FUNC GLOBAL DEFAULT 14 _ZN7android8hardware6Parc
1011:   FUNC WEAK DEFAULT 14 _ZNSt3__16vectorIPvNS_9al
1012:   FUNC GLOBAL DEFAULT 14 _ZN7android4hidl7manager4
1013:   FUNC GLOBAL DEFAULT 14 _ZN7android4hidl7manager4
1014:   FUNC GLOBAL DEFAULT 14 _ZNK7android8hardware18Bu
1015:   FUNC GLOBAL DEFAULT 14 _ZN7android8hardware6Parc
1016:   FUNC GLOBAL DEFAULT 14 _ZN7android8hardware7IBin
1017:   FUNC GLOBAL DEFAULT 14 _ZN7android8hardware11hid
1018:   FUNC WEAK DEFAULT 14 _ZNSt3__15dequeINS_8funct
1019:   OBJECT GLOBAL DEFAULT 18 _ZTTN7android8hardware7IB
1020:   FUNC GLOBAL DEFAULT 14 _ZN7android8hardware7deta
1021:   OBJECT GLOBAL DEFAULT 18 _ZTCN7android4hidl7manage
1022:   OBJECT WEAK DEFAULT 18 _ZTCN7android8hardware11B
1023:   FUNC GLOBAL DEFAULT 14 _ZN7android8hardware14IPC
1024:   FUNC GLOBAL DEFAULT 14 _ZTv0_n24_N7android4hidl7
1025:   FUNC GLOBAL DEFAULT 14 _ZN7android4hidl4base4V1_
1026:   OBJECT GLOBAL DEFAULT 18 _ZTTN7android8hardware9BH
1027:   OBJECT GLOBAL DEFAULT 18 _ZTTN7android8hardware10H
1028:   FUNC WEAK DEFAULT 14 _ZNSt3__16__treeINS_12__v
1029:   FUNC GLOBAL DEFAULT 14 _ZN7android4hidl7manager4
1030:   FUNC GLOBAL DEFAULT 14 _ZN7android4hidl7manager4
1031:   FUNC GLOBAL DEFAULT 14 _ZN7android8hardware10BpH
1032:   FUNC GLOBAL DEFAULT 14 _ZN7android8hardware14IPC
1033:   FUNC WEAK DEFAULT 14 _ZNSt3__114__split_buffer
1034:   FUNC GLOBAL DEFAULT 14 _ZN7android8hardware11BpH
1035:   FUNC GLOBAL DEFAULT 14 _ZN7android8hardware10BpH
1036:   FUNC GLOBAL DEFAULT 14 _ZN7android8hardware14IPC
1037:   FUNC GLOBAL DEFAULT 14 _ZNK7android8hardware6Par
1038:   FUNC GLOBAL DEFAULT 14 _ZN7android8hardware7deta
1039:   OBJECT WEAK DEFAULT 18 _ZTCNSt3__119basic_ostrin
1040:   FUNC WEAK DEFAULT 14 _ZNSt3__113__tree_removeI
1041:   OBJECT WEAK DEFAULT 23 _ZZN7android8hardware25Pa
1042:   FUNC GLOBAL DEFAULT 14 _ZN7android4hidl7manager4
1043:   FUNC GLOBAL DEFAULT 14 _ZTv0_n48_N7android8hardw
1044:   OBJECT GLOBAL DEFAULT 18 _ZTCN7android4hidl7manage
1045:   FUNC GLOBAL DEFAULT 14 _ZN7android4hidl7manager4
1046:   FUNC GLOBAL DEFAULT 14 _ZN7android4hidl7manager4
1047:   OBJECT GLOBAL DEFAULT 18 _ZTCN7android4hidl7manage
1048:   FUNC GLOBAL DEFAULT 14 _ZTv0_n24_N7android4hidl7
1049:   FUNC GLOBAL DEFAULT 14 _ZN7android8hardware10BpH
1050:   FUNC WEAK DEFAULT 14 _ZNSt3__111basic_regexIcN
1051:   FUNC GLOBAL DEFAULT 14 _ZN7android4hidl4base4V1_
1052:   OBJECT GLOBAL DEFAULT 18 _ZTVN7android8hardware10H
1053:   OBJECT GLOBAL DEFAULT 18 _ZTCN7android8hardware27h
1054:   FUNC GLOBAL DEFAULT 14 _ZN7android8hardware7IBin
1055:   FUNC GLOBAL DEFAULT 14 _ZN7android4hidl7manager4
1056:   FUNC GLOBAL DEFAULT 14 _ZN7android8hardware7deta
1057:   FUNC GLOBAL DEFAULT 14 _ZN7android4hidl7manager4
1058:   FUNC GLOBAL DEFAULT 14 _ZN7android4hidl4base4V1_
1059:   FUNC GLOBAL DEFAULT 14 _ZTv0_n24_N7android8hardw
1060:   FUNC GLOBAL DEFAULT 14 _ZN7android8hardware7deta
1061:   FUNC GLOBAL DEFAULT 14 _ZN7android8hardware7deta
1062:   FUNC WEAK DEFAULT 14 _ZNKSt3__117__repeat_one_
1063:   OBJECT WEAK DEFAULT 18 _ZTVNSt3__128__begin_mark
1064:   FUNC GLOBAL DEFAULT 14 _ZN7android8hardware7deta
1065:   FUNC WEAK DEFAULT 14 _ZNKSt3__16__treeINS_12__
1066:   FUNC GLOBAL DEFAULT 14 _ZN7android8hardware14fla
1067:   FUNC WEAK DEFAULT 14 _ZNSt3__15dequeINS_7__sta
1068:   FUNC WEAK DEFAULT 14 _ZN7android8hardware7deta
1069:   FUNC GLOBAL DEFAULT 14 _ZThn32_N7android4hidl7ma
1070:   OBJECT GLOBAL DEFAULT 16 _ZN7android4hidl7manager4
1071:   FUNC GLOBAL DEFAULT 14 _ZN7android4hidl7manager4
1072:   FUNC GLOBAL DEFAULT 14 _ZN7android4hidl4base4V1_
1073:   FUNC GLOBAL DEFAULT 14 _ZN7android4hidl7manager4
1074:   FUNC GLOBAL DEFAULT 14 _ZN7android4hidl7manager4
1075:   FUNC GLOBAL DEFAULT 14 _ZNK7android8hardware6Par
1076:   FUNC GLOBAL DEFAULT 14 _ZN7android8hardware11hid
1077:   FUNC GLOBAL DEFAULT 14 _ZN7android4hidl7manager4
1078:   FUNC GLOBAL DEFAULT 14 _ZNK7android8hardware7IBi
1079:   FUNC GLOBAL DEFAULT 14 _ZN7android8hardware6Parc
1080:   FUNC WEAK DEFAULT 14 _ZNKSt3__110__l_anchorIcE
1081:   FUNC WEAK DEFAULT 14 _ZNKSt3__128__begin_marke
1082:   FUNC GLOBAL DEFAULT 14 __multf3
1083:   FUNC GLOBAL DEFAULT 14 _ZN7android8hardware7deta
1084:   FUNC WEAK DEFAULT 14 _ZNKSt3__111basic_regexIc
1085:   FUNC WEAK DEFAULT 14 _ZNSt3__111basic_regexIcN
1086:   OBJECT GLOBAL DEFAULT 23 _ZN7android8hardware7deta
1087:   FUNC GLOBAL DEFAULT 14 _ZN7android8hardware11hid
1088:   FUNC GLOBAL DEFAULT 14 _ZN7android4hidl4base4V1_
1089:   OBJECT GLOBAL DEFAULT 18 _ZTVN7android8hardware11B
1090:   FUNC WEAK DEFAULT 14 _ZNKSt3__116__back_ref_ic
1091:   FUNC WEAK DEFAULT 14 _ZNSt3__111basic_regexIcN
1092:   OBJECT WEAK DEFAULT 18 _ZTVNSt3__110__back_refIc
1093:   FUNC GLOBAL DEFAULT 14 _ZN7android4hidl7manager4
1094:   FUNC GLOBAL DEFAULT 14 _ZN7android8hardware9BHwB
1095:   OBJECT GLOBAL DEFAULT 23 _ZN7android8hardware8gPro
1096:   FUNC WEAK DEFAULT 14 _ZNKSt3__111basic_regexIc
1097:   FUNC GLOBAL DEFAULT 14 _ZN7android8hardware11hid
1098:   OBJECT GLOBAL DEFAULT 18 _ZTTN7android8hardware12P
1099:   FUNC WEAK DEFAULT 14 _ZNSt3__111basic_regexIcN
1100:   FUNC WEAK DEFAULT 14 _ZNSt3__111basic_regexIcN
1101:   OBJECT GLOBAL DEFAULT 18 _ZTVN7android4hidl7manage
1102:   FUNC GLOBAL DEFAULT 14 _ZN7android4hidl7manager4
1103:   FUNC GLOBAL DEFAULT 14 _ZN7android4hidl7manager4
1104:   OBJECT WEAK DEFAULT 18 _ZTVN7android4hidl4base4V
1105:   FUNC WEAK DEFAULT 14 _ZN7android2spINS_8hardwa
1106:   FUNC GLOBAL DEFAULT 14 _ZN7android4hidl7manager4
1107:   FUNC GLOBAL DEFAULT 14 _ZN7android4hidl7manager4
1108:   FUNC GLOBAL DEFAULT 14 _ZN7android8hardware10Tex
1109:   FUNC GLOBAL DEFAULT 14 _ZN7android8hardware6Parc
1110:   FUNC WEAK DEFAULT 14 _ZNSt3__117__owns_two_sta
1111:   FUNC GLOBAL DEFAULT 14 _ZTv0_n32_N7android8hardw
1112:   FUNC GLOBAL DEFAULT 14 _ZN7android4hidl7manager4
1113:   FUNC GLOBAL DEFAULT 14 _ZN7android4hidl7manager4
1114:   FUNC GLOBAL DEFAULT 14 _ZN7android8hardware10BpH
1115:   FUNC GLOBAL DEFAULT 14 _ZNK7android8hardware6Par
1116:   OBJECT GLOBAL DEFAULT 18 _ZN7android8hardware4alog
1117:   FUNC WEAK DEFAULT 14 _ZNKSt3__16__loopIcE6__ex
1118:   FUNC WEAK DEFAULT 14 _ZNSt3__16vectorIcNS_9all
1119:   OBJECT WEAK DEFAULT 18 _ZTTNSt3__114basic_ifstre
1120:   FUNC WEAK DEFAULT 14 _ZNSt3__111basic_regexIcN
1121:   FUNC GLOBAL DEFAULT 14 _ZN7android8hardware9BHwB
1122:   FUNC GLOBAL DEFAULT 14 _ZN7android4hidl7manager4
1123:   FUNC GLOBAL DEFAULT 14 _ZN7android4hidl7manager4
1124:   FUNC GLOBAL DEFAULT 14 _ZNK7android8hardware6Par
1125:   FUNC WEAK DEFAULT 14 _ZNKSt3__111basic_regexIc
1126:   OBJECT WEAK DEFAULT 18 _ZTVNSt3__117__repeat_one
1127:   OBJECT WEAK DEFAULT 18 _ZTVNSt3__126__end_marked
1128:   FUNC WEAK DEFAULT 14 _ZN7android8hardware7deta
1129:   FUNC GLOBAL DEFAULT 14 _ZN7android8hardware7deta
1130:   OBJECT GLOBAL DEFAULT 18 _ZTCN7android4hidl4base4V
1131:   FUNC GLOBAL DEFAULT 14 _ZN7android8hardware9BHwB
1132:   FUNC WEAK DEFAULT 14 _ZNKSt3__111__end_stateIc
1133:   FUNC GLOBAL DEFAULT 14 _ZN7android4hidl7manager4
1134:   OBJECT GLOBAL DEFAULT 18 _ZTTN7android4hidl7manage
1135:   FUNC GLOBAL DEFAULT 14 _ZN7android4hidl7manager4
1136:   OBJECT GLOBAL DEFAULT 18 _ZTCN7android4hidl7manage
1137:   FUNC GLOBAL DEFAULT 14 _ZN7android8hardware14IPC
1138:   FUNC GLOBAL DEFAULT 14 _ZNK7android8hardware6Par
1139:   FUNC GLOBAL DEFAULT 14 _ZN7android8hardware12Pro
1140:   FUNC WEAK DEFAULT 14 _ZNSt3__111basic_regexIcN
1141:   FUNC WEAK DEFAULT 14 _ZN7android8hardware7deta
1142:   FUNC WEAK DEFAULT 14 _ZNSt3__16vectorINS_4pair
1143:   OBJECT WEAK DEFAULT 18 _ZTTNSt3__113basic_fstrea
1144:   FUNC WEAK DEFAULT 14 _ZNSt3__113basic_filebufI
1145:   FUNC GLOBAL DEFAULT 14 _ZN7android8hardware16unf
1146:   OBJECT GLOBAL DEFAULT 18 _ZTCN7android4hidl7manage
1147:   FUNC GLOBAL DEFAULT 14 _ZN7android4hidl7manager4
1148:   OBJECT WEAK DEFAULT 18 _ZTVNSt3__116__back_ref_i
1149:   FUNC GLOBAL DEFAULT 14 _ZN7android4hidl7manager4
1150:   FUNC GLOBAL DEFAULT 14 _ZN7android8hardware10IIn
1151:   FUNC GLOBAL DEFAULT 14 _ZN7android8hardware9BHwB
1152:   FUNC GLOBAL DEFAULT 14 _ZNK7android8hardware9BHw
1153:   FUNC GLOBAL DEFAULT 14 _ZTv0_n24_N7android4hidl7
1154:   FUNC GLOBAL DEFAULT 14 _ZN7android4hidl7manager4
1155:   OBJECT WEAK DEFAULT 18 _ZTVN7android6VectorIPNS_
1156:   OBJECT WEAK DEFAULT 18 _ZTVNSt3__113basic_filebu
1157:   FUNC GLOBAL DEFAULT 14 _ZN7android4hidl7manager4
1158:   FUNC GLOBAL DEFAULT 14 _ZN7android8hardware14IPC
1159:   FUNC GLOBAL DEFAULT 14 _ZNK7android8hardware6Par
1160:   OBJECT WEAK DEFAULT 18 _ZTVN7android12SortedVect
1161:   FUNC WEAK DEFAULT 14 _ZNSt3__116__owns_one_sta
1162:   FUNC WEAK DEFAULT 14 _ZNSt3__16vectorINS_7__st
1163:   FUNC WEAK DEFAULT 14 _ZNSt3__111basic_regexIcN
1164:   FUNC GLOBAL DEFAULT 14 _ZN7android8hardware14IPC
1165:   FUNC GLOBAL DEFAULT 14 _ZN7android8hardware6Stat
1166:   FUNC GLOBAL DEFAULT 14 _ZN7android4hidl7manager4
1167:   FUNC GLOBAL DEFAULT 14 _ZN7android4hidl7manager4
1168:   OBJECT GLOBAL DEFAULT 18 _ZTCN7android4hidl7manage
1169:   FUNC GLOBAL DEFAULT 14 _ZN7android8hardware6Parc
1170:   FUNC WEAK DEFAULT 14 _ZNSt3__111basic_regexIcN
1171:   FUNC WEAK DEFAULT 14 _ZNSt3__113basic_filebufI
1172:   OBJECT WEAK DEFAULT 18 _ZTCNSt3__113basic_fstrea
1173:   FUNC GLOBAL DEFAULT 14 _ZN7android4hidl7manager4
1174:   FUNC WEAK DEFAULT 14 _ZNKSt3__112regex_traitsI
1175:   FUNC WEAK DEFAULT 14 _ZNSt3__111basic_regexIcN
1176:   OBJECT WEAK DEFAULT 18 _ZTCNSt3__113basic_fstrea
1177:   OBJECT WEAK DEFAULT 23 _ZZN7android8hardware25Pa
1178:   FUNC GLOBAL DEFAULT 14 _ZN7android4hidl7manager4
1179:   FUNC GLOBAL DEFAULT 14 _ZN7android4hidl7manager4
1180:   FUNC WEAK DEFAULT 14 _ZNSt3__16vectorINS_9sub_
1181:   FUNC GLOBAL DEFAULT 14 _ZN7android8hardware7deta
1182:   FUNC WEAK DEFAULT 14 _ZN7android2spINS_8hardwa
1183:   FUNC GLOBAL DEFAULT 14 _ZN7android4hidl7manager4
1184:   FUNC GLOBAL DEFAULT 14 _ZN7android4hidl7manager4
1185:   OBJECT GLOBAL DEFAULT 18 _ZTCN7android4hidl4base4V
1186:   FUNC GLOBAL DEFAULT 14 __netf2
1187:   FUNC WEAK DEFAULT 14 _ZNSt3__111basic_regexIcN
1188:   FUNC GLOBAL DEFAULT 14 _ZN7android4hidl4base4V1_
1189:   FUNC GLOBAL DEFAULT 14 _ZN7android8hardware10BpH
1190:   FUNC GLOBAL DEFAULT 14 _ZN7android8hardware12Pro
1191:   FUNC GLOBAL DEFAULT 14 _ZN7android4hidl7manager4
1192:   OBJECT GLOBAL DEFAULT 18 _ZTCN7android4hidl7manage
1193:   FUNC GLOBAL DEFAULT 14 _ZN7android4hidl7manager4
1194:   OBJECT WEAK DEFAULT 18 _ZTVN7android8hardware11B
1195:   FUNC GLOBAL DEFAULT 14 _ZN7android8hardware14IPC
1196:   FUNC GLOBAL DEFAULT 14 _ZN7android8hardware14IPC
1197:   OBJECT WEAK DEFAULT 23 _ZGVZN7android8hardware25
1198:   FUNC GLOBAL DEFAULT 14 _ZN7android4hidl7manager4
1199:   OBJECT GLOBAL DEFAULT 18 _ZTCN7android4hidl7manage
1200:   FUNC GLOBAL DEFAULT 14 _ZN7android8hardware11hid
1201:   FUNC WEAK DEFAULT 14 _ZNSt3__111basic_regexIcN
1202:   FUNC GLOBAL DEFAULT 14 _ZN7android8hardware11BpH
1203:   FUNC GLOBAL DEFAULT 14 _ZN7android4hidl7manager4
1204:   FUNC GLOBAL DEFAULT 14 _ZN7android4hidl7manager4
1205:   FUNC GLOBAL DEFAULT 14 _ZTv0_n24_N7android4hidl7
1206:   FUNC WEAK DEFAULT 14 _ZNSt3__111basic_regexIcN
1207:   FUNC GLOBAL DEFAULT 14 _ZN7android4hidl7manager4
1208:   FUNC GLOBAL DEFAULT 14 _ZN7android4hidl7manager4
1209:   FUNC GLOBAL DEFAULT 14 _ZN7android4hidl7manager4
1210:   FUNC WEAK DEFAULT 14 _ZN7android8hardware6Parc
1211:   FUNC GLOBAL DEFAULT 14 _ZTv0_n40_N7android8hardw
1212:   FUNC GLOBAL DEFAULT 14 _ZN7android8hardware6Parc
1213:   OBJECT WEAK DEFAULT 18 _ZTVNSt3__113__empty_stat
1214:   FUNC GLOBAL DEFAULT 14 _ZN7android4hidl7manager4
1215:   FUNC GLOBAL DEFAULT 14 _ZN7android4hidl7manager4
1216:   FUNC GLOBAL DEFAULT 14 _ZN7android4hidl7manager4
1217:   FUNC GLOBAL DEFAULT 14 _ZN7android4hidl4base4V1_
1218:   FUNC GLOBAL DEFAULT 14 _ZNK7android8hardware6Par
1219:   FUNC GLOBAL DEFAULT 14 _ZN7android4hidl4base4V1_
1220:   FUNC WEAK DEFAULT 14 _ZN7android8hardware7deta
1221:   FUNC GLOBAL DEFAULT 14 _ZNK7android8hardware10Bp
1222:   FUNC GLOBAL DEFAULT 14 _ZTv0_n24_N7android8hardw
1223:   FUNC GLOBAL DEFAULT 14 _ZThn32_N7android4hidl4ba
1224:   FUNC GLOBAL DEFAULT 14 stringForIndent
1225:   FUNC GLOBAL DEFAULT 14 _ZN7android8hardware7deta
1226:   FUNC WEAK DEFAULT 14 _ZN7android8hardware7deta
1227:   OBJECT GLOBAL DEFAULT 18 _ZTVN7android4hidl7manage
1228:   FUNC GLOBAL DEFAULT 14 _ZN7android8hardware21set
1229:   FUNC GLOBAL DEFAULT 14 __lttf2
1230:   FUNC GLOBAL DEFAULT 14 _ZN7android4hidl7manager4
1231:   FUNC GLOBAL DEFAULT 14 _ZN7android8hardware14IPC
1232:   FUNC GLOBAL DEFAULT 14 _ZN7android8hardware11hid
1233:   FUNC GLOBAL DEFAULT 14 __floatditf
1234:   OBJECT WEAK DEFAULT 18 _ZTCN7android4hidl7manage
1235:   FUNC WEAK DEFAULT 14 _ZNSt3__115basic_stringbu
1236:   FUNC WEAK DEFAULT 14 _ZNSt3__111basic_regexIcN
1237:   OBJECT GLOBAL DEFAULT 18 _ZTVN7android4hidl7manage
1238:   OBJECT WEAK DEFAULT 18 _ZTCNSt3__114basic_ifstre
1239:   OBJECT WEAK DEFAULT 18 _ZTCN7android4hidl7manage
1240:   FUNC GLOBAL DEFAULT 14 _ZNK7android8hardware6Par
1241:   FUNC WEAK DEFAULT 14 _ZNSt3__16vectorINS_9sub_
1242:   OBJECT GLOBAL DEFAULT 18 _ZTTN7android8hardware27h
1243:   FUNC GLOBAL DEFAULT 14 _ZN7android8hardware12Pro
1244:   FUNC GLOBAL DEFAULT 14 _ZN7android4hidl4base4V1_
1245:   OBJECT GLOBAL DEFAULT 18 _ZTVN7android4hidl4base4V
1246:   FUNC GLOBAL DEFAULT 14 _ZN7android8hardware14IPC
1247:   FUNC GLOBAL DEFAULT 14 _ZN7android8hardware10BpH
1248:   FUNC GLOBAL DEFAULT 14 _ZN7android8hardware10BpH
1249:   FUNC WEAK DEFAULT 14 _ZNSt3__111basic_regexIcN
1250:   FUNC GLOBAL DEFAULT 14 _ZN7android8hardware11hid
1251:   FUNC GLOBAL DEFAULT 14 _ZN7android8hardware15int
1252:   FUNC WEAK DEFAULT 14 _ZNSt3__16__treeINS_12__v
1253:   FUNC GLOBAL DEFAULT 14 _ZN7android4hidl4base4V1_
1254:   FUNC GLOBAL DEFAULT 14 _ZN7android4hidl7manager4
1255:   FUNC GLOBAL DEFAULT 14 _ZN7android4hidl7manager4
1256:   FUNC GLOBAL DEFAULT 14 _ZN7android8hardware18Buf
1257:   FUNC GLOBAL DEFAULT 14 _ZN7android4hidl4base4V1_
1258:   FUNC GLOBAL DEFAULT 14 _ZN7android4hidl7manager4
1259:   FUNC GLOBAL DEFAULT 14 _ZN7android8hardware7IBin
1260:   FUNC GLOBAL DEFAULT 14 _ZN7android8hardware9BHwB
1261:   FUNC GLOBAL DEFAULT 14 _ZN7android4hidl7manager4
1262:   FUNC GLOBAL DEFAULT 14 _ZNK7android8hardware6Par
1263:   OBJECT WEAK DEFAULT 18 _ZTVNSt3__110__r_anchorIc
1264:   FUNC GLOBAL DEFAULT 14 _ZTv0_n24_N7android8hardw
1265:   FUNC GLOBAL DEFAULT 14 _ZN7android4hidl7manager4
1266:   FUNC GLOBAL DEFAULT 14 _ZN7android4hidl7manager4
1267:   FUNC WEAK DEFAULT 14 _ZNSt3__111basic_regexIcN
1268:   FUNC GLOBAL DEFAULT 14 _ZN7android8hardware9BHwB
1269:   FUNC GLOBAL DEFAULT 14 _ZN7android8hardware6Parc
1270:   FUNC GLOBAL DEFAULT 14 _ZNK7android8hardware6Par
1271:   FUNC WEAK DEFAULT 14 _ZNSt3__16vectorINS_9sub_
1272:   FUNC GLOBAL DEFAULT 14 _ZN7android8hardware7deta
1273:   FUNC GLOBAL DEFAULT 14 _ZN7android4hidl7manager4
1274:   FUNC GLOBAL DEFAULT 14 _ZN7android4hidl7manager4
1275:   FUNC GLOBAL DEFAULT 14 _ZN7android8hardware9BHwB
1276:   FUNC GLOBAL DEFAULT 14 _ZNK7android8hardware11hi
1277:   FUNC GLOBAL DEFAULT 14 _ZN7android8hardware10IIn
1278:   OBJECT GLOBAL DEFAULT 18 _ZTCN7android4hidl7manage
1279:   FUNC GLOBAL DEFAULT 14 _ZNK7android8hardware6Par
1280:   FUNC GLOBAL DEFAULT 14 _ZN7android8hardware6Parc
1281:   FUNC GLOBAL DEFAULT 14 _ZNK7android8hardware6Par
1282:   FUNC WEAK DEFAULT 14 _ZNKSt3__110__back_refIcE
1283:   FUNC GLOBAL DEFAULT 14 _ZN7android8hardware10Hid
1284:   FUNC GLOBAL DEFAULT 14 _ZN7android4hidl7manager4
1285:   FUNC GLOBAL DEFAULT 14 _ZN7android8hardware6Parc
1286:   FUNC WEAK DEFAULT 14 _ZNSt3__116__owns_one_sta
1287:   OBJECT WEAK DEFAULT 18 _ZTVNSt3__119basic_ostrin
1288:   FUNC GLOBAL DEFAULT 14 _ZTv0_n40_N7android8hardw
1289:   OBJECT GLOBAL DEFAULT 11 _ZN7android8hardware11hid
1290:   OBJECT GLOBAL DEFAULT 18 _ZTCN7android4hidl7manage
1291:   FUNC GLOBAL DEFAULT 14 _ZN7android4hidl7manager4
1292:   OBJECT GLOBAL DEFAULT 18 _ZTCN7android4hidl7manage
1293:   FUNC GLOBAL DEFAULT 14 _ZN7android8hardware14IPC
1294:   FUNC GLOBAL DEFAULT 14 _ZN7android8hardware7deta
1295:   FUNC GLOBAL DEFAULT 14 _ZN7android8hardware10Hid
1296:   FUNC GLOBAL DEFAULT 14 _ZN7android8hardware7deta
1297:   FUNC GLOBAL DEFAULT 14 _ZN7android8hardware12Pro
1298:   FUNC GLOBAL DEFAULT 14 _ZN7android4hidl7manager4
1299:   FUNC GLOBAL DEFAULT 14 _ZN7android8hardware9BHwB
1300:   FUNC GLOBAL DEFAULT 14 _ZN7android4hidl7manager4
1301:   FUNC GLOBAL DEFAULT 14 _ZN7android8hardware10Tex
1302:   FUNC GLOBAL DEFAULT 14 _ZNK7android8hardware6Par
1303:   FUNC GLOBAL DEFAULT 14 _ZN7android8hardware11hid
1304:   FUNC GLOBAL DEFAULT 14 _ZN7android8hardwarelsERN
1305:   FUNC GLOBAL DEFAULT 14 _ZNK7android8hardware14IP
1306:   OBJECT WEAK DEFAULT 18 _ZTVNSt3__123__match_any_
1307:   FUNC GLOBAL DEFAULT 14 _ZN7android8hardware12Pro
1308:   FUNC GLOBAL DEFAULT 14 _ZN7android4hidl7manager4
1309:   FUNC GLOBAL DEFAULT 14 _ZN7android4hidl7manager4
1310:   FUNC GLOBAL DEFAULT 14 _ZN7android4hidl7manager4
1311:   FUNC GLOBAL DEFAULT 14 _ZN7android4hidl7manager4
1312:   FUNC WEAK DEFAULT 14 _ZN7android8hardware10fro
1313:   FUNC GLOBAL DEFAULT 14 _ZN7android4hidl7manager4
1314:   FUNC GLOBAL DEFAULT 14 _ZN7android4hidl7manager4
1315:   OBJECT GLOBAL DEFAULT 18 _ZTVN7android8hardware7IB
1316:   FUNC GLOBAL DEFAULT 14 _ZN7android8hardware14IPC
1317:   OBJECT GLOBAL DEFAULT 18 _ZTTN7android4hidl7manage
1318:   OBJECT GLOBAL DEFAULT 18 _ZTTN7android4hidl7manage
1319:   FUNC GLOBAL DEFAULT 14 _ZN7android8hardware14IPC
1320:   FUNC GLOBAL DEFAULT 14 _ZN7android4hidl7manager4
1321:   OBJECT GLOBAL DEFAULT 18 _ZTTN7android4hidl7manage
1322:   FUNC WEAK DEFAULT 14 _ZN7android8hardware7deta
1323:   FUNC GLOBAL DEFAULT 14 _ZN7android8hardware6Parc
1324:   FUNC GLOBAL DEFAULT 14 _ZN7android8hardware12Pro
1325:   FUNC GLOBAL DEFAULT 14 __fe_raise_inexact
1326:   FUNC GLOBAL DEFAULT 14 _ZN7android8hardware11hid
1327:   FUNC GLOBAL DEFAULT 14 _ZN7android8hardware11hid
1328:   FUNC GLOBAL DEFAULT 14 _ZN7android4hidl7manager4
1329:   FUNC GLOBAL DEFAULT 14 _ZN7android4hidl7manager4
1330:   FUNC GLOBAL DEFAULT 14 _ZN7android4hidl4base4V1_
1331:   FUNC GLOBAL DEFAULT 14 _ZN7android8hardware9BHwB
1332:   FUNC GLOBAL DEFAULT 14 _ZN7android8hardware14IPC
1333:   FUNC WEAK DEFAULT 14 _ZNK7android8hardware6Par
1334:   FUNC GLOBAL DEFAULT 14 _ZN7android8hardware11hid
1335:   FUNC GLOBAL DEFAULT 14 _ZN7android4hidl4base4V1_
1336:   FUNC GLOBAL DEFAULT 14 _ZThn32_N7android4hidl7ma
1337:   FUNC GLOBAL DEFAULT 14 _ZN7android4hidl7manager4
1338:   FUNC WEAK DEFAULT 14 _ZNKSt3__16__treeINS_12__
1339:   FUNC GLOBAL DEFAULT 14 _ZN7android4hidl7manager4
1340:   FUNC GLOBAL DEFAULT 14 _ZN7android4hidl7manager4
1341:   OBJECT WEAK DEFAULT 18 _ZTVNSt3__118__match_char
1342:   FUNC GLOBAL DEFAULT 14 _ZN7android8hardware7deta
1343:   FUNC WEAK DEFAULT 14 _ZNSt3__111basic_regexIcN
1344:   OBJECT WEAK DEFAULT 18 _ZTCNSt3__113basic_fstrea
1345:   FUNC WEAK DEFAULT 14 _ZN7android8hardware7deta
1346:   FUNC GLOBAL DEFAULT 14 _ZN7android8hardware7deta
1347:   FUNC WEAK DEFAULT 14 _ZNSt3__16__treeINS_12__v
1348:   OBJECT GLOBAL DEFAULT 18 _ZTCN7android4hidl7manage
1349:   OBJECT GLOBAL DEFAULT 18 _ZTTN7android4hidl4base4V
1350:   FUNC GLOBAL DEFAULT 14 _ZNK7android8hardware6Par
1351:   FUNC WEAK DEFAULT 14 _ZNSt3__16vectorIcNS_9all
1352:   FUNC GLOBAL DEFAULT 14 _ZN7android8hardware6Parc
1353:   FUNC GLOBAL DEFAULT 14 _ZN7android8hardware7deta
1354:   FUNC GLOBAL DEFAULT 14 _ZN7android4hidl7manager4
1355:   FUNC GLOBAL DEFAULT 14 _ZN7android8hardware14IPC
1356:   FUNC GLOBAL DEFAULT 14 _ZN7android8hardware6Parc
1357:   FUNC GLOBAL DEFAULT 14 _ZTv0_n24_N7android8hardw
1358:   FUNC GLOBAL DEFAULT 14 _ZTv0_n24_N7android4hidl7
1359:   FUNC GLOBAL DEFAULT 14 _ZNK7android8hardware6Par
1360:   OBJECT GLOBAL DEFAULT 18 _ZN7android8hardware4aout
1361:   OBJECT WEAK DEFAULT 23 _ZGVZN7android8hardware25
1362:   FUNC WEAK DEFAULT 14 _ZNSt3__16__treeINS_12__v
1363:   OBJECT GLOBAL DEFAULT 18 _ZTCN7android4hidl7manage
1364:   FUNC GLOBAL DEFAULT 14 _ZN7android4hidl7manager4
1365:   FUNC WEAK DEFAULT 14 _ZN7android8hardware10fro
1366:   FUNC GLOBAL DEFAULT 14 _ZN7android8hardware10BpH
1367:   FUNC GLOBAL DEFAULT 14 _ZTv0_n32_N7android8hardw
1368:   OBJECT GLOBAL DEFAULT 18 _ZTTN7android8hardware10B
1369:   FUNC GLOBAL DEFAULT 14 _ZN7android8hardware18Buf
1370:   FUNC WEAK DEFAULT 14 _ZNSt3__15dequeINS_7__sta
1371:   OBJECT WEAK DEFAULT 18 _ZTVNSt3__115__word_bound
1372:   OBJECT GLOBAL DEFAULT 23 _ZN7android8hardware7deta
1373:   FUNC GLOBAL DEFAULT 14 _ZN7android4hidl7manager4
1374:   OBJECT WEAK DEFAULT 18 _ZTVN7android6VectorINS_8
1375:   FUNC GLOBAL DEFAULT 14 _ZNK7android8hardware14IP
1376:   FUNC GLOBAL DEFAULT 14 _ZN7android4hidl4base4V1_
1377:   FUNC GLOBAL DEFAULT 14 _ZN7android8hardwarelsERN
1378:   FUNC WEAK DEFAULT 14 _ZNSt3__120__shared_ptr_p
1379:   FUNC WEAK DEFAULT 14 _ZNSt3__16__treeINS_12__v
1380:   FUNC GLOBAL DEFAULT 14 _ZN7android4hidl7manager4
1381:   FUNC GLOBAL DEFAULT 14 _ZNK7android8hardware6Par
1382:   FUNC WEAK DEFAULT 14 _ZNSt3__16vectorINS_12bas
1383:   OBJECT WEAK DEFAULT 18 _ZTVNSt3__111__match_anyI
1384:   FUNC GLOBAL DEFAULT 14 _ZN7android8hardware24def
1385:   FUNC GLOBAL DEFAULT 14 _ZN7android8hardware12Pro
1386:   FUNC WEAK DEFAULT 14 _ZNKSt3__112regex_traitsI
1387:   OBJECT GLOBAL DEFAULT 11 _ZN7android8hardware11hid
1388:   FUNC GLOBAL DEFAULT 14 _ZN7android4hidl7manager4
1389:   FUNC GLOBAL DEFAULT 14 _ZN7android4hidl7manager4
1390:   FUNC GLOBAL DEFAULT 14 _ZN7android4hidl7manager4
1391:   FUNC GLOBAL DEFAULT 14 _ZN7android8hardware14IPC
1392:   FUNC WEAK DEFAULT 14 _ZNSt3__120__shared_ptr_e
1393:   OBJECT WEAK DEFAULT 18 _ZTCN7android4hidl4base4V
1394:   FUNC GLOBAL DEFAULT 14 _ZN7android8hardware10BpH
1395:   OBJECT GLOBAL DEFAULT 18 _ZTVN7android8hardware10B
1396:   FUNC GLOBAL DEFAULT 14 _ZNK7android8hardware6Par
1397:   FUNC GLOBAL DEFAULT 14 _ZN7android8hardware12Pro
1398:   FUNC WEAK DEFAULT 14 _ZNSt3__112__hash_tableIN
1399:   FUNC GLOBAL DEFAULT 14 _ZN7android4hidl7manager4
1400:   OBJECT GLOBAL DEFAULT 18 _ZTCN7android4hidl7manage
1401:   FUNC GLOBAL DEFAULT 14 __letf2
1402:   FUNC WEAK DEFAULT 14 _ZNSt3__111basic_regexIcN
1403:   FUNC WEAK DEFAULT 14 _ZNSt3__16vectorINS_4pair
1404:   FUNC GLOBAL DEFAULT 14 _ZN7android8hardware7deta
1405:   OBJECT WEAK DEFAULT 18 _ZTVNSt3__120__shared_ptr
1406:   FUNC WEAK DEFAULT 14 _ZNSt3__111basic_regexIcN
1407:   FUNC GLOBAL DEFAULT 14 _ZN7android4hidl7manager4
1408:   FUNC GLOBAL DEFAULT 14 _ZN7android4hidl4base4V1_
1409:   FUNC GLOBAL DEFAULT 14 _ZN7android8hardware7HexD
1410:   FUNC GLOBAL DEFAULT 14 _ZN7android4hidl7manager4
1411:   OBJECT WEAK DEFAULT 18 _ZTCN7android8hardware11B
1412:   FUNC WEAK DEFAULT 14 _ZNKSt3__112__match_charI
1413:   FUNC GLOBAL DEFAULT 14 _ZN7android8hardware11hid
1414:   FUNC GLOBAL DEFAULT 14 _ZN7android4hidl7manager4
1415:   OBJECT GLOBAL DEFAULT 18 _ZTTN7android4hidl4base4V
1416:   FUNC GLOBAL DEFAULT 14 _ZNK7android8hardware14IP
1417:   OBJECT GLOBAL DEFAULT 18 _ZTVN7android8hardware10T
1418:   FUNC GLOBAL DEFAULT 14 _ZN7android8hardware11hid
1419:   FUNC GLOBAL DEFAULT 14 _ZN7android4hidl4base4V1_
1420:   FUNC GLOBAL DEFAULT 14 _ZN7android4hidl7manager4
1421:   FUNC GLOBAL DEFAULT 14 _ZN7android4hidl7manager4
1422:   OBJECT GLOBAL DEFAULT 18 _ZTCN7android4hidl7manage
1423:   OBJECT GLOBAL DEFAULT 18 _ZTCN7android4hidl7manage
1424:   FUNC GLOBAL DEFAULT 14 _ZN7android4hidl4base4V1_
1425:   FUNC GLOBAL DEFAULT 14 _ZN7android4hidl7manager4
1426:   OBJECT GLOBAL DEFAULT 18 _ZTCN7android4hidl7manage
1427:   FUNC GLOBAL DEFAULT 14 _ZNK7android8hardware6Par
1428:   FUNC GLOBAL DEFAULT 14 _ZNK7android8hardware11hi
1429:   FUNC GLOBAL DEFAULT 14 _ZN7android8hardware7deta
1430:   FUNC WEAK DEFAULT 14 _ZN7android8hardware7deta
1431:   OBJECT GLOBAL DEFAULT 18 _ZTCN7android4hidl7manage
1432:   OBJECT GLOBAL DEFAULT 18 _ZTVN7android8hardware9BH
1433:   FUNC GLOBAL DEFAULT 14 _ZN7android8hardware6Parc
1434:   FUNC GLOBAL DEFAULT 14 _ZN7android4hidl4base4V1_
1435:   FUNC GLOBAL DEFAULT 14 _ZN7android4hidl4base4V1_
1436:   FUNC GLOBAL DEFAULT 14 _ZThn32_N7android4hidl7ma
1437:   FUNC GLOBAL DEFAULT 14 _ZN7android4hidl7manager4
1438:   FUNC WEAK DEFAULT 14 _ZNSt3__15dequeINS_8funct
1439:   FUNC GLOBAL DEFAULT 14 _ZN7android8hardware28con
1440:   FUNC GLOBAL DEFAULT 14 _ZN7android8hardware11BpH
1441:   OBJECT GLOBAL DEFAULT 18 _ZTCN7android4hidl7manage
1442:   OBJECT GLOBAL DEFAULT 18 _ZTCN7android4hidl7manage
1443:   OBJECT WEAK DEFAULT 18 _ZTCN7android8hardware11B
1444:   OBJECT GLOBAL DEFAULT 18 _ZTVN7android4hidl4base4V
1445:   FUNC GLOBAL DEFAULT 14 _ZNK7android8hardware6Par
1446:   FUNC WEAK DEFAULT 14 _ZNKSt3__112regex_traitsI
1447:   FUNC WEAK DEFAULT 14 _ZN7android8hardware7deta
1448:   FUNC GLOBAL DEFAULT 14 _ZN7android8hardware14IPC
1449:   FUNC WEAK DEFAULT 14 _ZNSt3__111basic_regexIcN
1450:   FUNC WEAK DEFAULT 14 _ZNSt3__16__treeINS_12__v
1451:   FUNC GLOBAL DEFAULT 14 _ZN7android4hidl7manager4
1452:   FUNC WEAK DEFAULT 14 _ZN7android8hardware6Parc
1453:   OBJECT GLOBAL DEFAULT 16 _ZN7android4hidl7manager4
1454:   FUNC WEAK DEFAULT 14 _ZNSt3__113__vector_baseI
1455:   FUNC WEAK DEFAULT 14 _ZNSt3__15dequeINS_8funct
1456:   FUNC GLOBAL DEFAULT 14 _ZN7android4hidl7manager4
1457:   FUNC GLOBAL DEFAULT 14 _ZN7android4hidl7manager4
1458:   FUNC WEAK DEFAULT 14 _ZNSt3__111basic_regexIcN
1459:   FUNC WEAK DEFAULT 14 _ZNSt3__112__deque_baseIN
1460:   OBJECT WEAK DEFAULT 18 _ZTVNSt3__120__shared_ptr
1461:   FUNC GLOBAL DEFAULT 14 _ZThn32_N7android4hidl7ma
1462:   FUNC GLOBAL DEFAULT 14 _ZTv0_n48_N7android8hardw
1463:   FUNC GLOBAL DEFAULT 14 _ZN7android8hardware7HexD
1464:   FUNC WEAK DEFAULT 14 _ZNSt3__114__split_buffer
1465:   OBJECT GLOBAL DEFAULT 18 _ZTVN7android8hardware7de
1466:   FUNC GLOBAL DEFAULT 14 _ZN7android4hidl7manager4
1467:   FUNC GLOBAL DEFAULT 14 _ZN7android8hardware6Parc
1468:   FUNC GLOBAL DEFAULT 14 _ZN7android8hardware11hid
1469:   FUNC GLOBAL DEFAULT 14 _ZN7android8hardware6Stat
1470:   OBJECT GLOBAL DEFAULT 11 _ZN7android8hardware11hid
1471:   FUNC WEAK DEFAULT 14 _ZNSt3__127__tree_balance
1472:   FUNC GLOBAL DEFAULT 14 _ZN7android8hardware7deta
1473:   OBJECT GLOBAL DEFAULT 18 _ZTCN7android4hidl7manage
1474:   FUNC GLOBAL DEFAULT 14 _ZN7android4hidl7manager4
1475:   FUNC WEAK DEFAULT 14 _ZN7android8hardware7deta
1476:   FUNC GLOBAL DEFAULT 14 _ZN7android4hidl7manager4
1477:   FUNC GLOBAL DEFAULT 14 _ZN7android8hardware9BHwB
1478:   FUNC GLOBAL DEFAULT 14 _ZN7android4hidl7manager4
1479:   FUNC GLOBAL DEFAULT 14 _ZN7android4hidl7manager4
1480:   OBJECT GLOBAL DEFAULT 18 _ZTCN7android4hidl7manage
1481:   FUNC GLOBAL DEFAULT 14 _ZNK7android8hardware11hi
1482:   FUNC WEAK DEFAULT 14 _ZNSt3__16__treeINS_12__v
1483:   FUNC GLOBAL DEFAULT 14 _ZTv0_n24_N7android4hidl4
1484:   FUNC GLOBAL DEFAULT 14 _ZN7android4hidl7manager4
1485:   FUNC GLOBAL DEFAULT 14 _ZN7android8hardware6Parc
1486:   FUNC GLOBAL DEFAULT 14 _ZN7android4hidl7manager4
1487:   FUNC GLOBAL DEFAULT 14 _ZNK7android8hardware6Par
1488:   FUNC GLOBAL DEFAULT 14 _ZN7android4hidl7manager4
1489:   FUNC GLOBAL DEFAULT 14 _ZN7android4hidl7manager4
1490:   FUNC GLOBAL DEFAULT 14 _ZN7android8hardware10BpH
1491:   FUNC GLOBAL DEFAULT 14 _ZN7android8hardware7deta
1492:   FUNC WEAK DEFAULT 14 _ZNSt3__17getlineIcNS_11c
1493:   OBJECT GLOBAL DEFAULT 18 _ZTCN7android4hidl4base4V
1494:   FUNC WEAK DEFAULT 14 _ZN7android8hardware7deta
1495:   FUNC GLOBAL DEFAULT 14 _ZN7android8hardware12Pro
1496:   FUNC GLOBAL DEFAULT 14 _ZN7android8hardware23joi
1497:   FUNC GLOBAL DEFAULT 14 _ZN7android8hardware20Laz
1498:   FUNC GLOBAL DEFAULT 14 _ZN7android8hardware10IIn
1499:   FUNC GLOBAL DEFAULT 14 _ZN7android4hidl7manager4
1500:   FUNC GLOBAL DEFAULT 14 _ZN7android4hidl7manager4
1501:   FUNC GLOBAL DEFAULT 14 _ZN7android4hidl7manager4
1502:   FUNC GLOBAL DEFAULT 14 _ZN7android8hardware10BpH
1503:   FUNC GLOBAL DEFAULT 14 _ZNK7android8hardware12Pr
1504:   FUNC GLOBAL DEFAULT 14 _ZN7android8hardware13wri
1505:   OBJECT GLOBAL DEFAULT 16 _ZN7android4hidl7manager4
1506:   FUNC GLOBAL DEFAULT 14 _ZN7android8hardware7deta
1507:   FUNC WEAK DEFAULT 14 _ZNSt3__113basic_filebufI
1508:   FUNC GLOBAL DEFAULT 14 _ZN7android4hidl7manager4
1509:   FUNC WEAK DEFAULT 14 _ZN7android8hardware7deta
1510:   FUNC GLOBAL DEFAULT 14 _ZN7android4hidl7manager4
1511:   FUNC GLOBAL DEFAULT 14 _ZN7android8hardware18Buf
1512:   FUNC GLOBAL DEFAULT 14 _ZN7android8hardware6Parc
1513:   OBJECT GLOBAL DEFAULT 18 _ZTTN7android4hidl7manage
1514:   OBJECT WEAK DEFAULT 18 _ZTVN7android8hardware18B
1515:   FUNC GLOBAL DEFAULT 14 _ZTv0_n24_N7android8hardw
1516:   FUNC WEAK DEFAULT 14 _ZNSt3__120__shared_ptr_e
1517:   FUNC WEAK DEFAULT 14 _ZNSt3__16vectorIiNS_9all
1518:   FUNC GLOBAL DEFAULT 14 _ZN7android4hidl7manager4
1519:   FUNC GLOBAL DEFAULT 14 _ZN7android4hidl7manager4
1520:   FUNC GLOBAL DEFAULT 14 _ZN7android8hardware14IPC
1521:   FUNC GLOBAL DEFAULT 14 _ZNK7android8hardware6Par
1522:   FUNC WEAK DEFAULT 14 _ZNSt3__111basic_regexIcN
1523:   FUNC GLOBAL DEFAULT 14 _ZN7android8hardware6Parc
1524:   FUNC GLOBAL DEFAULT 14 _ZN7android4hidl7manager4
1525:   FUNC GLOBAL DEFAULT 14 _ZN7android4hidl7manager4
1526:   FUNC GLOBAL DEFAULT 14 printTypeCode
1527:   FUNC GLOBAL DEFAULT 14 _ZN7android8hardware12Pro
