 0x000000000000000e (SONAME)             Library soname: [libbase.so]
  
Symbol   contains 285 entries:
Num:   Type Bind Vis Ndx Name
0:   NOTYPE LOCAL DEFAULT UND
1:   NOTYPE WEAK DEFAULT UND __gmon_start__
2:   NOTYPE WEAK DEFAULT UND _ITM_deregisterTMCloneTab
3:   NOTYPE WEAK DEFAULT UND _ITM_registerTMCloneTable
4:   FUNC WEAK DEFAULT UND __cxa_finalize@GLIBC_2.2.5 (2)
5:   NOTYPE WEAK DEFAULT UND _Jv_RegisterClasses
6:   FUNC GLOBAL DEFAULT UND _ZNKSt3__16locale9use_fac
7:   FUNC GLOBAL DEFAULT UND _ZNKSt3__18ios_base6getlo
8:   FUNC GLOBAL DEFAULT UND _ZNSt3__113basic_ostreamI
9:   FUNC GLOBAL DEFAULT UND _ZNSt3__113basic_ostreamI
10:   FUNC GLOBAL DEFAULT UND _ZNSt3__113basic_ostreamI
11:   OBJECT GLOBAL DEFAULT UND _ZNSt3__15ctypeIcE2idE
12:   FUNC GLOBAL DEFAULT UND _ZNSt3__16localeD1Ev
13:   FUNC GLOBAL DEFAULT UND _ZNSt3__18ios_base5clearE
14:   FUNC GLOBAL DEFAULT UND _ZdlPv
15:   FUNC GLOBAL DEFAULT UND _Znwm
16:   FUNC GLOBAL DEFAULT UND __stack_chk_fail@GLIBC_2.4 (3)
17:   FUNC GLOBAL DEFAULT UND clock_gettime@GLIBC_2.2.5 (4)
18:   FUNC GLOBAL DEFAULT UND memset@GLIBC_2.2.5 (2)
19:   FUNC GLOBAL DEFAULT UND _ZNKSt3__120__vector_base
20:   FUNC GLOBAL DEFAULT UND _ZNSt3__113basic_ostreamI
21:   FUNC GLOBAL DEFAULT UND _ZNSt3__113basic_ostreamI
22:   FUNC GLOBAL DEFAULT UND __errno_location@GLIBC_2.2.5 (5)
23:   FUNC GLOBAL DEFAULT UND abort@GLIBC_2.2.5 (2)
24:   FUNC GLOBAL DEFAULT UND close@GLIBC_2.2.5 (5)
25:   FUNC GLOBAL DEFAULT UND recvmsg@GLIBC_2.2.5 (5)
26:   FUNC GLOBAL DEFAULT UND sendmsg@GLIBC_2.2.5 (5)
27:   FUNC GLOBAL DEFAULT UND _ZNKSt3__121__basic_strin
28:   FUNC GLOBAL DEFAULT UND _ZNSt3__112basic_stringIc
29:   FUNC GLOBAL DEFAULT UND _ZNSt3__112basic_stringIc
30:   FUNC GLOBAL DEFAULT UND _ZNSt3__112basic_stringIc
31:   FUNC GLOBAL DEFAULT UND _ZNSt3__112basic_stringIc
32:   FUNC GLOBAL DEFAULT UND _ZNSt3__112basic_stringIc
33:   FUNC GLOBAL DEFAULT UND _ZNSt3__15mutex4lockEv
34:   FUNC GLOBAL DEFAULT UND _ZNSt3__15mutex6unlockEv
35:   FUNC GLOBAL DEFAULT UND __cxa_guard_acquire
36:   FUNC GLOBAL DEFAULT UND __cxa_guard_release
37:   FUNC GLOBAL DEFAULT UND __fxstat64@GLIBC_2.2.5 (2)
38:   FUNC GLOBAL DEFAULT UND __lxstat64@GLIBC_2.2.5 (2)
39:   FUNC GLOBAL DEFAULT UND __xpg_basename@GLIBC_2.2.5 (2)
40:   FUNC GLOBAL DEFAULT UND dirname@GLIBC_2.2.5 (2)
41:   FUNC GLOBAL DEFAULT UND fchmod@GLIBC_2.2.5 (2)
42:   FUNC GLOBAL DEFAULT UND fchown@GLIBC_2.2.5 (2)
43:   FUNC GLOBAL DEFAULT UND free@GLIBC_2.2.5 (2)
44:   FUNC GLOBAL DEFAULT UND getenv@GLIBC_2.2.5 (2)
45:   FUNC GLOBAL DEFAULT UND memcpy@GLIBC_2.14 (6)
46:   FUNC GLOBAL DEFAULT UND mkdtemp@GLIBC_2.2.5 (2)
47:   FUNC GLOBAL DEFAULT UND mkstemp64@GLIBC_2.2.5 (2)
48:   FUNC GLOBAL DEFAULT UND nftw64@GLIBC_2.3.3 (7)
49:   FUNC GLOBAL DEFAULT UND open64@GLIBC_2.2.5 (5)
50:   FUNC GLOBAL DEFAULT UND pread64@GLIBC_2.2.5 (5)
51:   FUNC GLOBAL DEFAULT UND read@GLIBC_2.2.5 (5)
52:   FUNC GLOBAL DEFAULT UND readlink@GLIBC_2.2.5 (2)
53:   FUNC GLOBAL DEFAULT UND realpath@GLIBC_2.3 (8)
54:   FUNC GLOBAL DEFAULT UND rmdir@GLIBC_2.2.5 (2)
55:   FUNC GLOBAL DEFAULT UND snprintf@GLIBC_2.2.5 (2)
56:   FUNC GLOBAL DEFAULT UND strerror@GLIBC_2.2.5 (2)
57:   FUNC GLOBAL DEFAULT UND strlen@GLIBC_2.2.5 (2)
58:   FUNC GLOBAL DEFAULT UND unlink@GLIBC_2.2.5 (2)
59:   FUNC GLOBAL DEFAULT UND write@GLIBC_2.2.5 (5)
60:   FUNC GLOBAL DEFAULT UND _ZNKSt3__112basic_stringI
61:   FUNC GLOBAL DEFAULT UND _ZNSt3__112basic_stringIc
62:   FUNC GLOBAL DEFAULT UND _ZNSt3__112basic_stringIc
63:   FUNC GLOBAL DEFAULT UND _ZNSt3__113basic_ostreamI
64:   FUNC GLOBAL DEFAULT UND _ZNSt3__113basic_ostreamI
65:   FUNC GLOBAL DEFAULT UND _ZNSt3__113basic_ostreamI
66:   FUNC GLOBAL DEFAULT UND _ZNSt3__115basic_streambu
67:   FUNC GLOBAL DEFAULT UND _ZNSt3__115basic_streambu
68:   FUNC GLOBAL DEFAULT UND _ZNSt3__115basic_streambu
69:   FUNC GLOBAL DEFAULT UND _ZNSt3__115basic_streambu
70:   FUNC GLOBAL DEFAULT UND _ZNSt3__115basic_streambu
71:   FUNC GLOBAL DEFAULT UND _ZNSt3__115basic_streambu
72:   FUNC GLOBAL DEFAULT UND _ZNSt3__115basic_streambu
73:   FUNC GLOBAL DEFAULT UND _ZNSt3__115basic_streambu
74:   FUNC GLOBAL DEFAULT UND _ZNSt3__115basic_streambu
75:   FUNC GLOBAL DEFAULT UND _ZNSt3__115recursive_mute
76:   FUNC GLOBAL DEFAULT UND _ZNSt3__115recursive_mute
77:   FUNC GLOBAL DEFAULT UND _ZNSt3__115recursive_mute
78:   FUNC GLOBAL DEFAULT UND _ZNSt3__18ios_base4initEP
79:   FUNC GLOBAL DEFAULT UND _ZNSt3__19basic_iosIcNS_1
80:   OBJECT GLOBAL DEFAULT UND _ZTINSt3__113basic_ostrea
81:   OBJECT GLOBAL DEFAULT UND _ZTINSt3__115basic_stream
82:   OBJECT GLOBAL DEFAULT UND _ZTVN10__cxxabiv117__clas
83:   OBJECT GLOBAL DEFAULT UND _ZTVN10__cxxabiv119__poin
84:   OBJECT GLOBAL DEFAULT UND _ZTVN10__cxxabiv120__func
85:   OBJECT GLOBAL DEFAULT UND _ZTVN10__cxxabiv120__si_c
86:   FUNC GLOBAL DEFAULT UND _ZTv0_n24_NSt3__113basic_
87:   FUNC GLOBAL DEFAULT UND _ZTv0_n24_NSt3__113basic_
88:   FUNC GLOBAL DEFAULT UND fflush@GLIBC_2.2.5 (2)
89:   FUNC GLOBAL DEFAULT UND fprintf@GLIBC_2.2.5 (2)
90:   FUNC GLOBAL DEFAULT UND getpid@GLIBC_2.2.5 (2)
91:   FUNC GLOBAL DEFAULT UND localtime_r@GLIBC_2.2.5 (2)
92:   OBJECT GLOBAL DEFAULT UND program_invocation_short_@GLIBC_2.2.5 (2)
93:   OBJECT GLOBAL DEFAULT UND stderr@GLIBC_2.2.5 (2)
94:   OBJECT GLOBAL DEFAULT UND stdout@GLIBC_2.2.5 (2)
95:   FUNC GLOBAL DEFAULT UND strftime@GLIBC_2.2.5 (2)
96:   FUNC GLOBAL DEFAULT UND strrchr@GLIBC_2.2.5 (2)
97:   FUNC GLOBAL DEFAULT UND time@GLIBC_2.2.5 (2)
98:   FUNC GLOBAL DEFAULT UND writev@GLIBC_2.2.5 (2)
99:   FUNC GLOBAL DEFAULT UND mmap64@GLIBC_2.2.5 (2)
100:   FUNC GLOBAL DEFAULT UND munmap@GLIBC_2.2.5 (2)
101:   FUNC GLOBAL DEFAULT UND sysconf@GLIBC_2.2.5 (2)
102:   FUNC GLOBAL DEFAULT UND _ZNSt3__112basic_stringIc
103:   FUNC GLOBAL DEFAULT UND _ZNSt3__112basic_stringIc
104:   FUNC GLOBAL DEFAULT UND memchr@GLIBC_2.2.5 (2)
105:   FUNC GLOBAL DEFAULT UND sscanf@GLIBC_2.2.5 (2)
106:   FUNC GLOBAL DEFAULT UND _ZNKSt3__112basic_stringI
107:   FUNC GLOBAL DEFAULT UND isspace@GLIBC_2.2.5 (2)
108:   FUNC GLOBAL DEFAULT UND memcmp@GLIBC_2.2.5 (2)
109:   FUNC GLOBAL DEFAULT UND strtoll@GLIBC_2.2.5 (2)
110:   FUNC GLOBAL DEFAULT UND strtoull@GLIBC_2.2.5 (2)
111:   FUNC GLOBAL DEFAULT UND tolower@GLIBC_2.2.5 (2)
112:   FUNC GLOBAL DEFAULT UND _ZdaPv
113:   FUNC GLOBAL DEFAULT UND _Znam
114:   FUNC GLOBAL DEFAULT UND __vsnprintf_chk@GLIBC_2.3.4 (9)
115:   FUNC GLOBAL DEFAULT UND __ctype_b_loc@GLIBC_2.3 (8)
116:   FUNC GLOBAL DEFAULT UND strncasecmp@GLIBC_2.2.5 (2)
117:   FUNC GLOBAL DEFAULT UND syscall@GLIBC_2.2.5 (2)
118:   FUNC GLOBAL DEFAULT UND _ZNSt3__113basic_ostreamI
119:   FUNC GLOBAL DEFAULT UND dup@GLIBC_2.2.5 (2)
120:   FUNC GLOBAL DEFAULT UND dup2@GLIBC_2.2.5 (2)
121:   FUNC GLOBAL DEFAULT UND ftruncate64@GLIBC_2.2.5 (2)
122:   FUNC GLOBAL DEFAULT UND lseek64@GLIBC_2.2.5 (5)
123:   FUNC GLOBAL DEFAULT 13 _init
124:   OBJECT WEAK DEFAULT 21 _ZTINSt3__119basic_ostrin
125:   FUNC WEAK DEFAULT 12 _ZN7android4base9ParseUin
126:   FUNC WEAK DEFAULT 12 _ZNSt3__16__treeINS_12__v
127:   FUNC GLOBAL DEFAULT 12 _ZN7android4base8EndsWith
128:   FUNC WEAK DEFAULT 12 _ZNSt3__124__put_characte
129:   FUNC WEAK DEFAULT 12 _ZNSt3__16vectorIN7androi
130:   FUNC WEAK DEFAULT 12 _ZN7android4base14GetIntP
131:   FUNC GLOBAL DEFAULT 12 _ZN7android4base18EndsWit
132:   FUNC GLOBAL DEFAULT 12 _ZN13CapturedStdFd4StopEv
133:   FUNC GLOBAL DEFAULT 12 _ZN7android4baselsERNSt3_
134:   FUNC GLOBAL DEFAULT 12 _ZN13TemporaryFileC2Ev
135:   OBJECT WEAK DEFAULT 9 _ZTSNSt3__119basic_ostrin
136:   FUNC GLOBAL DEFAULT 12 _ZN7android4base10MappedF
137:   FUNC GLOBAL DEFAULT 12 _ZN13CapturedStdFd5StartE
138:   OBJECT WEAK DEFAULT 9 _ZTSFvN7android4base5LogI
139:   FUNC GLOBAL DEFAULT 12 _ZN7android4base15GetBool
140:   FUNC WEAK DEFAULT 12 _ZN7android4base4JoinINSt
141:   FUNC GLOBAL DEFAULT 12 _ZN7android4base12KernelL
142:   FUNC GLOBAL DEFAULT 12 _ZN7android4base11GetProp
143:   FUNC WEAK DEFAULT 12 _ZN7android4base15GetUint
144:   FUNC GLOBAL DEFAULT 12 _ZN13TemporaryFileC2ERKNS
145:   FUNC GLOBAL DEFAULT 12 _ZN7android4base11StdioLo
146:   OBJECT WEAK DEFAULT 9 _ZTSNSt3__110__function6_
147:   OBJECT WEAK DEFAULT 21 _ZTVNSt3__119basic_ostrin
148:   FUNC WEAK DEFAULT 12 _ZNSt3__16__treeINS_12__v
149:   FUNC WEAK DEFAULT 12 _ZN7android4base4JoinINSt
150:   FUNC GLOBAL DEFAULT 12 _ZN7android4base17ScopedL
151:   FUNC WEAK DEFAULT 12 _ZNSt3__115basic_stringbu
152:   FUNC GLOBAL DEFAULT 12 _ZN7android4base10LogMess
153:   FUNC GLOBAL DEFAULT 12 _ZN12TemporaryDirC1Ev
154:   FUNC GLOBAL DEFAULT 12 _ZN7android4base10LogMess
155:   FUNC GLOBAL DEFAULT 12 _ZN7android4base10LogMess
156:   FUNC WEAK DEFAULT 12 _ZNKSt3__110__function6__
157:   FUNC WEAK DEFAULT 12 _ZNSt3__110__function6__f
158:   OBJECT WEAK DEFAULT 21 _ZTINSt3__110__function6_
159:   FUNC GLOBAL DEFAULT 12 _ZN13CapturedStdFdC2Ei
160:   FUNC WEAK DEFAULT 12 _ZNKSt3__110__function6__
161:   FUNC WEAK DEFAULT 12 _ZNSt3__110__function6__f
162:   OBJECT WEAK DEFAULT 21 _ZTIFvN7android4base5LogI
163:   OBJECT WEAK DEFAULT 21 _ZTIPFvPKcE
164:   FUNC GLOBAL DEFAULT 12 _ZN7android4base23SystemE
165:   FUNC GLOBAL DEFAULT 12 _ZN7android4base24SendFil
166:   FUNC GLOBAL DEFAULT 12 _ZN13TemporaryFileD1Ev
167:   FUNC WEAK DEFAULT 12 _ZN7android4base15GetUint
168:   FUNC GLOBAL DEFAULT 12 _ZN7android4base13SetDefa
169:   FUNC GLOBAL DEFAULT 12 _ZN7android4base17ScopedL
170:   OBJECT WEAK DEFAULT 21 _ZTINSt3__110__function6_
171:   OBJECT WEAK DEFAULT 9 _ZTSPFvN7android4base5Log
172:   OBJECT WEAK DEFAULT 21 _ZTTNSt3__119basic_ostrin
173:   FUNC GLOBAL DEFAULT 12 _ZN7android4base10MappedF
174:   FUNC WEAK DEFAULT 12 _ZN7android4base14GetIntP
175:   FUNC GLOBAL DEFAULT 12 _ZN7android4base13StringA
176:   FUNC GLOBAL DEFAULT 12 tgkill
177:   FUNC WEAK DEFAULT 12 _ZNSt3__110__function6__f
178:   FUNC GLOBAL DEFAULT 12 _ZN7android4base12StringP
179:   FUNC GLOBAL DEFAULT 12 _ZN13TemporaryFile7releas
180:   FUNC WEAK DEFAULT 12 _ZNKSt3__110__function6__
181:   FUNC GLOBAL DEFAULT 12 _ZN12TemporaryDir4initERK
182:   FUNC WEAK DEFAULT 12 _ZNSt3__115basic_stringbu
183:   FUNC GLOBAL DEFAULT 12 _ZN12TemporaryDirC2Ev
184:   FUNC GLOBAL DEFAULT 12 _ZN13TemporaryFile4initER
185:   FUNC GLOBAL DEFAULT 12 _ZN7android4base15WriteSt
186:   FUNC GLOBAL DEFAULT 12 _ZN7android4base22GetExec
187:   FUNC GLOBAL DEFAULT 12 _ZN7android4base10StartsW
188:   OBJECT WEAK DEFAULT 21 _ZTINSt3__110__function6_
189:   FUNC GLOBAL DEFAULT 12 _ZN7android4base15ParseNe
190:   FUNC GLOBAL DEFAULT 14 _fini
191:   FUNC GLOBAL DEFAULT 12 _ZN7android4base21GetMini
192:   FUNC GLOBAL DEFAULT 12 _ZN7android4base7DirnameE
193:   FUNC GLOBAL DEFAULT 12 _ZN7android4base10SetAbor
194:   FUNC GLOBAL DEFAULT 12 _ZN7android4base11InitLog
195:   OBJECT WEAK DEFAULT 21 _ZTIPFvN7android4base5Log
196:   OBJECT WEAK DEFAULT 9 _ZTSNSt3__110__function6_
197:   FUNC WEAK DEFAULT 12 _ZTv0_n24_NSt3__119basic_
198:   FUNC WEAK DEFAULT 12 _ZN7android4base14GetIntP
199:   FUNC GLOBAL DEFAULT 12 _ZN7android4base10LogMess
200:   FUNC GLOBAL DEFAULT 12 _ZN7android4base16ReadFil
201:   FUNC WEAK DEFAULT 12 _ZN7android4base4JoinINSt
202:   FUNC GLOBAL DEFAULT 12 _ZN7android4base4TrimERKN
203:   FUNC GLOBAL DEFAULT 12 _ZN13TemporaryFileD2Ev
204:   FUNC GLOBAL DEFAULT 12 _ZN7android4base14ReadFdT
205:   FUNC GLOBAL DEFAULT 12 _ZN7android4base17ReadFul
206:   FUNC GLOBAL DEFAULT 12 _ZN7android4base21SetMini
207:   FUNC WEAK DEFAULT 12 _ZNSt3__110__function6__f
208:   FUNC WEAK DEFAULT 12 _ZNSt3__115basic_stringbu
209:   OBJECT WEAK DEFAULT 21 _ZTCNSt3__119basic_ostrin
210:   FUNC GLOBAL DEFAULT 12 _ZN13CapturedStdFd3strEv
211:   FUNC GLOBAL DEFAULT 12 _ZN7android4base10boot_cl
212:   FUNC GLOBAL DEFAULT 12 _ZN7android4base17GetExec
213:   FUNC GLOBAL DEFAULT 12 _ZN7android4base8Realpath
214:   FUNC GLOBAL DEFAULT 12 _ZN7android4base11GetThre
215:   FUNC WEAK DEFAULT 12 _ZNSt3__110__function6__f
216:   FUNC WEAK DEFAULT 12 _ZN7android4base14GetIntP
217:   FUNC GLOBAL DEFAULT 12 _ZN7android4base16EqualsI
218:   FUNC GLOBAL DEFAULT 12 _ZN7android4base8EndsWith
219:   FUNC GLOBAL DEFAULT 12 _ZN7android4base8Readlink
220:   FUNC WEAK DEFAULT 12 _ZNSt3__127__tree_balance
221:   FUNC GLOBAL DEFAULT 12 _ZN7android4base10LogMess
222:   FUNC GLOBAL DEFAULT 12 _ZN7android4base5SplitERK
223:   OBJECT WEAK DEFAULT 21 _ZTINSt3__115basic_string
224:   FUNC GLOBAL DEFAULT 12 _ZN7android4base10MappedF
225:   OBJECT WEAK DEFAULT 21 _ZTVNSt3__110__function6_
226:   FUNC WEAK DEFAULT 12 _ZN7android4base15GetUint
227:   FUNC GLOBAL DEFAULT 12 _ZN12TemporaryDirD1Ev
228:   FUNC WEAK DEFAULT 12 _ZNSt3__110__function6__f
229:   OBJECT WEAK DEFAULT 21 _ZTVNSt3__110__function6_
230:   FUNC WEAK DEFAULT 12 _ZNKSt3__110__function6__
231:   FUNC WEAK DEFAULT 12 _ZNSt3__110__function6__f
232:   FUNC WEAK DEFAULT 12 _ZN7android4base9ParseUin
233:   FUNC GLOBAL DEFAULT 12 _ZN7android4base13GetDefa
234:   FUNC GLOBAL DEFAULT 12 _ZN7android4base17ScopedL
235:   OBJECT WEAK DEFAULT 9 _ZTSNSt3__110__function6_
236:   FUNC WEAK DEFAULT 12 _ZTv0_n24_NSt3__119basic_
237:   FUNC GLOBAL DEFAULT 12 _ZN7android4base10LogMess
238:   FUNC WEAK DEFAULT 12 _ZNSt3__16vectorINS_12bas
239:   FUNC GLOBAL DEFAULT 12 _ZN13TemporaryFileC1ERKNS
240:   FUNC GLOBAL DEFAULT 12 _ZN7android4base17WriteSt
241:   FUNC GLOBAL DEFAULT 12 _ZN7android4base9ReadFull
242:   OBJECT WEAK DEFAULT 9 _ZTSNSt3__110__function6_
243:   FUNC GLOBAL DEFAULT 12 _ZN13CapturedStdFdD1Ev
244:   FUNC WEAK DEFAULT 12 _ZNSt3__110__function6__f
245:   FUNC WEAK DEFAULT 12 _ZNSt3__119basic_ostrings
246:   FUNC GLOBAL DEFAULT 12 _ZN7android4base8Basename
247:   FUNC GLOBAL DEFAULT 12 _ZN7android4base14Default
248:   FUNC WEAK DEFAULT 12 _ZNKSt3__110__function6__
249:   FUNC WEAK DEFAULT 12 _ZNKSt3__115basic_stringb
250:   FUNC WEAK DEFAULT 12 _ZN7android4base15GetUint
251:   FUNC GLOBAL DEFAULT 12 _ZNK13CapturedStdFd2fdEv
252:   FUNC GLOBAL DEFAULT 12 _ZN7android4base27Receive
253:   FUNC GLOBAL DEFAULT 12 _ZN7android4base12StderrL
254:   FUNC GLOBAL DEFAULT 12 _ZN13CapturedStdFd5ResetE
255:   FUNC WEAK DEFAULT 12 _ZNKSt3__110__function6__
256:   FUNC WEAK DEFAULT 12 _ZNSt3__115basic_stringbu
257:   OBJECT WEAK DEFAULT 9 _ZTSNSt3__115basic_string
258:   FUNC GLOBAL DEFAULT 12 _ZN7android4base11SetProp
259:   FUNC GLOBAL DEFAULT 12 _ZN12TemporaryDirD2Ev
260:   FUNC GLOBAL DEFAULT 12 _ZN13TemporaryFileC1Ev
261:   FUNC GLOBAL DEFAULT 12 _ZN7android4base18RemoveF
262:   FUNC GLOBAL DEFAULT 12 _ZN7android4base9SetLogge
263:   OBJECT WEAK DEFAULT 21 _ZTIFvPKcE
264:   FUNC GLOBAL DEFAULT 12 _ZN7android4base20StartsW
265:   FUNC GLOBAL DEFAULT 12 _ZN7android4base17WriteSt
266:   OBJECT WEAK DEFAULT 21 _ZTINSt3__110__function6_
267:   FUNC WEAK DEFAULT 12 _ZNKSt3__110__function6__
268:   OBJECT WEAK DEFAULT 9 _ZTSFvPKcE
269:   OBJECT WEAK DEFAULT 9 _ZTSPFvPKcE
270:   OBJECT WEAK DEFAULT 21 _ZTVNSt3__115basic_string
271:   FUNC WEAK DEFAULT 12 _ZN7android4base4JoinINSt
272:   FUNC WEAK DEFAULT 12 _ZNKSt3__110__function6__
273:   FUNC WEAK DEFAULT 12 _ZN7android4base9ParseUin
274:   FUNC GLOBAL DEFAULT 12 _ZN7android4base10StartsW
275:   FUNC GLOBAL DEFAULT 12 _ZN7android4base17ScopedL
276:   FUNC WEAK DEFAULT 12 _ZNSt3__115basic_stringbu
277:   FUNC WEAK DEFAULT 12 _ZNSt3__115basic_stringbu
278:   FUNC GLOBAL DEFAULT 12 _ZN13CapturedStdFdD2Ev
279:   FUNC GLOBAL DEFAULT 12 _ZN7android4base10WriteFu
280:   FUNC WEAK DEFAULT 12 _ZNSt3__16vectorIcNS_9all
281:   FUNC WEAK DEFAULT 12 _ZNSt3__119basic_ostrings
282:   FUNC WEAK DEFAULT 12 _ZN7android4base9ParseUin
283:   FUNC GLOBAL DEFAULT 12 _ZN7android4base13StringA
284:   FUNC GLOBAL DEFAULT 12 _ZN13CapturedStdFdC1Ei
