 0x0000000e (SONAME)                     Library soname: [libft2.so]
  
Symbol   contains 657 entries:
Num:   Type Bind Vis Ndx Name
0:   NOTYPE LOCAL DEFAULT UND
1:   FUNC GLOBAL DEFAULT UND __cxa_finalize@LIBC (2)
2:   FUNC GLOBAL DEFAULT UND __stack_chk_fail@LIBC (2)
3:   OBJECT GLOBAL DEFAULT UND __stack_chk_guard@LIBC (2)
4:   FUNC GLOBAL DEFAULT UND strcmp@LIBC (2)
5:   FUNC GLOBAL DEFAULT UND __memcpy_chk@LIBC (2)
6:   FUNC GLOBAL DEFAULT UND __strcat_chk@LIBC (2)
7:   FUNC GLOBAL DEFAULT UND longjmp@LIBC (2)
8:   FUNC GLOBAL DEFAULT UND qsort@LIBC (2)
9:   FUNC GLOBAL DEFAULT UND strlen@LIBC (2)
10:   FUNC GLOBAL DEFAULT UND strncpy@LIBC (2)
11:   FUNC GLOBAL DEFAULT UND strrchr@LIBC (2)
12:   FUNC GLOBAL DEFAULT UND strstr@LIBC (2)
13:   FUNC GLOBAL DEFAULT UND fclose@LIBC (2)
14:   FUNC GLOBAL DEFAULT UND fopen@LIBC (2)
15:   FUNC GLOBAL DEFAULT UND fread@LIBC (2)
16:   FUNC GLOBAL DEFAULT UND free@LIBC (2)
17:   FUNC GLOBAL DEFAULT UND fseek@LIBC (2)
18:   FUNC GLOBAL DEFAULT UND ftell@LIBC (2)
19:   FUNC GLOBAL DEFAULT UND malloc@LIBC (2)
20:   FUNC GLOBAL DEFAULT UND realloc@LIBC (2)
21:   FUNC GLOBAL DEFAULT UND strncmp@LIBC (2)
22:   FUNC GLOBAL DEFAULT UND strtol@LIBC (2)
23:   FUNC GLOBAL DEFAULT UND memcmp@LIBC (2)
24:   FUNC GLOBAL DEFAULT UND memchr@LIBC (2)
25:   FUNC GLOBAL DEFAULT UND png_create_info_struct
26:   FUNC GLOBAL DEFAULT UND png_create_read_struct
27:   FUNC GLOBAL DEFAULT UND png_destroy_read_struct
28:   FUNC GLOBAL DEFAULT UND png_error
29:   FUNC GLOBAL DEFAULT UND png_get_IHDR
30:   FUNC GLOBAL DEFAULT UND png_get_error_ptr
31:   FUNC GLOBAL DEFAULT UND png_get_io_ptr
32:   FUNC GLOBAL DEFAULT UND png_get_valid
33:   FUNC GLOBAL DEFAULT UND png_read_end
34:   FUNC GLOBAL DEFAULT UND png_read_image
35:   FUNC GLOBAL DEFAULT UND png_read_info
36:   FUNC GLOBAL DEFAULT UND png_read_update_info
37:   FUNC GLOBAL DEFAULT UND png_set_expand_gray_1_2_4
38:   FUNC GLOBAL DEFAULT UND png_set_filler
39:   FUNC GLOBAL DEFAULT UND png_set_gray_to_rgb
40:   FUNC GLOBAL DEFAULT UND png_set_interlace_handlin
41:   FUNC GLOBAL DEFAULT UND png_set_longjmp_fn
42:   FUNC GLOBAL DEFAULT UND png_set_packing
43:   FUNC GLOBAL DEFAULT UND png_set_palette_to_rgb
44:   FUNC GLOBAL DEFAULT UND png_set_read_fn
45:   FUNC GLOBAL DEFAULT UND png_set_read_user_transfo
46:   FUNC GLOBAL DEFAULT UND png_set_strip_16
47:   FUNC GLOBAL DEFAULT UND png_set_tRNS_to_alpha
48:   FUNC GLOBAL DEFAULT UND setjmp@LIBC (2)
49:   FUNC GLOBAL DEFAULT UND strcpy@LIBC (2)
50:   FUNC GLOBAL DEFAULT UND memcpy@LIBC (2)
51:   FUNC GLOBAL DEFAULT UND memmove@LIBC (2)
52:   FUNC GLOBAL DEFAULT UND memset@LIBC (2)
53:   FUNC GLOBAL DEFAULT 14 FT_Get_Glyph_Name
54:   FUNC GLOBAL DEFAULT 14 __aeabi_uidivmod
55:   FUNC GLOBAL DEFAULT 14 ft_validator_error
56:   OBJECT GLOBAL DEFAULT 18 af_buhd_script_class
57:   OBJECT GLOBAL DEFAULT 13 af_latn_subs_style_class
58:   FUNC GLOBAL DEFAULT 14 FT_Get_Charmap_Index
59:   FUNC GLOBAL DEFAULT 14 FT_Vector_Transform_Scale
60:   OBJECT GLOBAL DEFAULT 18 t1cid_driver_class
61:   FUNC GLOBAL DEFAULT 14 FT_Stroker_ParseOutline
62:   OBJECT GLOBAL DEFAULT 18 ps_builder_funcs
63:   OBJECT GLOBAL DEFAULT 18 af_latin_writing_system_c
64:   FUNC GLOBAL DEFAULT 14 FT_Stream_Seek
65:   OBJECT GLOBAL DEFAULT 18 cff_driver_class
66:   FUNC GLOBAL DEFAULT 14 __aeabi_memmove4
67:   OBJECT GLOBAL DEFAULT 13 af_cans_uniranges
68:   FUNC GLOBAL DEFAULT 14 FT_Reference_Library
69:   FUNC GLOBAL DEFAULT 14 FT_Vector_NormLen
70:   OBJECT GLOBAL DEFAULT 18 t1_cmap_expert_class_rec
71:   FUNC GLOBAL DEFAULT 14 __aeabi_memset
72:   OBJECT GLOBAL DEFAULT 13 af_cakm_nonbase_uniranges
73:   OBJECT GLOBAL DEFAULT 13 af_latp_dflt_style_class
74:   FUNC GLOBAL DEFAULT 14 FT_Outline_Check
75:   OBJECT GLOBAL DEFAULT 18 af_gujr_script_class
76:   OBJECT GLOBAL DEFAULT 18 af_khms_script_class
77:   OBJECT GLOBAL DEFAULT 18 af_lisu_script_class
78:   OBJECT GLOBAL DEFAULT 18 af_script_classes
79:   FUNC GLOBAL DEFAULT 14 FT_Request_Size
80:   OBJECT GLOBAL DEFAULT 18 af_nkoo_script_class
81:   FUNC GLOBAL DEFAULT 14 FT_GlyphLoader_Prepare
82:   OBJECT GLOBAL DEFAULT 18 tt_cmap6_class_rec
83:   FUNC GLOBAL DEFAULT 14 __aeabi_memmove8
84:   OBJECT GLOBAL DEFAULT 13 af_limb_dflt_style_class
85:   OBJECT GLOBAL DEFAULT 13 af_sylo_nonbase_uniranges
86:   FUNC GLOBAL DEFAULT 14 FT_Set_Renderer
87:   FUNC GLOBAL DEFAULT 14 FT_Stream_GetULong
88:   FUNC GLOBAL DEFAULT 14 ft_glyphslot_free_bitmap
89:   OBJECT GLOBAL DEFAULT 13 af_cprt_uniranges
90:   OBJECT GLOBAL DEFAULT 13 af_dsrt_nonbase_uniranges
91:   OBJECT GLOBAL DEFAULT 13 af_guru_nonbase_uniranges
92:   OBJECT GLOBAL DEFAULT 13 af_guru_uniranges
93:   OBJECT GLOBAL DEFAULT 18 afm_parser_funcs
94:   OBJECT GLOBAL DEFAULT 13 af_bamu_uniranges
95:   FUNC GLOBAL DEFAULT 14 FT_Raccess_Get_DataOffset
96:   OBJECT GLOBAL DEFAULT 18 cff_cmap_unicode_class_re
97:   FUNC GLOBAL DEFAULT 14 __aeabi_memcpy
98:   FUNC GLOBAL DEFAULT 14 FT_Get_CMap_Language_ID
99:   OBJECT GLOBAL DEFAULT 13 af_saur_uniranges
100:   FUNC GLOBAL DEFAULT 14 ft_mem_alloc
101:   FUNC GLOBAL DEFAULT 14 FT_Bitmap_Convert
102:   OBJECT GLOBAL DEFAULT 13 af_thai_dflt_style_class
103:   FUNC GLOBAL DEFAULT 14 __divmodsi4
104:   FUNC GLOBAL DEFAULT 14 FT_Outline_New_Internal
105:   FUNC GLOBAL DEFAULT 14 FT_Stream_GetULongLE
106:   FUNC GLOBAL DEFAULT 14 ft_mem_qrealloc
107:   OBJECT GLOBAL DEFAULT 13 af_copt_nonbase_uniranges
108:   OBJECT GLOBAL DEFAULT 13 af_limb_uniranges
109:   OBJECT GLOBAL DEFAULT 13 af_tfng_dflt_style_class
110:   OBJECT GLOBAL DEFAULT 13 af_cyrl_dflt_style_class
111:   OBJECT GLOBAL DEFAULT 13 af_tibt_nonbase_uniranges
112:   OBJECT GLOBAL DEFAULT 13 af_tibt_uniranges
113:   FUNC GLOBAL DEFAULT 14 FT_Stream_Read
114:   OBJECT GLOBAL DEFAULT 13 af_grek_uniranges
115:   OBJECT GLOBAL DEFAULT 18 af_olck_script_class
116:   FUNC GLOBAL DEFAULT 14 FT_RoundFix
117:   FUNC GLOBAL DEFAULT 14 FT_Stream_ReadAt
118:   FUNC GLOBAL DEFAULT 14 FT_GlyphSlot_Own_Bitmap
119:   OBJECT GLOBAL DEFAULT 18 af_arab_script_class
120:   FUNC GLOBAL DEFAULT 14 FT_Get_Sfnt_LangTag
121:   FUNC GLOBAL DEFAULT 14 FT_New_Memory_Face
122:   FUNC GLOBAL DEFAULT 14 FT_Stream_Pos
123:   FUNC GLOBAL DEFAULT 14 FT_Glyph_Get_CBox
124:   OBJECT GLOBAL DEFAULT 18 tt_cmap4_class_rec
125:   OBJECT GLOBAL DEFAULT 13 af_hebr_uniranges
126:   OBJECT GLOBAL DEFAULT 13 af_khms_uniranges
127:   FUNC GLOBAL DEFAULT 14 FT_Get_SubGlyph_Info
128:   FUNC GLOBAL DEFAULT 14 FT_Get_X11_Font_Format
129:   FUNC GLOBAL DEFAULT 14 FT_Stream_ReadChar
130:   OBJECT GLOBAL DEFAULT 18 ft_outline_glyph_class
131:   OBJECT GLOBAL DEFAULT 18 af_cyrl_script_class
132:   FUNC GLOBAL DEFAULT 14 FT_MulDiv_No_Round
133:   FUNC GLOBAL DEFAULT 14 FT_Set_Transform
134:   FUNC GLOBAL DEFAULT 14 FT_Stream_ReadULongLE
135:   FUNC GLOBAL DEFAULT 14 ft_corner_orientation
136:   FUNC GLOBAL DEFAULT 14 FT_Add_Default_Modules
137:   FUNC GLOBAL DEFAULT 14 FT_Get_Var_Axis_Flags
138:   FUNC GLOBAL DEFAULT 14 FT_Outline_EmboldenXY
139:   OBJECT GLOBAL DEFAULT 13 af_cyrl_c2sc_style_class
140:   OBJECT GLOBAL DEFAULT 13 af_geor_uniranges
141:   OBJECT GLOBAL DEFAULT 13 af_hebr_nonbase_uniranges
142:   OBJECT GLOBAL DEFAULT 18 af_tavt_script_class
143:   OBJECT GLOBAL DEFAULT 13 af_arab_dflt_style_class
144:   OBJECT GLOBAL DEFAULT 13 af_armn_uniranges
145:   OBJECT GLOBAL DEFAULT 13 af_buhd_nonbase_uniranges
146:   OBJECT GLOBAL DEFAULT 18 af_kali_script_class
147:   OBJECT GLOBAL DEFAULT 13 af_orya_nonbase_uniranges
148:   FUNC GLOBAL DEFAULT 14 __aeabi_memclr
149:   FUNC GLOBAL DEFAULT 14 FT_Set_Default_Properties
150:   OBJECT GLOBAL DEFAULT 13 af_geor_dflt_style_class
151:   OBJECT GLOBAL DEFAULT 13 af_orkh_uniranges
152:   OBJECT GLOBAL DEFAULT 13 af_none_nonbase_uniranges
153:   FUNC GLOBAL DEFAULT 14 FT_Outline_Get_Bitmap
154:   OBJECT GLOBAL DEFAULT 13 af_olck_dflt_style_class
155:   FUNC GLOBAL DEFAULT 14 af_shaper_get_coverage
156:   FUNC GLOBAL DEFAULT 14 FT_Get_Advances
157:   FUNC GLOBAL DEFAULT 14 FT_Library_SetLcdGeometry
158:   FUNC GLOBAL DEFAULT 14 FT_Remove_Module
159:   FUNC GLOBAL DEFAULT 14 FT_Vector_Rotate
160:   FUNC GLOBAL DEFAULT 14 FT_Trace_Disable
161:   FUNC GLOBAL DEFAULT 14 FT_Trace_Enable
162:   FUNC GLOBAL DEFAULT 14 FT_Get_Gasp
163:   FUNC GLOBAL DEFAULT 14 FT_DivFix
164:   OBJECT GLOBAL DEFAULT 18 af_beng_script_class
165:   FUNC GLOBAL DEFAULT 14 FT_Cos
166:   FUNC GLOBAL DEFAULT 14 FT_Get_Multi_Master
167:   OBJECT GLOBAL DEFAULT 13 af_adlm_uniranges
168:   OBJECT GLOBAL DEFAULT 18 af_saur_script_class
169:   FUNC GLOBAL DEFAULT 14 FT_Face_GetVariantsOfChar
170:   FUNC GLOBAL DEFAULT 14 FT_Glyph_Copy
171:   OBJECT GLOBAL DEFAULT 13 af_grek_dflt_style_class
172:   OBJECT GLOBAL DEFAULT 18 af_taml_script_class
173:   OBJECT GLOBAL DEFAULT 13 af_vaii_dflt_style_class
174:   FUNC GLOBAL DEFAULT 14 FT_Library_SetLcdFilterWe
175:   OBJECT GLOBAL DEFAULT 18 tt_cmap2_class_rec
176:   FUNC GLOBAL DEFAULT 14 FT_Outline_Translate
177:   FUNC GLOBAL DEFAULT 14 FT_Stream_Skip
178:   OBJECT GLOBAL DEFAULT 18 sfnt_module_class
179:   OBJECT GLOBAL DEFAULT 18 cff_cmap_encoding_class_r
180:   OBJECT GLOBAL DEFAULT 18 af_deva_script_class
181:   OBJECT GLOBAL DEFAULT 18 af_sund_script_class
182:   FUNC GLOBAL DEFAULT 14 FT_Bitmap_Done
183:   OBJECT GLOBAL DEFAULT 13 af_beng_nonbase_uniranges
184:   OBJECT GLOBAL DEFAULT 13 af_goth_uniranges
185:   OBJECT GLOBAL DEFAULT 13 af_hani_nonbase_uniranges
186:   OBJECT GLOBAL DEFAULT 13 af_latb_uniranges
187:   FUNC GLOBAL DEFAULT 14 FT_Get_Postscript_Name
188:   OBJECT GLOBAL DEFAULT 18 ps_table_funcs
189:   OBJECT GLOBAL DEFAULT 18 tt_cmap13_class_rec
190:   FUNC GLOBAL DEFAULT 14 ps_hints_apply
191:   OBJECT GLOBAL DEFAULT 13 af_grek_c2sc_style_class
192:   OBJECT GLOBAL DEFAULT 13 af_sinh_dflt_style_class
193:   FUNC GLOBAL DEFAULT 14 FT_Load_Sfnt_Table
194:   FUNC GLOBAL DEFAULT 14 FT_Sin
195:   FUNC GLOBAL DEFAULT 14 TT_New_Context
196:   FUNC GLOBAL DEFAULT 14 __aeabi_idiv
197:   OBJECT GLOBAL DEFAULT 13 af_sund_uniranges
198:   OBJECT GLOBAL DEFAULT 18 t1_builder_funcs
199:   OBJECT GLOBAL DEFAULT 13 af_hani_dflt_style_class
200:   OBJECT GLOBAL DEFAULT 13 af_tibt_dflt_style_class
201:   FUNC GLOBAL DEFAULT 14 FT_Stroker_New
202:   OBJECT GLOBAL DEFAULT 13 af_cyrl_sinf_style_class
203:   FUNC GLOBAL DEFAULT 14 FT_Stream_TryRead
204:   FUNC GLOBAL DEFAULT 14 FT_Trace_Get_Name
205:   OBJECT GLOBAL DEFAULT 18 ft_grays_raster
206:   OBJECT GLOBAL DEFAULT 13 af_arab_uniranges
207:   OBJECT GLOBAL DEFAULT 13 af_osge_dflt_style_class
208:   FUNC GLOBAL DEFAULT 14 FT_Get_TrueType_Engine_Ty
209:   OBJECT GLOBAL DEFAULT 13 af_cprt_nonbase_uniranges
210:   OBJECT GLOBAL DEFAULT 13 af_goth_dflt_style_class
211:   OBJECT GLOBAL DEFAULT 13 af_lao_dflt_style_class
212:   OBJECT GLOBAL DEFAULT 18 af_mlym_script_class
213:   FUNC GLOBAL DEFAULT 14 FT_Outline_New
214:   OBJECT GLOBAL DEFAULT 18 pshinter_module_class
215:   OBJECT GLOBAL DEFAULT 13 af_cakm_dflt_style_class
216:   OBJECT GLOBAL DEFAULT 18 af_indic_writing_system_c
217:   OBJECT GLOBAL DEFAULT 13 af_nkoo_dflt_style_class
218:   OBJECT GLOBAL DEFAULT 18 af_osma_script_class
219:   FUNC GLOBAL DEFAULT 14 FT_List_Add
220:   FUNC GLOBAL DEFAULT 14 __aeabi_uidiv
221:   FUNC GLOBAL DEFAULT 14 FT_Bitmap_New
222:   OBJECT GLOBAL DEFAULT 18 tt_cmap0_class_rec
223:   FUNC GLOBAL DEFAULT 14 FT_Done_GlyphSlot
224:   FUNC GLOBAL DEFAULT 14 FT_Palette_Select
225:   FUNC GLOBAL DEFAULT 14 FT_Glyph_Transform
226:   FUNC GLOBAL DEFAULT 14 FT_MulDiv
227:   OBJECT GLOBAL DEFAULT 13 af_copt_uniranges
228:   OBJECT GLOBAL DEFAULT 13 af_shaw_dflt_style_class
229:   OBJECT GLOBAL DEFAULT 18 ft_smooth_renderer_class
230:   FUNC GLOBAL DEFAULT 14 FT_Stroker_ExportBorder
231:   FUNC GLOBAL DEFAULT 14 FT_Stroker_Set
232:   OBJECT GLOBAL DEFAULT 13 af_ethi_uniranges
233:   OBJECT GLOBAL DEFAULT 13 af_latn_c2cp_style_class
234:   FUNC GLOBAL DEFAULT 14 FT_New_Size
235:   FUNC GLOBAL DEFAULT 14 FT_Open_Face
236:   FUNC GLOBAL DEFAULT 14 ft_lcd_padding
237:   OBJECT GLOBAL DEFAULT 18 psaux_module_class
238:   FUNC GLOBAL DEFAULT 14 FT_Select_Charmap
239:   FUNC GLOBAL DEFAULT 14 FT_Raccess_Get_HeaderInfo
240:   OBJECT GLOBAL DEFAULT 18 af_goth_script_class
241:   OBJECT GLOBAL DEFAULT 18 af_lao_script_class
242:   OBJECT GLOBAL DEFAULT 18 af_tibt_script_class
243:   FUNC GLOBAL DEFAULT 14 FT_Matrix_Multiply_Scaled
244:   FUNC GLOBAL DEFAULT 14 FT_Set_Pixel_Sizes
245:   FUNC GLOBAL DEFAULT 14 FT_Vector_Unit
246:   OBJECT GLOBAL DEFAULT 18 af_guru_script_class
247:   OBJECT GLOBAL DEFAULT 18 af_sinh_script_class
248:   FUNC GLOBAL DEFAULT 14 FT_Done_Face
249:   FUNC GLOBAL DEFAULT 14 FT_Get_MM_Blend_Coordinat
250:   FUNC GLOBAL DEFAULT 14 __divsi3
251:   OBJECT GLOBAL DEFAULT 13 af_nkoo_uniranges
252:   OBJECT GLOBAL DEFAULT 13 af_bamu_nonbase_uniranges
253:   OBJECT GLOBAL DEFAULT 18 af_hani_script_class
254:   OBJECT GLOBAL DEFAULT 13 af_lisu_dflt_style_class
255:   FUNC GLOBAL DEFAULT 14 FT_New_Memory
256:   OBJECT GLOBAL DEFAULT 13 af_cyrl_subs_style_class
257:   OBJECT GLOBAL DEFAULT 18 af_dsrt_script_class
258:   OBJECT GLOBAL DEFAULT 13 af_geok_dflt_style_class
259:   OBJECT GLOBAL DEFAULT 13 af_mlym_dflt_style_class
260:   OBJECT GLOBAL DEFAULT 18 af_telu_script_class
261:   FUNC GLOBAL DEFAULT 14 FT_Outline_Copy
262:   FUNC GLOBAL DEFAULT 14 FT_Stream_ReadFields
263:   FUNC GLOBAL DEFAULT 14 FT_New_Glyph
264:   FUNC GLOBAL DEFAULT 14 __aeabi_memcpy4
265:   OBJECT GLOBAL DEFAULT 13 af_blue_strings
266:   OBJECT GLOBAL DEFAULT 18 af_cakm_script_class
267:   OBJECT GLOBAL DEFAULT 13 af_sinh_uniranges
268:   FUNC GLOBAL DEFAULT 14 ft_synthesize_vertical_me
269:   OBJECT GLOBAL DEFAULT 13 af_latb_dflt_style_class
270:   OBJECT GLOBAL DEFAULT 13 af_vaii_uniranges
271:   OBJECT GLOBAL DEFAULT 13 af_latn_sups_style_class
272:   OBJECT GLOBAL DEFAULT 13 af_none_uniranges
273:   OBJECT GLOBAL DEFAULT 13 af_taml_nonbase_uniranges
274:   FUNC GLOBAL DEFAULT 14 FT_Set_Var_Blend_Coordina
275:   FUNC GLOBAL DEFAULT 14 FT_Stroker_CubicTo
276:   OBJECT GLOBAL DEFAULT 18 ps_parser_funcs
277:   OBJECT GLOBAL DEFAULT 13 af_dsrt_uniranges
278:   OBJECT GLOBAL DEFAULT 13 af_knda_nonbase_uniranges
279:   FUNC GLOBAL DEFAULT 14 FT_CMap_Done
280:   FUNC GLOBAL DEFAULT 14 FT_Get_Sfnt_Table
281:   FUNC GLOBAL DEFAULT 14 FT_Get_Track_Kerning
282:   FUNC GLOBAL DEFAULT 14 FT_Glyph_StrokeBorder
283:   FUNC GLOBAL DEFAULT 14 __aeabi_memcpy8
284:   OBJECT GLOBAL DEFAULT 13 af_grek_sinf_style_class
285:   OBJECT GLOBAL DEFAULT 13 af_buhd_dflt_style_class
286:   FUNC GLOBAL DEFAULT 14 FT_Get_Name_Index
287:   OBJECT GLOBAL DEFAULT 18 psnames_module_class
288:   OBJECT GLOBAL DEFAULT 18 t1_cmap_standard_class_re
289:   OBJECT GLOBAL DEFAULT 13 af_beng_dflt_style_class
290:   FUNC GLOBAL DEFAULT 14 FT_GlyphLoader_Done
291:   FUNC GLOBAL DEFAULT 14 FT_Select_Metrics
292:   OBJECT GLOBAL DEFAULT 13 af_hani_uniranges
293:   FUNC GLOBAL DEFAULT 14 ft_service_list_lookup
294:   FUNC GLOBAL DEFAULT 14 FT_Get_Font_Format
295:   FUNC GLOBAL DEFAULT 14 FT_Stream_GetUShort
296:   OBJECT GLOBAL DEFAULT 18 cff_decoder_funcs
297:   OBJECT GLOBAL DEFAULT 13 af_avst_nonbase_uniranges
298:   OBJECT GLOBAL DEFAULT 13 af_gujr_nonbase_uniranges
299:   OBJECT GLOBAL DEFAULT 13 af_none_dflt_style_class
300:   FUNC GLOBAL DEFAULT 14 FT_Stream_Open
301:   FUNC GLOBAL DEFAULT 14 FT_Init_FreeType
302:   OBJECT GLOBAL DEFAULT 18 ft_raster1_renderer_class
303:   FUNC GLOBAL DEFAULT 14 FT_Get_PS_Font_Private
304:   OBJECT GLOBAL DEFAULT 18 t1_cmap_unicode_class_rec
305:   FUNC GLOBAL DEFAULT 14 FT_Attach_File
306:   FUNC GLOBAL DEFAULT 14 FT_Done_Library
307:   FUNC GLOBAL DEFAULT 14 FT_Palette_Set_Foreground
308:   FUNC GLOBAL DEFAULT 14 ft_glyphslot_set_bitmap
309:   FUNC GLOBAL DEFAULT 14 FT_Get_PS_Font_Value
310:   FUNC GLOBAL DEFAULT 14 __udivsi3
311:   OBJECT GLOBAL DEFAULT 13 af_buhd_uniranges
312:   OBJECT GLOBAL DEFAULT 13 af_grek_subs_style_class
313:   OBJECT GLOBAL DEFAULT 13 af_shaw_uniranges
314:   OBJECT GLOBAL DEFAULT 13 af_sylo_dflt_style_class
315:   FUNC GLOBAL DEFAULT 14 FT_Outline_Done_Internal
316:   FUNC GLOBAL DEFAULT 14 FT_Property_Set
317:   FUNC GLOBAL DEFAULT 14 ps_property_set
318:   FUNC GLOBAL DEFAULT 14 FT_Set_MM_Design_Coordina
319:   OBJECT GLOBAL DEFAULT 13 af_cakm_uniranges
320:   OBJECT GLOBAL DEFAULT 18 af_cprt_script_class
321:   OBJECT GLOBAL DEFAULT 13 af_latn_smcp_style_class
322:   FUNC GLOBAL DEFAULT 14 FT_GlyphLoader_CreateExtr
323:   FUNC GLOBAL DEFAULT 14 ft_glyphslot_preset_bitma
324:   FUNC GLOBAL DEFAULT 14 ft_module_get_service
325:   OBJECT GLOBAL DEFAULT 18 af_bamu_script_class
326:   OBJECT GLOBAL DEFAULT 13 af_gujr_uniranges
327:   FUNC GLOBAL DEFAULT 14 FT_Render_Glyph
328:   FUNC GLOBAL DEFAULT 14 FT_Stream_EnterFrame
329:   OBJECT GLOBAL DEFAULT 13 af_armn_nonbase_uniranges
330:   OBJECT GLOBAL DEFAULT 13 af_deva_uniranges
331:   OBJECT GLOBAL DEFAULT 18 af_thai_script_class
332:   FUNC GLOBAL DEFAULT 14 FT_Get_First_Char
333:   OBJECT GLOBAL DEFAULT 18 ft_smooth_lcd_renderer_cl
334:   OBJECT GLOBAL DEFAULT 13 af_cyrl_uniranges
335:   OBJECT GLOBAL DEFAULT 13 af_shaw_nonbase_uniranges
336:   OBJECT GLOBAL DEFAULT 18 af_cher_script_class
337:   OBJECT GLOBAL DEFAULT 18 af_dummy_writing_system_c
338:   OBJECT GLOBAL DEFAULT 13 af_telu_uniranges
339:   FUNC GLOBAL DEFAULT 14 ft_debug_init
340:   OBJECT GLOBAL DEFAULT 18 af_copt_script_class
341:   FUNC GLOBAL DEFAULT 14 FT_Palette_Data_Get
342:   OBJECT GLOBAL DEFAULT 18 af_khmr_script_class
343:   OBJECT GLOBAL DEFAULT 13 af_telu_nonbase_uniranges
344:   OBJECT GLOBAL DEFAULT 13 af_cher_nonbase_uniranges
345:   OBJECT GLOBAL DEFAULT 13 af_mlym_nonbase_uniranges
346:   OBJECT GLOBAL DEFAULT 13 af_orkh_nonbase_uniranges
347:   OBJECT GLOBAL DEFAULT 18 af_orkh_script_class
348:   FUNC GLOBAL DEFAULT 14 FT_New_GlyphSlot
349:   FUNC GLOBAL DEFAULT 14 FT_Set_MM_Blend_Coordinat
350:   FUNC GLOBAL DEFAULT 14 FT_Get_Char_Index
351:   OBJECT GLOBAL DEFAULT 13 af_tavt_dflt_style_class
352:   FUNC GLOBAL DEFAULT 14 ft_hash_str_insert
353:   FUNC GLOBAL DEFAULT 14 FT_Load_Glyph
354:   OBJECT GLOBAL DEFAULT 13 af_cans_nonbase_uniranges
355:   FUNC GLOBAL DEFAULT 14 FT_CMap_New
356:   FUNC GLOBAL DEFAULT 14 FT_Matrix_Invert
357:   OBJECT GLOBAL DEFAULT 13 af_arab_nonbase_uniranges
358:   FUNC GLOBAL DEFAULT 14 FT_Atan2
359:   FUNC GLOBAL DEFAULT 14 FT_Outline_Reverse
360:   OBJECT GLOBAL DEFAULT 18 af_armn_script_class
361:   OBJECT GLOBAL DEFAULT 18 af_autofitter_interface
362:   OBJECT GLOBAL DEFAULT 13 af_glag_nonbase_uniranges
363:   OBJECT GLOBAL DEFAULT 13 af_latn_titl_style_class
364:   FUNC GLOBAL DEFAULT 14 FT_Get_Sfnt_Name
365:   FUNC GLOBAL DEFAULT 14 FT_Set_Char_Size
366:   FUNC GLOBAL DEFAULT 14 FT_Stream_ExitFrame
367:   FUNC GLOBAL DEFAULT 14 ft_validator_init
368:   OBJECT GLOBAL DEFAULT 18 af_cjk_writing_system_cla
369:   OBJECT GLOBAL DEFAULT 13 af_latn_nonbase_uniranges
370:   OBJECT GLOBAL DEFAULT 13 af_latp_nonbase_uniranges
371:   FUNC GLOBAL DEFAULT 14 FT_Render_Glyph_Internal
372:   FUNC GLOBAL DEFAULT 14 FT_Sfnt_Table_Info
373:   FUNC GLOBAL DEFAULT 14 FT_Get_MM_Var
374:   OBJECT GLOBAL DEFAULT 13 af_gujr_dflt_style_class
375:   OBJECT GLOBAL DEFAULT 18 af_latb_script_class
376:   OBJECT GLOBAL DEFAULT 13 af_thai_uniranges
377:   FUNC GLOBAL DEFAULT 14 FT_Bitmap_Embolden
378:   OBJECT GLOBAL DEFAULT 18 ft_smooth_lcdv_renderer_c
379:   OBJECT GLOBAL DEFAULT 13 ft_sid_names
380:   OBJECT GLOBAL DEFAULT 13 af_cari_uniranges
381:   FUNC GLOBAL DEFAULT 14 FT_Get_Sfnt_Name_Count
382:   FUNC GLOBAL DEFAULT 14 FT_List_Remove
383:   FUNC GLOBAL DEFAULT 14 ft_hash_num_insert
384:   OBJECT GLOBAL DEFAULT 13 af_kali_nonbase_uniranges
385:   FUNC GLOBAL DEFAULT 14 FT_List_Insert
386:   FUNC GLOBAL DEFAULT 14 FT_List_Up
387:   FUNC GLOBAL DEFAULT 14 FT_Stream_New
388:   FUNC GLOBAL DEFAULT 14 FT_Glyph_Stroke
389:   OBJECT GLOBAL DEFAULT 18 t1_cmap_classes
390:   OBJECT GLOBAL DEFAULT 13 af_avst_uniranges
391:   OBJECT GLOBAL DEFAULT 18 af_osge_script_class
392:   OBJECT GLOBAL DEFAULT 13 af_taml_dflt_style_class
393:   FUNC GLOBAL DEFAULT 14 ft_hash_str_free
394:   OBJECT GLOBAL DEFAULT 13 af_latn_pcap_style_class
395:   FUNC GLOBAL DEFAULT 14 FT_Set_Charmap
396:   OBJECT GLOBAL DEFAULT 13 af_armn_dflt_style_class
397:   OBJECT GLOBAL DEFAULT 18 af_geok_script_class
398:   FUNC GLOBAL DEFAULT 14 ft_hash_str_lookup
399:   OBJECT GLOBAL DEFAULT 18 ft_bitmap_glyph_class
400:   OBJECT GLOBAL DEFAULT 13 af_latn_ordn_style_class
401:   FUNC GLOBAL DEFAULT 14 FT_Reference_Face
402:   FUNC GLOBAL DEFAULT 14 FT_Get_Glyph
403:   FUNC GLOBAL DEFAULT 14 FT_Done_Memory
404:   OBJECT GLOBAL DEFAULT 13 af_dsrt_dflt_style_class
405:   OBJECT GLOBAL DEFAULT 13 af_latb_nonbase_uniranges
406:   OBJECT GLOBAL DEFAULT 13 af_deva_nonbase_uniranges
407:   OBJECT GLOBAL DEFAULT 18 af_ethi_script_class
408:   OBJECT GLOBAL DEFAULT 13 af_lisu_uniranges
409:   OBJECT GLOBAL DEFAULT 18 autofit_module_class
410:   FUNC GLOBAL DEFAULT 14 FT_Select_Size
411:   FUNC GLOBAL DEFAULT 14 FT_Vector_From_Polar
412:   FUNC GLOBAL DEFAULT 14 __udivmodsi4
413:   OBJECT GLOBAL DEFAULT 13 af_avst_dflt_style_class
414:   OBJECT GLOBAL DEFAULT 13 af_cprt_dflt_style_class
415:   OBJECT GLOBAL DEFAULT 13 af_deva_dflt_style_class
416:   FUNC GLOBAL DEFAULT 14 FT_GlyphLoader_CheckPoint
417:   OBJECT GLOBAL DEFAULT 18 tt_driver_class
418:   OBJECT GLOBAL DEFAULT 18 af_limb_script_class
419:   FUNC GLOBAL DEFAULT 14 FT_Library_SetLcdFilter
420:   FUNC GLOBAL DEFAULT 14 FT_Outline_Get_Orientatio
421:   OBJECT GLOBAL DEFAULT 13 af_cyrl_c2cp_style_class
422:   OBJECT GLOBAL DEFAULT 13 af_lisu_nonbase_uniranges
423:   FUNC GLOBAL DEFAULT 14 FT_Face_GetVariantSelecto
424:   FUNC GLOBAL DEFAULT 14 FT_Stroker_GetCounts
425:   FUNC GLOBAL DEFAULT 14 ft_hash_num_lookup
426:   FUNC GLOBAL DEFAULT 14 af_shaper_buf_destroy
427:   FUNC GLOBAL DEFAULT 14 FT_Face_GetCharVariantInd
428:   FUNC GLOBAL DEFAULT 14 FT_FloorFix
429:   FUNC GLOBAL DEFAULT 14 FT_Stream_ReadUShort
430:   FUNC GLOBAL DEFAULT 14 ft_glyphslot_alloc_bitmap
431:   FUNC GLOBAL DEFAULT 14 FT_Get_FSType_Flags
432:   OBJECT GLOBAL DEFAULT 18 af_avst_script_class
433:   OBJECT GLOBAL DEFAULT 13 af_ethi_dflt_style_class
434:   OBJECT GLOBAL DEFAULT 13 af_ethi_nonbase_uniranges
435:   OBJECT GLOBAL DEFAULT 18 af_grek_script_class
436:   OBJECT GLOBAL DEFAULT 13 af_kali_uniranges
437:   FUNC GLOBAL DEFAULT 14 FT_Get_Var_Blend_Coordina
438:   FUNC GLOBAL DEFAULT 14 FT_Stroker_Export
439:   FUNC GLOBAL DEFAULT 14 FT_New_Library
440:   OBJECT GLOBAL DEFAULT 18 t1_driver_class
441:   OBJECT GLOBAL DEFAULT 13 af_knda_dflt_style_class
442:   OBJECT GLOBAL DEFAULT 13 af_geor_nonbase_uniranges
443:   OBJECT GLOBAL DEFAULT 13 af_lao_uniranges
444:   OBJECT GLOBAL DEFAULT 13 ft_mac_names
445:   OBJECT GLOBAL DEFAULT 13 af_osge_nonbase_uniranges
446:   OBJECT GLOBAL DEFAULT 13 af_saur_nonbase_uniranges
447:   FUNC GLOBAL DEFAULT 14 af_shaper_get_elem
448:   OBJECT GLOBAL DEFAULT 13 af_taml_uniranges
449:   FUNC GLOBAL DEFAULT 14 FT_GlyphLoader_Reset
450:   FUNC GLOBAL DEFAULT 14 FT_Match_Size
451:   FUNC GLOBAL DEFAULT 14 FT_New_Face
452:   FUNC GLOBAL DEFAULT 14 ft_hash_str_init
453:   OBJECT GLOBAL DEFAULT 18 t1_decoder_funcs
454:   OBJECT GLOBAL DEFAULT 18 ft_standard_raster
455:   OBJECT GLOBAL DEFAULT 13 af_cher_uniranges
456:   OBJECT GLOBAL DEFAULT 13 af_cyrl_sups_style_class
457:   OBJECT GLOBAL DEFAULT 13 af_khmr_dflt_style_class
458:   FUNC GLOBAL DEFAULT 14 ft_mem_realloc
459:   OBJECT GLOBAL DEFAULT 13 t1_standard_encoding
460:   FUNC GLOBAL DEFAULT 14 FT_Angle_Diff
461:   FUNC GLOBAL DEFAULT 14 FT_GlyphLoader_Rewind
462:   OBJECT GLOBAL DEFAULT 18 tt_cmap14_class_rec
463:   OBJECT GLOBAL DEFAULT 13 af_osma_nonbase_uniranges
464:   OBJECT GLOBAL DEFAULT 13 af_khmr_uniranges
465:   OBJECT GLOBAL DEFAULT 13 af_knda_uniranges
466:   OBJECT GLOBAL DEFAULT 18 af_latn_script_class
467:   OBJECT GLOBAL DEFAULT 13 af_latp_uniranges
468:   OBJECT GLOBAL DEFAULT 13 af_sylo_uniranges
469:   OBJECT GLOBAL DEFAULT 13 af_tfng_nonbase_uniranges
470:   OBJECT GLOBAL DEFAULT 18 af_writing_system_classes
471:   FUNC GLOBAL DEFAULT 14 FT_Stream_ReadUShortLE
472:   OBJECT GLOBAL DEFAULT 13 af_adlm_nonbase_uniranges
473:   OBJECT GLOBAL DEFAULT 13 af_geok_nonbase_uniranges
474:   OBJECT GLOBAL DEFAULT 13 af_grek_c2cp_style_class
475:   FUNC GLOBAL DEFAULT 14 FT_Add_Module
476:   FUNC GLOBAL DEFAULT 14 FT_Set_Named_Instance
477:   FUNC GLOBAL DEFAULT 14 FT_Get_Renderer
478:   FUNC GLOBAL DEFAULT 14 FT_Tan
479:   FUNC GLOBAL DEFAULT 14 FT_Bitmap_Blend
480:   OBJECT GLOBAL DEFAULT 13 af_limb_nonbase_uniranges
481:   OBJECT GLOBAL DEFAULT 18 af_style_classes
482:   FUNC GLOBAL DEFAULT 14 FT_Activate_Size
483:   FUNC GLOBAL DEFAULT 14 FT_Outline_Get_CBox
484:   OBJECT GLOBAL DEFAULT 18 af_adlm_script_class
485:   OBJECT GLOBAL DEFAULT 13 af_lao_nonbase_uniranges
486:   OBJECT GLOBAL DEFAULT 13 af_osma_uniranges
487:   OBJECT GLOBAL DEFAULT 13 af_vaii_nonbase_uniranges
488:   FUNC GLOBAL DEFAULT 14 FT_Stream_ExtractFrame
489:   FUNC GLOBAL DEFAULT 14 FT_Outline_Get_BBox
490:   FUNC GLOBAL DEFAULT 14 FT_Has_PS_Glyph_Names
491:   FUNC GLOBAL DEFAULT 14 FT_MulFix
492:   FUNC GLOBAL DEFAULT 14 __aeabi_memmove
493:   FUNC GLOBAL DEFAULT 14 FT_Stroker_LineTo
494:   FUNC GLOBAL DEFAULT 14 FT_Stroker_Rewind
495:   FUNC GLOBAL DEFAULT 14 FT_Glyph_To_Bitmap
496:   FUNC GLOBAL DEFAULT 14 FT_Done_FreeType
497:   FUNC GLOBAL DEFAULT 14 FT_Stroker_Done
498:   OBJECT GLOBAL DEFAULT 13 af_cyrl_smcp_style_class
499:   OBJECT GLOBAL DEFAULT 13 af_hebr_dflt_style_class
500:   FUNC GLOBAL DEFAULT 14 FT_Stream_GetUShortLE
501:   OBJECT GLOBAL DEFAULT 13 af_cher_dflt_style_class
502:   OBJECT GLOBAL DEFAULT 13 af_cyrl_nonbase_uniranges
503:   OBJECT GLOBAL DEFAULT 13 ft_standard_glyph_names
504:   OBJECT GLOBAL DEFAULT 18 tt_cmap12_class_rec
505:   OBJECT GLOBAL DEFAULT 13 af_bamu_dflt_style_class
506:   OBJECT GLOBAL DEFAULT 18 af_shaw_script_class
507:   FUNC GLOBAL DEFAULT 14 FT_Stream_Close
508:   OBJECT GLOBAL DEFAULT 13 af_cari_dflt_style_class
509:   OBJECT GLOBAL DEFAULT 18 af_geor_script_class
510:   OBJECT GLOBAL DEFAULT 13 af_glag_dflt_style_class
511:   OBJECT GLOBAL DEFAULT 13 af_kali_dflt_style_class
512:   OBJECT GLOBAL DEFAULT 13 af_latn_uniranges
513:   OBJECT GLOBAL DEFAULT 13 af_osma_dflt_style_class
514:   FUNC GLOBAL DEFAULT 14 FT_Outline_Done
515:   FUNC GLOBAL DEFAULT 14 FT_Stream_OpenGzip
516:   OBJECT GLOBAL DEFAULT 18 af_cari_script_class
517:   OBJECT GLOBAL DEFAULT 13 af_copt_dflt_style_class
518:   OBJECT GLOBAL DEFAULT 13 af_saur_dflt_style_class
519:   FUNC GLOBAL DEFAULT 14 ft_mem_free
520:   FUNC GLOBAL DEFAULT 14 FT_Vector_Transform
521:   OBJECT GLOBAL DEFAULT 13 af_sund_dflt_style_class
522:   FUNC GLOBAL DEFAULT 14 FT_GlyphLoader_Add
523:   OBJECT GLOBAL DEFAULT 13 af_glag_uniranges
524:   OBJECT GLOBAL DEFAULT 13 af_grek_sups_style_class
525:   OBJECT GLOBAL DEFAULT 13 af_tfng_uniranges
526:   FUNC GLOBAL DEFAULT 14 FT_CeilFix
527:   FUNC GLOBAL DEFAULT 14 FT_List_Find
528:   FUNC GLOBAL DEFAULT 14 ft_mem_dup
529:   OBJECT GLOBAL DEFAULT 13 af_khms_dflt_style_class
530:   OBJECT GLOBAL DEFAULT 13 af_mymr_uniranges
531:   FUNC GLOBAL DEFAULT 14 FT_Attach_Stream
532:   FUNC GLOBAL DEFAULT 14 FT_Hypot
533:   FUNC GLOBAL DEFAULT 14 FT_Stroker_BeginSubPath
534:   FUNC GLOBAL DEFAULT 14 FT_Stroker_EndSubPath
535:   OBJECT GLOBAL DEFAULT 13 af_adlm_dflt_style_class
536:   OBJECT GLOBAL DEFAULT 13 af_khms_nonbase_uniranges
537:   OBJECT GLOBAL DEFAULT 13 af_orkh_dflt_style_class
538:   FUNC GLOBAL DEFAULT 14 __aeabi_idivmod
539:   FUNC GLOBAL DEFAULT 14 FT_Bitmap_Copy
540:   OBJECT GLOBAL DEFAULT 13 af_beng_uniranges
541:   OBJECT GLOBAL DEFAULT 13 af_grek_nonbase_uniranges
542:   OBJECT GLOBAL DEFAULT 13 af_sund_nonbase_uniranges
543:   OBJECT GLOBAL DEFAULT 18 af_vaii_script_class
544:   FUNC GLOBAL DEFAULT 14 FT_Raccess_Guess
545:   FUNC GLOBAL DEFAULT 14 FT_Request_Metrics
546:   OBJECT GLOBAL DEFAULT 13 af_khmr_nonbase_uniranges
547:   OBJECT GLOBAL DEFAULT 18 af_knda_script_class
548:   OBJECT GLOBAL DEFAULT 13 af_latn_dflt_style_class
549:   FUNC GLOBAL DEFAULT 14 FT_Outline_Embolden
550:   FUNC GLOBAL DEFAULT 14 FT_Outline_Render
551:   FUNC GLOBAL DEFAULT 14 FT_Stream_GetUOffset
552:   FUNC GLOBAL DEFAULT 14 FT_Stream_ReleaseFrame
553:   FUNC GLOBAL DEFAULT 14 __aeabi_memset4
554:   FUNC GLOBAL DEFAULT 14 FT_Face_Properties
555:   OBJECT GLOBAL DEFAULT 13 af_goth_nonbase_uniranges
556:   OBJECT GLOBAL DEFAULT 13 af_mlym_uniranges
557:   OBJECT GLOBAL DEFAULT 13 af_mymr_dflt_style_class
558:   OBJECT GLOBAL DEFAULT 13 af_olck_nonbase_uniranges
559:   FUNC GLOBAL DEFAULT 14 FT_Outline_Transform
560:   OBJECT GLOBAL DEFAULT 13 af_cyrl_titl_style_class
561:   OBJECT GLOBAL DEFAULT 13 af_tavt_nonbase_uniranges
562:   FUNC GLOBAL DEFAULT 14 FT_GlyphLoader_CopyPoints
563:   FUNC GLOBAL DEFAULT 14 FT_Stream_Free
564:   FUNC GLOBAL DEFAULT 14 FT_Trace_Get_Count
565:   FUNC GLOBAL DEFAULT 14 FT_Outline_GetOutsideBord
566:   FUNC GLOBAL DEFAULT 14 __aeabi_memset8
567:   OBJECT GLOBAL DEFAULT 13 af_latn_c2sc_style_class
568:   OBJECT GLOBAL DEFAULT 13 af_sinh_nonbase_uniranges
569:   FUNC GLOBAL DEFAULT 14 FT_Get_Color_Glyph_Layer
570:   OBJECT GLOBAL DEFAULT 18 af_none_script_class
571:   OBJECT GLOBAL DEFAULT 13 af_orya_uniranges
572:   FUNC GLOBAL DEFAULT 14 FT_Lookup_Renderer
573:   FUNC GLOBAL DEFAULT 14 FT_Matrix_Check
574:   FUNC GLOBAL DEFAULT 14 FT_Stream_ReadUOffset
575:   OBJECT GLOBAL DEFAULT 18 tt_cmap10_class_rec
576:   OBJECT GLOBAL DEFAULT 13 tt_default_graphics_state
577:   OBJECT GLOBAL DEFAULT 13 af_grek_smcp_style_class
578:   OBJECT GLOBAL DEFAULT 13 af_orya_dflt_style_class
579:   OBJECT GLOBAL DEFAULT 18 af_sylo_script_class
580:   OBJECT GLOBAL DEFAULT 13 af_thai_nonbase_uniranges
581:   FUNC GLOBAL DEFAULT 14 FT_GlyphLoader_CheckSubGl
582:   FUNC GLOBAL DEFAULT 14 FT_Done_MM_Var
583:   OBJECT GLOBAL DEFAULT 18 af_glag_script_class
584:   FUNC GLOBAL DEFAULT 14 FT_Get_Kerning
585:   FUNC GLOBAL DEFAULT 14 FT_Vector_Polarize
586:   FUNC GLOBAL DEFAULT 14 ft_validator_run
587:   FUNC GLOBAL DEFAULT 14 TT_RunIns
588:   OBJECT GLOBAL DEFAULT 13 af_guru_dflt_style_class
589:   OBJECT GLOBAL DEFAULT 18 af_latp_script_class
590:   FUNC GLOBAL DEFAULT 14 af_shaper_get_cluster
591:   FUNC GLOBAL DEFAULT 14 ft_corner_is_flat
592:   FUNC GLOBAL DEFAULT 14 ft_mem_qalloc
593:   OBJECT GLOBAL DEFAULT 13 af_cyrl_pcap_style_class
594:   FUNC GLOBAL DEFAULT 14 FT_GlyphLoader_New
595:   OBJECT GLOBAL DEFAULT 13 t1_expert_encoding
596:   FUNC GLOBAL DEFAULT 14 FT_Get_Next_Char
597:   OBJECT GLOBAL DEFAULT 18 af_orya_script_class
598:   OBJECT GLOBAL DEFAULT 13 af_tavt_uniranges
599:   FUNC GLOBAL DEFAULT 14 FT_Library_Version
600:   FUNC GLOBAL DEFAULT 14 FT_Property_Get
601:   FUNC GLOBAL DEFAULT 14 ps_property_get
602:   OBJECT GLOBAL DEFAULT 13 af_cyrl_ordn_style_class
603:   OBJECT GLOBAL DEFAULT 13 af_cari_nonbase_uniranges
604:   OBJECT GLOBAL DEFAULT 13 af_mymr_nonbase_uniranges
605:   OBJECT GLOBAL DEFAULT 13 af_osge_uniranges
606:   FUNC GLOBAL DEFAULT 14 FT_Set_Debug_Hook
607:   FUNC GLOBAL DEFAULT 14 FT_Face_GetCharsOfVariant
608:   FUNC GLOBAL DEFAULT 14 FT_Stream_OpenMemory
609:   FUNC GLOBAL DEFAULT 14 FT_Gzip_Uncompress
610:   OBJECT GLOBAL DEFAULT 13 af_grek_titl_style_class
611:   FUNC GLOBAL DEFAULT 14 ft_mem_strcpyn
612:   OBJECT GLOBAL DEFAULT 13 af_geok_uniranges
613:   OBJECT GLOBAL DEFAULT 18 af_hebr_script_class
614:   FUNC GLOBAL DEFAULT 14 af_shaper_buf_create
615:   FUNC GLOBAL DEFAULT 14 FT_Matrix_Multiply
616:   FUNC GLOBAL DEFAULT 14 FT_Stream_ReadULong
617:   FUNC GLOBAL DEFAULT 14 FT_Set_Var_Design_Coordin
618:   FUNC GLOBAL DEFAULT 14 FT_Stroker_GetBorderCount
619:   FUNC GLOBAL DEFAULT 14 FT_List_Finalize
620:   OBJECT GLOBAL DEFAULT 18 t1_cmap_custom_class_rec
621:   OBJECT GLOBAL DEFAULT 18 af_mymr_script_class
622:   FUNC GLOBAL DEFAULT 14 FT_Get_Var_Design_Coordin
623:   OBJECT GLOBAL DEFAULT 13 af_latn_sinf_style_class
624:   OBJECT GLOBAL DEFAULT 13 af_olck_uniranges
625:   FUNC GLOBAL DEFAULT 14 FT_Outline_GetInsideBorde
626:   OBJECT GLOBAL DEFAULT 13 af_blue_stringsets
627:   FUNC GLOBAL DEFAULT 14 FT_Done_Size
628:   FUNC GLOBAL DEFAULT 14 FT_Get_Module
629:   FUNC GLOBAL DEFAULT 14 FT_Stream_GetChar
630:   FUNC GLOBAL DEFAULT 14 ft_mem_strdup
631:   OBJECT GLOBAL DEFAULT 18 cff_builder_funcs
632:   FUNC GLOBAL DEFAULT 14 __aeabi_memclr4
633:   FUNC GLOBAL DEFAULT 14 ft_hash_num_init
634:   FUNC GLOBAL DEFAULT 14 FT_Get_Advance
635:   OBJECT GLOBAL DEFAULT 13 af_nkoo_nonbase_uniranges
636:   OBJECT GLOBAL DEFAULT 18 af_tfng_script_class
637:   OBJECT GLOBAL DEFAULT 18 tt_cmap_unicode_class_rec
638:   OBJECT GLOBAL DEFAULT 13 af_grek_ordn_style_class
639:   FUNC GLOBAL DEFAULT 14 FT_Face_GetCharVariantIsD
640:   FUNC GLOBAL DEFAULT 14 FT_Vector_Length
641:   FUNC GLOBAL DEFAULT 14 FT_Done_Glyph
642:   FUNC GLOBAL DEFAULT 14 FT_List_Iterate
643:   FUNC GLOBAL DEFAULT 14 FT_Bitmap_Init
644:   FUNC GLOBAL DEFAULT 14 __aeabi_memclr8
645:   OBJECT GLOBAL DEFAULT 18 af_cans_script_class
646:   OBJECT GLOBAL DEFAULT 13 af_grek_pcap_style_class
647:   OBJECT GLOBAL DEFAULT 18 tt_cmap8_class_rec
648:   FUNC GLOBAL DEFAULT 14 FT_Load_Char
649:   FUNC GLOBAL DEFAULT 14 FT_Get_CMap_Format
650:   FUNC GLOBAL DEFAULT 14 FT_Get_Module_Interface
651:   OBJECT GLOBAL DEFAULT 13 af_cans_dflt_style_class
652:   OBJECT GLOBAL DEFAULT 13 af_telu_dflt_style_class
653:   FUNC GLOBAL DEFAULT 14 FT_Stroker_ConicTo
654:   FUNC GLOBAL DEFAULT 14 FT_Get_PS_Font_Info
655:   FUNC GLOBAL DEFAULT 14 FT_Outline_Decompose
656:   OBJECT GLOBAL DEFAULT 13 ft_adobe_glyph_list
