 0x000000000000000e (SONAME)             Library soname: [liblogwrap.so]
  
Symbol   contains 40 entries:
Num:   Type Bind Vis Ndx Name
0:   NOTYPE LOCAL DEFAULT UND
1:   FUNC GLOBAL DEFAULT UND __cxa_finalize@LIBC (2)
2:   FUNC GLOBAL DEFAULT UND __android_log_assert@LIBLOG (3)
3:   FUNC GLOBAL DEFAULT UND __android_log_print@LIBLOG (3)
4:   FUNC GLOBAL DEFAULT UND __errno@LIBC (2)
5:   FUNC GLOBAL DEFAULT UND __memmove_chk@LIBC (2)
6:   FUNC GLOBAL DEFAULT UND __open_2@LIBC (2)
7:   FUNC GLOBAL DEFAULT UND __poll_chk@LIBC (2)
8:   FUNC GLOBAL DEFAULT UND __stack_chk_fail@LIBC (2)
9:   FUNC GLOBAL DEFAULT UND __vsnprintf_chk@LIBC (2)
10:   FUNC GLOBAL DEFAULT UND _exit@LIBC (2)
11:   FUNC GLOBAL DEFAULT UND basename@LIBC (2)
12:   FUNC GLOBAL DEFAULT UND close@LIBC (2)
13:   FUNC GLOBAL DEFAULT UND dup2@LIBC (2)
14:   FUNC GLOBAL DEFAULT UND execvp@LIBC (2)
15:   FUNC GLOBAL DEFAULT UND fclose@LIBC (2)
16:   FUNC GLOBAL DEFAULT UND fdopen@LIBC (2)
17:   FUNC GLOBAL DEFAULT UND fork@LIBC (2)
18:   FUNC GLOBAL DEFAULT UND fprintf@LIBC (2)
19:   FUNC GLOBAL DEFAULT UND free@LIBC (2)
20:   FUNC GLOBAL DEFAULT UND fwrite@LIBC (2)
21:   FUNC GLOBAL DEFAULT UND grantpt@LIBC (2)
22:   FUNC GLOBAL DEFAULT UND klog_write
23:   FUNC GLOBAL DEFAULT UND lseek@LIBC (2)
24:   FUNC GLOBAL DEFAULT UND malloc@LIBC (2)
25:   FUNC GLOBAL DEFAULT UND memcpy@LIBC (2)
26:   FUNC GLOBAL DEFAULT UND open@LIBC (2)
27:   FUNC GLOBAL DEFAULT UND pthread_mutex_lock@LIBC (2)
28:   FUNC GLOBAL DEFAULT UND pthread_mutex_unlock@LIBC (2)
29:   FUNC GLOBAL DEFAULT UND pthread_sigmask@LIBC (2)
30:   FUNC GLOBAL DEFAULT UND ptsname_r@LIBC (2)
31:   FUNC GLOBAL DEFAULT UND read@LIBC (2)
32:   FUNC GLOBAL DEFAULT UND sigaction@LIBC (2)
33:   FUNC GLOBAL DEFAULT UND sigaddset@LIBC (2)
34:   FUNC GLOBAL DEFAULT UND sigemptyset@LIBC (2)
35:   OBJECT GLOBAL DEFAULT UND stderr@LIBC (2)
36:   FUNC GLOBAL DEFAULT UND strerror@LIBC (2)
37:   FUNC GLOBAL DEFAULT UND unlockpt@LIBC (2)
38:   FUNC GLOBAL DEFAULT UND waitpid@LIBC (2)
39:   FUNC GLOBAL DEFAULT 14 android_fork_execvp_ext
