 0x000000000000000e (SONAME)             Library soname: [libc.so]
  
Symbol   contains 1036 entries:
Num:   Type Bind Vis Ndx Name
0:   NOTYPE LOCAL DEFAULT UND
1:   FUNC GLOBAL DEFAULT 7 timer_getoverrun@@LIBC
2:   FUNC GLOBAL DEFAULT 7 ether_aton_r@@LIBC
3:   FUNC GLOBAL DEFAULT 7 lseek@@LIBC
4:   FUNC GLOBAL DEFAULT 7 siginterrupt@@LIBC
5:   FUNC GLOBAL DEFAULT 7 strftime@@LIBC
6:   FUNC GLOBAL DEFAULT 7 uname@@LIBC
7:   FUNC GLOBAL DEFAULT 7 rewind@@LIBC
8:   FUNC GLOBAL DEFAULT 7 scandir@@LIBC
9:   FUNC GLOBAL DEFAULT 7 wcsspn@@LIBC
10:   FUNC GLOBAL DEFAULT 7 __res_nquery@@LIBC
11:   FUNC GLOBAL DEFAULT 7 closedir@@LIBC
12:   FUNC GLOBAL DEFAULT 7 fremovexattr@@LIBC
13:   FUNC GLOBAL DEFAULT 7 getpwuid@@LIBC
14:   FUNC GLOBAL DEFAULT 7 vscanf@@LIBC
15:   FUNC GLOBAL DEFAULT 7 wcslcat@@LIBC
16:   FUNC GLOBAL DEFAULT 7 write@@LIBC
17:   FUNC GLOBAL DEFAULT 7 __system_property_set@@LIBC
18:   FUNC GLOBAL DEFAULT 7 clock_nanosleep@@LIBC
19:   FUNC GLOBAL DEFAULT 7 mbstowcs@@LIBC
20:   FUNC GLOBAL DEFAULT 7 memmem@@LIBC
21:   FUNC GLOBAL DEFAULT 7 strnlen@@LIBC
22:   FUNC GLOBAL DEFAULT 7 iswalpha@@LIBC
23:   FUNC GLOBAL DEFAULT 7 mkstemp@@LIBC
24:   FUNC GLOBAL DEFAULT 7 pthread_setschedparam@@LIBC
25:   FUNC GLOBAL DEFAULT 7 rand@@LIBC
26:   FUNC GLOBAL DEFAULT 7 herror@@LIBC
27:   FUNC GLOBAL DEFAULT 7 vfork@@LIBC
28:   FUNC GLOBAL DEFAULT 7 warn@@LIBC
29:   FUNC GLOBAL DEFAULT 7 getegid@@LIBC
30:   FUNC GLOBAL DEFAULT 7 strcpy@@LIBC
31:   FUNC GLOBAL DEFAULT 7 ungetwc@@LIBC
32:   FUNC GLOBAL DEFAULT 7 _longjmp@@LIBC
33:   FUNC GLOBAL DEFAULT 7 getmntent@@LIBC
34:   FUNC GLOBAL DEFAULT 7 pselect@@LIBC
35:   FUNC GLOBAL DEFAULT 7 pthread_cond_destroy@@LIBC
36:   FUNC GLOBAL DEFAULT 7 truncate64@@LIBC
37:   OBJECT GLOBAL DEFAULT 9 __progname@@LIBC
38:   FUNC GLOBAL DEFAULT 7 __res_querydomain@@LIBC
39:   FUNC GLOBAL DEFAULT 7 fgetxattr@@LIBC
40:   FUNC GLOBAL DEFAULT 7 posix_fallocate@@LIBC
41:   FUNC GLOBAL DEFAULT 7 statvfs@@LIBC
42:   FUNC GLOBAL DEFAULT 7 wcsxfrm_l@@LIBC
43:   FUNC GLOBAL DEFAULT 7 __p_time@@LIBC
44:   FUNC GLOBAL DEFAULT 7 _resolv_flush_cache_for_n@@LIBC
45:   FUNC GLOBAL DEFAULT 7 if_indextoname@@LIBC
46:   FUNC GLOBAL DEFAULT 7 pread64@@LIBC
47:   FUNC GLOBAL DEFAULT 7 strpbrk@@LIBC
48:   FUNC GLOBAL DEFAULT 7 fallocate64@@LIBC
49:   FUNC GLOBAL DEFAULT 7 socket@@LIBC
50:   FUNC GLOBAL DEFAULT 7 sysconf@@LIBC
51:   FUNC GLOBAL DEFAULT 7 __get_h_errno@@LIBC
52:   FUNC GLOBAL DEFAULT 7 rand_r@@LIBC
53:   FUNC GLOBAL DEFAULT 7 strstr@@LIBC
54:   FUNC GLOBAL DEFAULT 7 wcstombs@@LIBC
55:   FUNC GLOBAL DEFAULT 7 execl@@LIBC
56:   FUNC GLOBAL DEFAULT 7 llistxattr@@LIBC
57:   FUNC GLOBAL DEFAULT 7 __stpncpy_chk2@@LIBC
58:   FUNC GLOBAL DEFAULT 7 __strncpy_chk@@LIBC
59:   FUNC GLOBAL DEFAULT 7 at_quick_exit@@LIBC
60:   FUNC GLOBAL DEFAULT 7 fputs@@LIBC
61:   FUNC GLOBAL DEFAULT 7 wcslen@@LIBC
62:   FUNC GLOBAL DEFAULT 7 fstatvfs64@@LIBC
63:   FUNC GLOBAL DEFAULT 7 iswgraph@@LIBC
64:   FUNC GLOBAL DEFAULT 7 lrand48@@LIBC
65:   FUNC GLOBAL DEFAULT 7 setbuf@@LIBC
66:   FUNC GLOBAL DEFAULT 7 strncmp@@LIBC
67:   FUNC GLOBAL DEFAULT 7 getpwuid_r@@LIBC
68:   FUNC GLOBAL DEFAULT 7 isatty@@LIBC
69:   FUNC GLOBAL DEFAULT 7 isspace@@LIBC
70:   FUNC GLOBAL DEFAULT 7 setresgid@@LIBC
71:   FUNC GLOBAL DEFAULT 7 towupper@@LIBC
72:   FUNC GLOBAL DEFAULT 7 wcstod@@LIBC
73:   FUNC GLOBAL DEFAULT 7 wcstoull_l@@LIBC
74:   FUNC GLOBAL DEFAULT 7 iswlower_l@@LIBC
75:   FUNC GLOBAL DEFAULT 7 pthread_self@@LIBC
76:   FUNC GLOBAL DEFAULT 7 wcstoull@@LIBC
77:   FUNC GLOBAL DEFAULT 7 link@@LIBC
78:   FUNC GLOBAL DEFAULT 7 munlockall@@LIBC
79:   FUNC GLOBAL DEFAULT 7 posix_memalign@@LIBC
80:   FUNC GLOBAL DEFAULT 7 pthread_cond_signal@@LIBC
81:   FUNC GLOBAL DEFAULT 7 sbrk@@LIBC
82:   FUNC GLOBAL DEFAULT 7 strcasestr@@LIBC
83:   FUNC GLOBAL DEFAULT 7 wcsnlen@@LIBC
84:   FUNC GLOBAL DEFAULT 7 wcstof@@LIBC
85:   FUNC GLOBAL DEFAULT 7 fseeko@@LIBC
86:   FUNC GLOBAL DEFAULT 7 ftw@@LIBC
87:   FUNC GLOBAL DEFAULT 7 ntohl@@LIBC
88:   FUNC GLOBAL DEFAULT 7 random@@LIBC
89:   FUNC GLOBAL DEFAULT 7 sched_getscheduler@@LIBC
90:   FUNC GLOBAL DEFAULT 7 syslog@@LIBC
91:   FUNC GLOBAL DEFAULT 7 tcdrain@@LIBC
92:   FUNC GLOBAL DEFAULT 7 __pthread_cleanup_push@@LIBC
93:   FUNC GLOBAL DEFAULT 7 memccpy@@LIBC
94:   FUNC GLOBAL DEFAULT 7 signalfd@@LIBC
95:   FUNC GLOBAL DEFAULT 7 pthread_mutexattr_getpsha@@LIBC
96:   FUNC GLOBAL DEFAULT 7 recvmsg@@LIBC
97:   FUNC GLOBAL DEFAULT 7 epoll_create1@@LIBC
98:   FUNC GLOBAL DEFAULT 7 getresuid@@LIBC
99:   FUNC GLOBAL DEFAULT 7 localtime@@LIBC
100:   FUNC GLOBAL DEFAULT 7 __p_cdnname@@LIBC
101:   FUNC GLOBAL DEFAULT 7 execv@@LIBC
102:   FUNC GLOBAL DEFAULT 7 ldexp@@LIBC
103:   FUNC GLOBAL DEFAULT 7 openat@@LIBC
104:   FUNC GLOBAL DEFAULT 7 res_mkquery@@LIBC
105:   FUNC GLOBAL DEFAULT 7 strcat@@LIBC
106:   OBJECT GLOBAL DEFAULT 9 tzname@@LIBC
107:   FUNC GLOBAL DEFAULT 7 wcstok@@LIBC
108:   FUNC GLOBAL DEFAULT 7 __b64_ntop@@LIBC
109:   FUNC GLOBAL DEFAULT 7 pthread_attr_getschedpoli@@LIBC
110:   FUNC GLOBAL DEFAULT 7 sigpending@@LIBC
111:   FUNC GLOBAL DEFAULT 7 snprintf@@LIBC
112:   FUNC GLOBAL DEFAULT 7 wcspbrk@@LIBC
113:   FUNC GLOBAL DEFAULT 7 wcstol@@LIBC
114:   FUNC GLOBAL DEFAULT 7 isprint@@LIBC
115:   FUNC GLOBAL DEFAULT 7 wcscmp@@LIBC
116:   FUNC GLOBAL DEFAULT 7 inotify_init1@@LIBC
117:   FUNC GLOBAL DEFAULT 7 ntohs@@LIBC
118:   FUNC GLOBAL DEFAULT 7 setmntent@@LIBC
119:   FUNC GLOBAL DEFAULT 7 srand@@LIBC
120:   FUNC GLOBAL DEFAULT 7 waitpid@@LIBC
121:   FUNC GLOBAL DEFAULT 7 iswblank@@LIBC
122:   FUNC GLOBAL DEFAULT 7 setfsgid@@LIBC
123:   FUNC GLOBAL DEFAULT 7 strncasecmp@@LIBC
124:   FUNC GLOBAL DEFAULT 7 __p_secstodate@@LIBC
125:   FUNC GLOBAL DEFAULT 7 pthread_attr_setschedpoli@@LIBC
126:   FUNC GLOBAL DEFAULT 7 regfree@@LIBC
127:   FUNC GLOBAL DEFAULT 7 getenv@@LIBC
128:   FUNC GLOBAL DEFAULT 7 inotify_init@@LIBC
129:   FUNC GLOBAL DEFAULT 7 listen@@LIBC
130:   FUNC GLOBAL DEFAULT 7 sigsuspend@@LIBC
131:   FUNC GLOBAL DEFAULT 7 wcsncmp@@LIBC
132:   FUNC GLOBAL DEFAULT 7 __hostalias@@LIBC
133:   FUNC GLOBAL DEFAULT 7 execle@@LIBC
134:   FUNC GLOBAL DEFAULT 7 mallinfo@@LIBC
135:   FUNC GLOBAL DEFAULT 7 wcwidth@@LIBC
136:   FUNC GLOBAL DEFAULT 7 __loc_ntoa@@LIBC
137:   FUNC GLOBAL DEFAULT 7 cfgetospeed@@LIBC
138:   FUNC GLOBAL DEFAULT 7 geteuid@@LIBC
139:   FUNC GLOBAL DEFAULT 7 getpeername@@LIBC
140:   FUNC GLOBAL DEFAULT 7 killpg@@LIBC
141:   FUNC GLOBAL DEFAULT 7 strerror@@LIBC
142:   FUNC GLOBAL DEFAULT 7 strsep@@LIBC
143:   FUNC GLOBAL DEFAULT 7 wmemmove@@LIBC
144:   FUNC GLOBAL DEFAULT 7 __strncpy_chk2@@LIBC
145:   FUNC GLOBAL DEFAULT 7 mkdtemp@@LIBC
146:   FUNC GLOBAL DEFAULT 7 __cmsg_nxthdr@@LIBC
147:   FUNC GLOBAL DEFAULT 7 getgrgid@@LIBC
148:   FUNC GLOBAL DEFAULT 7 inet_nsap_addr@@LIBC
149:   FUNC GLOBAL DEFAULT 7 isupper_l@@LIBC
150:   FUNC GLOBAL DEFAULT 7 pthread_rwlockattr_init@@LIBC
151:   FUNC GLOBAL DEFAULT 7 swprintf@@LIBC
152:   FUNC GLOBAL DEFAULT 7 wcstoll_l@@LIBC
153:   FUNC GLOBAL DEFAULT 7 clock_settime@@LIBC
154:   FUNC GLOBAL DEFAULT 7 msync@@LIBC
155:   FUNC GLOBAL DEFAULT 7 openlog@@LIBC
156:   FUNC GLOBAL DEFAULT 7 rmdir@@LIBC
157:   FUNC GLOBAL DEFAULT 7 bind@@LIBC
158:   OBJECT GLOBAL DEFAULT 9 environ@@LIBC
159:   FUNC GLOBAL DEFAULT 7 iscntrl@@LIBC
160:   FUNC GLOBAL DEFAULT 7 iswcntrl_l@@LIBC
161:   FUNC GLOBAL DEFAULT 7 ptrace@@LIBC
162:   FUNC GLOBAL DEFAULT 7 regexec@@LIBC
163:   FUNC GLOBAL DEFAULT 7 sleep@@LIBC
164:   FUNC GLOBAL DEFAULT 7 __FD_SET_chk@@LIBC
165:   FUNC GLOBAL DEFAULT 7 free@@LIBC
166:   FUNC GLOBAL DEFAULT 7 isdigit_l@@LIBC
167:   FUNC GLOBAL DEFAULT 7 iswdigit@@LIBC
168:   FUNC GLOBAL DEFAULT 7 putc_unlocked@@LIBC
169:   FUNC GLOBAL DEFAULT 7 psiginfo@@LIBC
170:   FUNC GLOBAL DEFAULT 7 __stpncpy_chk@@LIBC
171:   FUNC GLOBAL DEFAULT 7 getline@@LIBC
172:   FUNC GLOBAL DEFAULT 7 pthread_attr_getstacksize@@LIBC
173:   FUNC GLOBAL DEFAULT 7 select@@LIBC
174:   FUNC GLOBAL DEFAULT 7 setpriority@@LIBC
175:   FUNC GLOBAL DEFAULT 7 tcgetattr@@LIBC
176:   FUNC GLOBAL DEFAULT 7 tolower@@LIBC
177:   FUNC GLOBAL DEFAULT 7 isblank_l@@LIBC
178:   FUNC GLOBAL DEFAULT 7 mount@@LIBC
179:   FUNC GLOBAL DEFAULT 7 pthread_gettid_np@@LIBC
180:   FUNC GLOBAL DEFAULT 7 setregid@@LIBC
181:   FUNC GLOBAL DEFAULT 7 __res_send_setqhook@@LIBC
182:   FUNC GLOBAL DEFAULT 7 __sym_ston@@LIBC
183:   FUNC GLOBAL DEFAULT 7 epoll_ctl@@LIBC
184:   FUNC GLOBAL DEFAULT 7 iswpunct_l@@LIBC
185:   FUNC GLOBAL DEFAULT 7 sem_timedwait@@LIBC
186:   FUNC GLOBAL DEFAULT 7 setresuid@@LIBC
187:   FUNC GLOBAL DEFAULT 7 stat64@@LIBC
188:   FUNC GLOBAL DEFAULT 7 timelocal@@LIBC
189:   FUNC GLOBAL DEFAULT 7 vwscanf@@LIBC
190:   FUNC GLOBAL DEFAULT 7 execlp@@LIBC
191:   FUNC GLOBAL DEFAULT 7 fnmatch@@LIBC
192:   FUNC GLOBAL DEFAULT 7 freopen@@LIBC
193:   FUNC GLOBAL DEFAULT 7 fts_children@@LIBC
194:   FUNC GLOBAL DEFAULT 7 getrlimit64@@LIBC
195:   FUNC GLOBAL DEFAULT 7 posix_fallocate64@@LIBC
196:   FUNC GLOBAL DEFAULT 7 sched_setscheduler@@LIBC
197:   FUNC GLOBAL DEFAULT 7 uselocale@@LIBC
198:   OBJECT GLOBAL DEFAULT 9 __p_type_syms@@LIBC
199:   FUNC GLOBAL DEFAULT 7 __system_property_find_nt@@LIBC
200:   FUNC GLOBAL DEFAULT 7 fork@@LIBC
201:   FUNC GLOBAL DEFAULT 7 isalpha@@LIBC
202:   FUNC GLOBAL DEFAULT 7 pthread_rwlock_timedrdloc@@LIBC
203:   FUNC GLOBAL DEFAULT 7 pthread_create@@LIBC
204:   FUNC GLOBAL DEFAULT 7 sched_yield@@LIBC
205:   FUNC GLOBAL DEFAULT 7 timer_gettime@@LIBC
206:   FUNC GLOBAL DEFAULT 7 lseek64@@LIBC
207:   FUNC GLOBAL DEFAULT 7 __res_ownok@@LIBC
208:   FUNC GLOBAL DEFAULT 7 acct@@LIBC
209:   FUNC GLOBAL DEFAULT 7 pthread_attr_getscope@@LIBC
210:   FUNC GLOBAL DEFAULT 7 sendmsg@@LIBC
211:   FUNC GLOBAL DEFAULT 7 timerfd_gettime@@LIBC
212:   FUNC GLOBAL DEFAULT 7 gethostbyname2@@LIBC
213:   FUNC GLOBAL DEFAULT 7 tee@@LIBC
214:   FUNC GLOBAL DEFAULT 7 linkat@@LIBC
215:   FUNC GLOBAL DEFAULT 7 pthread_attr_getschedpara@@LIBC
216:   FUNC GLOBAL DEFAULT 7 mbsinit@@LIBC
217:   FUNC GLOBAL DEFAULT 7 newlocale@@LIBC
218:   FUNC GLOBAL DEFAULT 7 unshare@@LIBC
219:   FUNC GLOBAL DEFAULT 7 vfwprintf@@LIBC
220:   FUNC GLOBAL DEFAULT 7 fdatasync@@LIBC
221:   FUNC GLOBAL DEFAULT 7 nftw64@@LIBC
222:   FUNC GLOBAL DEFAULT 7 setstate@@LIBC
223:   FUNC GLOBAL DEFAULT 7 tcflush@@LIBC
224:   FUNC GLOBAL DEFAULT 7 access@@LIBC
225:   FUNC GLOBAL DEFAULT 7 inotify_add_watch@@LIBC
226:   FUNC GLOBAL DEFAULT 7 posix_fadvise@@LIBC
227:   FUNC GLOBAL DEFAULT 7 send@@LIBC
228:   FUNC GLOBAL DEFAULT 7 __res_hostalias@@LIBC
229:   FUNC GLOBAL DEFAULT 7 fchown@@LIBC
230:   FUNC GLOBAL DEFAULT 7 isinff@@LIBC
231:   FUNC GLOBAL DEFAULT 7 setfsuid@@LIBC
232:   FUNC GLOBAL DEFAULT 7 fstat64@@LIBC
233:   FUNC GLOBAL DEFAULT 7 isgraph@@LIBC
234:   FUNC GLOBAL DEFAULT 7 memalign@@LIBC
235:   FUNC GLOBAL DEFAULT 7 sem_post@@LIBC
236:   FUNC GLOBAL DEFAULT 7 waitid@@LIBC
237:   FUNC GLOBAL DEFAULT 7 clock_getres@@LIBC
238:   FUNC GLOBAL DEFAULT 7 fstatvfs@@LIBC
239:   FUNC GLOBAL DEFAULT 7 funopen@@LIBC
240:   FUNC GLOBAL DEFAULT 7 gethostname@@LIBC
241:   FUNC GLOBAL DEFAULT 7 ftruncate64@@LIBC
242:   FUNC GLOBAL DEFAULT 7 getutent@@LIBC
243:   FUNC GLOBAL DEFAULT 7 if_nametoindex@@LIBC
244:   FUNC GLOBAL DEFAULT 7 inet_pton@@LIBC
245:   FUNC GLOBAL DEFAULT 7 memchr@@LIBC
246:   FUNC GLOBAL DEFAULT 7 regerror@@LIBC
247:   FUNC GLOBAL DEFAULT 7 getppid@@LIBC
248:   FUNC GLOBAL DEFAULT 7 towupper_l@@LIBC
249:   FUNC GLOBAL DEFAULT 7 alphasort@@LIBC
250:   FUNC GLOBAL DEFAULT 7 eventfd_write@@LIBC
251:   FUNC GLOBAL DEFAULT 7 fts_read@@LIBC
252:   FUNC GLOBAL DEFAULT 7 iswxdigit@@LIBC
253:   FUNC GLOBAL DEFAULT 7 tcsendbreak@@LIBC
254:   FUNC GLOBAL DEFAULT 7 wmemcmp@@LIBC
255:   FUNC GLOBAL DEFAULT 7 __isnormalf@@LIBC
256:   FUNC GLOBAL DEFAULT 7 __sprintf_chk@@LIBC
257:   FUNC GLOBAL DEFAULT 7 asctime_r@@LIBC
258:   FUNC GLOBAL DEFAULT 7 div@@LIBC
259:   FUNC GLOBAL DEFAULT 7 fwrite@@LIBC
260:   FUNC GLOBAL DEFAULT 7 imaxabs@@LIBC
261:   FUNC GLOBAL DEFAULT 7 isinfl@@LIBC
262:   FUNC GLOBAL DEFAULT 7 nice@@LIBC
263:   FUNC GLOBAL DEFAULT 7 alphasort64@@LIBC
264:   FUNC GLOBAL DEFAULT 7 arc4random_uniform@@LIBC
265:   FUNC GLOBAL DEFAULT 7 getpgid@@LIBC
266:   FUNC GLOBAL DEFAULT 7 pthread_detach@@LIBC
267:   FUNC GLOBAL DEFAULT 7 pthread_mutexattr_init@@LIBC
268:   FUNC GLOBAL DEFAULT 7 pthread_rwlock_tryrdlock@@LIBC
269:   FUNC GLOBAL DEFAULT 7 quick_exit@@LIBC
270:   FUNC GLOBAL DEFAULT 7 __p_class@@LIBC
271:   FUNC GLOBAL DEFAULT 7 alarm@@LIBC
272:   FUNC GLOBAL DEFAULT 7 lfind@@LIBC
273:   FUNC GLOBAL DEFAULT 7 pthread_mutex_timedlock@@LIBC
274:   FUNC GLOBAL DEFAULT 7 res_init@@LIBC
275:   FUNC GLOBAL DEFAULT 7 sem_getvalue@@LIBC
276:   FUNC GLOBAL DEFAULT 7 strxfrm_l@@LIBC
277:   FUNC GLOBAL DEFAULT 7 toupper@@LIBC
278:   FUNC GLOBAL DEFAULT 7 __fpclassify@@LIBC
279:   FUNC GLOBAL DEFAULT 7 capset@@LIBC
280:   FUNC GLOBAL DEFAULT 7 pthread_attr_setstacksize@@LIBC
281:   FUNC GLOBAL DEFAULT 7 duplocale@@LIBC
282:   FUNC GLOBAL DEFAULT 7 getsockname@@LIBC
283:   FUNC GLOBAL DEFAULT 7 isinf@@LIBC
284:   FUNC GLOBAL DEFAULT 7 isspace_l@@LIBC
285:   FUNC GLOBAL DEFAULT 7 pthread_mutexattr_settype@@LIBC
286:   FUNC GLOBAL DEFAULT 7 read@@LIBC
287:   FUNC GLOBAL DEFAULT 7 realloc@@LIBC
288:   FUNC GLOBAL DEFAULT 7 sched_setaffinity@@LIBC
289:   FUNC GLOBAL DEFAULT 7 __isnormall@@LIBC
290:   FUNC GLOBAL DEFAULT 7 pthread_getspecific@@LIBC
291:   FUNC GLOBAL DEFAULT 7 setreuid@@LIBC
292:   FUNC GLOBAL DEFAULT 7 time@@LIBC
293:   FUNC GLOBAL DEFAULT 7 isblank@@LIBC
294:   FUNC GLOBAL DEFAULT 7 pututline@@LIBC
295:   FUNC GLOBAL DEFAULT 7 symlinkat@@LIBC
296:   FUNC GLOBAL DEFAULT 7 __putlong@@LIBC
297:   FUNC GLOBAL DEFAULT 7 cfsetospeed@@LIBC
298:   FUNC GLOBAL DEFAULT 7 pthread_equal@@LIBC
299:   FUNC GLOBAL DEFAULT 7 pthread_rwlock_timedwrloc@@LIBC
300:   FUNC GLOBAL DEFAULT 7 ttyname_r@@LIBC
301:   FUNC GLOBAL DEFAULT 7 pthread_rwlock_unlock@@LIBC
302:   FUNC GLOBAL DEFAULT 7 rewinddir@@LIBC
303:   FUNC GLOBAL DEFAULT 7 strxfrm@@LIBC
304:   FUNC GLOBAL DEFAULT 7 __isnormal@@LIBC
305:   FUNC GLOBAL DEFAULT 7 _tolower@@LIBC
306:   FUNC GLOBAL DEFAULT 7 getlogin@@LIBC
307:   FUNC GLOBAL DEFAULT 7 memcpy@@LIBC
308:   FUNC GLOBAL DEFAULT 7 accept4@@LIBC
309:   FUNC GLOBAL DEFAULT 7 pthread_mutexattr_destroy@@LIBC
310:   FUNC GLOBAL DEFAULT 7 ffs@@LIBC
311:   FUNC GLOBAL DEFAULT 7 fpurge@@LIBC
312:   FUNC GLOBAL DEFAULT 7 listxattr@@LIBC
313:   FUNC GLOBAL DEFAULT 7 pthread_attr_getguardsize@@LIBC
314:   FUNC GLOBAL DEFAULT 7 realpath@@LIBC
315:   FUNC GLOBAL DEFAULT 7 wcstoumax@@LIBC
316:   FUNC GLOBAL DEFAULT 7 klogctl@@LIBC
317:   FUNC GLOBAL DEFAULT 7 setsid@@LIBC
318:   FUNC GLOBAL DEFAULT 7 __isfinitef@@LIBC
319:   FUNC GLOBAL DEFAULT 7 __read_chk@@LIBC
320:   FUNC GLOBAL DEFAULT 7 __res_nsend@@LIBC
321:   FUNC GLOBAL DEFAULT 7 prlimit@@LIBC
322:   FUNC GLOBAL DEFAULT 7 __strlcpy_chk@@LIBC
323:   FUNC GLOBAL DEFAULT 7 fstat@@LIBC
324:   FUNC GLOBAL DEFAULT 7 mkdirat@@LIBC
325:   FUNC GLOBAL DEFAULT 7 pthread_rwlockattr_setpsh@@LIBC
326:   FUNC GLOBAL DEFAULT 7 pthread_sigmask@@LIBC
327:   FUNC GLOBAL DEFAULT 7 strtold@@LIBC
328:   FUNC GLOBAL DEFAULT 7 ungetc@@LIBC
329:   FUNC GLOBAL DEFAULT 7 htonl@@LIBC
330:   FUNC GLOBAL DEFAULT 7 isdigit@@LIBC
331:   FUNC GLOBAL DEFAULT 7 sched_getparam@@LIBC
332:   FUNC GLOBAL DEFAULT 7 utmpname@@LIBC
333:   FUNC GLOBAL DEFAULT 7 c32rtomb@@LIBC
334:   FUNC GLOBAL DEFAULT 7 getpagesize@@LIBC
335:   FUNC GLOBAL DEFAULT 7 isprint_l@@LIBC
336:   FUNC GLOBAL DEFAULT 7 iswalnum@@LIBC
337:   FUNC GLOBAL DEFAULT 7 dn_expand@@LIBC
338:   FUNC GLOBAL DEFAULT 7 isalpha_l@@LIBC
339:   FUNC GLOBAL DEFAULT 7 stpncpy@@LIBC
340:   FUNC GLOBAL DEFAULT 7 clearenv@@LIBC
341:   FUNC GLOBAL DEFAULT 7 endservent@@LIBC
342:   FUNC GLOBAL DEFAULT 7 munmap@@LIBC
343:   FUNC GLOBAL DEFAULT 7 posix_fadvise64@@LIBC
344:   FUNC GLOBAL DEFAULT 7 __isfinitel@@LIBC
345:   FUNC GLOBAL DEFAULT 7 getservent@@LIBC
346:   FUNC GLOBAL DEFAULT 7 lldiv@@LIBC
347:   FUNC GLOBAL DEFAULT 7 pthread_setname_np@@LIBC
348:   FUNC GLOBAL DEFAULT 7 timer_delete@@LIBC
349:   FUNC GLOBAL DEFAULT 7 __p_option@@LIBC
350:   FUNC GLOBAL DEFAULT 7 srandom@@LIBC
351:   FUNC GLOBAL DEFAULT 7 sscanf@@LIBC
352:   FUNC GLOBAL DEFAULT 7 strndup@@LIBC
353:   FUNC GLOBAL DEFAULT 7 __open_2@@LIBC
354:   FUNC GLOBAL DEFAULT 7 poll@@LIBC
355:   FUNC GLOBAL DEFAULT 7 pthread_join@@LIBC
356:   FUNC GLOBAL DEFAULT 7 __errno@@LIBC
357:   FUNC GLOBAL DEFAULT 7 htons@@LIBC
358:   FUNC GLOBAL DEFAULT 7 strtoll@@LIBC
359:   FUNC GLOBAL DEFAULT 7 unsetenv@@LIBC
360:   FUNC GLOBAL DEFAULT 7 wcsxfrm@@LIBC
361:   FUNC GLOBAL DEFAULT 7 __fp_query@@LIBC
362:   FUNC GLOBAL DEFAULT 7 pthread_condattr_getclock@@LIBC
363:   FUNC GLOBAL DEFAULT 7 eventfd@@LIBC
364:   FUNC GLOBAL DEFAULT 7 getgroups@@LIBC
365:   FUNC GLOBAL DEFAULT 7 sem_open@@LIBC
366:   FUNC GLOBAL DEFAULT 7 dirfd@@LIBC
367:   FUNC GLOBAL DEFAULT 7 strtoll_l@@LIBC
368:   FUNC GLOBAL DEFAULT 7 fts_open@@LIBC
369:   FUNC GLOBAL DEFAULT 7 memmove@@LIBC
370:   FUNC GLOBAL DEFAULT 7 sigaltstack@@LIBC
371:   FUNC GLOBAL DEFAULT 7 tmpnam@@LIBC
372:   FUNC GLOBAL DEFAULT 7 utimes@@LIBC
373:   FUNC GLOBAL DEFAULT 7 wcstold@@LIBC
374:   FUNC GLOBAL DEFAULT 7 fwide@@LIBC
375:   FUNC GLOBAL DEFAULT 7 munlock@@LIBC
376:   FUNC GLOBAL DEFAULT 7 pathconf@@LIBC
377:   FUNC GLOBAL DEFAULT 7 _toupper@@LIBC
378:   FUNC GLOBAL DEFAULT 7 ftello@@LIBC
379:   FUNC GLOBAL DEFAULT 7 open64@@LIBC
380:   FUNC GLOBAL DEFAULT 7 pthread_condattr_getpshar@@LIBC
381:   FUNC GLOBAL DEFAULT 7 strtoull_l@@LIBC
382:   FUNC GLOBAL DEFAULT 7 wcsdup@@LIBC
383:   FUNC GLOBAL DEFAULT 7 __res_dnok@@LIBC
384:   FUNC GLOBAL DEFAULT 7 open@@LIBC
385:   FUNC GLOBAL DEFAULT 7 vsnprintf@@LIBC
386:   FUNC GLOBAL DEFAULT 7 __res_nclose@@LIBC
387:   FUNC GLOBAL DEFAULT 7 pthread_attr_setguardsize@@LIBC
388:   FUNC GLOBAL DEFAULT 7 wcswidth@@LIBC
389:   FUNC GLOBAL DEFAULT 7 timerfd_create@@LIBC
390:   FUNC GLOBAL DEFAULT 7 chroot@@LIBC
391:   FUNC GLOBAL DEFAULT 7 epoll_create@@LIBC
392:   FUNC GLOBAL DEFAULT 7 flock@@LIBC
393:   FUNC GLOBAL DEFAULT 7 pthread_rwlockattr_destro@@LIBC
394:   FUNC GLOBAL DEFAULT 7 tcgetsid@@LIBC
395:   FUNC GLOBAL DEFAULT 7 wcstold_l@@LIBC
396:   FUNC GLOBAL DEFAULT 7 __stack_chk_fail@@LIBC
397:   FUNC GLOBAL DEFAULT 7 __system_property_get@@LIBC
398:   FUNC GLOBAL DEFAULT 7 pthread_atfork@@LIBC
399:   FUNC GLOBAL DEFAULT 7 warnx@@LIBC
400:   FUNC GLOBAL DEFAULT 7 wcstoll@@LIBC
401:   FUNC GLOBAL DEFAULT 7 endmntent@@LIBC
402:   FUNC GLOBAL DEFAULT 7 gethostent@@LIBC
403:   FUNC GLOBAL DEFAULT 7 getsockopt@@LIBC
404:   FUNC GLOBAL DEFAULT 7 ldiv@@LIBC
405:   FUNC GLOBAL DEFAULT 7 memset@@LIBC
406:   FUNC GLOBAL DEFAULT 7 setlinebuf@@LIBC
407:   FUNC GLOBAL DEFAULT 7 strcoll@@LIBC
408:   FUNC GLOBAL DEFAULT 7 vfprintf@@LIBC
409:   FUNC GLOBAL DEFAULT 7 malloc@@LIBC
410:   FUNC GLOBAL DEFAULT 7 readlink@@LIBC
411:   FUNC GLOBAL DEFAULT 7 sendmmsg@@LIBC
412:   FUNC GLOBAL DEFAULT 7 tcgetpgrp@@LIBC
413:   FUNC GLOBAL DEFAULT 7 fsetxattr@@LIBC
414:   FUNC GLOBAL DEFAULT 7 pthread_rwlock_trywrlock@@LIBC
415:   FUNC GLOBAL DEFAULT 7 freelocale@@LIBC
416:   FUNC GLOBAL DEFAULT 7 toupper_l@@LIBC
417:   FUNC GLOBAL DEFAULT 7 printf@@LIBC
418:   FUNC GLOBAL DEFAULT 7 pthread_attr_getstack@@LIBC
419:   FUNC GLOBAL DEFAULT 7 vswprintf@@LIBC
420:   FUNC GLOBAL DEFAULT 7 wcsncasecmp@@LIBC
421:   FUNC GLOBAL DEFAULT 7 ftruncate@@LIBC
422:   FUNC GLOBAL DEFAULT 7 isxdigit_l@@LIBC
423:   FUNC GLOBAL DEFAULT 7 memrchr@@LIBC
424:   FUNC GLOBAL DEFAULT 7 setgroups@@LIBC
425:   FUNC GLOBAL DEFAULT 7 sigsetjmp@@LIBC
426:   FUNC GLOBAL DEFAULT 7 __loc_aton@@LIBC
427:   FUNC GLOBAL DEFAULT 7 __putshort@@LIBC
428:   FUNC GLOBAL DEFAULT 7 creat64@@LIBC
429:   FUNC GLOBAL DEFAULT 7 iswctype_l@@LIBC
430:   FUNC GLOBAL DEFAULT 7 _setjmp@@LIBC
431:   FUNC GLOBAL DEFAULT 7 execve@@LIBC
432:   FUNC GLOBAL DEFAULT 7 fgetln@@LIBC
433:   FUNC GLOBAL DEFAULT 7 mbrtoc16@@LIBC
434:   FUNC GLOBAL DEFAULT 7 sem_trywait@@LIBC
435:   FUNC GLOBAL DEFAULT 7 getaddrinfo@@LIBC
436:   FUNC GLOBAL DEFAULT 7 hstrerror@@LIBC
437:   FUNC GLOBAL DEFAULT 7 nsdispatch@@LIBC
438:   FUNC GLOBAL DEFAULT 7 strtoull@@LIBC
439:   FUNC GLOBAL DEFAULT 7 _resolv_delete_cache_for_@@LIBC
440:   FUNC GLOBAL DEFAULT 7 localtime_r@@LIBC
441:   FUNC GLOBAL DEFAULT 7 sched_rr_get_interval@@LIBC
442:   FUNC GLOBAL DEFAULT 7 setegid@@LIBC
443:   FUNC GLOBAL DEFAULT 7 atof@@LIBC
444:   FUNC GLOBAL DEFAULT 7 initgroups@@LIBC
445:   FUNC GLOBAL DEFAULT 7 __FD_CLR_chk@@LIBC
446:   FUNC GLOBAL DEFAULT 7 reboot@@LIBC
447:   FUNC GLOBAL DEFAULT 7 wcscasecmp@@LIBC
448:   FUNC GLOBAL DEFAULT 7 __strcpy_chk@@LIBC
449:   FUNC GLOBAL DEFAULT 7 scandir64@@LIBC
450:   FUNC GLOBAL DEFAULT 7 sched_get_priority_min@@LIBC
451:   FUNC GLOBAL DEFAULT 7 __isnan@@LIBC
452:   FUNC GLOBAL DEFAULT 7 atoi@@LIBC
453:   FUNC GLOBAL DEFAULT 7 getpgrp@@LIBC
454:   FUNC GLOBAL DEFAULT 7 wcscoll@@LIBC
455:   FUNC GLOBAL DEFAULT 7 funlockfile@@LIBC
456:   FUNC GLOBAL DEFAULT 7 gethostbyaddr@@LIBC
457:   FUNC GLOBAL DEFAULT 7 gmtime_r@@LIBC
458:   FUNC GLOBAL DEFAULT 7 dup2@@LIBC
459:   FUNC GLOBAL DEFAULT 7 fprintf@@LIBC
460:   FUNC GLOBAL DEFAULT 7 isalnum@@LIBC
461:   FUNC GLOBAL DEFAULT 7 putchar_unlocked@@LIBC
462:   FUNC GLOBAL DEFAULT 7 wctob@@LIBC
463:   FUNC GLOBAL DEFAULT 7 __FD_ISSET_chk@@LIBC
464:   FUNC GLOBAL DEFAULT 7 atol@@LIBC
465:   FUNC GLOBAL DEFAULT 7 dup3@@LIBC
466:   FUNC GLOBAL DEFAULT 7 pthread_getcpuclockid@@LIBC
467:   FUNC GLOBAL DEFAULT 7 sched_get_priority_max@@LIBC
468:   FUNC GLOBAL DEFAULT 7 execvp@@LIBC
469:   FUNC GLOBAL DEFAULT 7 getgrouplist@@LIBC
470:   FUNC GLOBAL DEFAULT 7 isgraph_l@@LIBC
471:   FUNC GLOBAL DEFAULT 7 pthread_attr_setschedpara@@LIBC
472:   FUNC GLOBAL DEFAULT 7 readdir@@LIBC
473:   FUNC GLOBAL DEFAULT 7 strsignal@@LIBC
474:   FUNC GLOBAL DEFAULT 7 abort@@LIBC
475:   FUNC GLOBAL DEFAULT 7 fseek@@LIBC
476:   FUNC GLOBAL DEFAULT 7 pause@@LIBC
477:   FUNC GLOBAL DEFAULT 7 getwchar@@LIBC
478:   FUNC GLOBAL DEFAULT 7 openat64@@LIBC
479:   FUNC GLOBAL DEFAULT 7 pwrite64@@LIBC
480:   FUNC GLOBAL DEFAULT 7 stpcpy@@LIBC
481:   FUNC GLOBAL DEFAULT 7 verrx@@LIBC
482:   FUNC GLOBAL DEFAULT 7 pclose@@LIBC
483:   FUNC GLOBAL DEFAULT 7 remove@@LIBC
484:   FUNC GLOBAL DEFAULT 7 __fp_nquery@@LIBC
485:   FUNC GLOBAL DEFAULT 7 ether_ntoa@@LIBC
486:   FUNC GLOBAL DEFAULT 7 nanosleep@@LIBC
487:   FUNC GLOBAL DEFAULT 7 pthread_getattr_np@@LIBC
488:   FUNC GLOBAL DEFAULT 7 __openat_2@@LIBC
489:   FUNC GLOBAL DEFAULT 7 wcsrtombs@@LIBC
490:   FUNC GLOBAL DEFAULT 7 getnetbyaddr@@LIBC
491:   FUNC GLOBAL DEFAULT 7 strtoul@@LIBC
492:   FUNC GLOBAL DEFAULT 7 strtoumax@@LIBC
493:   FUNC GLOBAL DEFAULT 7 inotify_rm_watch@@LIBC
494:   FUNC GLOBAL DEFAULT 7 pipe@@LIBC
495:   FUNC GLOBAL DEFAULT 7 readdir_r@@LIBC
496:   FUNC GLOBAL DEFAULT 7 sigblock@@LIBC
497:   FUNC GLOBAL DEFAULT 7 wcschr@@LIBC
498:   FUNC GLOBAL DEFAULT 7 getc@@LIBC
499:   FUNC GLOBAL DEFAULT 7 iswdigit_l@@LIBC
500:   FUNC GLOBAL DEFAULT 7 pthread_mutex_init@@LIBC
501:   FUNC GLOBAL DEFAULT 7 vfscanf@@LIBC
502:   FUNC GLOBAL DEFAULT 7 mbrlen@@LIBC
503:   FUNC GLOBAL DEFAULT 7 endutent@@LIBC
504:   FUNC GLOBAL DEFAULT 7 getprogname@@LIBC
505:   FUNC GLOBAL DEFAULT 7 getpwnam@@LIBC
506:   FUNC GLOBAL DEFAULT 7 strncpy@@LIBC
507:   OBJECT GLOBAL DEFAULT 9 daylight@@LIBC
508:   FUNC GLOBAL DEFAULT 7 fsetpos@@LIBC
509:   FUNC GLOBAL DEFAULT 7 strtouq@@LIBC
510:   FUNC GLOBAL DEFAULT 7 chmod@@LIBC
511:   FUNC GLOBAL DEFAULT 7 ftw64@@LIBC
512:   FUNC GLOBAL DEFAULT 7 getc_unlocked@@LIBC
513:   FUNC GLOBAL DEFAULT 7 gmtime@@LIBC
514:   FUNC GLOBAL DEFAULT 7 isascii@@LIBC
515:   FUNC GLOBAL DEFAULT 7 isnormal@@LIBC
516:   FUNC GLOBAL DEFAULT 7 statvfs64@@LIBC
517:   FUNC GLOBAL DEFAULT 7 asctime@@LIBC
518:   FUNC GLOBAL DEFAULT 7 connect@@LIBC
519:   FUNC GLOBAL DEFAULT 7 getservbyname@@LIBC
520:   FUNC GLOBAL DEFAULT 7 __snprintf_chk@@LIBC
521:   FUNC GLOBAL DEFAULT 7 __memcpy_chk@@LIBC
522:   FUNC GLOBAL DEFAULT 7 getsid@@LIBC
523:   FUNC GLOBAL DEFAULT 7 pthread_cond_init@@LIBC
524:   FUNC GLOBAL DEFAULT 7 rename@@LIBC
525:   FUNC GLOBAL DEFAULT 7 sigdelset@@LIBC
526:   FUNC GLOBAL DEFAULT 7 splice@@LIBC
527:   FUNC GLOBAL DEFAULT 7 __isfinite@@LIBC
528:   FUNC GLOBAL DEFAULT 7 arc4random@@LIBC
529:   FUNC GLOBAL DEFAULT 7 asprintf@@LIBC
530:   FUNC GLOBAL DEFAULT 7 pthread_mutexattr_setpsha@@LIBC
531:   FUNC GLOBAL DEFAULT 7 seteuid@@LIBC
532:   FUNC GLOBAL DEFAULT 7 sigsetmask@@LIBC
533:   FUNC GLOBAL DEFAULT 7 umask@@LIBC
534:   FUNC GLOBAL DEFAULT 7 __system_property_read@@LIBC
535:   FUNC GLOBAL DEFAULT 7 closelog@@LIBC
536:   FUNC GLOBAL DEFAULT 7 getprotobyname@@LIBC
537:   FUNC GLOBAL DEFAULT 7 setlogmask@@LIBC
538:   FUNC GLOBAL DEFAULT 7 wcscoll_l@@LIBC
539:   FUNC GLOBAL DEFAULT 7 __res_hnok@@LIBC
540:   FUNC GLOBAL DEFAULT 7 __sched_cpucount@@LIBC
541:   FUNC GLOBAL DEFAULT 7 mknod@@LIBC
542:   FUNC GLOBAL DEFAULT 7 lsearch@@LIBC
543:   FUNC GLOBAL DEFAULT 7 mlock@@LIBC
544:   FUNC GLOBAL DEFAULT 7 utime@@LIBC
545:   FUNC GLOBAL DEFAULT 7 eventfd_read@@LIBC
546:   FUNC GLOBAL DEFAULT 7 freeaddrinfo@@LIBC
547:   FUNC GLOBAL DEFAULT 7 jrand48@@LIBC
548:   FUNC GLOBAL DEFAULT 7 pthread_attr_setscope@@LIBC
549:   FUNC GLOBAL DEFAULT 7 tmpfile@@LIBC
550:   FUNC GLOBAL DEFAULT 7 wcscpy@@LIBC
551:   FUNC GLOBAL DEFAULT 7 wcstoul@@LIBC
552:   FUNC GLOBAL DEFAULT 7 dirname@@LIBC
553:   FUNC GLOBAL DEFAULT 7 iswupper_l@@LIBC
554:   FUNC GLOBAL DEFAULT 7 readv@@LIBC
555:   FUNC GLOBAL DEFAULT 7 strspn@@LIBC
556:   FUNC GLOBAL DEFAULT 7 timer_create@@LIBC
557:   FUNC GLOBAL DEFAULT 7 __sched_cpualloc@@LIBC
558:   FUNC GLOBAL DEFAULT 7 isnormalf@@LIBC
559:   FUNC GLOBAL DEFAULT 7 iswpunct@@LIBC
560:   FUNC GLOBAL DEFAULT 7 kill@@LIBC
561:   FUNC GLOBAL DEFAULT 7 readdir64_r@@LIBC
562:   FUNC GLOBAL DEFAULT 7 ttyname@@LIBC
563:   FUNC GLOBAL DEFAULT 7 __isnanf@@LIBC
564:   FUNC GLOBAL DEFAULT 7 fdopendir@@LIBC
565:   FUNC GLOBAL DEFAULT 7 gets@@LIBC
566:   FUNC GLOBAL DEFAULT 7 res_query@@LIBC
567:   FUNC GLOBAL DEFAULT 7 statfs64@@LIBC
568:   FUNC GLOBAL DEFAULT 7 wcsncpy@@LIBC
569:   FUNC GLOBAL DEFAULT 7 daemon@@LIBC
570:   FUNC GLOBAL DEFAULT 7 ether_ntoa_r@@LIBC
571:   FUNC GLOBAL DEFAULT 7 isalnum_l@@LIBC
572:   FUNC GLOBAL DEFAULT 7 wcsstr@@LIBC
573:   FUNC GLOBAL DEFAULT 7 getxattr@@LIBC
574:   FUNC GLOBAL DEFAULT 7 ioctl@@LIBC
575:   FUNC GLOBAL DEFAULT 7 putwc@@LIBC
576:   FUNC GLOBAL DEFAULT 7 statfs@@LIBC
577:   FUNC GLOBAL DEFAULT 7 strncat@@LIBC
578:   FUNC GLOBAL DEFAULT 7 __dn_count_labels@@LIBC
579:   FUNC GLOBAL DEFAULT 7 __strncat_chk@@LIBC
580:   FUNC GLOBAL DEFAULT 7 getchar_unlocked@@LIBC
581:   FUNC GLOBAL DEFAULT 7 iswblank_l@@LIBC
582:   FUNC GLOBAL DEFAULT 7 pread@@LIBC
583:   FUNC GLOBAL DEFAULT 7 __p_cdname@@LIBC
584:   FUNC GLOBAL DEFAULT 7 isnormall@@LIBC
585:   FUNC GLOBAL DEFAULT 7 readlinkat@@LIBC
586:   FUNC GLOBAL DEFAULT 7 feof@@LIBC
587:   FUNC GLOBAL DEFAULT 7 getwc@@LIBC
588:   FUNC GLOBAL DEFAULT 7 grantpt@@LIBC
589:   FUNC GLOBAL DEFAULT 7 sendfile@@LIBC
590:   FUNC GLOBAL DEFAULT 7 setutent@@LIBC
591:   FUNC GLOBAL DEFAULT 7 srand48@@LIBC
592:   FUNC GLOBAL DEFAULT 7 strtok_r@@LIBC
593:   FUNC GLOBAL DEFAULT 7 vsprintf@@LIBC
594:   FUNC GLOBAL DEFAULT 7 __isnanl@@LIBC
595:   FUNC GLOBAL DEFAULT 7 lchown@@LIBC
596:   FUNC GLOBAL DEFAULT 7 lremovexattr@@LIBC
597:   FUNC GLOBAL DEFAULT 7 strtold_l@@LIBC
598:   FUNC GLOBAL DEFAULT 7 __ctype_get_mb_cur_max@@LIBC
599:   FUNC GLOBAL DEFAULT 7 iswctype@@LIBC
600:   FUNC GLOBAL DEFAULT 7 sched_getcpu@@LIBC
601:   FUNC GLOBAL DEFAULT 7 __res_send@@LIBC
602:   FUNC GLOBAL DEFAULT 7 __system_property_find@@LIBC
603:   FUNC GLOBAL DEFAULT 7 ctime_r@@LIBC
604:   FUNC GLOBAL DEFAULT 7 fileno@@LIBC
605:   FUNC GLOBAL DEFAULT 7 prctl@@LIBC
606:   FUNC GLOBAL DEFAULT 7 __fpclassifyd@@LIBC
607:   FUNC GLOBAL DEFAULT 7 __system_property_serial@@LIBC
608:   FUNC GLOBAL DEFAULT 7 erand48@@LIBC
609:   OBJECT GLOBAL DEFAULT 9 optreset@@LIBC
610:   FUNC GLOBAL DEFAULT 7 recv@@LIBC
611:   FUNC GLOBAL DEFAULT 7 recvfrom@@LIBC
612:   FUNC GLOBAL DEFAULT 7 strlen@@LIBC
613:   FUNC GLOBAL DEFAULT 7 swapon@@LIBC
614:   FUNC GLOBAL DEFAULT 7 vfwscanf@@LIBC
615:   FUNC GLOBAL DEFAULT 7 __res_close@@LIBC
616:   FUNC GLOBAL DEFAULT 7 getauxval@@LIBC
617:   FUNC GLOBAL DEFAULT 7 getopt@@LIBC
618:   FUNC GLOBAL DEFAULT 7 lgetxattr@@LIBC
619:   FUNC GLOBAL DEFAULT 7 __fpclassifyf@@LIBC
620:   FUNC GLOBAL DEFAULT 7 __res_mailok@@LIBC
621:   FUNC GLOBAL DEFAULT 7 getpwnam_r@@LIBC
622:   FUNC GLOBAL DEFAULT 7 sem_close@@LIBC
623:   FUNC GLOBAL DEFAULT 7 sem_destroy@@LIBC
624:   FUNC GLOBAL DEFAULT 7 strtod@@LIBC
625:   OBJECT GLOBAL DEFAULT 9 __sF@@LIBC
626:   FUNC GLOBAL DEFAULT 7 err@@LIBC
627:   FUNC GLOBAL DEFAULT 7 inet_ntoa@@LIBC
628:   FUNC GLOBAL DEFAULT 7 isfinitef@@LIBC
629:   FUNC GLOBAL DEFAULT 7 setns@@LIBC
630:   FUNC GLOBAL DEFAULT 7 sysinfo@@LIBC
631:   FUNC GLOBAL DEFAULT 7 wcscat@@LIBC
632:   FUNC GLOBAL DEFAULT 7 __res_isourserver@@LIBC
633:   FUNC GLOBAL DEFAULT 7 capget@@LIBC
634:   FUNC GLOBAL DEFAULT 7 clock@@LIBC
635:   FUNC GLOBAL DEFAULT 7 perror@@LIBC
636:   FUNC GLOBAL DEFAULT 7 strtof@@LIBC
637:   FUNC GLOBAL DEFAULT 7 wscanf@@LIBC
638:   FUNC GLOBAL DEFAULT 7 errx@@LIBC
639:   FUNC GLOBAL DEFAULT 7 fstatfs@@LIBC
640:   FUNC GLOBAL DEFAULT 7 mkdir@@LIBC
641:   FUNC GLOBAL DEFAULT 7 system@@LIBC
642:   FUNC GLOBAL DEFAULT 7 wmemchr@@LIBC
643:   OBJECT GLOBAL DEFAULT 9 __p_class_syms@@LIBC
644:   FUNC GLOBAL DEFAULT 7 mbsnrtowcs@@LIBC
645:   OBJECT GLOBAL DEFAULT 9 optopt@@LIBC
646:   FUNC GLOBAL DEFAULT 7 sigemptyset@@LIBC
647:   FUNC GLOBAL DEFAULT 7 strrchr@@LIBC
648:   FUNC GLOBAL DEFAULT 7 tcsetattr@@LIBC
649:   FUNC GLOBAL DEFAULT 7 wctype@@LIBC
650:   FUNC GLOBAL DEFAULT 7 __res_nsearch@@LIBC
651:   FUNC GLOBAL DEFAULT 7 _getlong@@LIBC
652:   FUNC GLOBAL DEFAULT 7 mlockall@@LIBC
653:   FUNC GLOBAL DEFAULT 7 pthread_cond_broadcast@@LIBC
654:   FUNC GLOBAL DEFAULT 7 wcsncat@@LIBC
655:   FUNC GLOBAL DEFAULT 7 __fpclassifyl@@LIBC
656:   FUNC GLOBAL DEFAULT 7 mkstemps@@LIBC
657:   FUNC GLOBAL DEFAULT 7 __res_nmkquery@@LIBC
658:   FUNC GLOBAL DEFAULT 7 isfinitel@@LIBC
659:   FUNC GLOBAL DEFAULT 7 mkstemp64@@LIBC
660:   FUNC GLOBAL DEFAULT 7 mmap@@LIBC
661:   FUNC GLOBAL DEFAULT 7 nrand48@@LIBC
662:   FUNC GLOBAL DEFAULT 7 prlimit64@@LIBC
663:   FUNC GLOBAL DEFAULT 7 pthread_attr_init@@LIBC
664:   FUNC GLOBAL DEFAULT 7 setrlimit64@@LIBC
665:   FUNC GLOBAL DEFAULT 7 sigprocmask@@LIBC
666:   FUNC GLOBAL DEFAULT 7 strtok@@LIBC
667:   FUNC GLOBAL DEFAULT 7 close@@LIBC
668:   FUNC GLOBAL DEFAULT 7 setpgid@@LIBC
669:   FUNC GLOBAL DEFAULT 7 strtol@@LIBC
670:   FUNC GLOBAL DEFAULT 7 unlinkat@@LIBC
671:   FUNC GLOBAL DEFAULT 7 ppoll@@LIBC
672:   FUNC GLOBAL DEFAULT 7 strcmp@@LIBC
673:   FUNC GLOBAL DEFAULT 7 sync@@LIBC
674:   FUNC GLOBAL DEFAULT 7 timer_settime@@LIBC
675:   FUNC GLOBAL DEFAULT 7 delete_module@@LIBC
676:   FUNC GLOBAL DEFAULT 7 difftime@@LIBC
677:   FUNC GLOBAL DEFAULT 7 fchownat@@LIBC
678:   FUNC GLOBAL DEFAULT 7 fread@@LIBC
679:   FUNC GLOBAL DEFAULT 7 sprintf@@LIBC
680:   FUNC GLOBAL DEFAULT 7 madvise@@LIBC
681:   FUNC GLOBAL DEFAULT 7 pthread_rwlock_rdlock@@LIBC
682:   FUNC GLOBAL DEFAULT 7 tgkill@@LIBC
683:   FUNC GLOBAL DEFAULT 7 timerfd_settime@@LIBC
684:   FUNC GLOBAL DEFAULT 7 __system_property_wait_an@@LIBC_DEPRECATED
685:   FUNC GLOBAL DEFAULT 7 epoll_wait@@LIBC
686:   FUNC GLOBAL DEFAULT 7 putc@@LIBC
687:   FUNC GLOBAL DEFAULT 7 setgid@@LIBC
688:   FUNC GLOBAL DEFAULT 7 shutdown@@LIBC
689:   FUNC GLOBAL DEFAULT 7 __recvfrom_chk@@LIBC
690:   FUNC GLOBAL DEFAULT 7 _resolv_set_nameservers_f@@LIBC
691:   FUNC GLOBAL DEFAULT 7 getrlimit@@LIBC
692:   FUNC GLOBAL DEFAULT 7 sched_setparam@@LIBC
693:   FUNC GLOBAL DEFAULT 7 strtoq@@LIBC
694:   FUNC GLOBAL DEFAULT 7 __p_rcode@@LIBC
695:   FUNC GLOBAL DEFAULT 7 fwscanf@@LIBC
696:   FUNC GLOBAL DEFAULT 7 iswspace_l@@LIBC
697:   OBJECT GLOBAL DEFAULT 9 opterr@@LIBC
698:   FUNC GLOBAL DEFAULT 7 pthread_key_delete@@LIBC
699:   FUNC GLOBAL DEFAULT 7 utimensat@@LIBC
700:   FUNC GLOBAL DEFAULT 7 vwarnx@@LIBC
701:   FUNC GLOBAL DEFAULT 7 ftell@@LIBC
702:   FUNC GLOBAL DEFAULT 7 strcasecmp@@LIBC
703:   FUNC GLOBAL DEFAULT 7 verr@@LIBC
704:   FUNC GLOBAL DEFAULT 7 fts_set@@LIBC
705:   FUNC GLOBAL DEFAULT 7 inet_makeaddr@@LIBC
706:   FUNC GLOBAL DEFAULT 7 inet_ntop@@LIBC
707:   FUNC GLOBAL DEFAULT 7 mbrtoc32@@LIBC
708:   FUNC GLOBAL DEFAULT 7 strcoll_l@@LIBC
709:   FUNC GLOBAL DEFAULT 7 times@@LIBC
710:   FUNC GLOBAL DEFAULT 7 wmemcpy@@LIBC
711:   FUNC GLOBAL DEFAULT 7 opendir@@LIBC
712:   FUNC GLOBAL DEFAULT 7 regcomp@@LIBC
713:   FUNC GLOBAL DEFAULT 7 fgetpos@@LIBC
714:   FUNC GLOBAL DEFAULT 7 gethostbyname@@LIBC
715:   FUNC GLOBAL DEFAULT 7 iswlower@@LIBC
716:   FUNC GLOBAL DEFAULT 7 siglongjmp@@LIBC
717:   FUNC GLOBAL DEFAULT 7 wcpcpy@@LIBC
718:   FUNC GLOBAL DEFAULT 7 wcsrchr@@LIBC
719:   FUNC GLOBAL DEFAULT 7 gethostbyname_r@@LIBC
720:   FUNC GLOBAL DEFAULT 7 pthread_kill@@LIBC
721:   FUNC GLOBAL DEFAULT 7 seed48@@LIBC
722:   FUNC GLOBAL DEFAULT 7 vsyslog@@LIBC
723:   FUNC GLOBAL DEFAULT 7 abs@@LIBC
724:   FUNC GLOBAL DEFAULT 7 popen@@LIBC
725:   FUNC GLOBAL DEFAULT 7 psignal@@LIBC
726:   FUNC GLOBAL DEFAULT 7 pthread_condattr_setclock@@LIBC
727:   FUNC GLOBAL DEFAULT 7 _Exit@@LIBC
728:   FUNC GLOBAL DEFAULT 7 __strlen_chk@@LIBC
729:   FUNC GLOBAL DEFAULT 7 sendto@@LIBC
730:   FUNC GLOBAL DEFAULT 7 __b64_pton@@LIBC
731:   FUNC GLOBAL DEFAULT 7 ispunct@@LIBC
732:   FUNC GLOBAL DEFAULT 7 putenv@@LIBC
733:   FUNC GLOBAL DEFAULT 7 sem_init@@LIBC
734:   FUNC GLOBAL DEFAULT 7 wcsftime@@LIBC
735:   FUNC GLOBAL DEFAULT 7 getnameinfo@@LIBC
736:   FUNC GLOBAL DEFAULT 7 sem_unlink@@LIBC
737:   FUNC GLOBAL DEFAULT 7 bsearch@@LIBC
738:   FUNC GLOBAL DEFAULT 7 islower_l@@LIBC
739:   FUNC GLOBAL DEFAULT 7 pipe2@@LIBC
740:   FUNC GLOBAL DEFAULT 7 posix_openpt@@LIBC
741:   FUNC GLOBAL DEFAULT 7 getnetbyname@@LIBC
742:   FUNC GLOBAL DEFAULT 7 iswprint_l@@LIBC
743:   FUNC GLOBAL DEFAULT 7 iswalpha_l@@LIBC
744:   FUNC GLOBAL DEFAULT 7 puts@@LIBC
745:   FUNC GLOBAL DEFAULT 7 getgrnam@@LIBC
746:   FUNC GLOBAL DEFAULT 7 pthread_condattr_destroy@@LIBC
747:   FUNC GLOBAL DEFAULT 7 pthread_setspecific@@LIBC
748:   FUNC GLOBAL DEFAULT 7 __pthread_cleanup_pop@@LIBC
749:   FUNC GLOBAL DEFAULT 7 __res_nquerydomain@@LIBC
750:   OBJECT GLOBAL DEFAULT 9 __stack_chk_guard@@LIBC
751:   FUNC GLOBAL DEFAULT 7 fchmod@@LIBC
752:   FUNC GLOBAL DEFAULT 7 pthread_cond_wait@@LIBC
753:   FUNC GLOBAL DEFAULT 7 setrlimit@@LIBC
754:   FUNC GLOBAL DEFAULT 7 wctype_l@@LIBC
755:   FUNC GLOBAL DEFAULT 7 getchar@@LIBC
756:   FUNC GLOBAL DEFAULT 7 pthread_cond_timedwait@@LIBC
757:   FUNC GLOBAL DEFAULT 7 pthread_condattr_setpshar@@LIBC
758:   FUNC GLOBAL DEFAULT 7 vwprintf@@LIBC
759:   FUNC GLOBAL DEFAULT 7 cfgetispeed@@LIBC
760:   FUNC GLOBAL DEFAULT 7 fcntl@@LIBC
761:   FUNC GLOBAL DEFAULT 7 mmap64@@LIBC
762:   OBJECT GLOBAL DEFAULT 9 optarg@@LIBC
763:   FUNC GLOBAL DEFAULT 7 __stpcpy_chk@@LIBC
764:   FUNC GLOBAL DEFAULT 7 getpriority@@LIBC
765:   FUNC GLOBAL DEFAULT 7 sendfile64@@LIBC
766:   FUNC GLOBAL DEFAULT 7 strerror_r@@LIBC
767:   FUNC GLOBAL DEFAULT 7 __strchr_chk@@LIBC
768:   FUNC GLOBAL DEFAULT 7 __sym_ntop@@LIBC
769:   FUNC GLOBAL DEFAULT 7 flockfile@@LIBC
770:   FUNC GLOBAL DEFAULT 7 getdelim@@LIBC
771:   FUNC GLOBAL DEFAULT 7 isnan@@LIBC
772:   FUNC GLOBAL DEFAULT 7 isxdigit@@LIBC
773:   FUNC GLOBAL DEFAULT 7 fts_close@@LIBC
774:   FUNC GLOBAL DEFAULT 7 mbsrtowcs@@LIBC
775:   FUNC GLOBAL DEFAULT 7 setuid@@LIBC
776:   FUNC GLOBAL DEFAULT 7 gettid@@LIBC
777:   FUNC GLOBAL DEFAULT 7 insque@@LIBC
778:   FUNC GLOBAL DEFAULT 7 mktime@@LIBC
779:   FUNC GLOBAL DEFAULT 7 pthread_attr_setdetachsta@@LIBC
780:   FUNC GLOBAL DEFAULT 7 pthread_condattr_init@@LIBC
781:   FUNC GLOBAL DEFAULT 7 renameat@@LIBC
782:   FUNC GLOBAL DEFAULT 7 setservent@@LIBC
783:   FUNC GLOBAL DEFAULT 7 syscall@@LIBC
784:   FUNC GLOBAL DEFAULT 7 __dn_comp@@LIBC
785:   FUNC GLOBAL DEFAULT 7 __sym_ntos@@LIBC
786:   FUNC GLOBAL DEFAULT 7 fopen@@LIBC
787:   FUNC GLOBAL DEFAULT 7 getitimer@@LIBC
788:   FUNC GLOBAL DEFAULT 7 getpt@@LIBC
789:   FUNC GLOBAL DEFAULT 7 __libc_init@@LIBC
790:   FUNC GLOBAL DEFAULT 7 __vsnprintf_chk@@LIBC
791:   FUNC GLOBAL DEFAULT 7 ether_aton@@LIBC
792:   FUNC GLOBAL DEFAULT 7 isfinite@@LIBC
793:   FUNC GLOBAL DEFAULT 7 iswupper@@LIBC
794:   FUNC GLOBAL DEFAULT 7 pthread_attr_setstack@@LIBC
795:   FUNC GLOBAL DEFAULT 7 readahead@@LIBC
796:   FUNC GLOBAL DEFAULT 7 llabs@@LIBC
797:   FUNC GLOBAL DEFAULT 7 dup@@LIBC
798:   FUNC GLOBAL DEFAULT 7 fstatat64@@LIBC
799:   FUNC GLOBAL DEFAULT 7 res_search@@LIBC
800:   FUNC GLOBAL DEFAULT 7 calloc@@LIBC
801:   FUNC GLOBAL DEFAULT 7 mbrtowc@@LIBC
802:   FUNC GLOBAL DEFAULT 7 pthread_once@@LIBC
803:   FUNC GLOBAL DEFAULT 7 __dn_skipname@@LIBC
804:   FUNC GLOBAL DEFAULT 7 epoll_pwait@@LIBC
805:   FUNC GLOBAL DEFAULT 7 exit@@LIBC
806:   FUNC GLOBAL DEFAULT 7 fdopen@@LIBC
807:   FUNC GLOBAL DEFAULT 7 iscntrl_l@@LIBC
808:   FUNC GLOBAL DEFAULT 7 putwchar@@LIBC
809:   FUNC GLOBAL DEFAULT 7 wmemset@@LIBC
810:   FUNC GLOBAL DEFAULT 7 __memmove_chk@@LIBC
811:   FUNC GLOBAL DEFAULT 7 __res_send_setrhook@@LIBC
812:   FUNC GLOBAL DEFAULT 7 fputwc@@LIBC
813:   FUNC GLOBAL DEFAULT 7 inet_netof@@LIBC
814:   FUNC GLOBAL DEFAULT 7 scanf@@LIBC
815:   FUNC GLOBAL DEFAULT 7 tdelete@@LIBC
816:   FUNC GLOBAL DEFAULT 7 vswscanf@@LIBC
817:   FUNC GLOBAL DEFAULT 7 clock_gettime@@LIBC
818:   FUNC GLOBAL DEFAULT 7 getcwd@@LIBC
819:   FUNC GLOBAL DEFAULT 7 wcpncpy@@LIBC
820:   FUNC GLOBAL DEFAULT 7 vasprintf@@LIBC
821:   FUNC GLOBAL DEFAULT 7 fgetwc@@LIBC
822:   FUNC GLOBAL DEFAULT 7 pthread_mutex_lock@@LIBC
823:   FUNC GLOBAL DEFAULT 7 towlower_l@@LIBC
824:   FUNC GLOBAL DEFAULT 7 wprintf@@LIBC
825:   FUNC GLOBAL DEFAULT 7 _getshort@@LIBC
826:   FUNC GLOBAL DEFAULT 7 drand48@@LIBC
827:   FUNC GLOBAL DEFAULT 7 fallocate@@LIBC
828:   FUNC GLOBAL DEFAULT 7 ispunct_l@@LIBC
829:   FUNC GLOBAL DEFAULT 7 pthread_attr_getdetachsta@@LIBC
830:   FUNC GLOBAL DEFAULT 7 remque@@LIBC
831:   FUNC GLOBAL DEFAULT 7 __strlcat_chk@@LIBC
832:   FUNC GLOBAL DEFAULT 7 getopt_long@@LIBC
833:   FUNC GLOBAL DEFAULT 7 iswgraph_l@@LIBC
834:   FUNC GLOBAL DEFAULT 7 pthread_rwlock_wrlock@@LIBC
835:   FUNC GLOBAL DEFAULT 7 signal@@LIBC
836:   FUNC GLOBAL DEFAULT 7 __strrchr_chk@@LIBC
837:   FUNC GLOBAL DEFAULT 7 pthread_mutex_trylock@@LIBC
838:   FUNC GLOBAL DEFAULT 7 strcspn@@LIBC
839:   FUNC GLOBAL DEFAULT 7 __res_queriesmatch@@LIBC
840:   FUNC GLOBAL DEFAULT 7 __res_ninit@@LIBC
841:   FUNC GLOBAL DEFAULT 7 mincore@@LIBC
842:   FUNC GLOBAL DEFAULT 7 wcstoimax@@LIBC
843:   FUNC GLOBAL DEFAULT 7 chdir@@LIBC
844:   FUNC GLOBAL DEFAULT 7 inet_nsap_ntoa@@LIBC
845:   FUNC GLOBAL DEFAULT 7 sigfillset@@LIBC
846:   FUNC GLOBAL DEFAULT 7 arc4random_buf@@LIBC
847:   FUNC GLOBAL DEFAULT 7 futimens@@LIBC
848:   FUNC GLOBAL DEFAULT 7 initstate@@LIBC
849:   FUNC GLOBAL DEFAULT 7 islower@@LIBC
850:   FUNC GLOBAL DEFAULT 7 setsockopt@@LIBC
851:   FUNC GLOBAL DEFAULT 7 setvbuf@@LIBC
852:   FUNC GLOBAL DEFAULT 7 clearerr@@LIBC
853:   FUNC GLOBAL DEFAULT 7 imaxdiv@@LIBC
854:   FUNC GLOBAL DEFAULT 7 mkfifo@@LIBC
855:   FUNC GLOBAL DEFAULT 7 setitimer@@LIBC
856:   FUNC GLOBAL DEFAULT 7 android_set_abort_message@@LIBC
857:   FUNC GLOBAL DEFAULT 7 pthread_mutex_destroy@@LIBC
858:   FUNC GLOBAL DEFAULT 7 pthread_mutex_unlock@@LIBC
859:   FUNC GLOBAL DEFAULT 7 symlink@@LIBC
860:   FUNC GLOBAL DEFAULT 7 labs@@LIBC
861:   FUNC GLOBAL DEFAULT 7 sched_getaffinity@@LIBC
862:   FUNC GLOBAL DEFAULT 7 isnanf@@LIBC
863:   FUNC GLOBAL DEFAULT 7 malloc_usable_size@@LIBC
864:   FUNC GLOBAL DEFAULT 7 nftw@@LIBC
865:   FUNC GLOBAL DEFAULT 7 setpgrp@@LIBC
866:   FUNC GLOBAL DEFAULT 7 bindresvport@@LIBC
867:   FUNC GLOBAL DEFAULT 7 tsearch@@LIBC
868:   FUNC GLOBAL DEFAULT 7 fputws@@LIBC
869:   FUNC GLOBAL DEFAULT 7 swscanf@@LIBC
870:   FUNC GLOBAL DEFAULT 7 __cxa_atexit@@LIBC
871:   FUNC GLOBAL DEFAULT 7 accept@@LIBC
872:   FUNC GLOBAL DEFAULT 7 fclose@@LIBC
873:   FUNC GLOBAL DEFAULT 7 ftrylockfile@@LIBC
874:   FUNC GLOBAL DEFAULT 7 tcsetpgrp@@LIBC
875:   FUNC GLOBAL DEFAULT 7 tempnam@@LIBC
876:   FUNC GLOBAL DEFAULT 7 removexattr@@LIBC
877:   FUNC GLOBAL DEFAULT 7 fgetws@@LIBC
878:   FUNC GLOBAL DEFAULT 7 pthread_rwlock_destroy@@LIBC
879:   FUNC GLOBAL DEFAULT 7 ptsname@@LIBC
880:   FUNC GLOBAL DEFAULT 7 dprintf@@LIBC
881:   FUNC GLOBAL DEFAULT 7 isnanl@@LIBC
882:   FUNC GLOBAL DEFAULT 7 pthread_getschedparam@@LIBC
883:   FUNC GLOBAL DEFAULT 7 vdprintf@@LIBC
884:   FUNC GLOBAL DEFAULT 7 wcscspn@@LIBC
885:   FUNC GLOBAL DEFAULT 7 usleep@@LIBC
886:   FUNC GLOBAL DEFAULT 7 __cxa_finalize@@LIBC
887:   FUNC GLOBAL DEFAULT 7 cfsetispeed@@LIBC
888:   FUNC GLOBAL DEFAULT 7 fpathconf@@LIBC
889:   FUNC GLOBAL DEFAULT 7 getpid@@LIBC
890:   FUNC GLOBAL DEFAULT 7 strftime_l@@LIBC
891:   FUNC GLOBAL DEFAULT 7 ctime@@LIBC
892:   FUNC GLOBAL DEFAULT 7 lstat@@LIBC
893:   FUNC GLOBAL DEFAULT 7 __p_fqnname@@LIBC
894:   FUNC GLOBAL DEFAULT 7 btowc@@LIBC
895:   FUNC GLOBAL DEFAULT 7 fgetc@@LIBC
896:   FUNC GLOBAL DEFAULT 7 flistxattr@@LIBC
897:   FUNC GLOBAL DEFAULT 7 memcmp@@LIBC
898:   FUNC GLOBAL DEFAULT 7 setjmp@@LIBC
899:   FUNC GLOBAL DEFAULT 7 writev@@LIBC
900:   FUNC GLOBAL DEFAULT 7 getgid@@LIBC
901:   FUNC GLOBAL DEFAULT 7 toascii@@LIBC
902:   FUNC GLOBAL DEFAULT 7 umount@@LIBC
903:   FUNC GLOBAL DEFAULT 7 inet_aton@@LIBC
904:   FUNC GLOBAL DEFAULT 7 pthread_key_create@@LIBC
905:   FUNC GLOBAL DEFAULT 7 putchar@@LIBC
906:   FUNC GLOBAL DEFAULT 7 __memset_chk@@LIBC
907:   FUNC GLOBAL DEFAULT 7 strdup@@LIBC
908:   FUNC GLOBAL DEFAULT 7 longjmp@@LIBC
909:   FUNC GLOBAL DEFAULT 7 pwrite@@LIBC
910:   FUNC GLOBAL DEFAULT 7 getservbyport@@LIBC
911:   FUNC GLOBAL DEFAULT 7 mknodat@@LIBC
912:   FUNC GLOBAL DEFAULT 7 mrand48@@LIBC
913:   FUNC GLOBAL DEFAULT 7 pthread_mutexattr_gettype@@LIBC
914:   FUNC GLOBAL DEFAULT 7 pthread_rwlockattr_getpsh@@LIBC
915:   OBJECT GLOBAL DEFAULT 9 sys_signame@@LIBC
916:   FUNC GLOBAL DEFAULT 7 wcrtomb@@LIBC
917:   FUNC GLOBAL DEFAULT 7 __vsprintf_chk@@LIBC
918:   OBJECT GLOBAL DEFAULT 9 _ctype_@@LIBC
919:   FUNC GLOBAL DEFAULT 7 pthread_exit@@LIBC
920:   FUNC GLOBAL DEFAULT 7 sem_wait@@LIBC
921:   FUNC GLOBAL DEFAULT 7 timegm@@LIBC
922:   FUNC GLOBAL DEFAULT 7 __fgets_chk@@LIBC
923:   FUNC GLOBAL DEFAULT 7 gettimeofday@@LIBC
924:   FUNC GLOBAL DEFAULT 7 isupper@@LIBC
925:   FUNC GLOBAL DEFAULT 7 sigaddset@@LIBC
926:   FUNC GLOBAL DEFAULT 7 ptsname_r@@LIBC
927:   FUNC GLOBAL DEFAULT 7 qsort@@LIBC
928:   OBJECT GLOBAL DEFAULT 9 sys_siglist@@LIBC
929:   FUNC GLOBAL DEFAULT 7 __assert@@LIBC
930:   FUNC GLOBAL DEFAULT 7 atoll@@LIBC
931:   FUNC GLOBAL DEFAULT 7 mktemp@@LIBC
932:   FUNC GLOBAL DEFAULT 7 vsscanf@@LIBC
933:   FUNC GLOBAL DEFAULT 7 getmntent_r@@LIBC
934:   FUNC GLOBAL DEFAULT 7 setxattr@@LIBC
935:   FUNC GLOBAL DEFAULT 7 tcflow@@LIBC
936:   FUNC GLOBAL DEFAULT 7 unlink@@LIBC
937:   FUNC GLOBAL DEFAULT 7 wait4@@LIBC
938:   FUNC GLOBAL DEFAULT 7 ftok@@LIBC
939:   FUNC GLOBAL DEFAULT 7 unlockpt@@LIBC
940:   FUNC GLOBAL DEFAULT 7 vwarn@@LIBC
941:   FUNC GLOBAL DEFAULT 7 brk@@LIBC
942:   FUNC GLOBAL DEFAULT 7 setenv@@LIBC
943:   FUNC GLOBAL DEFAULT 7 fchmodat@@LIBC
944:   FUNC GLOBAL DEFAULT 7 getprotobynumber@@LIBC
945:   FUNC GLOBAL DEFAULT 7 lstat64@@LIBC
946:   FUNC GLOBAL DEFAULT 7 settimeofday@@LIBC
947:   FUNC GLOBAL DEFAULT 7 creat@@LIBC
948:   FUNC GLOBAL DEFAULT 7 inet_network@@LIBC
949:   FUNC GLOBAL DEFAULT 7 init_module@@LIBC
950:   FUNC GLOBAL DEFAULT 7 strlcpy@@LIBC
951:   FUNC GLOBAL DEFAULT 7 wait@@LIBC
952:   FUNC GLOBAL DEFAULT 7 mremap@@LIBC
953:   FUNC GLOBAL DEFAULT 7 fgets@@LIBC
954:   FUNC GLOBAL DEFAULT 7 getrusage@@LIBC
955:   FUNC GLOBAL DEFAULT 7 __strcat_chk@@LIBC
956:   FUNC GLOBAL DEFAULT 7 __system_property_foreach@@LIBC
957:   FUNC GLOBAL DEFAULT 7 basename@@LIBC
958:   FUNC GLOBAL DEFAULT 7 stat@@LIBC
959:   FUNC GLOBAL DEFAULT 7 tzset@@LIBC
960:   FUNC GLOBAL DEFAULT 7 getopt_long_only@@LIBC
961:   FUNC GLOBAL DEFAULT 7 lsetxattr@@LIBC
962:   FUNC GLOBAL DEFAULT 7 sigismember@@LIBC
963:   FUNC GLOBAL DEFAULT 7 iswspace@@LIBC
964:   FUNC GLOBAL DEFAULT 7 setprogname@@LIBC
965:   FUNC GLOBAL DEFAULT 7 twalk@@LIBC
966:   FUNC GLOBAL DEFAULT 7 __assert2@@LIBC
967:   FUNC GLOBAL DEFAULT 7 inet_addr@@LIBC
968:   FUNC GLOBAL DEFAULT 7 __isinff@@LIBC
969:   FUNC GLOBAL DEFAULT 7 __p_query@@LIBC
970:   FUNC GLOBAL DEFAULT 7 faccessat@@LIBC
971:   FUNC GLOBAL DEFAULT 7 iswalnum_l@@LIBC
972:   FUNC GLOBAL DEFAULT 7 tolower_l@@LIBC
973:   FUNC GLOBAL DEFAULT 7 fflush@@LIBC
974:   FUNC GLOBAL DEFAULT 7 fwprintf@@LIBC
975:   FUNC GLOBAL DEFAULT 7 strptime@@LIBC
976:   FUNC GLOBAL DEFAULT 7 iswxdigit_l@@LIBC
977:   FUNC GLOBAL DEFAULT 7 socketpair@@LIBC
978:   FUNC GLOBAL DEFAULT 7 __sched_cpufree@@LIBC
979:   FUNC GLOBAL DEFAULT 7 getuid@@LIBC
980:   FUNC GLOBAL DEFAULT 7 personality@@LIBC
981:   FUNC GLOBAL DEFAULT 7 ferror@@LIBC
982:   FUNC GLOBAL DEFAULT 7 mprotect@@LIBC
983:   OBJECT GLOBAL DEFAULT 9 optind@@LIBC
984:   FUNC GLOBAL DEFAULT 7 sigwait@@LIBC
985:   FUNC GLOBAL DEFAULT 7 __isinf@@LIBC
986:   FUNC GLOBAL DEFAULT 7 __isinfl@@LIBC
987:   FUNC GLOBAL DEFAULT 7 __res_nameinquery@@LIBC
988:   FUNC GLOBAL DEFAULT 7 cfmakeraw@@LIBC
989:   FUNC GLOBAL DEFAULT 7 fstatat@@LIBC
990:   FUNC GLOBAL DEFAULT 7 wcslcpy@@LIBC
991:   FUNC GLOBAL DEFAULT 7 cfsetspeed@@LIBC
992:   FUNC GLOBAL DEFAULT 7 iswprint@@LIBC
993:   FUNC GLOBAL DEFAULT 7 tdestroy@@LIBC
994:   FUNC GLOBAL DEFAULT 7 truncate@@LIBC
995:   FUNC GLOBAL DEFAULT 7 umount2@@LIBC
996:   FUNC GLOBAL DEFAULT 7 __p_type@@LIBC
997:   FUNC GLOBAL DEFAULT 7 fscanf@@LIBC
998:   FUNC GLOBAL DEFAULT 7 strlcat@@LIBC
999:   FUNC GLOBAL DEFAULT 7 vprintf@@LIBC
1000:   FUNC GLOBAL DEFAULT 7 __libc_current_sigrtmin@@LIBC
1001:   FUNC GLOBAL DEFAULT 7 c16rtomb@@LIBC
1002:   FUNC GLOBAL DEFAULT 7 __p_fqname@@LIBC
1003:   FUNC GLOBAL DEFAULT 7 _exit@@LIBC
1004:   FUNC GLOBAL DEFAULT 7 clone@@LIBC
1005:   FUNC GLOBAL DEFAULT 7 fstatfs64@@LIBC
1006:   FUNC GLOBAL DEFAULT 7 sigaction@@LIBC
1007:   FUNC GLOBAL DEFAULT 7 strtoimax@@LIBC
1008:   FUNC GLOBAL DEFAULT 7 tfind@@LIBC
1009:   OBJECT GLOBAL DEFAULT 9 timezone@@LIBC
1010:   FUNC GLOBAL DEFAULT 7 vmsplice@@LIBC
1011:   FUNC GLOBAL DEFAULT 7 __libc_current_sigrtmax@@LIBC
1012:   FUNC GLOBAL DEFAULT 7 __umask_chk@@LIBC
1013:   FUNC GLOBAL DEFAULT 7 localeconv@@LIBC
1014:   FUNC GLOBAL DEFAULT 7 mbtowc@@LIBC
1015:   FUNC GLOBAL DEFAULT 7 raise@@LIBC
1016:   FUNC GLOBAL DEFAULT 7 setbuffer@@LIBC
1017:   FUNC GLOBAL DEFAULT 7 strchr@@LIBC
1018:   FUNC GLOBAL DEFAULT 7 fsync@@LIBC
1019:   FUNC GLOBAL DEFAULT 7 gai_strerror@@LIBC
1020:   FUNC GLOBAL DEFAULT 7 inet_lnaof@@LIBC
1021:   FUNC GLOBAL DEFAULT 7 pthread_attr_destroy@@LIBC
1022:   FUNC GLOBAL DEFAULT 7 readdir64@@LIBC
1023:   FUNC GLOBAL DEFAULT 7 towlower@@LIBC
1024:   FUNC GLOBAL DEFAULT 7 execvpe@@LIBC
1025:   FUNC GLOBAL DEFAULT 7 recvmmsg@@LIBC
1026:   FUNC GLOBAL DEFAULT 7 setlocale@@LIBC
1027:   FUNC GLOBAL DEFAULT 7 swapoff@@LIBC
1028:   FUNC GLOBAL DEFAULT 7 wctomb@@LIBC
1029:   FUNC GLOBAL DEFAULT 7 chown@@LIBC
1030:   FUNC GLOBAL DEFAULT 7 fchdir@@LIBC
1031:   FUNC GLOBAL DEFAULT 7 fputc@@LIBC
1032:   FUNC GLOBAL DEFAULT 7 getresgid@@LIBC
1033:   FUNC GLOBAL DEFAULT 7 iswcntrl@@LIBC
1034:   FUNC GLOBAL DEFAULT 7 pthread_rwlock_init@@LIBC
1035:   FUNC GLOBAL DEFAULT 7 wcsnrtombs@@LIBC
