 0x0000000e (SONAME)                     Library soname: [libadbd.so]
  
Symbol   contains 578 entries:
Num:   Type Bind Vis Ndx Name
0:   NOTYPE LOCAL DEFAULT UND
1:   FUNC GLOBAL DEFAULT UND __cxa_finalize@LIBC (2)
2:   FUNC GLOBAL DEFAULT UND _ZN7android4base10WriteFu
3:   FUNC GLOBAL DEFAULT UND _ZN7android4base9ReadFull
4:   FUNC GLOBAL DEFAULT UND __errno@LIBC (2)
5:   FUNC GLOBAL DEFAULT UND __open_2@LIBC (2)
6:   FUNC GLOBAL DEFAULT UND __stack_chk_fail@LIBC (2)
7:   OBJECT GLOBAL DEFAULT UND __stack_chk_guard@LIBC (2)
8:   FUNC GLOBAL DEFAULT UND __vsnprintf_chk@LIBC (2)
9:   FUNC GLOBAL DEFAULT UND close@LIBC (2)
10:   FUNC GLOBAL DEFAULT UND sscanf@LIBC (2)
11:   FUNC GLOBAL DEFAULT UND strlen@LIBC (2)
12:   FUNC GLOBAL DEFAULT UND _ZNKSt3__121__basic_strin
13:   FUNC GLOBAL DEFAULT UND _ZNSt3__112basic_stringIc
14:   FUNC GLOBAL DEFAULT UND _Znwj
15:   FUNC GLOBAL DEFAULT UND __system_property_find@LIBC (2)
16:   FUNC GLOBAL DEFAULT UND __system_property_read_ca@LIBC_O (3)
17:   FUNC GLOBAL DEFAULT UND memcmp@LIBC (2)
18:   FUNC GLOBAL DEFAULT UND _ZN7android4base10LogMess
19:   FUNC GLOBAL DEFAULT UND _ZN7android4base10LogMess
20:   FUNC GLOBAL DEFAULT UND _ZN7android4base10LogMess
21:   FUNC GLOBAL DEFAULT UND _ZN7android4base10StartsW
22:   FUNC GLOBAL DEFAULT UND _ZN7android4base11GetProp
23:   FUNC GLOBAL DEFAULT UND _ZN7android4base12StringP
24:   FUNC GLOBAL DEFAULT UND _ZN7android4base17GetExec
25:   FUNC GLOBAL DEFAULT UND _ZN7android4base21GetMini
26:   FUNC GLOBAL DEFAULT UND _ZN7android4base4JoinINSt
27:   FUNC GLOBAL DEFAULT UND _ZN7android4base5SplitERK
28:   FUNC GLOBAL DEFAULT UND _ZNKSt3__112basic_stringI
29:   FUNC GLOBAL DEFAULT UND _ZNKSt3__120__vector_base
30:   FUNC GLOBAL DEFAULT UND _ZNKSt3__16locale9use_fac
31:   FUNC GLOBAL DEFAULT UND _ZNKSt3__18ios_base6getlo
32:   FUNC GLOBAL DEFAULT UND _ZNSt3__111this_thread9sl
33:   FUNC GLOBAL DEFAULT UND _ZNSt3__112basic_stringIc
34:   FUNC GLOBAL DEFAULT UND _ZNSt3__112basic_stringIc
35:   FUNC GLOBAL DEFAULT UND _ZNSt3__112basic_stringIc
36:   FUNC GLOBAL DEFAULT UND _ZNSt3__112basic_stringIc
37:   FUNC GLOBAL DEFAULT UND _ZNSt3__113basic_ostreamI
38:   FUNC GLOBAL DEFAULT UND _ZNSt3__113basic_ostreamI
39:   FUNC GLOBAL DEFAULT UND _ZNSt3__113basic_ostreamI
40:   FUNC GLOBAL DEFAULT UND _ZNSt3__113basic_ostreamI
41:   OBJECT GLOBAL DEFAULT UND _ZNSt3__15ctypeIcE2idE
42:   FUNC GLOBAL DEFAULT UND _ZNSt3__16localeD1Ev
43:   FUNC GLOBAL DEFAULT UND _ZNSt3__18ios_base5clearE
44:   FUNC GLOBAL DEFAULT UND _ZdaPv
45:   FUNC GLOBAL DEFAULT UND _ZdlPv
46:   FUNC GLOBAL DEFAULT UND _Znaj
47:   FUNC GLOBAL DEFAULT UND abort@LIBC (2)
48:   FUNC GLOBAL DEFAULT UND printf@LIBC (2)
49:   FUNC GLOBAL DEFAULT UND strcmp@LIBC (2)
50:   FUNC GLOBAL DEFAULT UND strncmp@LIBC (2)
51:   FUNC GLOBAL DEFAULT UND _ZN7android4base13StringA
52:   FUNC GLOBAL DEFAULT UND _ZNSt3__112basic_stringIc
53:   FUNC GLOBAL DEFAULT UND _ZNSt3__113basic_ostreamI
54:   FUNC GLOBAL DEFAULT UND __read_chk@LIBC (2)
55:   FUNC GLOBAL DEFAULT UND read@LIBC (2)
56:   FUNC GLOBAL DEFAULT UND sched_yield@LIBC (2)
57:   FUNC GLOBAL DEFAULT UND shutdown@LIBC (2)
58:   FUNC GLOBAL DEFAULT UND strerror@LIBC (2)
59:   FUNC GLOBAL DEFAULT UND strtoul@LIBC (2)
60:   FUNC GLOBAL DEFAULT UND write@LIBC (2)
61:   FUNC GLOBAL DEFAULT UND _ZN7android4base13StringA
62:   FUNC GLOBAL DEFAULT UND _ZNSt3__15mutex4lockEv
63:   FUNC GLOBAL DEFAULT UND _ZNSt3__15mutex6unlockEv
64:   FUNC GLOBAL DEFAULT UND accept@LIBC (2)
65:   FUNC WEAK DEFAULT UND android_fdsan_close_with_@LIBC_Q (4)
66:   FUNC WEAK DEFAULT UND android_fdsan_create_owne@LIBC_Q (4)
67:   FUNC WEAK DEFAULT UND android_fdsan_exchange_ow@LIBC_Q (4)
68:   FUNC GLOBAL DEFAULT UND fcntl@LIBC (2)
69:   FUNC GLOBAL DEFAULT UND setsockopt@LIBC (2)
70:   FUNC GLOBAL DEFAULT UND _ZN7android4base10LogdLog
71:   FUNC GLOBAL DEFAULT UND _ZN7android4base10LogdLog
72:   FUNC GLOBAL DEFAULT UND _ZN7android4base11InitLog
73:   FUNC GLOBAL DEFAULT UND _ZN7android4base12StderrL
74:   FUNC GLOBAL DEFAULT UND _ZN7android4base14Default
75:   FUNC GLOBAL DEFAULT UND _ZN7android4base21SetMini
76:   FUNC GLOBAL DEFAULT UND _ZNSt3__112__next_primeEj
77:   FUNC GLOBAL DEFAULT UND ceilf@LIBC (5)
78:   FUNC GLOBAL DEFAULT UND dup2@LIBC (2)
79:   FUNC GLOBAL DEFAULT UND fprintf@LIBC (2)
80:   FUNC GLOBAL DEFAULT UND getenv@LIBC (2)
81:   FUNC GLOBAL DEFAULT UND getpid@LIBC (2)
82:   FUNC GLOBAL DEFAULT UND isatty@LIBC (2)
83:   FUNC GLOBAL DEFAULT UND localtime_r@LIBC (2)
84:   FUNC GLOBAL DEFAULT UND open@LIBC (2)
85:   OBJECT GLOBAL DEFAULT UND stderr@LIBC (2)
86:   FUNC GLOBAL DEFAULT UND strftime@LIBC (2)
87:   FUNC GLOBAL DEFAULT UND time@LIBC (2)
88:   FUNC GLOBAL DEFAULT UND tzset@LIBC (2)
89:   FUNC GLOBAL DEFAULT UND _ZN7android4base7DirnameE
90:   FUNC GLOBAL DEFAULT UND _ZN7android4base8Basename
91:   FUNC GLOBAL DEFAULT UND _ZNKSt3__112basic_stringI
92:   FUNC GLOBAL DEFAULT UND _ZNSt3__112basic_stringIc
93:   FUNC GLOBAL DEFAULT UND _ZNSt3__112basic_stringIc
94:   FUNC GLOBAL DEFAULT UND exit@LIBC (2)
95:   FUNC GLOBAL DEFAULT UND fflush@LIBC (2)
96:   FUNC GLOBAL DEFAULT UND free@LIBC (2)
97:   FUNC GLOBAL DEFAULT UND getcwd@LIBC (2)
98:   FUNC GLOBAL DEFAULT UND getpwuid_r@LIBC (2)
99:   FUNC GLOBAL DEFAULT UND getuid@LIBC (2)
100:   FUNC GLOBAL DEFAULT UND isprint@LIBC (2)
101:   FUNC GLOBAL DEFAULT UND isspace@LIBC (2)
102:   FUNC GLOBAL DEFAULT UND mkdir@LIBC (2)
103:   FUNC GLOBAL DEFAULT UND putc@LIBC (2)
104:   FUNC GLOBAL DEFAULT UND stat@LIBC (2)
105:   OBJECT GLOBAL DEFAULT UND stdout@LIBC (2)
106:   FUNC GLOBAL DEFAULT UND strtoll@LIBC (2)
107:   FUNC GLOBAL DEFAULT UND sysconf@LIBC (2)
108:   FUNC GLOBAL DEFAULT UND vfprintf@LIBC (2)
109:   FUNC GLOBAL DEFAULT UND _ZN7android4base10boot_cl
110:   FUNC GLOBAL DEFAULT UND _ZN7android4base11GetThre
111:   FUNC GLOBAL DEFAULT UND _ZN7android4base8Readlink
112:   FUNC GLOBAL DEFAULT UND _ZNSt3__16chrono12steady_
113:   FUNC GLOBAL DEFAULT UND __cxa_guard_acquire
114:   FUNC GLOBAL DEFAULT UND __cxa_guard_release
115:   FUNC GLOBAL DEFAULT UND __write_chk@LIBC_N (6)
116:   FUNC GLOBAL DEFAULT UND poll@LIBC (2)
117:   FUNC GLOBAL DEFAULT UND socketpair@LIBC (2)
118:   FUNC GLOBAL DEFAULT UND _Z20daemon_service_to_fdN
119:   FUNC GLOBAL DEFAULT UND _ZNSt3__115__thread_struc
120:   FUNC GLOBAL DEFAULT UND _ZNSt3__115__thread_struc
121:   FUNC GLOBAL DEFAULT UND _ZNSt3__119__thread_local
122:   FUNC GLOBAL DEFAULT UND _ZNSt3__120__throw_system
123:   FUNC GLOBAL DEFAULT UND _ZNSt3__16thread6detachEv
124:   FUNC GLOBAL DEFAULT UND _ZNSt3__16threadD1Ev
125:   FUNC GLOBAL DEFAULT UND pthread_create@LIBC (2)
126:   FUNC GLOBAL DEFAULT UND pthread_self@LIBC (2)
127:   FUNC GLOBAL DEFAULT UND pthread_setname_np@LIBC (2)
128:   FUNC GLOBAL DEFAULT UND pthread_setspecific@LIBC (2)
129:   FUNC GLOBAL DEFAULT UND puts@LIBC (2)
130:   FUNC GLOBAL DEFAULT UND strncpy@LIBC (2)
131:   FUNC GLOBAL DEFAULT UND _Z24daemon_service_to_soc
132:   FUNC GLOBAL DEFAULT UND _ZNKSt3__119__shared_weak
133:   FUNC GLOBAL DEFAULT UND _ZNSt3__112basic_stringIc
134:   FUNC GLOBAL DEFAULT UND _ZNSt3__115recursive_mute
135:   FUNC GLOBAL DEFAULT UND _ZNSt3__115recursive_mute
136:   FUNC GLOBAL DEFAULT UND _ZNSt3__115recursive_mute
137:   FUNC GLOBAL DEFAULT UND _ZNSt3__119__shared_weak_
138:   FUNC GLOBAL DEFAULT UND _ZNSt3__119__shared_weak_
139:   FUNC GLOBAL DEFAULT UND __android_log_is_debuggab@LIBLOG_O (7)
140:   FUNC GLOBAL DEFAULT UND writev@LIBC (2)
141:   FUNC GLOBAL DEFAULT UND _ZN7android4base15ParseNe
142:   FUNC GLOBAL DEFAULT UND _ZNSt3__112basic_stringIc
143:   FUNC GLOBAL DEFAULT UND __strchr_chk@LIBC (2)
144:   FUNC GLOBAL DEFAULT UND bind@LIBC (2)
145:   FUNC GLOBAL DEFAULT UND connect@LIBC (2)
146:   FUNC GLOBAL DEFAULT UND getsockname@LIBC (2)
147:   FUNC GLOBAL DEFAULT UND listen@LIBC (2)
148:   FUNC GLOBAL DEFAULT UND socket@LIBC (2)
149:   FUNC GLOBAL DEFAULT UND socket_get_local_port
150:   FUNC GLOBAL DEFAULT UND socket_inaddr_any_server
151:   FUNC GLOBAL DEFAULT UND socket_local_client
152:   FUNC GLOBAL DEFAULT UND socket_local_server
153:   FUNC GLOBAL DEFAULT UND strtoull@LIBC (2)
154:   FUNC GLOBAL DEFAULT UND tolower@LIBC (2)
155:   FUNC GLOBAL DEFAULT UND _Z28UsbNoPermissionsLongH
156:   FUNC GLOBAL DEFAULT UND _Z29UsbNoPermissionsShort
157:   FUNC GLOBAL DEFAULT UND _ZNSt3__111__call_onceERV
158:   FUNC GLOBAL DEFAULT UND _ZNSt3__113basic_ostreamI
159:   FUNC GLOBAL DEFAULT UND _ZNSt3__113basic_ostreamI
160:   FUNC GLOBAL DEFAULT UND _ZNSt3__113basic_ostreamI
161:   FUNC GLOBAL DEFAULT UND _ZNSt3__113basic_ostreamI
162:   FUNC GLOBAL DEFAULT UND _ZNSt3__115basic_streambu
163:   FUNC GLOBAL DEFAULT UND _ZNSt3__115basic_streambu
164:   FUNC GLOBAL DEFAULT UND _ZNSt3__115basic_streambu
165:   FUNC GLOBAL DEFAULT UND _ZNSt3__115basic_streambu
166:   FUNC GLOBAL DEFAULT UND _ZNSt3__115basic_streambu
167:   FUNC GLOBAL DEFAULT UND _ZNSt3__115basic_streambu
168:   FUNC GLOBAL DEFAULT UND _ZNSt3__115basic_streambu
169:   FUNC GLOBAL DEFAULT UND _ZNSt3__115basic_streambu
170:   FUNC GLOBAL DEFAULT UND _ZNSt3__115basic_streambu
171:   FUNC GLOBAL DEFAULT UND _ZNSt3__118condition_vari
172:   FUNC GLOBAL DEFAULT UND _ZNSt3__118condition_vari
173:   FUNC GLOBAL DEFAULT UND _ZNSt3__118condition_vari
174:   FUNC GLOBAL DEFAULT UND _ZNSt3__118condition_vari
175:   FUNC GLOBAL DEFAULT UND _ZNSt3__15mutexD1Ev
176:   FUNC GLOBAL DEFAULT UND _ZNSt3__16chrono12system_
177:   FUNC GLOBAL DEFAULT UND _ZNSt3__16thread4joinEv
178:   FUNC GLOBAL DEFAULT UND _ZNSt3__18ios_base4initEP
179:   FUNC GLOBAL DEFAULT UND _ZNSt3__19basic_iosIcNS_1
180:   FUNC GLOBAL DEFAULT UND _ZSt9terminatev
181:   FUNC GLOBAL DEFAULT UND _ZTv0_n12_NSt3__113basic_
182:   FUNC GLOBAL DEFAULT UND _ZTv0_n12_NSt3__113basic_
183:   FUNC GLOBAL DEFAULT UND __cxa_pure_virtual
184:   FUNC GLOBAL DEFAULT UND isalnum@LIBC (2)
185:   FUNC GLOBAL DEFAULT UND __poll_chk@LIBC (2)
186:   FUNC GLOBAL DEFAULT UND _ZNSt3__1plIcNS_11char_tr
187:   FUNC GLOBAL DEFAULT UND __strncpy_chk2@LIBC (2)
188:   FUNC GLOBAL DEFAULT UND gai_strerror@LIBC (2)
189:   OBJECT GLOBAL DEFAULT UND in6addr_loopback@LIBC_N (6)
190:   FUNC GLOBAL DEFAULT UND socket_network_client_tim
191:   FUNC GLOBAL DEFAULT UND RSA_free
192:   FUNC GLOBAL DEFAULT UND RSA_verify
193:   FUNC GLOBAL DEFAULT UND _ZN7android4base16ReadFil
194:   FUNC GLOBAL DEFAULT UND __b64_pton@LIBC (2)
195:   FUNC GLOBAL DEFAULT UND access@LIBC (2)
196:   FUNC GLOBAL DEFAULT UND android_get_control_socke
197:   FUNC GLOBAL DEFAULT UND android_pubkey_decode
198:   FUNC GLOBAL DEFAULT UND fclose@LIBC (2)
199:   FUNC GLOBAL DEFAULT UND fopen@LIBC (2)
200:   FUNC GLOBAL DEFAULT UND fread@LIBC (2)
201:   FUNC GLOBAL DEFAULT UND strpbrk@LIBC (2)
202:   FUNC GLOBAL DEFAULT UND _ZN7android4base24SendFil
203:   FUNC GLOBAL DEFAULT UND _ZNSt3__19to_stringEi
204:   FUNC GLOBAL DEFAULT UND recvfrom@LIBC (2)
205:   FUNC GLOBAL DEFAULT UND _ZN7android4base15GetBool
206:   FUNC GLOBAL DEFAULT UND _ZNSt3__113basic_ostreamI
207:   FUNC GLOBAL DEFAULT UND _ZNSt3__117__assoc_sub_st
208:   FUNC GLOBAL DEFAULT UND _ZNSt3__16futureIvED1Ev
209:   FUNC GLOBAL DEFAULT UND _ZNSt3__17promiseIvE10get
210:   FUNC GLOBAL DEFAULT UND _ZNSt3__17promiseIvE9set_
211:   FUNC GLOBAL DEFAULT UND _ZNSt3__17promiseIvEC1Ev
212:   FUNC GLOBAL DEFAULT UND _ZNSt3__17promiseIvED1Ev
213:   FUNC GLOBAL DEFAULT UND eventfd@LIBC (2)
214:   FUNC GLOBAL DEFAULT UND io_destroy
215:   FUNC GLOBAL DEFAULT UND io_getevents
216:   FUNC GLOBAL DEFAULT UND io_setup
217:   FUNC GLOBAL DEFAULT UND io_submit
218:   FUNC GLOBAL DEFAULT UND pthread_kill@LIBC (2)
219:   FUNC GLOBAL DEFAULT UND signal@LIBC (2)
220:   FUNC GLOBAL DEFAULT UND _ZN7android4base11SetProp
221:   FUNC GLOBAL DEFAULT UND io_prep
222:   FUNC GLOBAL DEFAULT UND ioctl@LIBC (2)
223:   FUNC GLOBAL DEFAULT UND posix_madvise@LIBC (2)
224:   FUNC GLOBAL DEFAULT UND memcpy@LIBC (2)
225:   FUNC GLOBAL DEFAULT UND memmove@LIBC (2)
226:   FUNC GLOBAL DEFAULT UND memset@LIBC (2)
227:   FUNC WEAK DEFAULT UND android_set_abort_message@LIBC (2)
228:   FUNC WEAK DEFAULT 14 _ZNSt3__16vectorIP7asocke
229:   FUNC WEAK DEFAULT 14 _ZNSt3__114__thread_proxy
230:   FUNC GLOBAL DEFAULT 14 _Z24adb_get_android_dir_p
231:   FUNC WEAK DEFAULT 14 _ZNSt3__112__hash_tableIN
232:   FUNC GLOBAL DEFAULT 14 _ZN25BlockingConnectionAd
233:   FUNC GLOBAL DEFAULT 14 _Z16format_listenersv
234:   FUNC GLOBAL DEFAULT 14 _ZN12FdConnection4ReadEP7
235:   OBJECT WEAK DEFAULT 18 _ZTVNSt3__120__shared_ptr
236:   FUNC GLOBAL DEFAULT 14 _ZN25BlockingConnectionAd
237:   FUNC WEAK DEFAULT 14 _ZNSt3__114__split_buffer
238:   FUNC GLOBAL DEFAULT 14 _Z16adbd_auth_verifyPKcjR
239:   FUNC GLOBAL DEFAULT 14 _Z18supported_featuresv
240:   FUNC GLOBAL DEFAULT 14 _Z14fdevent_createiPFvP7f
241:   FUNC WEAK DEFAULT 14 _ZNSt3__14listIP10atransp
242:   OBJECT WEAK DEFAULT 18 _ZTV23NonblockingFdConnec
243:   FUNC GLOBAL DEFAULT 14 _Z8SendOkayi
244:   FUNC GLOBAL DEFAULT 14 _ZN10atransport14RunDisco
245:   FUNC WEAK DEFAULT 14 _ZNSt3__112__hash_tableIN
246:   FUNC WEAK DEFAULT 14 _ZNSt3__112__deque_baseIN
247:   FUNC GLOBAL DEFAULT 14 _ZN10atransport4KickEv
248:   FUNC GLOBAL DEFAULT 14 _Z14adbd_auth_initv
249:   FUNC GLOBAL DEFAULT 14 _Z14WriteFdExactlyiPKc
250:   FUNC GLOBAL DEFAULT 14 _Z11perror_exitPKcz
251:   FUNC GLOBAL DEFAULT 14 _ZN12FdConnection5CloseEv
252:   FUNC WEAK DEFAULT 14 _ZNKSt3__112__hash_tableI
253:   FUNC WEAK DEFAULT 14 _ZNSt3__15dequeINS_10uniq
254:   FUNC WEAK DEFAULT 14 _ZNSt3__110__function6__f
255:   FUNC WEAK DEFAULT 14 _ZNSt3__110__function6__f
256:   FUNC GLOBAL DEFAULT 14 _Z23network_loopback_clie
257:   FUNC GLOBAL DEFAULT 14 _ZN25BlockingConnectionAd
258:   FUNC GLOBAL DEFAULT 14 _ZN25BlockingConnectionAd
259:   FUNC GLOBAL DEFAULT 14 _Z34create_jdwp_tracker_s
260:   FUNC GLOBAL DEFAULT 14 _Z25register_socket_trans
261:   OBJECT GLOBAL DEFAULT 16 os_desc_compat
262:   FUNC GLOBAL DEFAULT 14 __aeabi_memclr4
263:   FUNC GLOBAL DEFAULT 14 _Z18FeatureSetToStringRKN
264:   FUNC GLOBAL DEFAULT 14 _Z22handle_forward_reques
265:   FUNC WEAK DEFAULT 14 _ZNKSt3__110__function6__
266:   FUNC WEAK DEFAULT 14 _ZNKSt3__110__function6__
267:   FUNC GLOBAL DEFAULT 14 _Z13remove_socketP7asocke
268:   FUNC GLOBAL DEFAULT 14 _ZNK10atransport11has_fea
269:   FUNC WEAK DEFAULT 14 _ZNSt3__16vectorINS_12bas
270:   FUNC WEAK DEFAULT 14 _ZNSt3__114__split_buffer
271:   FUNC GLOBAL DEFAULT 14 _Z18adbd_auth_verifiedP10
272:   FUNC WEAK DEFAULT 14 _ZNSt3__110__function6__f
273:   FUNC WEAK DEFAULT 14 _ZNSt3__114__split_buffer
274:   FUNC GLOBAL DEFAULT 14 _Z17use_qemu_goldfishv
275:   FUNC GLOBAL DEFAULT 14 _Z18qemu_socket_threadi
276:   FUNC GLOBAL DEFAULT 14 __divmodsi4
277:   FUNC WEAK DEFAULT 14 _ZNSt3__114__split_buffer
278:   FUNC WEAK DEFAULT 14 _ZNSt3__110__function6__f
279:   FUNC GLOBAL DEFAULT 14 __aeabi_memclr8
280:   FUNC GLOBAL DEFAULT 14 _Z14WriteFdExactlyiPKvj
281:   OBJECT WEAK DEFAULT 18 _ZTVNSt3__120__shared_ptr
282:   FUNC GLOBAL DEFAULT 14 _ZN10atransport24SetConne
283:   FUNC WEAK DEFAULT 14 _ZNSt3__16vectorINS_12bas
284:   FUNC GLOBAL DEFAULT 14 _Z19socket_spec_connectPN
285:   FUNC GLOBAL DEFAULT 14 _Z13CanUseFeatureRKNSt3__
286:   OBJECT GLOBAL DEFAULT 18 kFeatureLibusb
287:   FUNC GLOBAL DEFAULT 14 _Z8usb_initv
288:   FUNC GLOBAL DEFAULT 14 __aeabi_memcpy
289:   FUNC GLOBAL DEFAULT 14 _Z21get_connection_string
290:   FUNC GLOBAL DEFAULT 14 _Z20adb_get_homedir_pathv
291:   FUNC GLOBAL DEFAULT 14 _Z21acquire_one_transport
292:   FUNC WEAK DEFAULT 14 _ZNSt3__16vectorIP4iocbNS
293:   FUNC GLOBAL DEFAULT 14 _Z11adb_versionv
294:   FUNC GLOBAL DEFAULT 14 _Z19create_local_socketN7
295:   FUNC GLOBAL DEFAULT 14 _ZN9alistenerD1Ev
296:   FUNC GLOBAL DEFAULT 14 _Z21adbd_auth_confirm_key
297:   OBJECT GLOBAL DEFAULT 16 auth_required
298:   FUNC WEAK DEFAULT 14 _ZNSt3__110__function6__f
299:   FUNC WEAK DEFAULT 14 _ZNSt3__120__shared_ptr_p
300:   FUNC WEAK DEFAULT 14 _ZNSt3__114__thread_proxy
301:   FUNC WEAK DEFAULT 14 _ZNSt3__112__hash_tableIN
302:   FUNC GLOBAL DEFAULT 14 _Z11dump_headerPK8amessag
303:   FUNC GLOBAL DEFAULT 14 _ZN25BlockingConnectionAd
304:   FUNC GLOBAL DEFAULT 14 __aeabi_memset
305:   FUNC GLOBAL DEFAULT 14 _Z15fdevent_releaseP7fdev
306:   FUNC WEAK DEFAULT 14 _ZNSt3__112__deque_baseIN
307:   FUNC GLOBAL DEFAULT 14 __udivsi3
308:   FUNC WEAK DEFAULT 14 _ZNSt3__110__function6__f
309:   FUNC WEAK DEFAULT 14 _ZNSt3__115basic_stringbu
310:   FUNC WEAK DEFAULT 14 _ZNSt3__15dequeINS_10uniq
311:   FUNC GLOBAL DEFAULT 14 qemu_pipe_open
312:   FUNC GLOBAL DEFAULT 14 _Z19fdevent_set_timeoutP7
313:   FUNC WEAK DEFAULT 14 _ZNSt3__114__split_buffer
314:   FUNC WEAK DEFAULT 14 _ZNKSt3__110__function6__
315:   FUNC WEAK DEFAULT 14 _ZNSt3__114__thread_proxy
316:   FUNC GLOBAL DEFAULT 14 _Z18init_usb_transportP10
317:   FUNC WEAK DEFAULT 14 _ZN7android4base4JoinINSt
318:   FUNC WEAK DEFAULT 14 _ZNSt3__14listIP11adiscon
319:   FUNC GLOBAL DEFAULT 14 _Z9usb_closeP10usb_handle
320:   FUNC GLOBAL DEFAULT 14 _ZN13UsbConnectionD0Ev
321:   FUNC GLOBAL DEFAULT 14 _Z22handle_forward_reques
322:   FUNC GLOBAL DEFAULT 14 _Z14WriteFdExactlyiRKNSt3
323:   FUNC GLOBAL DEFAULT 14 _Z16is_adb_interfaceiii
324:   FUNC GLOBAL DEFAULT 14 _Z17close_all_socketsP10a
325:   FUNC GLOBAL DEFAULT 14 __aeabi_memmove4
326:   FUNC GLOBAL DEFAULT 14 _Z11fdevent_delP7fdeventj
327:   FUNC GLOBAL DEFAULT 14 _Z17should_use_libusbv
328:   FUNC GLOBAL DEFAULT 14 _ZN13UsbConnectionD2Ev
329:   FUNC WEAK DEFAULT 14 _ZNSt3__110__function6__f
330:   FUNC WEAK DEFAULT 14 _ZNSt3__14listINS_10uniqu
331:   FUNC GLOBAL DEFAULT 14 _Z19kick_all_transportsv
332:   FUNC GLOBAL DEFAULT 14 _Z22register_usb_transpor
333:   FUNC WEAK DEFAULT 14 _ZNSt3__112__hash_tableIN
334:   OBJECT WEAK DEFAULT 18 _ZTCNSt3__119basic_ostrin
335:   FUNC WEAK DEFAULT 14 _ZNKSt3__110__function6__
336:   FUNC GLOBAL DEFAULT 14 __udivmodsi4
337:   FUNC GLOBAL DEFAULT 14 _Z9init_jdwpv
338:   OBJECT WEAK DEFAULT 18 _ZTVNSt3__120__shared_ptr
339:   FUNC GLOBAL DEFAULT 14 __aeabi_memmove8
340:   FUNC GLOBAL DEFAULT 14 __aeabi_memset4
341:   FUNC WEAK DEFAULT 14 _ZNSt3__15dequeINS_10shar
342:   FUNC WEAK DEFAULT 14 _ZNSt3__112__hash_tableIN
343:   FUNC GLOBAL DEFAULT 14 _ZNK10atransport13Matches
344:   FUNC WEAK DEFAULT 14 _ZNSt3__112__deque_baseIN
345:   FUNC GLOBAL DEFAULT 14 _Z12parse_bannerRKNSt3__1
346:   FUNC GLOBAL DEFAULT 14 _Z8dump_hexPKvj
347:   FUNC GLOBAL DEFAULT 14 _Z15set_main_threadv
348:   FUNC GLOBAL DEFAULT 14 _Z14is_socket_specNSt3__1
349:   FUNC GLOBAL DEFAULT 14 __aeabi_uidiv
350:   FUNC GLOBAL DEFAULT 14 _Z17connect_to_remoteP7as
351:   FUNC WEAK DEFAULT 14 _ZNSt3__112__hash_tableIN
352:   FUNC WEAK DEFAULT 14 _ZNSt3__112__hash_tableIN
353:   FUNC WEAK DEFAULT 14 _ZNSt3__114__split_buffer
354:   FUNC GLOBAL DEFAULT 14 _Z8usb_readP10usb_handleP
355:   FUNC GLOBAL DEFAULT 14 _Z15usb_init_legacyv
356:   FUNC GLOBAL DEFAULT 14 __divmoddi4
357:   FUNC GLOBAL DEFAULT 14 _Z18register_transportP10
358:   FUNC WEAK DEFAULT 14 _ZNSt3__114__split_buffer
359:   FUNC GLOBAL DEFAULT 14 _Z13local_connecti
360:   FUNC GLOBAL DEFAULT 14 __aeabi_memset8
361:   FUNC GLOBAL DEFAULT 14 _ZN10atransport13AddDisco
362:   FUNC WEAK DEFAULT 14 _ZNSt3__14listINS_10uniqu
363:   FUNC GLOBAL DEFAULT 14 _Z16start_device_logv
364:   FUNC GLOBAL DEFAULT 14 _Z14connect_deviceRKNSt3_
365:   FUNC GLOBAL DEFAULT 14 _Z8usb_kickP10usb_handle
366:   FUNC WEAK DEFAULT 14 _ZNSt3__120__shared_ptr_e
367:   FUNC GLOBAL DEFAULT 14 _Z27create_local_service_
368:   FUNC GLOBAL DEFAULT 14 _Z17check_main_threadv
369:   FUNC WEAK DEFAULT 14 _ZNSt3__114__split_buffer
370:   FUNC GLOBAL DEFAULT 14 _Z23network_loopback_serv
371:   FUNC GLOBAL DEFAULT 14 __aeabi_memmove
372:   FUNC GLOBAL DEFAULT 14 _Z18ReadProtocolStringiPN
373:   FUNC GLOBAL DEFAULT 14 _Z26get_trace_setting_fro
374:   FUNC GLOBAL DEFAULT 14 _ZN10atransportD0Ev
375:   FUNC WEAK DEFAULT 14 _ZNSt3__120__shared_ptr_e
376:   FUNC WEAK DEFAULT 14 _ZNSt3__110__function6__f
377:   FUNC GLOBAL DEFAULT 14 _Z13handle_packetP7apacke
378:   FUNC WEAK DEFAULT 14 _ZNSt3__14listIP7fdeventN
379:   FUNC GLOBAL DEFAULT 14 _Z21parse_tcp_socket_spec
380:   FUNC GLOBAL DEFAULT 14 _Z10local_initi
381:   FUNC GLOBAL DEFAULT 14 _Z10WriteFdFmtiPKcz
382:   OBJECT WEAK DEFAULT 18 _ZTVNSt3__110__function6_
383:   FUNC WEAK DEFAULT 14 _ZNSt3__112__deque_baseIN
384:   FUNC WEAK DEFAULT 14 _ZNSt3__112__hash_tableIN
385:   OBJECT GLOBAL DEFAULT 18 kFeaturePushSync
386:   FUNC GLOBAL DEFAULT 14 _ZN13UsbConnection5ResetE
387:   FUNC GLOBAL DEFAULT 14 _Z17update_transportsv
388:   FUNC GLOBAL DEFAULT 14 _Z12fdevent_loopv
389:   FUNC GLOBAL DEFAULT 14 _ZN10atransportD2Ev
390:   FUNC GLOBAL DEFAULT 14 _Z9usb_resetP10usb_handle
391:   FUNC GLOBAL DEFAULT 14 _Z24adbd_cloexec_auth_soc
392:   OBJECT WEAK DEFAULT 23 _ZZN16UsbFfsConnection12S
393:   OBJECT WEAK DEFAULT 18 _ZTVNSt3__119basic_ostrin
394:   FUNC WEAK DEFAULT 14 _ZNSt3__112__hash_tableIN
395:   FUNC GLOBAL DEFAULT 14 _ZNK10atransport21connect
396:   OBJECT GLOBAL DEFAULT 18 _ZTV12FdConnection
397:   OBJECT GLOBAL DEFAULT 18 kFeatureApex
398:   FUNC WEAK DEFAULT 14 _ZNSt3__14moveIPNS_10uniq
399:   FUNC WEAK DEFAULT 14 _ZNSt3__16vectorI4iocbNS_
400:   FUNC GLOBAL DEFAULT 14 __floatdidf
401:   FUNC WEAK DEFAULT 14 _ZNSt3__114__thread_proxy
402:   FUNC WEAK DEFAULT 14 _ZNSt3__112__hash_tableIN
403:   FUNC GLOBAL DEFAULT 14 _ZN25BlockingConnectionAd
404:   FUNC GLOBAL DEFAULT 14 _ZN25BlockingConnectionAd
405:   FUNC WEAK DEFAULT 14 _ZNSt3__16vectorIN7androi
406:   FUNC GLOBAL DEFAULT 14 _Z12send_connectP10atrans
407:   FUNC GLOBAL DEFAULT 14 _Z8SendFailiNSt3__117basi
408:   OBJECT WEAK DEFAULT 18 _ZTVNSt3__110__function6_
409:   FUNC GLOBAL DEFAULT 14 _Z10error_exitPKcz
410:   FUNC GLOBAL DEFAULT 14 _Z18StringToFeatureSetRKN
411:   FUNC GLOBAL DEFAULT 14 _Z27init_transport_regist
412:   FUNC GLOBAL DEFAULT 14 _ZN13UsbConnection5WriteE
413:   FUNC GLOBAL DEFAULT 14 _Z18close_smartsocketsv
414:   FUNC GLOBAL DEFAULT 14 _ZN25BlockingConnectionAd
415:   FUNC GLOBAL DEFAULT 14 _Z21tcp_listen_inaddr_any
416:   FUNC GLOBAL DEFAULT 14 _Z11fdevent_setP7fdeventj
417:   FUNC GLOBAL DEFAULT 14 _Z14GetLogFilePathv
418:   FUNC WEAK DEFAULT 14 _ZNSt3__1plIcNS_11char_tr
419:   FUNC GLOBAL DEFAULT 14 _Z21create_service_thread
420:   FUNC WEAK DEFAULT 14 _ZNSt3__114__split_buffer
421:   FUNC WEAK DEFAULT 14 _ZNSt3__120__shared_ptr_p
422:   FUNC WEAK DEFAULT 14 _ZNSt3__120__shared_ptr_p
423:   FUNC GLOBAL DEFAULT 14 _Z23fdevent_installed_cou
424:   FUNC GLOBAL DEFAULT 14 _ZN10atransport9Reconnect
425:   FUNC WEAK DEFAULT 14 _ZNSt3__115basic_stringbu
426:   FUNC GLOBAL DEFAULT 14 _Z13handle_onlineP10atran
427:   FUNC WEAK DEFAULT 14 _ZNSt3__112__hash_tableIN
428:   FUNC GLOBAL DEFAULT 14 _Z12check_headerP7apacket
429:   FUNC GLOBAL DEFAULT 14 _Z21init_socket_transport
430:   FUNC GLOBAL DEFAULT 14 __udivmoddi4
431:   FUNC GLOBAL DEFAULT 14 _Z16directory_existsRKNSt
432:   FUNC GLOBAL DEFAULT 14 _Z6mkdirsRKNSt3__112basic
433:   FUNC GLOBAL DEFAULT 14 _ZN25BlockingConnectionAd
434:   FUNC WEAK DEFAULT 14 _ZNSt3__112__hash_tableIN
435:   FUNC GLOBAL DEFAULT 14 __aeabi_memclr
436:   FUNC GLOBAL DEFAULT 14 _ZNK10atransport15get_max
437:   FUNC GLOBAL DEFAULT 14 _Z9AdbLoggerN7android4bas
438:   FUNC GLOBAL DEFAULT 14 _Z15open_functionfsPN7and
439:   FUNC GLOBAL DEFAULT 14 _ZN10atransport14update_v
440:   FUNC GLOBAL DEFAULT 14 _Z14kick_transportP10atra
441:   FUNC GLOBAL DEFAULT 14 _Z14fdevent_createiPFvijP
442:   FUNC GLOBAL DEFAULT 14 __aeabi_uidivmod
443:   FUNC WEAK DEFAULT 14 _ZNSt3__114__split_buffer
444:   FUNC GLOBAL DEFAULT 14 _Z35adbd_notify_framework
445:   OBJECT GLOBAL DEFAULT 16 adb_device_banner
446:   FUNC WEAK DEFAULT 14 _ZNSt3__112__hash_tableIN
447:   FUNC GLOBAL DEFAULT 14 _Z25create_jdwp_connectio
448:   FUNC GLOBAL DEFAULT 14 _ZNK10atransport20get_pro
449:   FUNC WEAK DEFAULT 14 _ZNSt3__115basic_stringbu
450:   FUNC GLOBAL DEFAULT 14 _Z17find_local_socketjj
451:   FUNC GLOBAL DEFAULT 14 _ZN10atransport16RemoveDi
452:   FUNC GLOBAL DEFAULT 14 _Z25forward_targets_are_v
453:   FUNC WEAK DEFAULT 14 _ZNSt3__112__hash_tableIN
454:   FUNC WEAK DEFAULT 14 _ZNSt3__124__put_characte
455:   FUNC GLOBAL DEFAULT 14 _Z20install_local_socketP
456:   FUNC WEAK DEFAULT 14 _ZNKSt3__115basic_stringb
457:   OBJECT WEAK DEFAULT 18 _ZTTNSt3__119basic_ostrin
458:   FUNC WEAK DEFAULT 14 _ZNSt3__16vectorI8io_even
459:   FUNC GLOBAL DEFAULT 14 __aeabi_idivmod
460:   FUNC GLOBAL DEFAULT 14 _Z26calculate_apacket_che
461:   FUNC GLOBAL DEFAULT 14 _Z13ReadFdExactlyiPvj
462:   FUNC WEAK DEFAULT 14 _ZNKSt3__110__function6__
463:   FUNC WEAK DEFAULT 14 _ZNSt3__16vectorI6pollfdN
464:   OBJECT GLOBAL DEFAULT 18 kFeatureAbb
465:   FUNC WEAK DEFAULT 14 _ZNSt3__16vectorINS_12bas
466:   FUNC GLOBAL DEFAULT 14 _Z10perror_strPKc
467:   FUNC GLOBAL DEFAULT 14 _Z10escape_argRKNSt3__112
468:   FUNC GLOBAL DEFAULT 14 _Z20is_local_socket_specN
469:   FUNC GLOBAL DEFAULT 14 _ZN10atransport11SetFeatu
470:   FUNC GLOBAL DEFAULT 14 _Z13fdevent_resetv
471:   OBJECT GLOBAL DEFAULT 18 kFeatureFixedPushSymlinkT
472:   FUNC GLOBAL DEFAULT 14 _ZN9alistenerD2Ev
473:   FUNC GLOBAL DEFAULT 14 _ZN18ConnectionWaitable17
474:   FUNC GLOBAL DEFAULT 14 _Z15network_connectRKNSt3
475:   FUNC GLOBAL DEFAULT 14 qemu_pipe_frame_recv
476:   FUNC GLOBAL DEFAULT 14 __aeabi_ldivmod
477:   FUNC GLOBAL DEFAULT 14 _Z15errno_from_wirei
478:   FUNC GLOBAL DEFAULT 14 _ZNK10atransport18GetConn
479:   FUNC WEAK DEFAULT 14 _ZNSt3__112__hash_tableIN
480:   FUNC WEAK DEFAULT 14 _ZNSt3__120__shared_ptr_e
481:   FUNC GLOBAL DEFAULT 14 _Z18socket_spec_listenNSt
482:   FUNC GLOBAL DEFAULT 14 _Z19set_file_block_modeib
483:   FUNC GLOBAL DEFAULT 14 _Z22fdevent_terminate_loo
484:   FUNC GLOBAL DEFAULT 14 _ZN10Connection5ResetEv
485:   FUNC GLOBAL DEFAULT 14 _ZN12FdConnection5WriteEP
486:   OBJECT WEAK DEFAULT 18 _ZTVNSt3__115basic_string
487:   FUNC GLOBAL DEFAULT 14 _Z23getEmulatorSerialStri
488:   FUNC GLOBAL DEFAULT 14 _ZN13UsbConnection4ReadEP
489:   OBJECT WEAK DEFAULT 18 _ZTV16UsbFfsConnection
490:   FUNC GLOBAL DEFAULT 14 qemu_pipe_frame_send
491:   FUNC GLOBAL DEFAULT 14 _Z18SendProtocolStringiNS
492:   FUNC WEAK DEFAULT 14 _ZNSt3__114__split_buffer
493:   FUNC WEAK DEFAULT 14 _ZNSt3__112__hash_tableIN
494:   FUNC GLOBAL DEFAULT 14 _Z15NextTransportIdv
495:   OBJECT GLOBAL DEFAULT 18 _ZTV10Connection
496:   FUNC GLOBAL DEFAULT 14 _ZN10atransport18SetConne
497:   OBJECT WEAK DEFAULT 18 _ZTVNSt3__110__function6_
498:   FUNC WEAK DEFAULT 14 _ZN7android4base9ParseUin
499:   FUNC GLOBAL DEFAULT 14 _ZN10atransport13SetConne
500:   FUNC GLOBAL DEFAULT 14 _ZN10atransport5ResetEv
501:   FUNC GLOBAL DEFAULT 14 _Z17send_auth_requestP10a
502:   FUNC GLOBAL DEFAULT 14 _ZN9alistenerC1ERKNSt3__1
503:   FUNC GLOBAL DEFAULT 14 _Z14adb_trace_initPPc
504:   FUNC GLOBAL DEFAULT 14 _Z6getcwdPNSt3__112basic_
505:   FUNC GLOBAL DEFAULT 14 _Z17set_tcp_keepaliveii
506:   FUNC WEAK DEFAULT 14 _ZNSt3__16vectorINS_10uni
507:   FUNC GLOBAL DEFAULT 14 _Z11put_apacketP7apacket
508:   FUNC WEAK DEFAULT 14 _ZNSt3__115basic_stringbu
509:   FUNC GLOBAL DEFAULT 14 _Z20server_socket_threadN
510:   FUNC GLOBAL DEFAULT 14 _ZN13UsbConnectionD1Ev
511:   OBJECT GLOBAL DEFAULT 18 _ZTV13UsbConnection
512:   FUNC GLOBAL DEFAULT 14 _Z22connect_to_smartsocke
513:   FUNC GLOBAL DEFAULT 14 _Z11fdevent_addP7fdeventj
514:   FUNC GLOBAL DEFAULT 14 _ZN13UsbConnection5CloseE
515:   FUNC WEAK DEFAULT 14 _ZNSt3__120__shared_ptr_e
516:   FUNC WEAK DEFAULT 14 _ZNSt3__14moveINS_10uniqu
517:   FUNC WEAK DEFAULT 14 _ZNSt3__114__split_buffer
518:   FUNC WEAK DEFAULT 14 _ZNSt3__15dequeINS_10shar
519:   FUNC WEAK DEFAULT 14 _ZNSt3__15dequeINS_10uniq
520:   FUNC GLOBAL DEFAULT 14 _Z20remove_all_listenersv
521:   FUNC GLOBAL DEFAULT 14 _ZN18ConnectionWaitable24
522:   OBJECT GLOBAL DEFAULT 18 _ZTV25BlockingConnectionA
523:   FUNC GLOBAL DEFAULT 14 __aeabi_memcpy4
524:   FUNC GLOBAL DEFAULT 14 _Z16install_listenerRKNSt
525:   FUNC GLOBAL DEFAULT 14 _Z17get_trace_settingv
526:   FUNC GLOBAL DEFAULT 14 _Z11tcp_connectRKNSt3__11
527:   FUNC WEAK DEFAULT 14 _ZNSt3__110__function6__f
528:   FUNC GLOBAL DEFAULT 14 _Z15fdevent_destroyP7fdev
529:   FUNC GLOBAL DEFAULT 14 _Z13service_to_fdNSt3__11
530:   OBJECT WEAK DEFAULT 18 _ZTVNSt3__120__shared_ptr
531:   FUNC WEAK DEFAULT 14 _ZNSt3__114__split_buffer
532:   FUNC GLOBAL DEFAULT 14 _Z15remove_listenerPKcP10
533:   FUNC WEAK DEFAULT 14 _ZNKSt3__110__function6__
534:   FUNC GLOBAL DEFAULT 14 _Z11close_stdinv
535:   FUNC GLOBAL DEFAULT 14 _Z11dump_packetPKcS0_PK7a
536:   FUNC GLOBAL DEFAULT 14 _ZNK7asocket15get_max_pay
537:   FUNC WEAK DEFAULT 14 _ZNSt3__16vectorIN7androi
538:   FUNC GLOBAL DEFAULT 14 __aeabi_memcpy8
539:   FUNC GLOBAL DEFAULT 14 _Z19ReadOrderlyShutdowni
540:   FUNC GLOBAL DEFAULT 14 _ZN9alistenerC2ERKNSt3__1
541:   FUNC WEAK DEFAULT 14 _ZNSt3__114__split_buffer
542:   FUNC WEAK DEFAULT 14 _ZNSt3__15dequeINS_8funct
543:   FUNC GLOBAL DEFAULT 14 _ZN10Connection6FromFdEN7
544:   FUNC GLOBAL DEFAULT 14 _Z16adb_trace_enable8AdbT
545:   FUNC GLOBAL DEFAULT 14 _ZN10atransport5WriteEP7a
546:   FUNC GLOBAL DEFAULT 14 _Z20create_remote_socketj
547:   OBJECT GLOBAL DEFAULT 18 kFeatureCmd
548:   FUNC WEAK DEFAULT 14 _ZNSt3__113move_backwardI
549:   FUNC GLOBAL DEFAULT 14 __divdi3
550:   FUNC GLOBAL DEFAULT 14 _Z14handle_offlineP10atra
551:   FUNC GLOBAL DEFAULT 14 _Z26fdevent_run_on_main_t
552:   FUNC WEAK DEFAULT 14 _ZNSt3__112__hash_tableIN
553:   FUNC WEAK DEFAULT 14 _ZNSt3__112__hash_tableIN
554:   FUNC WEAK DEFAULT 14 _ZNSt3__120__shared_ptr_p
555:   FUNC WEAK DEFAULT 14 _ZNSt3__114__thread_proxy
556:   FUNC WEAK DEFAULT 14 _ZNSt3__114__split_buffer
557:   FUNC WEAK DEFAULT 14 _ZNSt3__16vectorI5iovecNS
558:   FUNC GLOBAL DEFAULT 14 _Z13errno_to_wirei
559:   FUNC GLOBAL DEFAULT 14 _ZN10atransportD1Ev
560:   FUNC WEAK DEFAULT 14 _ZNSt3__113move_backwardI
561:   FUNC GLOBAL DEFAULT 14 _Z11send_packetP7apacketP
562:   FUNC GLOBAL DEFAULT 14 __aeabi_l2d
563:   OBJECT GLOBAL DEFAULT 18 kFeatureStat2
564:   FUNC WEAK DEFAULT 14 _ZNSt3__114__split_buffer
565:   OBJECT GLOBAL DEFAULT 23 gListenAll
566:   FUNC WEAK DEFAULT 14 _ZNSt3__15dequeINS_10uniq
567:   OBJECT GLOBAL DEFAULT 18 kFeatureShell2
568:   FUNC WEAK DEFAULT 14 _ZNSt3__16vectorIiNS_9all
569:   FUNC GLOBAL DEFAULT 14 _Z11get_apacketv
570:   OBJECT GLOBAL DEFAULT 23 adb_trace_mask
571:   OBJECT GLOBAL DEFAULT 18 _ZTV10atransport
572:   OBJECT GLOBAL DEFAULT 18 kFeatureFixedPushMkdir
573:   FUNC GLOBAL DEFAULT 14 _Z17create_usb_handlejj
574:   FUNC WEAK DEFAULT 14 _ZNSt3__112__hash_tableIN
575:   FUNC GLOBAL DEFAULT 14 _Z9usb_writeP10usb_handle
576:   FUNC GLOBAL DEFAULT 14 _Z26create_jdwp_service_s
577:   FUNC GLOBAL DEFAULT 14 _Z29local_connect_arbitra
