 0x000000000000000e (SONAME)             Library soname: [liblp.so]
  
Symbol   contains 259 entries:
Num:   Type Bind Vis Ndx Name
0:   NOTYPE LOCAL DEFAULT UND
1:   FUNC GLOBAL DEFAULT UND __cxa_finalize@LIBC (2)
2:   FUNC GLOBAL DEFAULT UND __cxa_atexit@LIBC (2)
3:   FUNC GLOBAL DEFAULT UND _ZN7android4base10LogMess
4:   FUNC GLOBAL DEFAULT UND _ZN7android4base10LogMess
5:   FUNC GLOBAL DEFAULT UND _ZN7android4base10LogMess
6:   FUNC GLOBAL DEFAULT UND _ZN7android4base15GetBool
7:   FUNC GLOBAL DEFAULT UND _ZN7android4base21GetMini
8:   FUNC GLOBAL DEFAULT UND _ZNKSt3__112basic_stringI
9:   FUNC GLOBAL DEFAULT UND _ZNKSt3__120__vector_base
10:   FUNC GLOBAL DEFAULT UND _ZNKSt3__121__basic_strin
11:   FUNC GLOBAL DEFAULT UND _ZNKSt3__16locale9use_fac
12:   FUNC GLOBAL DEFAULT UND _ZNKSt3__18ios_base6getlo
13:   FUNC GLOBAL DEFAULT UND _ZNSt3__112basic_stringIc
14:   FUNC GLOBAL DEFAULT UND _ZNSt3__112basic_stringIc
15:   FUNC GLOBAL DEFAULT UND _ZNSt3__112basic_stringIc
16:   FUNC GLOBAL DEFAULT UND _ZNSt3__112basic_stringIc
17:   FUNC GLOBAL DEFAULT UND _ZNSt3__112basic_stringIc
18:   FUNC GLOBAL DEFAULT UND _ZNSt3__113basic_ostreamI
19:   FUNC GLOBAL DEFAULT UND _ZNSt3__113basic_ostreamI
20:   FUNC GLOBAL DEFAULT UND _ZNSt3__113basic_ostreamI
21:   FUNC GLOBAL DEFAULT UND _ZNSt3__113basic_ostreamI
22:   FUNC GLOBAL DEFAULT UND _ZNSt3__113basic_ostreamI
23:   OBJECT GLOBAL DEFAULT UND _ZNSt3__15ctypeIcE2idE
24:   FUNC GLOBAL DEFAULT UND _ZNSt3__16localeD1Ev
25:   FUNC GLOBAL DEFAULT UND _ZNSt3__18ios_base5clearE
26:   FUNC GLOBAL DEFAULT UND _ZdlPv
27:   FUNC GLOBAL DEFAULT UND _Znwm
28:   FUNC GLOBAL DEFAULT UND __errno@LIBC (2)
29:   FUNC GLOBAL DEFAULT UND __stack_chk_fail@LIBC (2)
30:   FUNC GLOBAL DEFAULT UND abort@LIBC (2)
31:   FUNC GLOBAL DEFAULT UND memcmp@LIBC (2)
32:   FUNC GLOBAL DEFAULT UND memcpy@LIBC (2)
33:   FUNC GLOBAL DEFAULT UND memmove@LIBC (2)
34:   FUNC GLOBAL DEFAULT UND memset@LIBC (2)
35:   FUNC GLOBAL DEFAULT UND strlen@LIBC (2)
36:   FUNC GLOBAL DEFAULT UND strncpy@LIBC (2)
37:   FUNC GLOBAL DEFAULT UND _ZN13TemporaryFile7releas
38:   FUNC GLOBAL DEFAULT UND _ZN13TemporaryFileC1Ev
39:   FUNC GLOBAL DEFAULT UND _ZN13TemporaryFileD1Ev
40:   FUNC GLOBAL DEFAULT UND _ZN7android4base10WriteFu
41:   FUNC GLOBAL DEFAULT UND _ZN7android4base9ReadFull
42:   FUNC GLOBAL DEFAULT UND _ZNSt3__112basic_stringIc
43:   FUNC GLOBAL DEFAULT UND _ZNSt3__112basic_stringIc
44:   FUNC GLOBAL DEFAULT UND _ZNSt3__1plIcNS_11char_tr
45:   FUNC GLOBAL DEFAULT UND _ZdaPv
46:   FUNC GLOBAL DEFAULT UND _Znam
47:   FUNC WEAK DEFAULT UND android_fdsan_close_with_@LIBC_Q (3)
48:   FUNC WEAK DEFAULT UND android_fdsan_create_owne@LIBC_Q (3)
49:   FUNC WEAK DEFAULT UND android_fdsan_exchange_ow@LIBC_Q (3)
50:   FUNC GLOBAL DEFAULT UND close@LIBC (2)
51:   FUNC GLOBAL DEFAULT UND open@LIBC (2)
52:   FUNC GLOBAL DEFAULT UND sparse_file_add_data
53:   FUNC GLOBAL DEFAULT UND sparse_file_add_fd
54:   FUNC GLOBAL DEFAULT UND sparse_file_add_fill
55:   FUNC GLOBAL DEFAULT UND sparse_file_destroy
56:   FUNC GLOBAL DEFAULT UND sparse_file_import
57:   FUNC GLOBAL DEFAULT UND sparse_file_new
58:   FUNC GLOBAL DEFAULT UND sparse_file_write
59:   FUNC GLOBAL DEFAULT UND _ZN7android4base8Basename
60:   FUNC GLOBAL DEFAULT UND ioctl@LIBC (2)
61:   FUNC GLOBAL DEFAULT UND _ZNSt3__113basic_ostreamI
62:   OBJECT GLOBAL DEFAULT UND _ZSt7nothrow
63:   FUNC GLOBAL DEFAULT UND _ZnamRKSt9nothrow_t
64:   FUNC GLOBAL DEFAULT UND SHA256_Final
65:   FUNC GLOBAL DEFAULT UND SHA256_Init
66:   FUNC GLOBAL DEFAULT UND SHA256_Update
67:   FUNC GLOBAL DEFAULT UND __open_2@LIBC (2)
68:   FUNC GLOBAL DEFAULT UND android_get_control_file
69:   FUNC GLOBAL DEFAULT UND dup@LIBC (2)
70:   FUNC GLOBAL DEFAULT UND fstat@LIBC (2)
71:   FUNC GLOBAL DEFAULT UND get_block_device_size
72:   FUNC GLOBAL DEFAULT UND lseek@LIBC (2)
73:   FUNC WEAK DEFAULT UND android_set_abort_message@LIBC (2)
74:   FUNC GLOBAL DEFAULT UND write@LIBC (2)
75:   FUNC WEAK DEFAULT 14 _ZNSt3__16vectorINS_10uni
76:   OBJECT GLOBAL DEFAULT 18 _ZTVN7android6fs_mgr10Zer
77:   FUNC GLOBAL DEFAULT 14 _ZN7android6fs_mgr20Write
78:   FUNC GLOBAL DEFAULT 14 _ZN7android6fs_mgr21GetPa
79:   FUNC GLOBAL DEFAULT 14 _ZN7android6fs_mgr9Partit
80:   FUNC WEAK DEFAULT 14 _ZNSt3__16vectorINS_10uni
81:   FUNC GLOBAL DEFAULT 14 _ZN7android6fs_mgr23GetBa
82:   FUNC GLOBAL DEFAULT 14 _ZN7android6fs_mgr20Updat
83:   FUNC GLOBAL DEFAULT 14 _ZN7android6fs_mgr15Metad
84:   FUNC GLOBAL DEFAULT 14 _ZNK7android6fs_mgr9Parti
85:   OBJECT WEAK DEFAULT 18 _ZTVNSt3__110__function6_
86:   FUNC GLOBAL DEFAULT 14 _ZN7android6fs_mgr27GetMe
87:   FUNC GLOBAL DEFAULT 14 _ZNK7android6fs_mgr15Meta
88:   FUNC WEAK DEFAULT 14 _ZNSt3__113__vector_baseI
89:   FUNC WEAK DEFAULT 14 _ZNSt3__16vectorIN7androi
90:   FUNC WEAK DEFAULT 14 _ZNSt3__16vectorINS_10uni
91:   FUNC GLOBAL DEFAULT 14 _ZN7android6fs_mgr23GetBa
92:   FUNC GLOBAL DEFAULT 14 _ZN7android6fs_mgr15Metad
93:   FUNC GLOBAL DEFAULT 14 _ZN7android6fs_mgr15Metad
94:   FUNC GLOBAL DEFAULT 14 _ZN7android6fs_mgr15Metad
95:   OBJECT WEAK DEFAULT 18 _ZTVN7android6fs_mgr12Mem
96:   FUNC GLOBAL DEFAULT 14 _ZN7android6fs_mgr15Metad
97:   FUNC GLOBAL DEFAULT 14 _ZN7android6fs_mgr16GetPa
98:   FUNC GLOBAL DEFAULT 14 _ZN7android6fs_mgr9Partit
99:   FUNC GLOBAL DEFAULT 14 _ZN7android6fs_mgr15Metad
100:   FUNC GLOBAL DEFAULT 14 _ZNK7android6fs_mgr15Meta
101:   FUNC GLOBAL DEFAULT 14 _ZNK7android6fs_mgr12Imag
102:   FUNC GLOBAL DEFAULT 14 _ZNK7android6fs_mgr10Zero
103:   FUNC GLOBAL DEFAULT 14 _ZN7android6fs_mgr12Image
104:   FUNC WEAK DEFAULT 14 _ZNSt3__16__treeINS_12__v
105:   FUNC GLOBAL DEFAULT 14 _ZN7android6fs_mgr9Partit
106:   FUNC GLOBAL DEFAULT 14 _ZN7android6fs_mgr12Image
107:   FUNC GLOBAL DEFAULT 14 _ZN7android6fs_mgr17Seria
108:   FUNC GLOBAL DEFAULT 14 _ZN7android6fs_mgr12ReadM
109:   FUNC GLOBAL DEFAULT 14 _ZNK7android6fs_mgr15Meta
110:   FUNC WEAK DEFAULT 14 _ZNSt3__16vectorIN7androi
111:   FUNC GLOBAL DEFAULT 14 _ZNK7android6fs_mgr12Line
112:   FUNC WEAK DEFAULT 14 _ZNSt3__16__treeINS_12__v
113:   FUNC GLOBAL DEFAULT 14 _ZN7android6fs_mgr24GetPr
114:   FUNC GLOBAL DEFAULT 14 _ZN7android6fs_mgr15Metad
115:   FUNC GLOBAL DEFAULT 14 _ZN7android6fs_mgr15Metad
116:   FUNC WEAK DEFAULT 14 _ZNSt3__16vectorIN7androi
117:   FUNC WEAK DEFAULT 14 _ZNSt3__1plIcNS_11char_tr
118:   FUNC GLOBAL DEFAULT 14 _ZN7android6fs_mgr15Metad
119:   FUNC WEAK DEFAULT 14 _ZNSt3__17__sort4IRNS_6__
120:   FUNC GLOBAL DEFAULT 14 _ZN7android6fs_mgr12Image
121:   FUNC GLOBAL DEFAULT 14 _ZN7android6fs_mgr20Updat
122:   FUNC WEAK DEFAULT 14 _ZNKSt3__110__function6__
123:   FUNC GLOBAL DEFAULT 14 _ZN7android6fs_mgr15Metad
124:   FUNC GLOBAL DEFAULT 14 _ZN7android6fs_mgr15Metad
125:   FUNC GLOBAL DEFAULT 14 _ZNK7android6fs_mgr15Meta
126:   FUNC GLOBAL DEFAULT 14 _ZNK7android6fs_mgr15Meta
127:   FUNC GLOBAL DEFAULT 14 _ZNK7android6fs_mgr15Meta
128:   FUNC WEAK DEFAULT 14 _ZNSt3__114__split_buffer
129:   FUNC GLOBAL DEFAULT 14 _ZN7android6fs_mgr19Flash
130:   FUNC GLOBAL DEFAULT 14 _ZN7android6fs_mgr15Metad
131:   FUNC WEAK DEFAULT 14 _ZNSt3__16vectorIN7androi
132:   FUNC GLOBAL DEFAULT 14 _ZN7android6fs_mgr10SeekF
133:   FUNC GLOBAL DEFAULT 14 _ZN7android6fs_mgr15Metad
134:   FUNC GLOBAL DEFAULT 14 _ZNK7android6fs_mgr15Meta
135:   FUNC WEAK DEFAULT 14 _ZNSt3__16vectorINS_10uni
136:   FUNC GLOBAL DEFAULT 14 _ZN7android6fs_mgr16Write
137:   FUNC WEAK DEFAULT 14 _ZNSt3__16vectorI24LpMeta
138:   FUNC GLOBAL DEFAULT 14 _ZN7android6fs_mgr15Metad
139:   FUNC WEAK DEFAULT 14 _ZNSt3__16vectorI16LpMeta
140:   FUNC WEAK DEFAULT 14 _ZNSt3__16__treeINS_12__v
141:   FUNC GLOBAL DEFAULT 14 _ZN7android6fs_mgr15Metad
142:   FUNC GLOBAL DEFAULT 14 _ZNK7android6fs_mgr15Meta
143:   FUNC WEAK DEFAULT 14 _ZNSt3__16vectorINS_12bas
144:   FUNC GLOBAL DEFAULT 14 _ZN7android6fs_mgr15Metad
145:   FUNC WEAK DEFAULT 14 _ZNSt3__113__tree_removeI
146:   FUNC WEAK DEFAULT 14 _ZNSt3__16__treeINS_12__v
147:   FUNC WEAK DEFAULT 14 _ZNKSt3__16__treeINS_12ba
148:   FUNC GLOBAL DEFAULT 14 _ZN7android6fs_mgr16Write
149:   FUNC GLOBAL DEFAULT 14 _ZNK7android6fs_mgr12Imag
150:   FUNC GLOBAL DEFAULT 14 _ZN7android6fs_mgr24Updat
151:   FUNC GLOBAL DEFAULT 14 _ZN7android6fs_mgr15Metad
152:   FUNC GLOBAL DEFAULT 14 _ZNK7android6fs_mgr15Meta
153:   FUNC WEAK DEFAULT 14 _ZNSt3__16vectorI21LpMeta
154:   FUNC WEAK DEFAULT 14 _ZNSt3__16vectorINS_12bas
155:   FUNC GLOBAL DEFAULT 14 _ZN7android6fs_mgr15Metad
156:   FUNC GLOBAL DEFAULT 14 _ZNK7android6fs_mgr15Meta
157:   FUNC GLOBAL DEFAULT 14 _ZNK7android6fs_mgr15Meta
158:   FUNC WEAK DEFAULT 14 _ZNSt3__16vectorI19LpMeta
159:   FUNC WEAK DEFAULT 14 _ZNSt3__16vectorI21LpMeta
160:   FUNC GLOBAL DEFAULT 14 _ZN7android6fs_mgr20Updat
161:   FUNC WEAK DEFAULT 14 _ZNKSt3__110__function6__
162:   FUNC GLOBAL DEFAULT 14 _ZNK7android6fs_mgr15Meta
163:   FUNC WEAK DEFAULT 14 _ZNSt3__124__put_characte
164:   FUNC WEAK DEFAULT 14 _ZNSt3__16__treeINS_12__v
165:   FUNC WEAK DEFAULT 14 _ZNSt3__16__treeINS_12__v
166:   FUNC GLOBAL DEFAULT 14 _ZN7android6fs_mgr6SHA256
167:   FUNC GLOBAL DEFAULT 14 _ZN7android6fs_mgr12Image
168:   FUNC GLOBAL DEFAULT 14 _ZN7android6fs_mgr13Parse
169:   FUNC GLOBAL DEFAULT 14 _ZNK7android6fs_mgr15Part
170:   FUNC GLOBAL DEFAULT 14 _ZN7android6fs_mgr28ReadL
171:   FUNC GLOBAL DEFAULT 14 _ZN7android6fs_mgr15Metad
172:   FUNC GLOBAL DEFAULT 14 _ZNK7android6fs_mgr15Meta
173:   FUNC GLOBAL DEFAULT 14 _ZNK7android6fs_mgr12Imag
174:   FUNC WEAK DEFAULT 14 _ZNSt3__16vectorINS_10uni
175:   FUNC GLOBAL DEFAULT 14 _ZN7android6fs_mgr15Metad
176:   FUNC WEAK DEFAULT 14 _ZNSt3__16__treeINS_12__v
177:   FUNC WEAK DEFAULT 14 _ZNSt3__16vectorIN7androi
178:   FUNC WEAK DEFAULT 14 _ZNSt3__16vectorI16LpMeta
179:   FUNC GLOBAL DEFAULT 14 _ZN7android6fs_mgr23SlotN
180:   FUNC WEAK DEFAULT 14 _ZNSt3__110__function6__f
181:   FUNC WEAK DEFAULT 14 _ZNSt3__16vectorI19LpMeta
182:   FUNC GLOBAL DEFAULT 14 _ZN7android6fs_mgr15Metad
183:   FUNC GLOBAL DEFAULT 14 _ZN7android6fs_mgr15Metad
184:   FUNC GLOBAL DEFAULT 14 _ZN7android6fs_mgr15Metad
185:   FUNC GLOBAL DEFAULT 14 _ZN7android6fs_mgr15Metad
186:   FUNC WEAK DEFAULT 14 _ZNSt3__16__treeINS_12__v
187:   FUNC WEAK DEFAULT 14 _ZNSt3__16vectorIN7androi
188:   FUNC WEAK DEFAULT 14 _ZNSt3__16vectorIN7androi
189:   FUNC GLOBAL DEFAULT 14 _ZN7android6fs_mgr15Metad
190:   FUNC GLOBAL DEFAULT 14 _ZNK7android6fs_mgr15Meta
191:   FUNC WEAK DEFAULT 14 _ZNSt3__16__treeINS_12__v
192:   OBJECT WEAK DEFAULT 18 _ZTVN7android6fs_mgr10Fil
193:   FUNC WEAK DEFAULT 14 _ZNSt3__16vectorI24LpMeta
194:   FUNC GLOBAL DEFAULT 14 _ZN7android6fs_mgr17Seria
195:   FUNC GLOBAL DEFAULT 14 _ZN7android6fs_mgr16SetBl
196:   FUNC GLOBAL DEFAULT 14 _ZN7android6fs_mgr19Flash
197:   FUNC GLOBAL DEFAULT 14 _ZN7android6fs_mgr15Metad
198:   FUNC GLOBAL DEFAULT 14 _ZN7android6fs_mgr22GetPa
199:   FUNC GLOBAL DEFAULT 14 _ZN7android6fs_mgr13Parse
200:   FUNC GLOBAL DEFAULT 14 _ZN7android6fs_mgr17GetDe
201:   FUNC GLOBAL DEFAULT 14 _ZN7android6fs_mgr17ReadF
202:   FUNC GLOBAL DEFAULT 14 _ZN7android6fs_mgr18ReadB
203:   OBJECT GLOBAL DEFAULT 23 _ZN7android6fs_mgr15Metad
204:   FUNC WEAK DEFAULT 14 _ZNSt3__16vectorIPN7andro
205:   OBJECT GLOBAL DEFAULT 18 _ZTVN7android6fs_mgr15Par
206:   FUNC GLOBAL DEFAULT 14 _ZN7android6fs_mgr19ReadP
207:   FUNC WEAK DEFAULT 14 _ZNSt3__16vectorI21LpMeta
208:   OBJECT GLOBAL DEFAULT 23 _ZN7android6fs_mgr15Metad
209:   FUNC GLOBAL DEFAULT 14 _ZN7android6fs_mgr15Metad
210:   FUNC GLOBAL DEFAULT 14 _ZN7android6fs_mgr20GetTo
211:   FUNC GLOBAL DEFAULT 14 _ZN7android6fs_mgr23SlotS
212:   FUNC GLOBAL DEFAULT 14 _ZN7android6fs_mgr17ReadF
213:   FUNC WEAK DEFAULT 14 _ZNSt3__16vectorI21LpMeta
214:   FUNC WEAK DEFAULT 14 _ZNSt3__16vectorIN7androi
215:   FUNC WEAK DEFAULT 14 _ZNSt3__16vectorIN7androi
216:   FUNC GLOBAL DEFAULT 14 _ZN7android6fs_mgr24GetPr
217:   FUNC GLOBAL DEFAULT 14 _ZN7android6fs_mgr15Metad
218:   FUNC GLOBAL DEFAULT 14 _ZNK7android6fs_mgr15Meta
219:   FUNC WEAK DEFAULT 14 _ZNSt3__127__insertion_so
220:   FUNC GLOBAL DEFAULT 14 _ZN7android6fs_mgr18ReadB
221:   FUNC WEAK DEFAULT 14 _ZNSt3__16vectorINS_10uni
222:   FUNC WEAK DEFAULT 14 _ZNSt3__17__sort3IRNS_6__
223:   FUNC GLOBAL DEFAULT 14 _ZN7android6fs_mgr13Parse
224:   FUNC GLOBAL DEFAULT 14 _ZN7android6fs_mgr16Write
225:   FUNC GLOBAL DEFAULT 14 _ZN7android6fs_mgr20GetCo
226:   FUNC GLOBAL DEFAULT 14 _ZN7android6fs_mgr9Partit
227:   FUNC WEAK DEFAULT 14 _ZNSt3__16vectorI21LpMeta
228:   FUNC WEAK DEFAULT 14 _ZNSt3__16vectorI21LpMeta
229:   OBJECT GLOBAL DEFAULT 18 _ZTVN7android6fs_mgr12Lin
230:   FUNC GLOBAL DEFAULT 14 _ZN7android6fs_mgr12Image
231:   FUNC GLOBAL DEFAULT 14 _ZN7android6fs_mgr19ReadP
232:   FUNC WEAK DEFAULT 14 _ZNSt3__110__function6__f
233:   FUNC GLOBAL DEFAULT 14 _ZN7android6fs_mgr15Metad
234:   FUNC GLOBAL DEFAULT 14 _ZN7android6fs_mgr15Metad
235:   FUNC GLOBAL DEFAULT 14 _ZN7android6fs_mgr30Updat
236:   FUNC WEAK DEFAULT 14 _ZNSt3__16__sortIRNS_6__l
237:   FUNC WEAK DEFAULT 14 _ZNSt3__16vectorI21LpMeta
238:   FUNC GLOBAL DEFAULT 14 _ZN7android6fs_mgr26GetTo
239:   FUNC GLOBAL DEFAULT 14 _ZN7android6fs_mgr9Partit
240:   FUNC GLOBAL DEFAULT 14 _ZN7android6fs_mgr12Image
241:   FUNC GLOBAL DEFAULT 14 _ZN7android6fs_mgr12Image
242:   FUNC GLOBAL DEFAULT 14 _ZN7android6fs_mgr28GetBl
243:   FUNC GLOBAL DEFAULT 14 _ZN7android6fs_mgr12Image
244:   FUNC GLOBAL DEFAULT 14 _ZN7android6fs_mgr12Image
245:   FUNC GLOBAL DEFAULT 14 _ZNK7android6fs_mgr15Meta
246:   FUNC WEAK DEFAULT 14 _ZNSt3__127__tree_balance
247:   FUNC GLOBAL DEFAULT 14 _ZN7android6fs_mgr12ReadM
248:   FUNC GLOBAL DEFAULT 14 _ZN7android6fs_mgr15Metad
249:   FUNC GLOBAL DEFAULT 14 _ZN7android6fs_mgr15Metad
250:   FUNC WEAK DEFAULT 14 _ZNSt3__16__treeINS_12__v
251:   FUNC GLOBAL DEFAULT 14 _ZN7android6fs_mgr17ReadF
252:   FUNC GLOBAL DEFAULT 14 _ZNK7android6fs_mgr15Part
253:   FUNC GLOBAL DEFAULT 14 _ZN7android6fs_mgr15Metad
254:   FUNC GLOBAL DEFAULT 14 _ZN7android6fs_mgr15Metad
255:   FUNC GLOBAL DEFAULT 14 _ZN7android6fs_mgr27GetBl
256:   FUNC GLOBAL DEFAULT 14 _ZN7android6fs_mgr12Image
257:   FUNC WEAK DEFAULT 14 _ZNSt3__110__function6__f
258:   FUNC WEAK DEFAULT 14 _ZNSt3__16vectorI16LpMeta
