 0x0000000e (SONAME)                     Library soname: [libadbd_services.so]
  
Symbol   contains 761 entries:
Num:   Type Bind Vis Ndx Name
0:   NOTYPE LOCAL DEFAULT UND
1:   FUNC GLOBAL DEFAULT UND __cxa_atexit@LIBC (2)
2:   FUNC GLOBAL DEFAULT UND __cxa_finalize@LIBC (2)
3:   FUNC GLOBAL DEFAULT UND _ZN7android4base10LogMess
4:   FUNC GLOBAL DEFAULT UND _ZN7android4base10LogMess
5:   FUNC GLOBAL DEFAULT UND _ZN7android4base10LogMess
6:   FUNC GLOBAL DEFAULT UND _ZN7android4base10StartsW
7:   FUNC GLOBAL DEFAULT UND _ZN7android4base12StringP
8:   FUNC GLOBAL DEFAULT UND _ZN7android4base21GetMini
9:   FUNC GLOBAL DEFAULT UND _ZN7android4base5SplitERK
10:   FUNC GLOBAL DEFAULT UND _ZN7android4base7DirnameE
11:   FUNC GLOBAL DEFAULT UND _ZN7android4base8Readlink
12:   FUNC GLOBAL DEFAULT UND _ZNKSt3__112basic_stringI
13:   FUNC GLOBAL DEFAULT UND _ZNKSt3__112basic_stringI
14:   FUNC GLOBAL DEFAULT UND _ZNKSt3__121__basic_strin
15:   FUNC GLOBAL DEFAULT UND _ZNKSt3__16locale9use_fac
16:   FUNC GLOBAL DEFAULT UND _ZNKSt3__18ios_base6getlo
17:   FUNC GLOBAL DEFAULT UND _ZNSt3__112basic_stringIc
18:   FUNC GLOBAL DEFAULT UND _ZNSt3__112basic_stringIc
19:   FUNC GLOBAL DEFAULT UND _ZNSt3__112basic_stringIc
20:   FUNC GLOBAL DEFAULT UND _ZNSt3__113basic_ostreamI
21:   FUNC GLOBAL DEFAULT UND _ZNSt3__113basic_ostreamI
22:   OBJECT GLOBAL DEFAULT UND _ZNSt3__15ctypeIcE2idE
23:   FUNC GLOBAL DEFAULT UND _ZNSt3__16localeD1Ev
24:   FUNC GLOBAL DEFAULT UND _ZNSt3__18ios_base5clearE
25:   FUNC GLOBAL DEFAULT UND _ZdlPv
26:   FUNC GLOBAL DEFAULT UND _Znwj
27:   FUNC GLOBAL DEFAULT UND __android_log_security_bs@LIBLOG_PRIVATE (3)
28:   FUNC GLOBAL DEFAULT UND __errno@LIBC (2)
29:   FUNC GLOBAL DEFAULT UND __open_2@LIBC (2)
30:   FUNC GLOBAL DEFAULT UND __read_chk@LIBC (2)
31:   FUNC GLOBAL DEFAULT UND __stack_chk_fail@LIBC (2)
32:   OBJECT GLOBAL DEFAULT UND __stack_chk_guard@LIBC (2)
33:   FUNC WEAK DEFAULT UND android_fdsan_close_with_@LIBC_Q (4)
34:   FUNC WEAK DEFAULT UND android_fdsan_create_owne@LIBC_Q (4)
35:   FUNC WEAK DEFAULT UND android_fdsan_exchange_ow@LIBC_Q (4)
36:   FUNC GLOBAL DEFAULT UND atrace_begin_body
37:   OBJECT GLOBAL DEFAULT UND atrace_enabled_tags
38:   FUNC GLOBAL DEFAULT UND atrace_end_body
39:   OBJECT GLOBAL DEFAULT UND atrace_is_ready
40:   FUNC GLOBAL DEFAULT UND atrace_setup
41:   FUNC GLOBAL DEFAULT UND chown@LIBC (2)
42:   FUNC GLOBAL DEFAULT UND close@LIBC (2)
43:   FUNC GLOBAL DEFAULT UND closedir@LIBC (2)
44:   FUNC GLOBAL DEFAULT UND fchmod@LIBC (2)
45:   FUNC GLOBAL DEFAULT UND fchown@LIBC (2)
46:   FUNC GLOBAL DEFAULT UND fcntl@LIBC (2)
47:   FUNC GLOBAL DEFAULT UND fs_config
48:   FUNC GLOBAL DEFAULT UND lstat@LIBC (2)
49:   FUNC GLOBAL DEFAULT UND lutimes@LIBC_O (5)
50:   FUNC GLOBAL DEFAULT UND mkdir@LIBC (2)
51:   FUNC GLOBAL DEFAULT UND open@LIBC (2)
52:   FUNC GLOBAL DEFAULT UND opendir@LIBC (2)
53:   FUNC GLOBAL DEFAULT UND posix_fadvise@LIBC (2)
54:   FUNC GLOBAL DEFAULT UND readdir@LIBC (2)
55:   FUNC GLOBAL DEFAULT UND removexattr@LIBC (2)
56:   FUNC GLOBAL DEFAULT UND selinux_android_restoreco
57:   FUNC GLOBAL DEFAULT UND setxattr@LIBC (2)
58:   FUNC GLOBAL DEFAULT UND stat@LIBC (2)
59:   FUNC GLOBAL DEFAULT UND strerror@LIBC (2)
60:   FUNC GLOBAL DEFAULT UND strlen@LIBC (2)
61:   FUNC GLOBAL DEFAULT UND strtoul@LIBC (2)
62:   FUNC GLOBAL DEFAULT UND symlink@LIBC (2)
63:   FUNC GLOBAL DEFAULT UND unlink@LIBC (2)
64:   FUNC GLOBAL DEFAULT UND _ZNSt3__112basic_stringIc
65:   FUNC GLOBAL DEFAULT UND _ZNSt3__113basic_ostreamI
66:   FUNC GLOBAL DEFAULT UND _ZNSt3__113basic_ostreamI
67:   FUNC GLOBAL DEFAULT UND _ZNSt3__113basic_ostreamI
68:   FUNC GLOBAL DEFAULT UND _ZNSt3__119__shared_weak_
69:   FUNC GLOBAL DEFAULT UND _ZdaPv
70:   FUNC GLOBAL DEFAULT UND _Znaj
71:   FUNC GLOBAL DEFAULT UND __android_log_is_debuggab@LIBLOG_O (6)
72:   FUNC GLOBAL DEFAULT UND abort@LIBC (2)
73:   FUNC GLOBAL DEFAULT UND memchr@LIBC (2)
74:   FUNC GLOBAL DEFAULT UND memcmp@LIBC (2)
75:   FUNC GLOBAL DEFAULT UND pipe2@LIBC (2)
76:   FUNC GLOBAL DEFAULT UND socketpair@LIBC (2)
77:   FUNC GLOBAL DEFAULT UND sscanf@LIBC (2)
78:   FUNC GLOBAL DEFAULT UND _Exit@LIBC (2)
79:   FUNC GLOBAL DEFAULT UND _ZN7android4base11GetProp
80:   FUNC GLOBAL DEFAULT UND _ZNKSt3__120__vector_base
81:   FUNC GLOBAL DEFAULT UND _ZNSt3__112__next_primeEj
82:   FUNC GLOBAL DEFAULT UND _ZNSt3__112basic_stringIc
83:   FUNC GLOBAL DEFAULT UND _ZNSt3__112basic_stringIc
84:   FUNC GLOBAL DEFAULT UND _ZNSt3__112basic_stringIc
85:   FUNC GLOBAL DEFAULT UND _ZNSt3__115__thread_struc
86:   FUNC GLOBAL DEFAULT UND _ZNSt3__115__thread_struc
87:   FUNC GLOBAL DEFAULT UND _ZNSt3__119__thread_local
88:   FUNC GLOBAL DEFAULT UND _ZNSt3__120__throw_system
89:   FUNC GLOBAL DEFAULT UND _ZNSt3__16thread6detachEv
90:   FUNC GLOBAL DEFAULT UND _ZNSt3__16threadD1Ev
91:   FUNC GLOBAL DEFAULT UND _ZNSt3__1plIcNS_11char_tr
92:   FUNC GLOBAL DEFAULT UND __FD_CLR_chk@LIBC (2)
93:   FUNC GLOBAL DEFAULT UND __FD_ISSET_chk@LIBC (2)
94:   FUNC GLOBAL DEFAULT UND __FD_SET_chk@LIBC (2)
95:   FUNC GLOBAL DEFAULT UND __strlen_chk@LIBC (2)
96:   FUNC GLOBAL DEFAULT UND __write_chk@LIBC_N (7)
97:   FUNC GLOBAL DEFAULT UND ceilf@LIBC (8)
98:   FUNC GLOBAL DEFAULT UND cfmakeraw@LIBC (2)
99:   FUNC GLOBAL DEFAULT UND dup@LIBC (2)
100:   FUNC GLOBAL DEFAULT UND dup2@LIBC (2)
101:   OBJECT GLOBAL DEFAULT UND environ@LIBC (2)
102:   FUNC GLOBAL DEFAULT UND execle@LIBC (2)
103:   FUNC GLOBAL DEFAULT UND fork@LIBC (2)
104:   FUNC GLOBAL DEFAULT UND forkpty@LIBC (2)
105:   FUNC GLOBAL DEFAULT UND gethostname@LIBC (2)
106:   FUNC GLOBAL DEFAULT UND getpwuid@LIBC (2)
107:   FUNC GLOBAL DEFAULT UND getuid@LIBC (2)
108:   FUNC GLOBAL DEFAULT UND ioctl@LIBC (2)
109:   FUNC GLOBAL DEFAULT UND kill@LIBC (2)
110:   FUNC GLOBAL DEFAULT UND pthread_create@LIBC (2)
111:   FUNC GLOBAL DEFAULT UND pthread_self@LIBC (2)
112:   FUNC GLOBAL DEFAULT UND pthread_setname_np@LIBC (2)
113:   FUNC GLOBAL DEFAULT UND pthread_setspecific@LIBC (2)
114:   FUNC GLOBAL DEFAULT UND read@LIBC (2)
115:   FUNC GLOBAL DEFAULT UND select@LIBC (2)
116:   FUNC GLOBAL DEFAULT UND setsid@LIBC (2)
117:   FUNC GLOBAL DEFAULT UND shutdown@LIBC (2)
118:   FUNC GLOBAL DEFAULT UND signal@LIBC (2)
119:   FUNC GLOBAL DEFAULT UND strchr@LIBC (2)
120:   FUNC GLOBAL DEFAULT UND strncpy@LIBC (2)
121:   FUNC GLOBAL DEFAULT UND tcgetattr@LIBC (2)
122:   FUNC GLOBAL DEFAULT UND tcsetattr@LIBC (2)
123:   FUNC GLOBAL DEFAULT UND waitpid@LIBC (2)
124:   FUNC GLOBAL DEFAULT UND write@LIBC (2)
125:   FUNC GLOBAL DEFAULT UND _ZN7android4base27Receive
126:   FUNC GLOBAL DEFAULT UND _ZNSt3__15mutex4lockEv
127:   FUNC GLOBAL DEFAULT UND _ZNSt3__15mutex6unlockEv
128:   FUNC GLOBAL DEFAULT UND execvp@LIBC (2)
129:   FUNC GLOBAL DEFAULT UND DNSServiceRefDeallocate
130:   FUNC GLOBAL DEFAULT UND DNSServiceRegister
131:   FUNC GLOBAL DEFAULT UND _ZN7android4base11SetProp
132:   FUNC GLOBAL DEFAULT UND _ZN7android4base15WaitFor
133:   FUNC GLOBAL DEFAULT UND _ZN7android4base15GetBool
134:   FUNC GLOBAL DEFAULT UND __strncpy_chk2@LIBC (2)
135:   FUNC GLOBAL DEFAULT UND access@LIBC (2)
136:   FUNC GLOBAL DEFAULT UND connect@LIBC (2)
137:   FUNC GLOBAL DEFAULT UND pause@LIBC (2)
138:   FUNC GLOBAL DEFAULT UND socket@LIBC (2)
139:   FUNC GLOBAL DEFAULT UND sync@LIBC (2)
140:   FUNC GLOBAL DEFAULT UND _exit@LIBC (2)
141:   FUNC GLOBAL DEFAULT UND execl@LIBC (2)
142:   FUNC GLOBAL DEFAULT UND strsignal@LIBC (2)
143:   FUNC GLOBAL DEFAULT UND _Z22fs_mgr_overlayfs_setu
144:   FUNC GLOBAL DEFAULT UND _Z25fs_mgr_overlayfs_tear
145:   FUNC GLOBAL DEFAULT UND _ZN7android6fs_mgr16ReadD
146:   FUNC GLOBAL DEFAULT UND fec_close
147:   FUNC GLOBAL DEFAULT UND fec_open
148:   FUNC GLOBAL DEFAULT UND fec_verity_get_metadata
149:   FUNC GLOBAL DEFAULT UND fec_verity_set_status
150:   FUNC GLOBAL DEFAULT UND __system_property_find@LIBC (2)
151:   FUNC GLOBAL DEFAULT UND __system_property_read_ca@LIBC_O (5)
152:   FUNC GLOBAL DEFAULT UND _ZN7android6fs_mgr17ReadF
153:   FUNC GLOBAL DEFAULT UND _ZN7android6fs_mgr21GetEn
154:   FUNC GLOBAL DEFAULT UND fputs@LIBC (2)
155:   FUNC GLOBAL DEFAULT UND free@LIBC (2)
156:   FUNC GLOBAL DEFAULT UND malloc@LIBC (2)
157:   OBJECT GLOBAL DEFAULT UND stderr@LIBC (2)
158:   FUNC GLOBAL DEFAULT UND strcmp@LIBC (2)
159:   FUNC GLOBAL DEFAULT UND calloc@LIBC (2)
160:   FUNC GLOBAL DEFAULT UND lseek64@LIBC (2)
161:   FUNC GLOBAL DEFAULT UND strdup@LIBC (2)
162:   FUNC GLOBAL DEFAULT UND strrchr@LIBC (2)
163:   FUNC GLOBAL DEFAULT UND _ZN7android4base17GetExec
164:   FUNC GLOBAL DEFAULT UND _ZN7android4base4JoinINSt
165:   FUNC GLOBAL DEFAULT UND _ZNSt3__111this_thread9sl
166:   FUNC GLOBAL DEFAULT UND printf@LIBC (2)
167:   FUNC GLOBAL DEFAULT UND strncmp@LIBC (2)
168:   FUNC GLOBAL DEFAULT UND _ZN7android4base13StringA
169:   FUNC GLOBAL DEFAULT UND _ZNSt3__112basic_stringIc
170:   FUNC GLOBAL DEFAULT UND sched_yield@LIBC (2)
171:   FUNC GLOBAL DEFAULT UND _ZN7android4base13StringA
172:   FUNC GLOBAL DEFAULT UND accept@LIBC (2)
173:   FUNC GLOBAL DEFAULT UND setsockopt@LIBC (2)
174:   FUNC GLOBAL DEFAULT UND _ZN7android4base10LogdLog
175:   FUNC GLOBAL DEFAULT UND _ZN7android4base10LogdLog
176:   FUNC GLOBAL DEFAULT UND _ZN7android4base11InitLog
177:   FUNC GLOBAL DEFAULT UND _ZN7android4base12StderrL
178:   FUNC GLOBAL DEFAULT UND _ZN7android4base14Default
179:   FUNC GLOBAL DEFAULT UND _ZN7android4base21SetMini
180:   FUNC GLOBAL DEFAULT UND fprintf@LIBC (2)
181:   FUNC GLOBAL DEFAULT UND getenv@LIBC (2)
182:   FUNC GLOBAL DEFAULT UND getpid@LIBC (2)
183:   FUNC GLOBAL DEFAULT UND isatty@LIBC (2)
184:   FUNC GLOBAL DEFAULT UND localtime_r@LIBC (2)
185:   FUNC GLOBAL DEFAULT UND strftime@LIBC (2)
186:   FUNC GLOBAL DEFAULT UND time@LIBC (2)
187:   FUNC GLOBAL DEFAULT UND tzset@LIBC (2)
188:   FUNC GLOBAL DEFAULT UND _ZN7android4base8Basename
189:   FUNC GLOBAL DEFAULT UND _ZNKSt3__112basic_stringI
190:   FUNC GLOBAL DEFAULT UND _ZNSt3__112basic_stringIc
191:   FUNC GLOBAL DEFAULT UND __vsnprintf_chk@LIBC (2)
192:   FUNC GLOBAL DEFAULT UND exit@LIBC (2)
193:   FUNC GLOBAL DEFAULT UND fflush@LIBC (2)
194:   FUNC GLOBAL DEFAULT UND getcwd@LIBC (2)
195:   FUNC GLOBAL DEFAULT UND getpwuid_r@LIBC (2)
196:   FUNC GLOBAL DEFAULT UND isprint@LIBC (2)
197:   FUNC GLOBAL DEFAULT UND isspace@LIBC (2)
198:   FUNC GLOBAL DEFAULT UND putc@LIBC (2)
199:   OBJECT GLOBAL DEFAULT UND stdout@LIBC (2)
200:   FUNC GLOBAL DEFAULT UND strtoll@LIBC (2)
201:   FUNC GLOBAL DEFAULT UND sysconf@LIBC (2)
202:   FUNC GLOBAL DEFAULT UND vfprintf@LIBC (2)
203:   FUNC GLOBAL DEFAULT UND _ZN7android4base10boot_cl
204:   FUNC GLOBAL DEFAULT UND _ZN7android4base11GetThre
205:   FUNC GLOBAL DEFAULT UND _ZNSt3__16chrono12steady_
206:   FUNC GLOBAL DEFAULT UND __cxa_guard_acquire
207:   FUNC GLOBAL DEFAULT UND __cxa_guard_release
208:   FUNC GLOBAL DEFAULT UND poll@LIBC (2)
209:   FUNC GLOBAL DEFAULT UND puts@LIBC (2)
210:   FUNC GLOBAL DEFAULT UND _ZNKSt3__119__shared_weak
211:   FUNC GLOBAL DEFAULT UND _ZNSt3__112basic_stringIc
212:   FUNC GLOBAL DEFAULT UND _ZNSt3__115recursive_mute
213:   FUNC GLOBAL DEFAULT UND _ZNSt3__115recursive_mute
214:   FUNC GLOBAL DEFAULT UND _ZNSt3__115recursive_mute
215:   FUNC GLOBAL DEFAULT UND _ZNSt3__119__shared_weak_
216:   FUNC GLOBAL DEFAULT UND writev@LIBC (2)
217:   FUNC GLOBAL DEFAULT UND _ZN7android4base15ParseNe
218:   FUNC GLOBAL DEFAULT UND _ZNSt3__112basic_stringIc
219:   FUNC GLOBAL DEFAULT UND __strchr_chk@LIBC (2)
220:   FUNC GLOBAL DEFAULT UND bind@LIBC (2)
221:   FUNC GLOBAL DEFAULT UND getsockname@LIBC (2)
222:   FUNC GLOBAL DEFAULT UND listen@LIBC (2)
223:   FUNC GLOBAL DEFAULT UND socket_get_local_port
224:   FUNC GLOBAL DEFAULT UND socket_inaddr_any_server
225:   FUNC GLOBAL DEFAULT UND socket_local_client
226:   FUNC GLOBAL DEFAULT UND socket_local_server
227:   FUNC GLOBAL DEFAULT UND strtoull@LIBC (2)
228:   FUNC GLOBAL DEFAULT UND tolower@LIBC (2)
229:   FUNC GLOBAL DEFAULT UND _ZNSt3__111__call_onceERV
230:   FUNC GLOBAL DEFAULT UND _ZNSt3__113basic_ostreamI
231:   FUNC GLOBAL DEFAULT UND _ZNSt3__113basic_ostreamI
232:   FUNC GLOBAL DEFAULT UND _ZNSt3__113basic_ostreamI
233:   FUNC GLOBAL DEFAULT UND _ZNSt3__113basic_ostreamI
234:   FUNC GLOBAL DEFAULT UND _ZNSt3__115basic_streambu
235:   FUNC GLOBAL DEFAULT UND _ZNSt3__115basic_streambu
236:   FUNC GLOBAL DEFAULT UND _ZNSt3__115basic_streambu
237:   FUNC GLOBAL DEFAULT UND _ZNSt3__115basic_streambu
238:   FUNC GLOBAL DEFAULT UND _ZNSt3__115basic_streambu
239:   FUNC GLOBAL DEFAULT UND _ZNSt3__115basic_streambu
240:   FUNC GLOBAL DEFAULT UND _ZNSt3__115basic_streambu
241:   FUNC GLOBAL DEFAULT UND _ZNSt3__115basic_streambu
242:   FUNC GLOBAL DEFAULT UND _ZNSt3__115basic_streambu
243:   FUNC GLOBAL DEFAULT UND _ZNSt3__118condition_vari
244:   FUNC GLOBAL DEFAULT UND _ZNSt3__118condition_vari
245:   FUNC GLOBAL DEFAULT UND _ZNSt3__118condition_vari
246:   FUNC GLOBAL DEFAULT UND _ZNSt3__118condition_vari
247:   FUNC GLOBAL DEFAULT UND _ZNSt3__15mutexD1Ev
248:   FUNC GLOBAL DEFAULT UND _ZNSt3__16chrono12system_
249:   FUNC GLOBAL DEFAULT UND _ZNSt3__16thread4joinEv
250:   FUNC GLOBAL DEFAULT UND _ZNSt3__18ios_base4initEP
251:   FUNC GLOBAL DEFAULT UND _ZNSt3__19basic_iosIcNS_1
252:   FUNC GLOBAL DEFAULT UND _ZSt9terminatev
253:   FUNC GLOBAL DEFAULT UND _ZTv0_n12_NSt3__113basic_
254:   FUNC GLOBAL DEFAULT UND _ZTv0_n12_NSt3__113basic_
255:   FUNC GLOBAL DEFAULT UND __cxa_pure_virtual
256:   FUNC GLOBAL DEFAULT UND isalnum@LIBC (2)
257:   FUNC GLOBAL DEFAULT UND gai_strerror@LIBC (2)
258:   OBJECT GLOBAL DEFAULT UND in6addr_loopback@LIBC_N (7)
259:   FUNC GLOBAL DEFAULT UND socket_network_client_tim
260:   FUNC GLOBAL DEFAULT UND RSA_free
261:   FUNC GLOBAL DEFAULT UND RSA_verify
262:   FUNC GLOBAL DEFAULT UND _ZN7android4base16ReadFil
263:   FUNC GLOBAL DEFAULT UND __b64_pton@LIBC (2)
264:   FUNC GLOBAL DEFAULT UND android_get_control_socke
265:   FUNC GLOBAL DEFAULT UND android_pubkey_decode
266:   FUNC GLOBAL DEFAULT UND fclose@LIBC (2)
267:   FUNC GLOBAL DEFAULT UND fopen@LIBC (2)
268:   FUNC GLOBAL DEFAULT UND fread@LIBC (2)
269:   FUNC GLOBAL DEFAULT UND strpbrk@LIBC (2)
270:   FUNC GLOBAL DEFAULT UND _ZN7android4base24SendFil
271:   FUNC GLOBAL DEFAULT UND _ZNSt3__19to_stringEi
272:   FUNC GLOBAL DEFAULT UND recvfrom@LIBC (2)
273:   FUNC GLOBAL DEFAULT UND _ZN7android4base10WriteFu
274:   FUNC GLOBAL DEFAULT UND _ZN7android4base9ReadFull
275:   FUNC GLOBAL DEFAULT UND io_getevents
276:   FUNC GLOBAL DEFAULT UND io_prep
277:   FUNC GLOBAL DEFAULT UND io_setup
278:   FUNC GLOBAL DEFAULT UND io_submit
279:   FUNC GLOBAL DEFAULT UND posix_madvise@LIBC (2)
280:   FUNC GLOBAL DEFAULT UND memcpy@LIBC (2)
281:   FUNC GLOBAL DEFAULT UND memmove@LIBC (2)
282:   FUNC GLOBAL DEFAULT UND memset@LIBC (2)
283:   FUNC WEAK DEFAULT UND android_set_abort_message@LIBC (2)
284:   FUNC GLOBAL DEFAULT 14 avb_calloc
285:   FUNC GLOBAL DEFAULT 14 _Z15remove_listenerPKcP10
286:   FUNC WEAK DEFAULT 14 _ZNSt3__112__hash_tableIN
287:   OBJECT WEAK DEFAULT 18 _ZTVNSt3__110__function6_
288:   FUNC GLOBAL DEFAULT 14 _Z21create_service_thread
289:   FUNC WEAK DEFAULT 14 _ZNSt3__112__hash_tableIN
290:   FUNC GLOBAL DEFAULT 14 __divmodsi4
291:   FUNC WEAK DEFAULT 14 _ZNSt3__114__split_buffer
292:   FUNC GLOBAL DEFAULT 14 _ZN18ConnectionWaitable17
293:   FUNC WEAK DEFAULT 14 _ZNKSt3__110__function6__
294:   FUNC WEAK DEFAULT 14 _ZNSt3__110__function6__f
295:   FUNC GLOBAL DEFAULT 14 _Z16is_adb_interfaceiii
296:   FUNC WEAK DEFAULT 14 _ZNSt3__110__function6__f
297:   FUNC WEAK DEFAULT 14 _ZNSt3__16vectorIPKcNS_9a
298:   FUNC GLOBAL DEFAULT 14 avb_hashtree_descriptor_v
299:   OBJECT WEAK DEFAULT 18 _ZTV13ServiceSocket
300:   FUNC GLOBAL DEFAULT 14 _ZN10atransport14RunDisco
301:   OBJECT GLOBAL DEFAULT 16 os_desc_compat
302:   FUNC GLOBAL DEFAULT 14 _Z15remount_serviceN7andr
303:   FUNC GLOBAL DEFAULT 14 _Z8dump_hexPKvj
304:   FUNC GLOBAL DEFAULT 14 avb_htobe32
305:   FUNC GLOBAL DEFAULT 14 _Z11adb_versionv
306:   FUNC GLOBAL DEFAULT 14 _Z9AdbLoggerN7android4bas
307:   FUNC GLOBAL DEFAULT 14 _Z11fdevent_delP7fdeventj
308:   FUNC WEAK DEFAULT 14 _ZNSt3__112__hash_tableIN
309:   FUNC GLOBAL DEFAULT 14 _ZN10Connection5ResetEv
310:   FUNC WEAK DEFAULT 14 _ZNKSt3__110__function6__
311:   FUNC GLOBAL DEFAULT 14 _Z8usb_readP10usb_handleP
312:   FUNC WEAK DEFAULT 14 _ZNKSt3__110__function6__
313:   FUNC GLOBAL DEFAULT 14 _Z14handle_offlineP10atra
314:   FUNC GLOBAL DEFAULT 14 _Z15set_main_threadv
315:   FUNC GLOBAL DEFAULT 14 _Z24adbd_cloexec_auth_soc
316:   FUNC GLOBAL DEFAULT 14 __aeabi_uidiv
317:   FUNC GLOBAL DEFAULT 14 _Z20daemon_service_to_fdN
318:   FUNC WEAK DEFAULT 14 _ZNSt3__16vectorINS_12bas
319:   FUNC GLOBAL DEFAULT 14 _Z23network_loopback_clie
320:   FUNC GLOBAL DEFAULT 14 _Z15StartSubprocessNSt3__
321:   FUNC WEAK DEFAULT 14 _ZNSt3__115basic_stringbu
322:   FUNC GLOBAL DEFAULT 14 _Z17file_sync_serviceN7an
323:   FUNC WEAK DEFAULT 14 _ZNKSt3__110__function6__
324:   FUNC WEAK DEFAULT 14 _ZNKSt3__110__function6__
325:   FUNC GLOBAL DEFAULT 14 qemu_pipe_frame_send
326:   FUNC GLOBAL DEFAULT 14 _Z15fdevent_releaseP7fdev
327:   FUNC WEAK DEFAULT 14 _ZNSt3__120__shared_ptr_p
328:   FUNC WEAK DEFAULT 14 _ZNSt3__15dequeINS_10shar
329:   FUNC GLOBAL DEFAULT 14 _Z14adbd_auth_initv
330:   FUNC GLOBAL DEFAULT 14 __aeabi_memcpy4
331:   FUNC WEAK DEFAULT 14 _ZNKSt3__110__function6__
332:   OBJECT GLOBAL DEFAULT 16 kADBServiceType
333:   FUNC GLOBAL DEFAULT 14 _ZN9alistenerD1Ev
334:   FUNC WEAK DEFAULT 14 _ZNKSt3__115basic_stringb
335:   FUNC WEAK DEFAULT 14 _ZNSt3__110__function6__f
336:   FUNC GLOBAL DEFAULT 14 _Z21adbd_auth_confirm_key
337:   FUNC GLOBAL DEFAULT 14 _ZN10atransport18SetConne
338:   FUNC WEAK DEFAULT 14 _ZNKSt3__110__function6__
339:   FUNC WEAK DEFAULT 14 _ZNSt3__112__hash_tableIN
340:   FUNC WEAK DEFAULT 14 _ZNSt3__15dequeINS_10shar
341:   FUNC WEAK DEFAULT 14 _ZNSt3__112__hash_tableIN
342:   FUNC WEAK DEFAULT 14 _ZNSt3__14listIP7fdeventN
343:   FUNC GLOBAL DEFAULT 14 _ZN25BlockingConnectionAd
344:   FUNC GLOBAL DEFAULT 14 _Z15network_connectRKNSt3
345:   FUNC GLOBAL DEFAULT 14 __aeabi_memcpy8
346:   FUNC WEAK DEFAULT 14 _ZNSt3__110__function6__f
347:   OBJECT WEAK DEFAULT 18 _ZTV12SourceSocket
348:   FUNC GLOBAL DEFAULT 14 _Z21StartCommandInProcess
349:   FUNC GLOBAL DEFAULT 14 _ZN13ShellProtocol4ReadEv
350:   FUNC GLOBAL DEFAULT 14 avb_be64toh
351:   FUNC WEAK DEFAULT 14 _ZNSt3__112__hash_tableIN
352:   FUNC WEAK DEFAULT 14 _ZNSt3__112__hash_tableIN
353:   FUNC WEAK DEFAULT 14 _ZNSt3__110__function6__f
354:   FUNC GLOBAL DEFAULT 14 _Z18adbd_auth_verifiedP10
355:   OBJECT GLOBAL DEFAULT 16 auth_required
356:   FUNC WEAK DEFAULT 14 _ZNSt3__112__hash_tableIN
357:   FUNC GLOBAL DEFAULT 14 _ZN25BlockingConnectionAd
358:   FUNC GLOBAL DEFAULT 14 _Z17update_transportsv
359:   FUNC WEAK DEFAULT 14 _ZNSt3__112__deque_baseIN
360:   FUNC GLOBAL DEFAULT 14 _Z6getcwdPNSt3__112basic_
361:   OBJECT WEAK DEFAULT 18 _ZTTNSt3__119basic_ostrin
362:   FUNC GLOBAL DEFAULT 14 _Z13errno_to_wirei
363:   FUNC WEAK DEFAULT 14 _ZNSt3__110__function6__f
364:   FUNC GLOBAL DEFAULT 14 _Z9usb_closeP10usb_handle
365:   OBJECT WEAK DEFAULT 18 _ZTVNSt3__110__function6_
366:   FUNC GLOBAL DEFAULT 14 _ZN25BlockingConnectionAd
367:   FUNC GLOBAL DEFAULT 14 _Z20server_socket_threadN
368:   FUNC WEAK DEFAULT 14 _ZNSt3__114__thread_proxy
369:   FUNC GLOBAL DEFAULT 14 avb_ops_user_free
370:   FUNC GLOBAL DEFAULT 14 _Z16start_device_logv
371:   FUNC GLOBAL DEFAULT 14 _Z20adb_get_homedir_pathv
372:   FUNC GLOBAL DEFAULT 14 _Z19fdevent_set_timeoutP7
373:   FUNC WEAK DEFAULT 14 _ZNSt3__114__split_buffer
374:   FUNC GLOBAL DEFAULT 14 _Z32set_verity_enabled_st
375:   FUNC WEAK DEFAULT 14 _ZNSt3__110__function6__f
376:   FUNC GLOBAL DEFAULT 14 _ZN10atransport24SetConne
377:   FUNC GLOBAL DEFAULT 14 __divdi3
378:   FUNC GLOBAL DEFAULT 14 avb_printv
379:   FUNC GLOBAL DEFAULT 14 qemu_pipe_frame_recv
380:   FUNC GLOBAL DEFAULT 14 _Z12send_connectP10atrans
381:   FUNC GLOBAL DEFAULT 14 _Z13handle_onlineP10atran
382:   FUNC GLOBAL DEFAULT 14 _Z17find_local_socketjj
383:   FUNC GLOBAL DEFAULT 14 _Z15NextTransportIdv
384:   FUNC GLOBAL DEFAULT 14 _ZNK10atransport11has_fea
385:   FUNC WEAK DEFAULT 14 _ZNSt3__114__thread_proxy
386:   FUNC GLOBAL DEFAULT 14 avb_crc32
387:   FUNC GLOBAL DEFAULT 14 _Z19kick_all_transportsv
388:   FUNC WEAK DEFAULT 14 _ZNSt3__110__function6__f
389:   FUNC GLOBAL DEFAULT 14 _Z14WriteFdExactlyiPKvj
390:   FUNC GLOBAL DEFAULT 14 _Z19restart_tcp_serviceN7
391:   FUNC GLOBAL DEFAULT 14 _Z19create_local_socketN7
392:   FUNC GLOBAL DEFAULT 14 _Z20is_local_socket_specN
393:   FUNC GLOBAL DEFAULT 14 _ZN13UsbConnection5WriteE
394:   FUNC GLOBAL DEFAULT 14 avb_sub_cmdline
395:   FUNC GLOBAL DEFAULT 14 _Z18supported_featuresv
396:   FUNC GLOBAL DEFAULT 14 _Z21init_socket_transport
397:   OBJECT GLOBAL DEFAULT 18 _ZTV25BlockingConnectionA
398:   FUNC GLOBAL DEFAULT 14 avb_descriptor_foreach
399:   FUNC WEAK DEFAULT 14 _ZNSt3__110__function6__f
400:   FUNC GLOBAL DEFAULT 14 __aeabi_l2d
401:   FUNC WEAK DEFAULT 14 _ZNSt3__124__put_characte
402:   FUNC GLOBAL DEFAULT 14 avb_user_verity_set
403:   FUNC GLOBAL DEFAULT 14 _ZN10atransport13AddDisco
404:   FUNC WEAK DEFAULT 14 _ZNSt3__14listIP11adiscon
405:   FUNC GLOBAL DEFAULT 14 _ZN9alistenerD2Ev
406:   FUNC WEAK DEFAULT 14 _ZNKSt3__110__function6__
407:   FUNC GLOBAL DEFAULT 14 _Z15usb_init_legacyv
408:   FUNC WEAK DEFAULT 14 _ZNSt3__16vectorI8io_even
409:   FUNC GLOBAL DEFAULT 14 _Z12ShellServiceNSt3__117
410:   FUNC GLOBAL DEFAULT 14 avb_div_by_10
411:   FUNC GLOBAL DEFAULT 14 _Z11put_apacketP7apacket
412:   FUNC GLOBAL DEFAULT 14 _Z20create_remote_socketj
413:   FUNC GLOBAL DEFAULT 14 _Z10error_exitPKcz
414:   FUNC GLOBAL DEFAULT 14 _Z11dump_packetPKcS0_PK7a
415:   OBJECT WEAK DEFAULT 18 _ZTVNSt3__120__shared_ptr
416:   FUNC GLOBAL DEFAULT 14 _Z14WriteFdExactlyiRKNSt3
417:   FUNC WEAK DEFAULT 14 _ZNSt3__14listINS_10uniqu
418:   FUNC GLOBAL DEFAULT 14 _Z23network_loopback_serv
419:   FUNC GLOBAL DEFAULT 14 _ZN25BlockingConnectionAd
420:   FUNC GLOBAL DEFAULT 14 _ZN13ShellProtocol5WriteE
421:   FUNC GLOBAL DEFAULT 14 _Z18StringToFeatureSetRKN
422:   FUNC WEAK DEFAULT 14 _ZNSt3__120__shared_ptr_e
423:   FUNC GLOBAL DEFAULT 14 _Z23getEmulatorSerialStri
424:   FUNC WEAK DEFAULT 14 _ZNSt3__112__hash_tableIN
425:   FUNC GLOBAL DEFAULT 14 _Z11dump_headerPK8amessag
426:   FUNC GLOBAL DEFAULT 14 _ZN10atransportD0Ev
427:   FUNC GLOBAL DEFAULT 14 _Z15reverse_serviceNSt3__
428:   FUNC WEAK DEFAULT 14 _ZNKSt3__110__function6__
429:   FUNC GLOBAL DEFAULT 14 _Z27create_local_service_
430:   FUNC GLOBAL DEFAULT 14 _Z18close_smartsocketsv
431:   FUNC WEAK DEFAULT 14 _ZNSt3__114__split_buffer
432:   OBJECT GLOBAL DEFAULT 18 kFeatureCmd
433:   FUNC GLOBAL DEFAULT 14 _Z11ReportError18Subproce
434:   FUNC GLOBAL DEFAULT 14 avb_ab_mark_slot_active
435:   FUNC WEAK DEFAULT 14 _ZNSt3__112__hash_tableIN
436:   FUNC WEAK DEFAULT 14 _ZNSt3__112__hash_tableIN
437:   FUNC GLOBAL DEFAULT 14 _Z10escape_argRKNSt3__112
438:   FUNC GLOBAL DEFAULT 14 _ZN25BlockingConnectionAd
439:   OBJECT WEAK DEFAULT 18 _ZTVNSt3__110__function6_
440:   OBJECT WEAK DEFAULT 18 _ZTVNSt3__110__function6_
441:   FUNC GLOBAL DEFAULT 14 avb_sha512_update
442:   FUNC WEAK DEFAULT 14 _ZNSt3__110__function6__f
443:   FUNC GLOBAL DEFAULT 14 avb_vbmeta_image_verify
444:   FUNC GLOBAL DEFAULT 14 _Z17send_auth_requestP10a
445:   FUNC GLOBAL DEFAULT 14 _Z21get_connection_string
446:   FUNC GLOBAL DEFAULT 14 _Z17connect_to_remoteP7as
447:   OBJECT GLOBAL DEFAULT 18 _ZTV13UsbConnection
448:   FUNC GLOBAL DEFAULT 14 _ZN13ShellProtocolD0Ev
449:   FUNC WEAK DEFAULT 14 _ZNSt3__110__function6__f
450:   FUNC GLOBAL DEFAULT 14 __aeabi_ldivmod
451:   FUNC GLOBAL DEFAULT 14 _ZN13UsbConnectionD0Ev
452:   FUNC GLOBAL DEFAULT 14 _Z17create_usb_handlejj
453:   FUNC GLOBAL DEFAULT 14 _Z19execute_abb_commandNS
454:   OBJECT WEAK DEFAULT 18 _ZTVNSt3__110__function6_
455:   FUNC GLOBAL DEFAULT 14 _Z17close_all_socketsP10a
456:   FUNC WEAK DEFAULT 14 _ZNSt3__112__hash_tableIN
457:   FUNC WEAK DEFAULT 14 _ZNSt3__16vectorIiNS_9all
458:   FUNC GLOBAL DEFAULT 14 _Z34create_jdwp_tracker_s
459:   FUNC GLOBAL DEFAULT 14 avb_slot_verify_result_to
460:   FUNC WEAK DEFAULT 14 _ZNKSt3__110__function6__
461:   FUNC GLOBAL DEFAULT 14 _ZNK10atransport20get_pro
462:   FUNC WEAK DEFAULT 14 _ZNKSt3__110__function6__
463:   FUNC GLOBAL DEFAULT 14 _Z11fdevent_addP7fdeventj
464:   FUNC GLOBAL DEFAULT 14 _Z14reboot_serviceN7andro
465:   FUNC WEAK DEFAULT 14 _ZNSt3__112__hash_tableIN
466:   FUNC GLOBAL DEFAULT 14 avb_append_options
467:   FUNC GLOBAL DEFAULT 14 avb_safe_add_to
468:   FUNC WEAK DEFAULT 14 _ZNSt3__110__function6__f
469:   FUNC WEAK DEFAULT 14 _ZN7android4base22Receive
470:   OBJECT GLOBAL DEFAULT 16 adb_device_banner
471:   FUNC GLOBAL DEFAULT 14 _Z11fdevent_setP7fdeventj
472:   FUNC WEAK DEFAULT 14 _ZNKSt3__110__function6__
473:   FUNC GLOBAL DEFAULT 14 _Z12fdevent_loopv
474:   OBJECT WEAK DEFAULT 18 _ZTVNSt3__120__shared_ptr
475:   FUNC WEAK DEFAULT 14 _ZN7android4base9ParseUin
476:   FUNC GLOBAL DEFAULT 14 _Z8usb_kickP10usb_handle
477:   FUNC GLOBAL DEFAULT 14 __aeabi_memclr
478:   FUNC GLOBAL DEFAULT 14 _ZN13ShellProtocolC1Ei
479:   FUNC GLOBAL DEFAULT 14 avb_bin2hex
480:   FUNC GLOBAL DEFAULT 14 avb_uppercase
481:   FUNC WEAK DEFAULT 14 _ZNSt3__110__function6__f
482:   OBJECT GLOBAL DEFAULT 18 kFeatureApex
483:   FUNC WEAK DEFAULT 14 _ZNSt3__16vectorIN7androi
484:   FUNC WEAK DEFAULT 14 _ZNSt3__114__split_buffer
485:   FUNC WEAK DEFAULT 14 _ZNSt3__112__hash_tableIN
486:   OBJECT GLOBAL DEFAULT 18 _ZTV13ShellProtocol
487:   FUNC GLOBAL DEFAULT 14 avb_user_verity_get
488:   FUNC GLOBAL DEFAULT 14 avb_rsa_public_key_header
489:   FUNC GLOBAL DEFAULT 14 avb_print
490:   FUNC GLOBAL DEFAULT 14 _Z16install_listenerRKNSt
491:   FUNC GLOBAL DEFAULT 14 _ZN12FdConnection5WriteEP
492:   FUNC WEAK DEFAULT 14 _ZNSt3__120__shared_ptr_p
493:   FUNC GLOBAL DEFAULT 14 avb_add_root_digest_subst
494:   FUNC GLOBAL DEFAULT 14 avb_ab_data_init
495:   FUNC GLOBAL DEFAULT 14 avb_ab_mark_slot_successf
496:   FUNC GLOBAL DEFAULT 14 __aeabi_memmove
497:   FUNC GLOBAL DEFAULT 14 _Z18socket_spec_listenNSt
498:   FUNC WEAK DEFAULT 14 _ZNSt3__114__split_buffer
499:   FUNC GLOBAL DEFAULT 14 _Z18ReadProtocolStringiPN
500:   FUNC GLOBAL DEFAULT 14 _ZN10atransportD1Ev
501:   FUNC GLOBAL DEFAULT 14 __udivsi3
502:   FUNC GLOBAL DEFAULT 14 _Z20remove_all_listenersv
503:   FUNC GLOBAL DEFAULT 14 _Z22connect_to_smartsocke
504:   FUNC GLOBAL DEFAULT 14 _ZN10atransport4KickEv
505:   OBJECT WEAK DEFAULT 18 _ZTVNSt3__115basic_string
506:   FUNC GLOBAL DEFAULT 14 avb_strcmp
507:   FUNC WEAK DEFAULT 14 _ZNSt3__112__hash_tableIN
508:   OBJECT GLOBAL DEFAULT 18 kFeatureLibusb
509:   FUNC GLOBAL DEFAULT 14 _Z15errno_from_wirei
510:   FUNC GLOBAL DEFAULT 14 _Z21tcp_listen_inaddr_any
511:   FUNC GLOBAL DEFAULT 14 _Z15open_functionfsPN7and
512:   FUNC WEAK DEFAULT 14 _ZNSt3__16vectorIPN7andro
513:   FUNC GLOBAL DEFAULT 14 avb_memcpy
514:   FUNC GLOBAL DEFAULT 14 _Z16adbd_auth_verifyPKcjR
515:   FUNC GLOBAL DEFAULT 14 _ZN9alistenerC1ERKNSt3__1
516:   FUNC GLOBAL DEFAULT 14 _Z17reconnect_serviceN7an
517:   FUNC GLOBAL DEFAULT 14 _Z8SendFailiNSt3__117basi
518:   OBJECT GLOBAL DEFAULT 18 kFeatureStat2
519:   FUNC GLOBAL DEFAULT 14 __aeabi_idivmod
520:   FUNC GLOBAL DEFAULT 14 avb_malloc
521:   FUNC GLOBAL DEFAULT 14 avb_vbmeta_verify_result_
522:   FUNC GLOBAL DEFAULT 14 avb_free
523:   FUNC GLOBAL DEFAULT 14 _Z16format_listenersv
524:   FUNC WEAK DEFAULT 14 _ZNSt3__112__hash_tableIN
525:   FUNC WEAK DEFAULT 14 _ZNSt3__114__split_buffer
526:   FUNC GLOBAL DEFAULT 14 _Z21parse_tcp_socket_spec
527:   FUNC GLOBAL DEFAULT 14 _ZN13UsbConnection4ReadEP
528:   FUNC GLOBAL DEFAULT 14 __udivmoddi4
529:   FUNC GLOBAL DEFAULT 14 _ZN10atransport14update_v
530:   FUNC GLOBAL DEFAULT 14 _Z23fdevent_installed_cou
531:   FUNC GLOBAL DEFAULT 14 _Z13CanUseFeatureRKNSt3__
532:   FUNC GLOBAL DEFAULT 14 __aeabi_memmove4
533:   FUNC GLOBAL DEFAULT 14 _ZN13ShellProtocolD1Ev
534:   FUNC GLOBAL DEFAULT 14 _Z18SendProtocolStringiNS
535:   FUNC GLOBAL DEFAULT 14 _Z13local_connecti
536:   FUNC GLOBAL DEFAULT 14 _ZN13UsbConnectionD1Ev
537:   FUNC GLOBAL DEFAULT 14 avb_hash_descriptor_valid
538:   FUNC GLOBAL DEFAULT 14 _ZNK10atransport15get_max
539:   OBJECT GLOBAL DEFAULT 23 adb_trace_mask
540:   FUNC GLOBAL DEFAULT 14 _Z20install_local_socketP
541:   FUNC GLOBAL DEFAULT 14 avb_get_algorithm_data
542:   FUNC GLOBAL DEFAULT 14 avb_footer_validate_and_b
543:   FUNC GLOBAL DEFAULT 14 _Z11close_stdinv
544:   OBJECT WEAK DEFAULT 18 _ZTVNSt3__110__function6_
545:   FUNC GLOBAL DEFAULT 14 avb_free_cmdline_subst_li
546:   FUNC GLOBAL DEFAULT 14 avb_safe_add
547:   FUNC WEAK DEFAULT 14 _ZNSt3__16vectorI4iocbNS_
548:   FUNC GLOBAL DEFAULT 14 __aeabi_memmove8
549:   FUNC WEAK DEFAULT 14 _ZNSt3__110__function6__f
550:   FUNC GLOBAL DEFAULT 14 _Z14GetLogFilePathv
551:   FUNC GLOBAL DEFAULT 14 _Z25forward_targets_are_v
552:   FUNC GLOBAL DEFAULT 14 __aeabi_memclr4
553:   FUNC GLOBAL DEFAULT 14 _ZN9alistenerC2ERKNSt3__1
554:   FUNC GLOBAL DEFAULT 14 _ZN18ConnectionWaitable24
555:   FUNC GLOBAL DEFAULT 14 _Z9init_jdwpv
556:   FUNC GLOBAL DEFAULT 14 _ZN13ShellProtocolC2Ei
557:   FUNC GLOBAL DEFAULT 14 _Z22fdevent_terminate_loo
558:   FUNC GLOBAL DEFAULT 14 _Z11tcp_connectRKNSt3__11
559:   FUNC WEAK DEFAULT 14 _ZNSt3__114__thread_proxy
560:   FUNC GLOBAL DEFAULT 14 _Z14kick_transportP10atra
561:   FUNC GLOBAL DEFAULT 14 avb_memcmp
562:   FUNC GLOBAL DEFAULT 14 _Z11get_apacketv
563:   FUNC GLOBAL DEFAULT 14 _Z13service_to_fdNSt3__11
564:   OBJECT GLOBAL DEFAULT 23 gListenAll
565:   FUNC GLOBAL DEFAULT 14 _Z29UsbNoPermissionsShort
566:   FUNC GLOBAL DEFAULT 14 __aeabi_memcpy
567:   FUNC GLOBAL DEFAULT 14 avb_sha256_update
568:   FUNC WEAK DEFAULT 14 _ZNSt3__112__hash_tableIN
569:   OBJECT WEAK DEFAULT 18 _ZTVNSt3__120__shared_ptr
570:   FUNC GLOBAL DEFAULT 14 _Z29local_connect_arbitra
571:   FUNC GLOBAL DEFAULT 14 __aeabi_memclr8
572:   FUNC GLOBAL DEFAULT 14 _Z26create_jdwp_service_s
573:   FUNC GLOBAL DEFAULT 14 avb_strlen
574:   FUNC GLOBAL DEFAULT 14 _ZN10atransportD2Ev
575:   FUNC GLOBAL DEFAULT 14 _Z25create_jdwp_connectio
576:   FUNC WEAK DEFAULT 14 _ZNSt3__110__function6__f
577:   FUNC GLOBAL DEFAULT 14 avb_strdupv
578:   FUNC GLOBAL DEFAULT 14 _ZN12FdConnection4ReadEP7
579:   OBJECT GLOBAL DEFAULT 18 _ZTV12FdConnection
580:   FUNC WEAK DEFAULT 14 _ZNSt3__1plIcNS_11char_tr
581:   FUNC GLOBAL DEFAULT 14 avb_chain_partition_descr
582:   FUNC GLOBAL DEFAULT 14 avb_malloc_
583:   FUNC WEAK DEFAULT 14 _ZNSt3__14listINS_10uniqu
584:   FUNC GLOBAL DEFAULT 14 _ZN10atransport5WriteEP7a
585:   FUNC WEAK DEFAULT 14 _ZNSt3__15dequeINS_10uniq
586:   FUNC GLOBAL DEFAULT 14 _Z17use_qemu_goldfishv
587:   FUNC WEAK DEFAULT 14 _ZNSt3__16vectorINS_12bas
588:   FUNC WEAK DEFAULT 14 _ZNKSt3__110__function6__
589:   FUNC WEAK DEFAULT 14 _ZNSt3__112__hash_tableIN
590:   FUNC GLOBAL DEFAULT 14 _ZN10atransport9Reconnect
591:   FUNC GLOBAL DEFAULT 14 _ZNK10atransport21connect
592:   FUNC GLOBAL DEFAULT 14 _Z19framebuffer_serviceN7
593:   FUNC GLOBAL DEFAULT 14 _Z18FeatureSetToStringRKN
594:   FUNC GLOBAL DEFAULT 14 _Z9usb_writeP10usb_handle
595:   FUNC GLOBAL DEFAULT 14 _Z13remove_socketP7asocke
596:   FUNC GLOBAL DEFAULT 14 avb_validate_utf8
597:   FUNC GLOBAL DEFAULT 14 avb_ab_data_read
598:   FUNC GLOBAL DEFAULT 14 _ZN25BlockingConnectionAd
599:   FUNC WEAK DEFAULT 14 _ZNSt3__112__deque_baseIN
600:   FUNC GLOBAL DEFAULT 14 _ZNK7asocket15get_max_pay
601:   FUNC WEAK DEFAULT 14 _ZNSt3__110__function6__f
602:   FUNC GLOBAL DEFAULT 14 _ZN13ShellProtocolD2Ev
603:   FUNC GLOBAL DEFAULT 14 _Z10WriteFdFmtiPKcz
604:   FUNC GLOBAL DEFAULT 14 avb_sha256_init
605:   FUNC WEAK DEFAULT 14 _ZNSt3__14listIP10atransp
606:   FUNC GLOBAL DEFAULT 14 _ZN13UsbConnectionD2Ev
607:   FUNC WEAK DEFAULT 14 _ZNSt3__16vectorINS_10uni
608:   FUNC GLOBAL DEFAULT 14 avb_strv_find_str
609:   FUNC GLOBAL DEFAULT 14 _Z15fdevent_destroyP7fdev
610:   FUNC GLOBAL DEFAULT 14 _Z16directory_existsRKNSt
611:   FUNC GLOBAL DEFAULT 14 _Z12check_headerP7apacket
612:   FUNC WEAK DEFAULT 14 _ZNKSt3__110__function6__
613:   FUNC GLOBAL DEFAULT 14 _Z10setup_mdnsi
614:   FUNC GLOBAL DEFAULT 14 avb_sha512_init
615:   FUNC WEAK DEFAULT 14 _ZNSt3__112__hash_tableIN
616:   FUNC GLOBAL DEFAULT 14 _Z18register_transportP10
617:   FUNC GLOBAL DEFAULT 14 _Z27init_transport_regist
618:   FUNC GLOBAL DEFAULT 14 _ZN10atransport13SetConne
619:   FUNC GLOBAL DEFAULT 14 _Z13ReadFdExactlyiPvj
620:   FUNC GLOBAL DEFAULT 14 _Z19set_file_block_modeib
621:   FUNC GLOBAL DEFAULT 14 _Z10perror_strPKc
622:   FUNC GLOBAL DEFAULT 14 _Z19ReadOrderlyShutdowni
623:   FUNC GLOBAL DEFAULT 14 avb_new_cmdline_subst_lis
624:   FUNC GLOBAL DEFAULT 14 avb_rsa_verify
625:   FUNC WEAK DEFAULT 14 _ZNSt3__115basic_stringbu
626:   FUNC GLOBAL DEFAULT 14 _Z26fdevent_run_on_main_t
627:   FUNC GLOBAL DEFAULT 14 avb_ab_flow
628:   FUNC GLOBAL DEFAULT 14 _Z17check_main_threadv
629:   FUNC GLOBAL DEFAULT 14 _Z17should_use_libusbv
630:   FUNC GLOBAL DEFAULT 14 _Z12parse_bannerRKNSt3__1
631:   FUNC GLOBAL DEFAULT 14 _Z13fdevent_resetv
632:   OBJECT GLOBAL DEFAULT 18 _ZTV10atransport
633:   FUNC GLOBAL DEFAULT 14 _Z16adb_trace_enable8AdbT
634:   FUNC GLOBAL DEFAULT 14 _ZN10atransport5ResetEv
635:   FUNC GLOBAL DEFAULT 14 avb_replace
636:   FUNC GLOBAL DEFAULT 14 qemu_pipe_open
637:   FUNC WEAK DEFAULT 14 _ZNSt3__16vectorI5iovecNS
638:   FUNC WEAK DEFAULT 14 _ZNSt3__114__split_buffer
639:   FUNC GLOBAL DEFAULT 14 __floatdidf
640:   FUNC GLOBAL DEFAULT 14 avb_abort
641:   FUNC GLOBAL DEFAULT 14 _ZNK10atransport18GetConn
642:   FUNC WEAK DEFAULT 14 _ZNSt3__16vectorIP7asocke
643:   FUNC WEAK DEFAULT 14 _ZNKSt3__112__hash_tableI
644:   FUNC WEAK DEFAULT 14 _ZNSt3__110__function6__f
645:   FUNC WEAK DEFAULT 14 _ZNSt3__110__function6__f
646:   FUNC GLOBAL DEFAULT 14 avb_slot_verify_data_free
647:   FUNC WEAK DEFAULT 14 _ZNSt3__114__split_buffer
648:   FUNC WEAK DEFAULT 14 _ZNSt3__114__split_buffer
649:   OBJECT GLOBAL DEFAULT 18 kFeaturePushSync
650:   FUNC WEAK DEFAULT 14 _ZNSt3__110__function6__f
651:   FUNC WEAK DEFAULT 14 _ZNSt3__16vectorIN7androi
652:   FUNC GLOBAL DEFAULT 14 __divmoddi4
653:   FUNC GLOBAL DEFAULT 14 avb_ab_data_write
654:   FUNC GLOBAL DEFAULT 14 __aeabi_uldivmod
655:   FUNC GLOBAL DEFAULT 14 _Z26calculate_apacket_che
656:   FUNC GLOBAL DEFAULT 14 avb_slot_verify_data_calc
657:   FUNC GLOBAL DEFAULT 14 _Z14is_socket_specNSt3__1
658:   FUNC GLOBAL DEFAULT 14 __udivmodsi4
659:   FUNC GLOBAL DEFAULT 14 _Z14fdevent_createiPFvP7f
660:   FUNC WEAK DEFAULT 14 _ZNSt3__112__deque_baseIN
661:   FUNC WEAK DEFAULT 14 _ZNKSt3__110__function6__
662:   FUNC GLOBAL DEFAULT 14 avb_descriptor_get_all
663:   FUNC GLOBAL DEFAULT 14 avb_slot_verify
664:   FUNC GLOBAL DEFAULT 14 _ZNK10atransport13Matches
665:   FUNC GLOBAL DEFAULT 14 _ZN13UsbConnection5ResetE
666:   FUNC GLOBAL DEFAULT 14 avb_basename
667:   FUNC WEAK DEFAULT 14 _ZNSt3__120__shared_ptr_e
668:   FUNC GLOBAL DEFAULT 14 avb_str_concat
669:   FUNC GLOBAL DEFAULT 14 avb_memset
670:   FUNC WEAK DEFAULT 14 _ZNSt3__16vectorINS_12bas
671:   FUNC GLOBAL DEFAULT 14 _Z14adb_trace_initPPc
672:   FUNC GLOBAL DEFAULT 14 _Z20restart_root_serviceN
673:   FUNC WEAK DEFAULT 14 _ZNKSt3__110__function6__
674:   FUNC GLOBAL DEFAULT 14 _Z20suggest_run_adb_rooti
675:   FUNC GLOBAL DEFAULT 14 _Z21acquire_one_transport
676:   FUNC GLOBAL DEFAULT 14 _Z22handle_forward_reques
677:   OBJECT WEAK DEFAULT 18 _ZTCNSt3__119basic_ostrin
678:   FUNC WEAK DEFAULT 14 _ZNSt3__110__function6__f
679:   FUNC GLOBAL DEFAULT 14 avb_strdup
680:   FUNC GLOBAL DEFAULT 14 _Z26get_trace_setting_fro
681:   FUNC GLOBAL DEFAULT 14 _Z19socket_spec_connectPN
682:   FUNC GLOBAL DEFAULT 14 _Z25register_socket_trans
683:   FUNC WEAK DEFAULT 14 _ZN7android4base4JoinINSt
684:   FUNC GLOBAL DEFAULT 14 avb_strstr
685:   FUNC GLOBAL DEFAULT 14 avb_ab_data_update_crc_an
686:   FUNC GLOBAL DEFAULT 14 _Z24adb_get_android_dir_p
687:   FUNC GLOBAL DEFAULT 14 _Z18init_usb_transportP10
688:   FUNC GLOBAL DEFAULT 14 _Z9usb_resetP10usb_handle
689:   FUNC WEAK DEFAULT 14 _ZNSt3__114__thread_proxy
690:   FUNC GLOBAL DEFAULT 14 _ZN12FdConnection5CloseEv
691:   FUNC GLOBAL DEFAULT 14 _ZN25BlockingConnectionAd
692:   FUNC GLOBAL DEFAULT 14 _Z10local_initi
693:   FUNC GLOBAL DEFAULT 14 avb_sha512_final
694:   FUNC GLOBAL DEFAULT 14 _Z17get_trace_settingv
695:   FUNC GLOBAL DEFAULT 14 _Z11send_packetP7apacketP
696:   FUNC WEAK DEFAULT 14 _ZNSt3__16vectorIP4iocbNS
697:   FUNC GLOBAL DEFAULT 14 _Z8SendOkayi
698:   FUNC WEAK DEFAULT 14 _ZNSt3__112__hash_tableIN
699:   OBJECT GLOBAL DEFAULT 18 _ZTV10Connection
700:   FUNC GLOBAL DEFAULT 14 _Z22handle_forward_reques
701:   FUNC GLOBAL DEFAULT 14 __aeabi_uidivmod
702:   FUNC GLOBAL DEFAULT 14 avb_sha256_final
703:   FUNC WEAK DEFAULT 14 _ZNSt3__16vectorI6pollfdN
704:   FUNC WEAK DEFAULT 14 _ZNSt3__15dequeINS_10uniq
705:   FUNC GLOBAL DEFAULT 14 _ZN10atransport11SetFeatu
706:   FUNC GLOBAL DEFAULT 14 avb_safe_memcmp
707:   FUNC WEAK DEFAULT 14 _ZNSt3__112__hash_tableIN
708:   FUNC GLOBAL DEFAULT 14 _Z28UsbNoPermissionsLongH
709:   FUNC GLOBAL DEFAULT 14 _Z14connect_deviceRKNSt3_
710:   FUNC GLOBAL DEFAULT 14 _Z18qemu_socket_threadi
711:   FUNC GLOBAL DEFAULT 14 __aeabi_memset
712:   FUNC GLOBAL DEFAULT 14 _Z22restart_unroot_servic
713:   FUNC WEAK DEFAULT 14 _ZNSt3__110__function6__f
714:   FUNC GLOBAL DEFAULT 14 avb_ops_user_new
715:   FUNC GLOBAL DEFAULT 14 avb_htobe64
716:   FUNC GLOBAL DEFAULT 14 _ZN10atransport16RemoveDi
717:   FUNC GLOBAL DEFAULT 14 __aeabi_memset4
718:   FUNC WEAK DEFAULT 14 _ZNSt3__110__function6__f
719:   FUNC WEAK DEFAULT 14 _ZNSt3__114__split_buffer
720:   FUNC GLOBAL DEFAULT 14 _Z22register_usb_transpor
721:   FUNC GLOBAL DEFAULT 14 _Z17set_tcp_keepaliveii
722:   FUNC GLOBAL DEFAULT 14 _Z14WriteFdExactlyiPKc
723:   FUNC GLOBAL DEFAULT 14 _Z11perror_exitPKcz
724:   FUNC WEAK DEFAULT 14 _ZNSt3__114__thread_proxy
725:   FUNC WEAK DEFAULT 14 _ZNSt3__110__function6__f
726:   FUNC WEAK DEFAULT 14 _ZNSt3__114__split_buffer
727:   OBJECT GLOBAL DEFAULT 18 kFeatureAbb
728:   FUNC GLOBAL DEFAULT 14 _ZN13UsbConnection5CloseE
729:   FUNC GLOBAL DEFAULT 14 _Z24daemon_service_to_soc
730:   FUNC GLOBAL DEFAULT 14 avb_ab_flow_result_to_str
731:   FUNC GLOBAL DEFAULT 14 avb_ab_mark_slot_unbootab
732:   FUNC WEAK DEFAULT 14 _ZNSt3__115basic_stringbu
733:   OBJECT WEAK DEFAULT 18 _ZTVNSt3__119basic_ostrin
734:   FUNC GLOBAL DEFAULT 14 __aeabi_memset8
735:   FUNC GLOBAL DEFAULT 14 avb_descriptor_validate_a
736:   FUNC GLOBAL DEFAULT 14 _Z13handle_packetP7apacke
737:   FUNC WEAK DEFAULT 14 _ZNSt3__112__hash_tableIN
738:   OBJECT GLOBAL DEFAULT 18 kFeatureShell2
739:   FUNC GLOBAL DEFAULT 14 avb_ab_data_verify_and_by
740:   OBJECT WEAK DEFAULT 18 _ZTV10SinkSocket
741:   FUNC WEAK DEFAULT 14 _ZNSt3__120__shared_ptr_p
742:   FUNC GLOBAL DEFAULT 14 _ZN25BlockingConnectionAd
743:   FUNC WEAK DEFAULT 14 _ZNSt3__120__shared_ptr_p
744:   FUNC GLOBAL DEFAULT 14 _Z19restart_usb_serviceN7
745:   FUNC GLOBAL DEFAULT 14 avb_kernel_cmdline_descri
746:   FUNC GLOBAL DEFAULT 14 avb_vbmeta_image_header_t
747:   OBJECT WEAK DEFAULT 18 _ZTVNSt3__110__function6_
748:   OBJECT WEAK DEFAULT 18 _ZTVNSt3__110__function6_
749:   FUNC GLOBAL DEFAULT 14 avb_be32toh
750:   FUNC WEAK DEFAULT 14 _ZNSt3__110__function6__f
751:   FUNC GLOBAL DEFAULT 14 _Z6mkdirsRKNSt3__112basic
752:   FUNC WEAK DEFAULT 14 _ZNSt3__114__split_buffer
753:   FUNC WEAK DEFAULT 14 _ZNSt3__115basic_stringbu
754:   OBJECT GLOBAL DEFAULT 18 kFeatureFixedPushMkdir
755:   FUNC GLOBAL DEFAULT 14 _Z15StartSubprocessNSt3__
756:   FUNC GLOBAL DEFAULT 14 _Z35adbd_notify_framework
757:   FUNC WEAK DEFAULT 14 _ZNSt3__15dequeINS_8funct
758:   FUNC GLOBAL DEFAULT 14 _ZN25BlockingConnectionAd
759:   FUNC GLOBAL DEFAULT 14 _Z14fdevent_createiPFvijP
760:   OBJECT GLOBAL DEFAULT 18 kFeatureFixedPushSymlinkT
