 0x0000000e (SONAME)                     Library soname: [libc.so]
  
Symbol   contains 1139 entries:
Num:   Type Bind Vis Ndx Name
0:   NOTYPE LOCAL DEFAULT UND
1:   FUNC GLOBAL DEFAULT 8 __fstatfs64@@LIBC
2:   FUNC GLOBAL DEFAULT 8 memcpy@@LIBC
3:   FUNC GLOBAL DEFAULT 8 pthread_setschedparam@@LIBC
4:   FUNC GLOBAL DEFAULT 8 putchar_unlocked@@LIBC
5:   FUNC GLOBAL DEFAULT 8 utimes@@LIBC
6:   FUNC GLOBAL DEFAULT 8 iswxdigit@@LIBC
7:   FUNC GLOBAL DEFAULT 8 setlocale@@LIBC
8:   FUNC GLOBAL DEFAULT 8 strptime@@LIBC
9:   FUNC GLOBAL DEFAULT 8 truncate64@@LIBC
10:   FUNC GLOBAL DEFAULT 8 __vsnprintf_chk@@LIBC
11:   FUNC GLOBAL DEFAULT 8 fprintf@@LIBC
12:   FUNC GLOBAL DEFAULT 8 freeaddrinfo@@LIBC
13:   FUNC GLOBAL DEFAULT 8 getwchar@@LIBC
14:   FUNC GLOBAL DEFAULT 8 init_module@@LIBC
15:   FUNC GLOBAL DEFAULT 8 __atomic_dec@@LIBC
16:   FUNC GLOBAL DEFAULT 8 link@@LIBC
17:   FUNC GLOBAL DEFAULT 8 mbrtowc@@LIBC
18:   FUNC GLOBAL DEFAULT 8 longjmp@@LIBC
19:   FUNC GLOBAL DEFAULT 8 readdir@@LIBC
20:   FUNC GLOBAL DEFAULT 8 res_mkquery@@LIBC
21:   FUNC GLOBAL DEFAULT 8 __p_time@@LIBC
22:   FUNC GLOBAL DEFAULT 8 __pthread_cleanup_push@@LIBC
23:   FUNC GLOBAL DEFAULT 8 sem_timedwait@@LIBC
24:   FUNC GLOBAL DEFAULT 8 asctime64_r@@LIBC
25:   FUNC GLOBAL DEFAULT 8 tcflush@@LIBC
26:   FUNC GLOBAL DEFAULT 8 __assert2@@LIBC
27:   FUNC GLOBAL DEFAULT 8 endservent@@LIBC
28:   FUNC GLOBAL DEFAULT 8 getmntent@@LIBC
29:   FUNC GLOBAL DEFAULT 8 getpwuid_r@@LIBC
30:   FUNC GLOBAL DEFAULT 8 isgraph@@LIBC
31:   FUNC GLOBAL DEFAULT 8 ispunct@@LIBC
32:   FUNC GLOBAL DEFAULT 8 memmem@@LIBC
33:   FUNC GLOBAL DEFAULT 8 sendfile@@LIBC
34:   FUNC GLOBAL DEFAULT 8 mktime@@LIBC
35:   FUNC GLOBAL DEFAULT 8 openat@@LIBC
36:   FUNC GLOBAL DEFAULT 8 __strcat_chk@@LIBC
37:   FUNC GLOBAL DEFAULT 8 capget@@LIBC
38:   FUNC GLOBAL DEFAULT 8 vfork@@LIBC
39:   FUNC GLOBAL DEFAULT 8 __isnanf@@LIBC
40:   FUNC GLOBAL DEFAULT 8 drand48@@LIBC
41:   FUNC GLOBAL DEFAULT 8 fgets@@LIBC
42:   FUNC GLOBAL DEFAULT 8 getrlimit@@LIBC
43:   FUNC GLOBAL DEFAULT 8 pthread_setspecific@@LIBC
44:   FUNC GLOBAL DEFAULT 8 strtoul@@LIBC
45:   FUNC GLOBAL DEFAULT 8 timerfd_gettime@@LIBC
46:   FUNC GLOBAL DEFAULT 8 remove@@LIBC
47:   FUNC GLOBAL DEFAULT 8 ttyname@@LIBC
48:   FUNC GLOBAL DEFAULT 8 wcsftime@@LIBC
49:   FUNC GLOBAL DEFAULT 8 __read_chk@@LIBC
50:   FUNC GLOBAL DEFAULT 8 cfsetispeed@@LIBC
51:   FUNC GLOBAL DEFAULT 8 eventfd_read@@LIBC
52:   FUNC GLOBAL DEFAULT 8 getservent@@LIBC
53:   FUNC GLOBAL DEFAULT 8 verrx@@LIBC
54:   FUNC GLOBAL DEFAULT 8 vsyslog@@LIBC
55:   FUNC GLOBAL DEFAULT 8 capset@@LIBC
56:   FUNC GLOBAL DEFAULT 8 memchr@@LIBC
57:   FUNC GLOBAL DEFAULT 8 __p_fqname@@LIBC
58:   FUNC GLOBAL DEFAULT 8 __timer_settime@@LIBC
59:   FUNC GLOBAL DEFAULT 8 initstate@@LIBC
60:   FUNC GLOBAL DEFAULT 8 madvise@@LIBC
61:   FUNC GLOBAL DEFAULT 8 prctl@@LIBC
62:   FUNC GLOBAL DEFAULT 8 setprogname@@LIBC
63:   OBJECT GLOBAL DEFAULT 10 sys_siglist@@LIBC
64:   FUNC GLOBAL DEFAULT 8 __rt_sigprocmask@@LIBC
65:   FUNC GLOBAL DEFAULT 8 iswupper_l@@LIBC
66:   FUNC GLOBAL DEFAULT 8 strtouq@@LIBC
67:   FUNC GLOBAL DEFAULT 8 __isnanl@@LIBC
68:   FUNC GLOBAL DEFAULT 8 memset@@LIBC
69:   FUNC GLOBAL DEFAULT 8 ppoll@@LIBC
70:   FUNC GLOBAL DEFAULT 8 vswprintf@@LIBC
71:   FUNC GLOBAL DEFAULT 8 fchown@@LIBC
72:   FUNC GLOBAL DEFAULT 8 fscanf@@LIBC
73:   FUNC GLOBAL DEFAULT 8 pthread_condattr_setclock@@LIBC
74:   FUNC GLOBAL DEFAULT 8 strcmp@@LIBC
75:   FUNC GLOBAL DEFAULT 8 wcslcat@@LIBC
76:   FUNC GLOBAL DEFAULT 8 tempnam@@LIBC
77:   FUNC GLOBAL DEFAULT 8 unlinkat@@LIBC
78:   FUNC GLOBAL DEFAULT 8 vsnprintf@@LIBC
79:   FUNC GLOBAL DEFAULT 8 __res_dnok@@LIBC
80:   FUNC GLOBAL DEFAULT 8 __strlen_chk@@LIBC
81:   FUNC GLOBAL DEFAULT 8 flock@@LIBC
82:   FUNC GLOBAL DEFAULT 8 fflush@@LIBC
83:   FUNC GLOBAL DEFAULT 8 ftok@@LIBC
84:   FUNC GLOBAL DEFAULT 8 isdigit@@LIBC
85:   FUNC GLOBAL DEFAULT 8 __ns_format_ttl@@LIBC
86:   FUNC GLOBAL DEFAULT 8 ftell@@LIBC
87:   FUNC GLOBAL DEFAULT 8 fwide@@LIBC
88:   FUNC GLOBAL DEFAULT 8 pthread_rwlockattr_init@@LIBC
89:   FUNC GLOBAL DEFAULT 8 ttyname_r@@LIBC
90:   FUNC GLOBAL DEFAULT 8 pthread_detach@@LIBC
91:   FUNC GLOBAL DEFAULT 8 _exit@@LIBC
92:   FUNC GLOBAL DEFAULT 8 inet_ntoa@@LIBC
93:   FUNC GLOBAL DEFAULT 8 isfinitef@@LIBC
94:   FUNC GLOBAL DEFAULT 8 sleep@@LIBC
95:   FUNC GLOBAL DEFAULT 8 wcscmp@@LIBC
96:   FUNC GLOBAL DEFAULT 8 cacheflush@@LIBC
97:   FUNC GLOBAL DEFAULT 8 tcsendbreak@@LIBC
98:   FUNC GLOBAL DEFAULT 8 wcsnlen@@LIBC
99:   FUNC GLOBAL DEFAULT 8 cfgetispeed@@LIBC
100:   FUNC GLOBAL DEFAULT 8 epoll_create@@LIBC
101:   FUNC GLOBAL DEFAULT 8 isblank_l@@LIBC
102:   FUNC GLOBAL DEFAULT 8 mkstemp64@@LIBC
103:   FUNC GLOBAL DEFAULT 8 __cxa_atexit@@LIBC
104:   FUNC GLOBAL DEFAULT 8 ftruncate@@LIBC
105:   FUNC GLOBAL DEFAULT 8 pipe2@@LIBC
106:   FUNC GLOBAL DEFAULT 8 wcsrchr@@LIBC
107:   FUNC GLOBAL DEFAULT 8 __ioctl@@LIBC
108:   FUNC GLOBAL DEFAULT 8 nsdispatch@@LIBC
109:   FUNC GLOBAL DEFAULT 8 pthread_self@@LIBC
110:   FUNC GLOBAL DEFAULT 8 realpath@@LIBC
111:   FUNC GLOBAL DEFAULT 8 sync@@LIBC
112:   FUNC GLOBAL DEFAULT 8 __get_h_errno@@LIBC
113:   FUNC GLOBAL DEFAULT 8 getchar@@LIBC
114:   FUNC GLOBAL DEFAULT 8 getuid@@LIBC
115:   FUNC GLOBAL DEFAULT 8 perror@@LIBC
116:   FUNC GLOBAL DEFAULT 8 readv@@LIBC
117:   FUNC GLOBAL DEFAULT 8 tzset@@LIBC
118:   FUNC GLOBAL DEFAULT 8 __aeabi_memclr
119:   OBJECT GLOBAL DEFAULT 10 __sF@@LIBC
120:   FUNC GLOBAL DEFAULT 8 isfinitel@@LIBC
121:   FUNC GLOBAL DEFAULT 8 __strcpy_chk@@LIBC
122:   FUNC GLOBAL DEFAULT 8 __waitid@@LIBC
123:   FUNC GLOBAL DEFAULT 8 basename@@LIBC
124:   FUNC GLOBAL DEFAULT 8 isupper@@LIBC
125:   FUNC GLOBAL DEFAULT 8 timelocal64@@LIBC
126:   FUNC GLOBAL DEFAULT 8 __statfs64@@LIBC
127:   FUNC GLOBAL DEFAULT 8 cfsetospeed@@LIBC
128:   OBJECT GLOBAL DEFAULT 10 environ@@LIBC
129:   FUNC GLOBAL DEFAULT 8 getauxval@@LIBC
130:   FUNC GLOBAL DEFAULT 8 isnan@@LIBC
131:   FUNC GLOBAL DEFAULT 8 pthread_exit@@LIBC
132:   FUNC GLOBAL DEFAULT 8 setreuid@@LIBC
133:   FUNC GLOBAL DEFAULT 8 strxfrm_l@@LIBC
134:   FUNC GLOBAL DEFAULT 8 chdir@@LIBC
135:   FUNC GLOBAL DEFAULT 8 freelocale@@LIBC
136:   FUNC GLOBAL DEFAULT 8 getchar_unlocked@@LIBC
137:   FUNC GLOBAL DEFAULT 8 gethostbyname@@LIBC
138:   FUNC GLOBAL DEFAULT 8 sigaltstack@@LIBC
139:   FUNC GLOBAL DEFAULT 8 __fp_nquery@@LIBC
140:   FUNC GLOBAL DEFAULT 8 getrusage@@LIBC
141:   FUNC GLOBAL DEFAULT 8 inet_nsap_addr@@LIBC
142:   FUNC GLOBAL DEFAULT 8 isfinite@@LIBC
143:   FUNC GLOBAL DEFAULT 8 setxattr@@LIBC
144:   FUNC GLOBAL DEFAULT 8 __ns_name_rollback@@LIBC
145:   FUNC GLOBAL DEFAULT 8 __timer_delete@@LIBC
146:   FUNC GLOBAL DEFAULT 8 inet_aton@@LIBC
147:   FUNC GLOBAL DEFAULT 8 strcasecmp@@LIBC
148:   FUNC GLOBAL DEFAULT 8 epoll_ctl@@LIBC
149:   FUNC GLOBAL DEFAULT 8 mallinfo@@LIBC
150:   FUNC GLOBAL DEFAULT 8 setlogmask@@LIBC
151:   FUNC GLOBAL DEFAULT 8 truncate@@LIBC
152:   FUNC GLOBAL DEFAULT 8 __set_tid_address@@LIBC
153:   FUNC GLOBAL DEFAULT 8 __socket@@LIBC
154:   FUNC GLOBAL DEFAULT 8 fstatat@@LIBC
155:   FUNC GLOBAL DEFAULT 8 gethostname@@LIBC
156:   FUNC GLOBAL DEFAULT 8 pwrite@@LIBC
157:   FUNC GLOBAL DEFAULT 8 wcsncasecmp@@LIBC
158:   FUNC GLOBAL DEFAULT 8 wcsncat@@LIBC
159:   FUNC GLOBAL DEFAULT 8 __assert@@LIBC
160:   FUNC GLOBAL DEFAULT 8 inet_ntop@@LIBC
161:   FUNC GLOBAL DEFAULT 8 pthread_attr_getschedpoli@@LIBC
162:   FUNC GLOBAL DEFAULT 8 setpgid@@LIBC
163:   FUNC GLOBAL DEFAULT 8 basename_r@@LIBC
164:   FUNC GLOBAL DEFAULT 8 uselocale@@LIBC
165:   FUNC GLOBAL DEFAULT 8 wait4@@LIBC
166:   FUNC GLOBAL DEFAULT 8 __stpncpy_chk2@@LIBC
167:   FUNC GLOBAL DEFAULT 8 arc4random_uniform@@LIBC
168:   FUNC GLOBAL DEFAULT 8 calloc@@LIBC
169:   FUNC GLOBAL DEFAULT 8 tdestroy@@LIBC
170:   FUNC GLOBAL DEFAULT 8 usleep@@LIBC
171:   FUNC GLOBAL DEFAULT 8 dprintf@@LIBC
172:   FUNC GLOBAL DEFAULT 8 pthread_kill@@LIBC
173:   FUNC GLOBAL DEFAULT 8 ptrace@@LIBC
174:   FUNC GLOBAL DEFAULT 8 readahead@@LIBC
175:   FUNC GLOBAL DEFAULT 8 sched_setparam@@LIBC
176:   FUNC GLOBAL DEFAULT 8 strerror@@LIBC
177:   FUNC GLOBAL DEFAULT 8 vfprintf@@LIBC
178:   FUNC GLOBAL DEFAULT 8 getpgid@@LIBC
179:   FUNC GLOBAL DEFAULT 8 __isfinite@@LIBC
180:   FUNC GLOBAL DEFAULT 8 __memmove_chk@@LIBC
181:   FUNC GLOBAL DEFAULT 8 dirname_r@@LIBC
182:   FUNC GLOBAL DEFAULT 8 fseeko@@LIBC
183:   FUNC GLOBAL DEFAULT 8 removexattr@@LIBC
184:   FUNC GLOBAL DEFAULT 8 wcstoull@@LIBC
185:   FUNC GLOBAL DEFAULT 8 __dn_comp@@LIBC
186:   FUNC GLOBAL DEFAULT 8 __sym_ston@@LIBC
187:   FUNC GLOBAL DEFAULT 8 pthread_attr_setstacksize@@LIBC
188:   FUNC GLOBAL DEFAULT 8 pthread_cond_timedwait@@LIBC
189:   FUNC GLOBAL DEFAULT 8 __recvfrom_chk@@LIBC
190:   FUNC GLOBAL DEFAULT 8 putwc@@LIBC
191:   FUNC GLOBAL DEFAULT 8 regerror@@LIBC
192:   FUNC GLOBAL DEFAULT 8 vwscanf@@LIBC
193:   FUNC GLOBAL DEFAULT 8 __aeabi_memmove
194:   FUNC GLOBAL DEFAULT 8 __fp_query@@LIBC
195:   FUNC GLOBAL DEFAULT 8 __ppoll@@LIBC
196:   FUNC GLOBAL DEFAULT 8 cfgetospeed@@LIBC
197:   FUNC GLOBAL DEFAULT 8 ctime64_r@@LIBC
198:   FUNC GLOBAL DEFAULT 8 fgetxattr@@LIBC
199:   FUNC GLOBAL DEFAULT 8 qsort@@LIBC
200:   FUNC GLOBAL DEFAULT 8 strlcpy@@LIBC
201:   FUNC GLOBAL DEFAULT 8 swscanf@@LIBC
202:   FUNC GLOBAL DEFAULT 8 access@@LIBC
203:   FUNC GLOBAL DEFAULT 8 ctime@@LIBC
204:   FUNC GLOBAL DEFAULT 8 fputc@@LIBC
205:   FUNC GLOBAL DEFAULT 8 __putlong@@LIBC
206:   FUNC GLOBAL DEFAULT 8 android_set_abort_message@@LIBC
207:   FUNC GLOBAL DEFAULT 8 asprintf@@LIBC
208:   FUNC GLOBAL DEFAULT 8 strncasecmp@@LIBC
209:   FUNC GLOBAL DEFAULT 8 time@@LIBC
210:   FUNC GLOBAL DEFAULT 8 utmpname@@LIBC
211:   FUNC GLOBAL DEFAULT 8 mbtowc@@LIBC
212:   FUNC GLOBAL DEFAULT 8 utime@@LIBC
213:   FUNC GLOBAL DEFAULT 8 faccessat@@LIBC
214:   FUNC GLOBAL DEFAULT 8 ntohl@@LIBC
215:   OBJECT GLOBAL DEFAULT 10 optarg@@LIBC
216:   FUNC GLOBAL DEFAULT 8 sendmsg@@LIBC
217:   FUNC GLOBAL DEFAULT 8 timer_getoverrun@@LIBC
218:   FUNC GLOBAL DEFAULT 8 __memcpy_chk@@LIBC
219:   FUNC GLOBAL DEFAULT 8 __system_property_get@@LIBC
220:   FUNC GLOBAL DEFAULT 8 psignal@@LIBC
221:   FUNC GLOBAL DEFAULT 8 sched_getcpu@@LIBC
222:   FUNC GLOBAL DEFAULT 8 __cmsg_nxthdr@@LIBC
223:   FUNC GLOBAL DEFAULT 8 __sigaction@@LIBC
224:   FUNC GLOBAL DEFAULT 8 psiginfo@@LIBC
225:   FUNC GLOBAL DEFAULT 8 strsignal@@LIBC
226:   FUNC GLOBAL DEFAULT 8 fts_read@@LIBC
227:   FUNC GLOBAL DEFAULT 8 timer_create@@LIBC
228:   FUNC GLOBAL DEFAULT 8 warnx@@LIBC
229:   FUNC GLOBAL DEFAULT 8 wcstoull_l@@LIBC
230:   FUNC GLOBAL DEFAULT 8 munlock@@LIBC
231:   FUNC GLOBAL DEFAULT 8 ptsname_r@@LIBC
232:   FUNC GLOBAL DEFAULT 8 syslog@@LIBC
233:   FUNC GLOBAL DEFAULT 8 __system_property_set@@LIBC
234:   FUNC GLOBAL DEFAULT 8 exit@@LIBC
235:   FUNC GLOBAL DEFAULT 8 gettimeofday@@LIBC
236:   FUNC GLOBAL DEFAULT 8 timelocal@@LIBC
237:   FUNC GLOBAL DEFAULT 8 __cxa_finalize@@LIBC
238:   FUNC GLOBAL DEFAULT 8 getrlimit64@@LIBC
239:   FUNC GLOBAL DEFAULT 8 posix_fallocate64@@LIBC
240:   FUNC GLOBAL DEFAULT 8 pthread_attr_setguardsize@@LIBC
241:   FUNC GLOBAL DEFAULT 8 vfdprintf
242:   FUNC GLOBAL DEFAULT 8 __umask_chk@@LIBC
243:   FUNC GLOBAL DEFAULT 8 inet_pton@@LIBC
244:   FUNC GLOBAL DEFAULT 8 inotify_add_watch@@LIBC
245:   FUNC GLOBAL DEFAULT 8 ntohs@@LIBC
246:   FUNC GLOBAL DEFAULT 8 getsockname@@LIBC
247:   FUNC GLOBAL DEFAULT 8 htonl@@LIBC
248:   FUNC GLOBAL DEFAULT 8 setegid@@LIBC
249:   FUNC GLOBAL DEFAULT 8 sysconf@@LIBC
250:   FUNC GLOBAL DEFAULT 8 timegm64@@LIBC
251:   FUNC GLOBAL DEFAULT 8 __libc_current_sigrtmin@@LIBC
252:   FUNC GLOBAL DEFAULT 8 free@@LIBC
253:   FUNC GLOBAL DEFAULT 8 pthread_attr_getstacksize@@LIBC
254:   FUNC GLOBAL DEFAULT 8 strftime@@LIBC
255:   FUNC GLOBAL DEFAULT 8 __dn_skipname@@LIBC
256:   FUNC GLOBAL DEFAULT 8 __res_hnok@@LIBC
257:   FUNC GLOBAL DEFAULT 8 getaddrinfo@@LIBC
258:   FUNC GLOBAL DEFAULT 8 __atomic_inc@@LIBC
259:   FUNC GLOBAL DEFAULT 8 isalnum_l@@LIBC
260:   FUNC GLOBAL DEFAULT 8 pthread_cond_signal@@LIBC
261:   FUNC GLOBAL DEFAULT 8 __strchr_chk@@LIBC
262:   FUNC GLOBAL DEFAULT 8 getegid@@LIBC
263:   FUNC GLOBAL DEFAULT 8 setpgrp@@LIBC
264:   FUNC GLOBAL DEFAULT 8 __fpclassifyd@@LIBC
265:   FUNC GLOBAL DEFAULT 8 _toupper@@LIBC
266:   FUNC GLOBAL DEFAULT 8 eventfd_write@@LIBC
267:   FUNC GLOBAL DEFAULT 8 fputs@@LIBC
268:   FUNC GLOBAL DEFAULT 8 memalign@@LIBC
269:   FUNC GLOBAL DEFAULT 8 pclose@@LIBC
270:   FUNC GLOBAL DEFAULT 8 strstr@@LIBC
271:   FUNC GLOBAL DEFAULT 8 __isnan@@LIBC
272:   FUNC GLOBAL DEFAULT 8 __snprintf_chk@@LIBC
273:   FUNC GLOBAL DEFAULT 8 isnormalf@@LIBC
274:   FUNC GLOBAL DEFAULT 8 toupper@@LIBC
275:   FUNC GLOBAL DEFAULT 8 __fpclassifyf@@LIBC
276:   FUNC GLOBAL DEFAULT 8 __res_isourserver@@LIBC
277:   FUNC GLOBAL DEFAULT 8 clearenv@@LIBC
278:   FUNC GLOBAL DEFAULT 8 htons@@LIBC
279:   FUNC GLOBAL DEFAULT 8 kill@@LIBC
280:   FUNC GLOBAL DEFAULT 8 alarm@@LIBC
281:   FUNC GLOBAL DEFAULT 8 fdatasync@@LIBC
282:   FUNC GLOBAL DEFAULT 8 getpgrp@@LIBC
283:   FUNC GLOBAL DEFAULT 8 setlinebuf@@LIBC
284:   FUNC GLOBAL DEFAULT 8 fork@@LIBC
285:   FUNC GLOBAL DEFAULT 8 get_malloc_leak_info@@LIBC_DEPRECATED
286:   FUNC GLOBAL DEFAULT 8 imaxdiv@@LIBC
287:   FUNC GLOBAL DEFAULT 8 memccpy@@LIBC
288:   FUNC GLOBAL DEFAULT 8 newlocale@@LIBC
289:   FUNC GLOBAL DEFAULT 8 __libc_init@@LIBC
290:   FUNC GLOBAL DEFAULT 8 llistxattr@@LIBC
291:   FUNC GLOBAL DEFAULT 8 res_search@@LIBC
292:   FUNC GLOBAL DEFAULT 8 strncpy@@LIBC
293:   FUNC GLOBAL DEFAULT 8 tcgetsid@@LIBC
294:   FUNC GLOBAL DEFAULT 8 twalk@@LIBC
295:   FUNC GLOBAL DEFAULT 8 getline@@LIBC
296:   FUNC GLOBAL DEFAULT 8 iswlower@@LIBC
297:   FUNC GLOBAL DEFAULT 8 pthread_mutexattr_init@@LIBC
298:   FUNC GLOBAL DEFAULT 8 setresuid@@LIBC
299:   FUNC GLOBAL DEFAULT 8 __isinff@@LIBC
300:   FUNC GLOBAL DEFAULT 8 errx@@LIBC
301:   FUNC GLOBAL DEFAULT 8 isnormall@@LIBC
302:   FUNC GLOBAL DEFAULT 8 swprintf@@LIBC
303:   FUNC GLOBAL DEFAULT 8 ungetwc@@LIBC
304:   FUNC GLOBAL DEFAULT 8 __fpclassifyl@@LIBC
305:   FUNC GLOBAL DEFAULT 8 fts_open@@LIBC
306:   FUNC GLOBAL DEFAULT 8 iswblank_l@@LIBC
307:   FUNC GLOBAL DEFAULT 8 pthread_key_delete@@LIBC
308:   FUNC GLOBAL DEFAULT 8 ungetc@@LIBC
309:   FUNC GLOBAL DEFAULT 8 wcsstr@@LIBC
310:   FUNC GLOBAL DEFAULT 8 wmemcpy@@LIBC
311:   FUNC GLOBAL DEFAULT 8 __timer_getoverrun@@LIBC
312:   FUNC GLOBAL DEFAULT 8 _getlong@@LIBC
313:   FUNC GLOBAL DEFAULT 8 pthread_attr_getguardsize@@LIBC
314:   FUNC GLOBAL DEFAULT 8 fchdir@@LIBC
315:   FUNC GLOBAL DEFAULT 8 snprintf@@LIBC
316:   FUNC GLOBAL DEFAULT 8 getlogin@@LIBC
317:   FUNC GLOBAL DEFAULT 8 gettid@@LIBC
318:   FUNC GLOBAL DEFAULT 8 pthread_attr_setschedpara@@LIBC
319:   FUNC GLOBAL DEFAULT 8 pthread_rwlock_trywrlock@@LIBC
320:   FUNC GLOBAL DEFAULT 8 setenv@@LIBC
321:   FUNC GLOBAL DEFAULT 8 __hostalias@@LIBC
322:   FUNC GLOBAL DEFAULT 8 __system_property_foreach@@LIBC
323:   FUNC GLOBAL DEFAULT 8 memmove@@LIBC
324:   FUNC GLOBAL DEFAULT 8 pthread_cond_timeout_np@@LIBC
325:   FUNC GLOBAL DEFAULT 8 uname@@LIBC
326:   FUNC GLOBAL DEFAULT 8 __isinfl@@LIBC
327:   FUNC GLOBAL DEFAULT 8 _resolv_set_nameservers_f@@LIBC
328:   FUNC GLOBAL DEFAULT 8 chmod@@LIBC
329:   FUNC GLOBAL DEFAULT 8 iswdigit_l@@LIBC
330:   FUNC GLOBAL DEFAULT 8 pthread_condattr_destroy@@LIBC
331:   FUNC GLOBAL DEFAULT 8 pthread_join@@LIBC
332:   FUNC GLOBAL DEFAULT 8 sigprocmask@@LIBC
333:   FUNC GLOBAL DEFAULT 8 wcstold_l@@LIBC
334:   FUNC GLOBAL DEFAULT 8 __set_tls@@LIBC
335:   FUNC GLOBAL DEFAULT 8 klogctl@@LIBC
336:   FUNC GLOBAL DEFAULT 8 statfs@@LIBC
337:   FUNC GLOBAL DEFAULT 8 wcscspn@@LIBC
338:   FUNC GLOBAL DEFAULT 8 __system_property_read@@LIBC
339:   FUNC GLOBAL DEFAULT 8 _longjmp@@LIBC
340:   FUNC GLOBAL DEFAULT 8 sigfillset@@LIBC
341:   FUNC GLOBAL DEFAULT 8 wcsnrtombs@@LIBC
342:   FUNC GLOBAL DEFAULT 8 __p_fqnname@@LIBC
343:   FUNC GLOBAL DEFAULT 8 ffs@@LIBC
344:   FUNC GLOBAL DEFAULT 8 ldiv@@LIBC
345:   FUNC GLOBAL DEFAULT 8 lldiv@@LIBC
346:   FUNC GLOBAL DEFAULT 8 strtoumax@@LIBC
347:   FUNC GLOBAL DEFAULT 8 difftime@@LIBC
348:   FUNC GLOBAL DEFAULT 8 epoll_pwait@@LIBC
349:   FUNC GLOBAL DEFAULT 8 getservbyport@@LIBC
350:   FUNC GLOBAL DEFAULT 8 setgid@@LIBC
351:   FUNC GLOBAL DEFAULT 8 srand48@@LIBC
352:   FUNC GLOBAL DEFAULT 8 wctype@@LIBC
353:   FUNC GLOBAL DEFAULT 8 timerfd_settime@@LIBC
354:   FUNC GLOBAL DEFAULT 8 __ctype_get_mb_cur_max@@LIBC
355:   FUNC GLOBAL DEFAULT 8 funlockfile@@LIBC
356:   FUNC GLOBAL DEFAULT 8 mrand48@@LIBC
357:   FUNC GLOBAL DEFAULT 8 strcasestr@@LIBC
358:   FUNC GLOBAL DEFAULT 8 jrand48@@LIBC
359:   FUNC GLOBAL DEFAULT 8 setjmp@@LIBC
360:   FUNC GLOBAL DEFAULT 8 wmemchr@@LIBC
361:   FUNC GLOBAL DEFAULT 8 __atomic_cmpxchg@@LIBC
362:   FUNC GLOBAL DEFAULT 8 mbsrtowcs@@LIBC
363:   FUNC GLOBAL DEFAULT 8 mkdirat@@LIBC
364:   FUNC GLOBAL DEFAULT 8 raise@@LIBC
365:   FUNC GLOBAL DEFAULT 8 setsid@@LIBC
366:   FUNC GLOBAL DEFAULT 8 swapon@@LIBC
367:   FUNC GLOBAL DEFAULT 8 wcsrtombs@@LIBC
368:   FUNC GLOBAL DEFAULT 8 __gnu_Unwind_Find_exidx
369:   FUNC GLOBAL DEFAULT 8 __openat@@LIBC
370:   FUNC GLOBAL DEFAULT 8 fputwc@@LIBC
371:   FUNC GLOBAL DEFAULT 8 socketpair@@LIBC
372:   FUNC GLOBAL DEFAULT 8 _setjmp@@LIBC
373:   FUNC GLOBAL DEFAULT 8 if_indextoname@@LIBC
374:   FUNC GLOBAL DEFAULT 8 readdir64_r@@LIBC
375:   FUNC GLOBAL DEFAULT 8 wmemset@@LIBC
376:   FUNC GLOBAL DEFAULT 8 __isfinitef@@LIBC
377:   FUNC GLOBAL DEFAULT 8 brk@@LIBC
378:   FUNC GLOBAL DEFAULT 8 nftw@@LIBC
379:   FUNC GLOBAL DEFAULT 8 setfsuid@@LIBC
380:   FUNC GLOBAL DEFAULT 8 sigsetmask@@LIBC
381:   FUNC GLOBAL DEFAULT 8 syscall@@LIBC
382:   FUNC GLOBAL DEFAULT 8 vswscanf@@LIBC
383:   FUNC GLOBAL DEFAULT 8 __FD_ISSET_chk@@LIBC
384:   FUNC GLOBAL DEFAULT 8 __libc_current_sigrtmax@@LIBC
385:   FUNC GLOBAL DEFAULT 8 clock_nanosleep@@LIBC
386:   FUNC GLOBAL DEFAULT 8 openlog@@LIBC
387:   FUNC GLOBAL DEFAULT 8 sigaddset@@LIBC
388:   FUNC GLOBAL DEFAULT 8 wcspbrk@@LIBC
389:   FUNC GLOBAL DEFAULT 8 __ns_skiprr@@LIBC
390:   FUNC GLOBAL DEFAULT 8 sched_rr_get_interval@@LIBC
391:   FUNC GLOBAL DEFAULT 8 bsd_signal
392:   FUNC GLOBAL DEFAULT 8 getopt_long@@LIBC
393:   FUNC GLOBAL DEFAULT 8 setitimer@@LIBC
394:   FUNC GLOBAL DEFAULT 8 strxfrm@@LIBC
395:   FUNC GLOBAL DEFAULT 8 wscanf@@LIBC
396:   FUNC GLOBAL DEFAULT 8 gethostbyname_r@@LIBC
397:   FUNC GLOBAL DEFAULT 8 inet_lnaof@@LIBC
398:   FUNC GLOBAL DEFAULT 8 strtoll_l@@LIBC
399:   FUNC GLOBAL DEFAULT 8 rewinddir@@LIBC
400:   FUNC GLOBAL DEFAULT 8 srandom@@LIBC
401:   FUNC GLOBAL DEFAULT 8 __isfinitel@@LIBC
402:   FUNC GLOBAL DEFAULT 8 getpwuid@@LIBC
403:   FUNC GLOBAL DEFAULT 8 strtoull@@LIBC
404:   FUNC GLOBAL DEFAULT 8 __ns_put16@@LIBC
405:   FUNC GLOBAL DEFAULT 8 quick_exit@@LIBC
406:   FUNC GLOBAL DEFAULT 8 sigblock@@LIBC
407:   FUNC GLOBAL DEFAULT 8 signal@@LIBC
408:   FUNC GLOBAL DEFAULT 8 wcstombs@@LIBC
409:   FUNC GLOBAL DEFAULT 8 getc_unlocked@@LIBC
410:   FUNC GLOBAL DEFAULT 8 reboot@@LIBC
411:   FUNC GLOBAL DEFAULT 8 fdopen@@LIBC
412:   FUNC GLOBAL DEFAULT 8 iswprint@@LIBC
413:   FUNC GLOBAL DEFAULT 8 pthread_rwlock_unlock@@LIBC
414:   FUNC GLOBAL DEFAULT 8 __ns_name_skip@@LIBC
415:   FUNC GLOBAL DEFAULT 8 dup@@LIBC
416:   FUNC GLOBAL DEFAULT 8 endmntent@@LIBC
417:   FUNC GLOBAL DEFAULT 8 atof@@LIBC
418:   FUNC GLOBAL DEFAULT 8 isatty@@LIBC
419:   FUNC GLOBAL DEFAULT 8 sem_open@@LIBC
420:   FUNC GLOBAL DEFAULT 8 sigsetjmp@@LIBC
421:   FUNC GLOBAL DEFAULT 8 __pthread_cleanup_pop@@LIBC
422:   FUNC GLOBAL DEFAULT 8 fcntl@@LIBC
423:   FUNC GLOBAL DEFAULT 8 pthread_equal@@LIBC
424:   FUNC GLOBAL DEFAULT 8 stpcpy@@LIBC
425:   FUNC GLOBAL DEFAULT 8 __ns_name_unpack@@LIBC
426:   FUNC GLOBAL DEFAULT 8 read@@LIBC
427:   FUNC GLOBAL DEFAULT 8 atoi@@LIBC
428:   FUNC GLOBAL DEFAULT 8 fputws@@LIBC
429:   FUNC GLOBAL DEFAULT 8 fsetxattr@@LIBC
430:   FUNC GLOBAL DEFAULT 8 pthread_mutex_lock_timeou@@LIBC
431:   FUNC GLOBAL DEFAULT 8 __sched_cpufree@@LIBC
432:   FUNC GLOBAL DEFAULT 8 memrchr@@LIBC
433:   FUNC GLOBAL DEFAULT 8 mremap@@LIBC
434:   FUNC GLOBAL DEFAULT 8 pipe@@LIBC
435:   FUNC GLOBAL DEFAULT 8 gai_strerror@@LIBC
436:   FUNC GLOBAL DEFAULT 8 pthread_attr_getdetachsta@@LIBC
437:   FUNC GLOBAL DEFAULT 8 pthread_cond_timedwait_mo@@LIBC
438:   FUNC GLOBAL DEFAULT 8 pthread_cond_wait@@LIBC
439:   OBJECT GLOBAL DEFAULT 10 _tolower_tab_@@LIBC
440:   FUNC GLOBAL DEFAULT 8 atol@@LIBC
441:   FUNC GLOBAL DEFAULT 8 symlinkat@@LIBC
442:   FUNC GLOBAL DEFAULT 8 __aeabi_memmove4
443:   FUNC GLOBAL DEFAULT 8 __res_ownok@@LIBC
444:   FUNC GLOBAL DEFAULT 8 pthread_mutex_unlock@@LIBC
445:   FUNC GLOBAL DEFAULT 8 __openat_2@@LIBC
446:   FUNC GLOBAL DEFAULT 8 _resolv_flush_cache_for_n@@LIBC
447:   FUNC GLOBAL DEFAULT 8 fchmodat@@LIBC
448:   FUNC GLOBAL DEFAULT 8 getpriority@@LIBC
449:   OBJECT GLOBAL DEFAULT 10 optind@@LIBC
450:   FUNC GLOBAL DEFAULT 8 pthread_mutex_lock@@LIBC
451:   FUNC GLOBAL DEFAULT 8 chroot@@LIBC
452:   FUNC GLOBAL DEFAULT 8 iswalnum_l@@LIBC
453:   FUNC GLOBAL DEFAULT 8 mmap@@LIBC
454:   FUNC GLOBAL DEFAULT 8 regexec@@LIBC
455:   FUNC GLOBAL DEFAULT 8 isdigit_l@@LIBC
456:   FUNC GLOBAL DEFAULT 8 lseek@@LIBC
457:   FUNC GLOBAL DEFAULT 8 sched_getaffinity@@LIBC
458:   FUNC GLOBAL DEFAULT 8 __aeabi_memmove8
459:   FUNC GLOBAL DEFAULT 8 __res_close@@LIBC
460:   FUNC GLOBAL DEFAULT 8 __res_ninit@@LIBC
461:   FUNC GLOBAL DEFAULT 8 getenv@@LIBC
462:   FUNC GLOBAL DEFAULT 8 seed48@@LIBC
463:   FUNC GLOBAL DEFAULT 8 sbrk@@LIBC
464:   FUNC GLOBAL DEFAULT 8 fremovexattr@@LIBC
465:   FUNC GLOBAL DEFAULT 8 pthread_create@@LIBC
466:   FUNC GLOBAL DEFAULT 8 symlink@@LIBC
467:   FUNC GLOBAL DEFAULT 8 wctype_l@@LIBC
468:   FUNC GLOBAL DEFAULT 8 alphasort64@@LIBC
469:   FUNC GLOBAL DEFAULT 8 iswalnum@@LIBC
470:   FUNC GLOBAL DEFAULT 8 posix_openpt@@LIBC
471:   FUNC GLOBAL DEFAULT 8 pthread_once@@LIBC
472:   FUNC GLOBAL DEFAULT 8 __ns_name_uncompress@@LIBC
473:   FUNC GLOBAL DEFAULT 8 __res_nameinquery@@LIBC
474:   FUNC GLOBAL DEFAULT 8 execl@@LIBC
475:   FUNC GLOBAL DEFAULT 8 fdprintf
476:   FUNC GLOBAL DEFAULT 8 getnetbyaddr@@LIBC
477:   FUNC GLOBAL DEFAULT 8 islower@@LIBC
478:   FUNC GLOBAL DEFAULT 8 sem_getvalue@@LIBC
479:   FUNC GLOBAL DEFAULT 8 strlcat@@LIBC
480:   FUNC GLOBAL DEFAULT 8 vprintf@@LIBC
481:   FUNC GLOBAL DEFAULT 8 __b64_ntop@@LIBC
482:   FUNC GLOBAL DEFAULT 8 send@@LIBC
483:   FUNC GLOBAL DEFAULT 8 sprintf@@LIBC
484:   FUNC GLOBAL DEFAULT 8 creat@@LIBC
485:   FUNC GLOBAL DEFAULT 8 dirname@@LIBC
486:   FUNC GLOBAL DEFAULT 8 getgid@@LIBC
487:   FUNC GLOBAL DEFAULT 8 putc_unlocked@@LIBC
488:   FUNC GLOBAL DEFAULT 8 fchmod@@LIBC
489:   FUNC GLOBAL DEFAULT 8 isinf@@LIBC
490:   FUNC GLOBAL DEFAULT 8 fts_close@@LIBC
491:   FUNC GLOBAL DEFAULT 8 open@@LIBC
492:   FUNC GLOBAL DEFAULT 8 utimensat@@LIBC
493:   OBJECT GLOBAL DEFAULT 10 __stack_chk_guard@@LIBC
494:   FUNC GLOBAL DEFAULT 8 freopen@@LIBC
495:   FUNC GLOBAL DEFAULT 8 fsync@@LIBC
496:   FUNC GLOBAL DEFAULT 8 setregid@@LIBC
497:   FUNC GLOBAL DEFAULT 8 sigismember@@LIBC
498:   FUNC GLOBAL DEFAULT 8 __errno@@LIBC
499:   FUNC GLOBAL DEFAULT 8 getsid@@LIBC
500:   FUNC GLOBAL DEFAULT 8 strtod@@LIBC
501:   FUNC GLOBAL DEFAULT 8 __FD_CLR_chk@@LIBC
502:   FUNC GLOBAL DEFAULT 8 __ptrace@@LIBC
503:   FUNC GLOBAL DEFAULT 8 mkstemp@@LIBC
504:   FUNC GLOBAL DEFAULT 8 strcpy@@LIBC
505:   FUNC GLOBAL DEFAULT 8 __rt_sigtimedwait@@LIBC
506:   FUNC GLOBAL DEFAULT 8 strnlen@@LIBC
507:   FUNC GLOBAL DEFAULT 8 strtof@@LIBC
508:   OBJECT GLOBAL DEFAULT 10 _toupper_tab_@@LIBC
509:   FUNC GLOBAL DEFAULT 8 execv@@LIBC
510:   FUNC GLOBAL DEFAULT 8 fdopendir@@LIBC
511:   FUNC GLOBAL DEFAULT 8 mount@@LIBC
512:   FUNC GLOBAL DEFAULT 8 nrand48@@LIBC
513:   FUNC GLOBAL DEFAULT 8 timegm@@LIBC
514:   FUNC GLOBAL DEFAULT 8 wcstoimax@@LIBC
515:   FUNC GLOBAL DEFAULT 8 fgetln@@LIBC
516:   FUNC GLOBAL DEFAULT 8 sigdelset@@LIBC
517:   FUNC GLOBAL DEFAULT 8 strrchr@@LIBC
518:   FUNC GLOBAL DEFAULT 8 unsetenv@@LIBC
519:   FUNC GLOBAL DEFAULT 8 vsscanf@@LIBC
520:   FUNC GLOBAL DEFAULT 8 umask@@LIBC
521:   FUNC GLOBAL DEFAULT 8 __timer_create@@LIBC
522:   FUNC GLOBAL DEFAULT 8 asctime@@LIBC
523:   FUNC GLOBAL DEFAULT 8 erand48@@LIBC
524:   FUNC GLOBAL DEFAULT 8 mbsinit@@LIBC
525:   FUNC GLOBAL DEFAULT 8 pthread_sigmask@@LIBC
526:   FUNC GLOBAL DEFAULT 8 __p_cdnname@@LIBC
527:   FUNC GLOBAL DEFAULT 8 _getshort@@LIBC
528:   FUNC GLOBAL DEFAULT 8 strtok@@LIBC
529:   FUNC GLOBAL DEFAULT 8 getprotobynumber@@LIBC
530:   FUNC GLOBAL DEFAULT 8 scandir@@LIBC
531:   FUNC GLOBAL DEFAULT 8 strtol@@LIBC
532:   FUNC GLOBAL DEFAULT 8 wcstod@@LIBC
533:   FUNC GLOBAL DEFAULT 8 __isnormalf@@LIBC
534:   FUNC GLOBAL DEFAULT 8 wcscpy@@LIBC
535:   FUNC GLOBAL DEFAULT 8 __res_queriesmatch@@LIBC
536:   FUNC GLOBAL DEFAULT 8 __strncat_chk@@LIBC
537:   FUNC GLOBAL DEFAULT 8 connect@@LIBC
538:   FUNC GLOBAL DEFAULT 8 ether_ntoa_r@@LIBC
539:   FUNC GLOBAL DEFAULT 8 if_nametoindex@@LIBC
540:   FUNC GLOBAL DEFAULT 8 pthread_mutexattr_settype@@LIBC
541:   FUNC GLOBAL DEFAULT 8 wcstof@@LIBC
542:   FUNC GLOBAL DEFAULT 8 __sym_ntop@@LIBC
543:   FUNC GLOBAL DEFAULT 8 funopen@@LIBC
544:   FUNC GLOBAL DEFAULT 8 getopt_long_only@@LIBC
545:   FUNC GLOBAL DEFAULT 8 wcscoll@@LIBC
546:   FUNC GLOBAL DEFAULT 8 write@@LIBC
547:   FUNC GLOBAL DEFAULT 8 __exit@@LIBC
548:   FUNC GLOBAL DEFAULT 8 __system_property_find_nt@@LIBC
549:   FUNC GLOBAL DEFAULT 8 iswgraph_l@@LIBC
550:   FUNC GLOBAL DEFAULT 8 lstat@@LIBC
551:   FUNC GLOBAL DEFAULT 8 pread@@LIBC
552:   FUNC GLOBAL DEFAULT 8 recvfrom@@LIBC
553:   FUNC GLOBAL DEFAULT 8 stat@@LIBC
554:   FUNC GLOBAL DEFAULT 8 fnmatch@@LIBC
555:   FUNC GLOBAL DEFAULT 8 rewind@@LIBC
556:   FUNC GLOBAL DEFAULT 8 strsep@@LIBC
557:   FUNC GLOBAL DEFAULT 8 strtoq@@LIBC
558:   FUNC GLOBAL DEFAULT 8 __b64_pton@@LIBC
559:   FUNC GLOBAL DEFAULT 8 __sym_ntos@@LIBC
560:   FUNC GLOBAL DEFAULT 8 cfsetspeed@@LIBC
561:   FUNC GLOBAL DEFAULT 8 ether_aton_r@@LIBC
562:   FUNC GLOBAL DEFAULT 8 pthread_mutexattr_gettype@@LIBC
563:   FUNC GLOBAL DEFAULT 8 pthread_rwlock_destroy@@LIBC
564:   FUNC GLOBAL DEFAULT 8 rmdir@@LIBC
565:   FUNC GLOBAL DEFAULT 8 stat64@@LIBC
566:   FUNC GLOBAL DEFAULT 8 strchr@@LIBC
567:   FUNC GLOBAL DEFAULT 8 towupper@@LIBC
568:   FUNC GLOBAL DEFAULT 8 __isnormall@@LIBC
569:   OBJECT GLOBAL DEFAULT 10 __isthreaded@@LIBC
570:   FUNC GLOBAL DEFAULT 8 getmntent_r@@LIBC
571:   FUNC GLOBAL DEFAULT 8 readlinkat@@LIBC
572:   FUNC GLOBAL DEFAULT 8 strncat@@LIBC
573:   FUNC GLOBAL DEFAULT 8 wcstok@@LIBC
574:   FUNC GLOBAL DEFAULT 8 sem_trywait@@LIBC
575:   FUNC GLOBAL DEFAULT 8 wcstol@@LIBC
576:   FUNC GLOBAL DEFAULT 8 __res_send@@LIBC
577:   FUNC GLOBAL DEFAULT 8 __sched_cpucount@@LIBC
578:   FUNC GLOBAL DEFAULT 8 fileno@@LIBC
579:   FUNC GLOBAL DEFAULT 8 random@@LIBC
580:   FUNC GLOBAL DEFAULT 8 __aeabi_atexit
581:   FUNC GLOBAL DEFAULT 8 gmtime@@LIBC
582:   FUNC GLOBAL DEFAULT 8 lgetxattr@@LIBC
583:   FUNC GLOBAL DEFAULT 8 strtok_r@@LIBC
584:   FUNC GLOBAL DEFAULT 8 umount@@LIBC
585:   FUNC GLOBAL DEFAULT 8 __loc_ntoa@@LIBC
586:   FUNC GLOBAL DEFAULT 8 isprint@@LIBC
587:   FUNC GLOBAL DEFAULT 8 mknod@@LIBC
588:   FUNC GLOBAL DEFAULT 8 mktime64@@LIBC
589:   FUNC GLOBAL DEFAULT 8 pthread_getspecific@@LIBC
590:   FUNC GLOBAL DEFAULT 8 __memset_chk@@LIBC
591:   FUNC GLOBAL DEFAULT 8 inet_addr@@LIBC
592:   FUNC GLOBAL DEFAULT 8 mlock@@LIBC
593:   FUNC GLOBAL DEFAULT 8 vwarn@@LIBC
594:   FUNC GLOBAL DEFAULT 8 wcschr@@LIBC
595:   FUNC GLOBAL DEFAULT 8 __res_nclose@@LIBC
596:   FUNC GLOBAL DEFAULT 8 iswblank@@LIBC
597:   FUNC GLOBAL DEFAULT 8 mkdir@@LIBC
598:   FUNC GLOBAL DEFAULT 8 res_query@@LIBC
599:   FUNC GLOBAL DEFAULT 8 vmsplice@@LIBC
600:   FUNC GLOBAL DEFAULT 8 wcsncmp@@LIBC
601:   FUNC GLOBAL DEFAULT 8 __connect@@LIBC
602:   FUNC GLOBAL DEFAULT 8 pselect@@LIBC
603:   FUNC GLOBAL DEFAULT 8 pthread_condattr_setpshar@@LIBC
604:   FUNC GLOBAL DEFAULT 8 recvmmsg@@LIBC
605:   FUNC GLOBAL DEFAULT 8 splice@@LIBC
606:   FUNC GLOBAL DEFAULT 8 getprogname@@LIBC
607:   FUNC GLOBAL DEFAULT 8 iswalpha@@LIBC
608:   FUNC GLOBAL DEFAULT 8 malloc_usable_size@@LIBC
609:   FUNC GLOBAL DEFAULT 8 setbuf@@LIBC
610:   FUNC GLOBAL DEFAULT 8 tmpfile@@LIBC
611:   FUNC GLOBAL DEFAULT 8 __dn_count_labels@@LIBC
612:   FUNC GLOBAL DEFAULT 8 __ns_makecanon@@LIBC
613:   FUNC GLOBAL DEFAULT 8 __res_nmkquery@@LIBC
614:   FUNC GLOBAL DEFAULT 8 _tolower@@LIBC
615:   FUNC GLOBAL DEFAULT 8 endutent@@LIBC
616:   FUNC GLOBAL DEFAULT 8 listen@@LIBC
617:   FUNC GLOBAL DEFAULT 8 pthread_rwlock_rdlock@@LIBC
618:   FUNC GLOBAL DEFAULT 8 atoll@@LIBC
619:   FUNC GLOBAL DEFAULT 8 feof@@LIBC
620:   FUNC GLOBAL DEFAULT 8 tolower@@LIBC
621:   FUNC GLOBAL DEFAULT 8 __ns_parserr@@LIBC
622:   FUNC GLOBAL DEFAULT 8 isnormal@@LIBC
623:   FUNC GLOBAL DEFAULT 8 ldexp@@LIBC
624:   FUNC GLOBAL DEFAULT 8 rand@@LIBC
625:   FUNC GLOBAL DEFAULT 8 getwc@@LIBC
626:   FUNC GLOBAL DEFAULT 8 popen@@LIBC
627:   FUNC GLOBAL DEFAULT 8 pthread_mutexattr_destroy@@LIBC
628:   FUNC GLOBAL DEFAULT 8 __isinf@@LIBC
629:   FUNC GLOBAL DEFAULT 8 pthread_mutexattr_setpsha@@LIBC
630:   OBJECT GLOBAL DEFAULT 10 tzname@@LIBC
631:   FUNC GLOBAL DEFAULT 8 verr@@LIBC
632:   FUNC GLOBAL DEFAULT 8 gethostbyname2@@LIBC
633:   FUNC GLOBAL DEFAULT 8 mbrlen@@LIBC
634:   FUNC GLOBAL DEFAULT 8 posix_fadvise@@LIBC
635:   FUNC GLOBAL DEFAULT 8 unlockpt@@LIBC
636:   FUNC GLOBAL DEFAULT 8 __loc_aton@@LIBC
637:   FUNC GLOBAL DEFAULT 8 __p_option@@LIBC
638:   FUNC GLOBAL DEFAULT 8 __strncpy_chk@@LIBC
639:   FUNC GLOBAL DEFAULT 8 mbrtoc16@@LIBC
640:   FUNC GLOBAL DEFAULT 8 munmap@@LIBC
641:   FUNC GLOBAL DEFAULT 8 sigemptyset@@LIBC
642:   FUNC GLOBAL DEFAULT 8 wcwidth@@LIBC
643:   FUNC GLOBAL DEFAULT 8 btowc@@LIBC
644:   FUNC GLOBAL DEFAULT 8 fstatvfs64@@LIBC
645:   FUNC GLOBAL DEFAULT 8 hstrerror@@LIBC
646:   FUNC GLOBAL DEFAULT 8 __ns_put32@@LIBC
647:   FUNC GLOBAL DEFAULT 8 __p_secstodate@@LIBC
648:   FUNC GLOBAL DEFAULT 8 abort@@LIBC
649:   FUNC GLOBAL DEFAULT 8 bsearch@@LIBC
650:   FUNC GLOBAL DEFAULT 8 grantpt@@LIBC
651:   OBJECT GLOBAL DEFAULT 10 opterr@@LIBC
652:   FUNC GLOBAL DEFAULT 8 sigwait@@LIBC
653:   FUNC GLOBAL DEFAULT 8 tcgetpgrp@@LIBC
654:   FUNC GLOBAL DEFAULT 8 vsprintf@@LIBC
655:   FUNC GLOBAL DEFAULT 8 wcpncpy@@LIBC
656:   FUNC GLOBAL DEFAULT 8 creat64@@LIBC
657:   FUNC GLOBAL DEFAULT 8 getgrouplist@@LIBC
658:   FUNC GLOBAL DEFAULT 8 isalnum@@LIBC
659:   FUNC GLOBAL DEFAULT 8 setstate@@LIBC
660:   FUNC GLOBAL DEFAULT 8 close@@LIBC
661:   FUNC GLOBAL DEFAULT 8 setresgid@@LIBC
662:   FUNC GLOBAL DEFAULT 8 tcgetattr@@LIBC
663:   FUNC GLOBAL DEFAULT 8 __isnormal@@LIBC
664:   FUNC GLOBAL DEFAULT 8 iswxdigit_l@@LIBC
665:   FUNC GLOBAL DEFAULT 8 printf@@LIBC
666:   FUNC GLOBAL DEFAULT 8 getpagesize@@LIBC
667:   FUNC GLOBAL DEFAULT 8 inet_makeaddr@@LIBC
668:   FUNC GLOBAL DEFAULT 8 signalfd@@LIBC
669:   FUNC GLOBAL DEFAULT 8 clock_getres@@LIBC
670:   FUNC GLOBAL DEFAULT 8 pthread_mutex_timedlock@@LIBC
671:   FUNC GLOBAL DEFAULT 8 sched_setscheduler@@LIBC
672:   FUNC GLOBAL DEFAULT 8 vdprintf@@LIBC
673:   FUNC GLOBAL DEFAULT 8 fallocate@@LIBC
674:   FUNC GLOBAL DEFAULT 8 pthread_key_create@@LIBC
675:   FUNC GLOBAL DEFAULT 8 remque@@LIBC
676:   FUNC GLOBAL DEFAULT 8 timer_gettime@@LIBC
677:   FUNC GLOBAL DEFAULT 8 __stack_chk_fail@@LIBC
678:   FUNC GLOBAL DEFAULT 8 epoll_wait@@LIBC
679:   FUNC GLOBAL DEFAULT 8 ferror@@LIBC
680:   FUNC GLOBAL DEFAULT 8 fts_set@@LIBC
681:   FUNC GLOBAL DEFAULT 8 getresuid@@LIBC
682:   FUNC GLOBAL DEFAULT 8 wctomb@@LIBC
683:   FUNC GLOBAL DEFAULT 8 __ns_initparse@@LIBC
684:   FUNC GLOBAL DEFAULT 8 bind@@LIBC
685:   FUNC GLOBAL DEFAULT 8 isgraph_l@@LIBC
686:   FUNC GLOBAL DEFAULT 8 isxdigit@@LIBC
687:   FUNC GLOBAL DEFAULT 8 openat64@@LIBC
688:   FUNC GLOBAL DEFAULT 8 statvfs64@@LIBC
689:   FUNC GLOBAL DEFAULT 8 strftime_l@@LIBC
690:   FUNC GLOBAL DEFAULT 8 __aeabi_memcpy
691:   OBJECT GLOBAL DEFAULT 10 __p_class_syms@@LIBC
692:   FUNC GLOBAL DEFAULT 8 fchownat@@LIBC
693:   FUNC GLOBAL DEFAULT 8 gmtime64_r@@LIBC
694:   FUNC GLOBAL DEFAULT 8 __putshort@@LIBC
695:   FUNC GLOBAL DEFAULT 8 asctime_r@@LIBC
696:   FUNC GLOBAL DEFAULT 8 getpwnam@@LIBC
697:   FUNC GLOBAL DEFAULT 8 iswspace@@LIBC
698:   FUNC GLOBAL DEFAULT 8 pthread_attr_setdetachsta@@LIBC
699:   FUNC GLOBAL DEFAULT 8 setvbuf@@LIBC
700:   FUNC GLOBAL DEFAULT 8 eventfd@@LIBC
701:   FUNC GLOBAL DEFAULT 8 gmtime_r@@LIBC
702:   FUNC GLOBAL DEFAULT 8 setgroups@@LIBC
703:   FUNC GLOBAL DEFAULT 8 wcstold@@LIBC
704:   FUNC GLOBAL DEFAULT 8 closedir@@LIBC
705:   FUNC GLOBAL DEFAULT 8 pthread_atfork@@LIBC
706:   FUNC GLOBAL DEFAULT 8 sscanf@@LIBC
707:   FUNC GLOBAL DEFAULT 8 towlower_l@@LIBC
708:   FUNC GLOBAL DEFAULT 8 vfwprintf@@LIBC
709:   FUNC GLOBAL DEFAULT 8 memcmp@@LIBC
710:   FUNC GLOBAL DEFAULT 8 prlimit64@@LIBC
711:   FUNC GLOBAL DEFAULT 8 vfscanf@@LIBC
712:   FUNC GLOBAL DEFAULT 8 asctime64@@LIBC
713:   FUNC GLOBAL DEFAULT 8 gethostbyaddr@@LIBC
714:   FUNC GLOBAL DEFAULT 8 getutent@@LIBC
715:   FUNC GLOBAL DEFAULT 8 fwrite@@LIBC
716:   FUNC GLOBAL DEFAULT 8 gmtime64@@LIBC
717:   FUNC GLOBAL DEFAULT 8 mmap64@@LIBC
718:   FUNC GLOBAL DEFAULT 8 pvalloc@@LIBC
719:   FUNC GLOBAL DEFAULT 8 unlink@@LIBC
720:   FUNC GLOBAL DEFAULT 8 __llseek@@LIBC
721:   FUNC GLOBAL DEFAULT 8 __stpcpy_chk@@LIBC
722:   FUNC GLOBAL DEFAULT 8 pread64@@LIBC
723:   FUNC GLOBAL DEFAULT 8 siglongjmp@@LIBC
724:   FUNC GLOBAL DEFAULT 8 ftw64@@LIBC
725:   FUNC GLOBAL DEFAULT 8 pthread_mutexattr_getpsha@@LIBC
726:   FUNC GLOBAL DEFAULT 8 __strncpy_chk2@@LIBC
727:   FUNC GLOBAL DEFAULT 8 strlen@@LIBC
728:   FUNC GLOBAL DEFAULT 8 strndup@@LIBC
729:   FUNC GLOBAL DEFAULT 8 wcstoll@@LIBC
730:   FUNC GLOBAL DEFAULT 8 __reboot@@LIBC
731:   FUNC GLOBAL DEFAULT 8 sched_getscheduler@@LIBC
732:   FUNC GLOBAL DEFAULT 8 sem_wait@@LIBC
733:   FUNC GLOBAL DEFAULT 8 setfsgid@@LIBC
734:   FUNC GLOBAL DEFAULT 8 strcspn@@LIBC
735:   FUNC GLOBAL DEFAULT 8 __epoll_pwait@@LIBC
736:   FUNC GLOBAL DEFAULT 8 mknodat@@LIBC
737:   FUNC GLOBAL DEFAULT 8 realloc@@LIBC
738:   FUNC GLOBAL DEFAULT 8 __aeabi_memclr4
739:   FUNC GLOBAL DEFAULT 8 __strrchr_chk@@LIBC
740:   FUNC GLOBAL DEFAULT 8 getc@@LIBC
741:   FUNC GLOBAL DEFAULT 8 __FD_SET_chk@@LIBC
742:   FUNC GLOBAL DEFAULT 8 pthread_attr_setschedpoli@@LIBC
743:   FUNC GLOBAL DEFAULT 8 pthread_rwlock_init@@LIBC
744:   FUNC GLOBAL DEFAULT 8 renameat@@LIBC
745:   FUNC GLOBAL DEFAULT 8 vscanf@@LIBC
746:   FUNC GLOBAL DEFAULT 8 writev@@LIBC
747:   FUNC GLOBAL DEFAULT 8 __aeabi_memset
748:   FUNC GLOBAL DEFAULT 8 __aeabi_memset4
749:   FUNC GLOBAL DEFAULT 8 __p_rcode@@LIBC
750:   FUNC GLOBAL DEFAULT 8 abs@@LIBC
751:   FUNC GLOBAL DEFAULT 8 iscntrl_l@@LIBC
752:   FUNC GLOBAL DEFAULT 8 rand_r@@LIBC
753:   FUNC GLOBAL DEFAULT 8 __aeabi_memclr8
754:   FUNC GLOBAL DEFAULT 8 killpg@@LIBC
755:   FUNC GLOBAL DEFAULT 8 pthread_attr_getstack@@LIBC
756:   FUNC GLOBAL DEFAULT 8 strtold_l@@LIBC
757:   FUNC GLOBAL DEFAULT 8 __ns_sprintrrf@@LIBC
758:   FUNC GLOBAL DEFAULT 8 islower_l@@LIBC
759:   FUNC GLOBAL DEFAULT 8 malloc@@LIBC
760:   FUNC GLOBAL DEFAULT 8 recv@@LIBC
761:   FUNC GLOBAL DEFAULT 8 wcslen@@LIBC
762:   FUNC GLOBAL DEFAULT 8 getnameinfo@@LIBC
763:   FUNC GLOBAL DEFAULT 8 getppid@@LIBC
764:   FUNC GLOBAL DEFAULT 8 pthread_attr_getschedpara@@LIBC
765:   FUNC GLOBAL DEFAULT 8 pthread_mutex_init@@LIBC
766:   FUNC GLOBAL DEFAULT 8 wmemmove@@LIBC
767:   FUNC GLOBAL DEFAULT 8 __aeabi_memset8
768:   FUNC GLOBAL DEFAULT 8 getitimer@@LIBC
769:   FUNC GLOBAL DEFAULT 8 herror@@LIBC
770:   FUNC GLOBAL DEFAULT 8 __res_send_setrhook@@LIBC
771:   FUNC GLOBAL DEFAULT 8 __system_property_find@@LIBC
772:   FUNC GLOBAL DEFAULT 8 flockfile@@LIBC
773:   FUNC GLOBAL DEFAULT 8 pthread_attr_getscope@@LIBC
774:   FUNC GLOBAL DEFAULT 8 pthread_getschedparam@@LIBC
775:   FUNC GLOBAL DEFAULT 8 tdelete@@LIBC
776:   FUNC GLOBAL DEFAULT 8 isblank@@LIBC
777:   FUNC GLOBAL DEFAULT 8 select@@LIBC
778:   FUNC GLOBAL DEFAULT 8 strpbrk@@LIBC
779:   FUNC GLOBAL DEFAULT 8 strtoull_l@@LIBC
780:   FUNC GLOBAL DEFAULT 8 __ns_name_pack@@LIBC
781:   FUNC GLOBAL DEFAULT 8 strcat@@LIBC
782:   FUNC GLOBAL DEFAULT 8 wcstoul@@LIBC
783:   FUNC GLOBAL DEFAULT 8 isalpha@@LIBC
784:   OBJECT GLOBAL DEFAULT 10 optopt@@LIBC
785:   FUNC GLOBAL DEFAULT 8 pthread_cond_init@@LIBC
786:   FUNC GLOBAL DEFAULT 8 putenv@@LIBC
787:   FUNC GLOBAL DEFAULT 8 setmntent@@LIBC
788:   FUNC GLOBAL DEFAULT 8 wcscoll_l@@LIBC
789:   FUNC GLOBAL DEFAULT 8 pathconf@@LIBC
790:   FUNC GLOBAL DEFAULT 8 clearerr@@LIBC
791:   FUNC GLOBAL DEFAULT 8 fgetwc@@LIBC
792:   FUNC GLOBAL DEFAULT 8 readdir_r@@LIBC
793:   FUNC GLOBAL DEFAULT 8 gethostent@@LIBC
794:   FUNC GLOBAL DEFAULT 8 setrlimit@@LIBC
795:   FUNC GLOBAL DEFAULT 8 stpncpy@@LIBC
796:   FUNC GLOBAL DEFAULT 8 c16rtomb@@LIBC
797:   FUNC GLOBAL DEFAULT 8 fread@@LIBC
798:   FUNC GLOBAL DEFAULT 8 inet_nsap_ntoa@@LIBC
799:   FUNC GLOBAL DEFAULT 8 iswcntrl@@LIBC
800:   FUNC GLOBAL DEFAULT 8 personality@@LIBC
801:   FUNC GLOBAL DEFAULT 8 pthread_rwlockattr_setpsh@@LIBC
802:   OBJECT GLOBAL DEFAULT 10 sys_signame@@LIBC
803:   FUNC GLOBAL DEFAULT 8 arc4random_buf@@LIBC
804:   FUNC GLOBAL DEFAULT 8 gets@@LIBC
805:   FUNC GLOBAL DEFAULT 8 lsetxattr@@LIBC
806:   FUNC GLOBAL DEFAULT 8 __strlcat_chk@@LIBC
807:   FUNC GLOBAL DEFAULT 8 mkfifo@@LIBC
808:   FUNC GLOBAL DEFAULT 8 posix_memalign@@LIBC
809:   FUNC GLOBAL DEFAULT 8 insque@@LIBC
810:   FUNC GLOBAL DEFAULT 8 localtime64_r@@LIBC
811:   FUNC GLOBAL DEFAULT 8 readdir64@@LIBC
812:   FUNC GLOBAL DEFAULT 8 wait@@LIBC
813:   FUNC GLOBAL DEFAULT 8 wcscat@@LIBC
814:   FUNC GLOBAL DEFAULT 8 clock_settime@@LIBC
815:   FUNC GLOBAL DEFAULT 8 getcwd@@LIBC
816:   FUNC GLOBAL DEFAULT 8 readlink@@LIBC
817:   FUNC GLOBAL DEFAULT 8 sem_post@@LIBC
818:   FUNC GLOBAL DEFAULT 8 __p_type@@LIBC
819:   FUNC GLOBAL DEFAULT 8 fstatfs@@LIBC
820:   FUNC GLOBAL DEFAULT 8 isspace_l@@LIBC
821:   FUNC GLOBAL DEFAULT 8 pthread_attr_destroy@@LIBC
822:   FUNC GLOBAL DEFAULT 8 sysinfo@@LIBC
823:   FUNC GLOBAL DEFAULT 8 __getcwd@@LIBC
824:   FUNC GLOBAL DEFAULT 8 __res_mailok@@LIBC
825:   FUNC GLOBAL DEFAULT 8 __rt_sigsuspend@@LIBC
826:   FUNC GLOBAL DEFAULT 8 fclose@@LIBC
827:   FUNC GLOBAL DEFAULT 8 mkstemps@@LIBC
828:   FUNC GLOBAL DEFAULT 8 __ns_get16@@LIBC
829:   FUNC GLOBAL DEFAULT 8 dirfd@@LIBC
830:   FUNC GLOBAL DEFAULT 8 dn_expand@@LIBC
831:   FUNC GLOBAL DEFAULT 8 pthread_setname_np@@LIBC
832:   FUNC GLOBAL DEFAULT 8 __sched_getaffinity@@LIBC
833:   FUNC GLOBAL DEFAULT 8 alphasort@@LIBC
834:   FUNC GLOBAL DEFAULT 8 clock_gettime@@LIBC
835:   FUNC GLOBAL DEFAULT 8 fseek@@LIBC
836:   FUNC GLOBAL DEFAULT 8 mktemp@@LIBC
837:   FUNC GLOBAL DEFAULT 8 pthread_rwlock_timedrdloc@@LIBC
838:   FUNC GLOBAL DEFAULT 8 setrlimit64@@LIBC
839:   FUNC GLOBAL DEFAULT 8 setsockopt@@LIBC
840:   FUNC GLOBAL DEFAULT 8 tgkill@@LIBC
841:   FUNC GLOBAL DEFAULT 8 __getpriority@@LIBC
842:   FUNC GLOBAL DEFAULT 8 clock@@LIBC
843:   FUNC GLOBAL DEFAULT 8 warn@@LIBC
844:   FUNC GLOBAL DEFAULT 8 cfmakeraw@@LIBC
845:   FUNC GLOBAL DEFAULT 8 pthread_rwlock_timedwrloc@@LIBC
846:   FUNC GLOBAL DEFAULT 8 system@@LIBC
847:   FUNC GLOBAL DEFAULT 8 wcsxfrm_l@@LIBC
848:   FUNC GLOBAL DEFAULT 8 mbsnrtowcs@@LIBC
849:   FUNC GLOBAL DEFAULT 8 dup2@@LIBC
850:   FUNC GLOBAL DEFAULT 8 isnanf@@LIBC
851:   FUNC GLOBAL DEFAULT 8 dup3@@LIBC
852:   FUNC GLOBAL DEFAULT 8 fgetws@@LIBC
853:   FUNC GLOBAL DEFAULT 8 isprint_l@@LIBC
854:   FUNC GLOBAL DEFAULT 8 shutdown@@LIBC
855:   FUNC GLOBAL DEFAULT 8 __res_querydomain@@LIBC
856:   FUNC GLOBAL DEFAULT 8 isascii@@LIBC
857:   FUNC GLOBAL DEFAULT 8 ispunct_l@@LIBC
858:   FUNC GLOBAL DEFAULT 8 lfind@@LIBC
859:   FUNC GLOBAL DEFAULT 8 __system_property_serial@@LIBC
860:   FUNC GLOBAL DEFAULT 8 sched_get_priority_min@@LIBC
861:   FUNC GLOBAL DEFAULT 8 sem_close@@LIBC
862:   FUNC GLOBAL DEFAULT 8 strspn@@LIBC
863:   FUNC GLOBAL DEFAULT 8 __res_hostalias@@LIBC
864:   FUNC GLOBAL DEFAULT 8 arc4random@@LIBC
865:   FUNC GLOBAL DEFAULT 8 localtime_r@@LIBC
866:   FUNC GLOBAL DEFAULT 8 pthread_getattr_np@@LIBC
867:   FUNC GLOBAL DEFAULT 8 fopen@@LIBC
868:   FUNC GLOBAL DEFAULT 8 fwscanf@@LIBC
869:   FUNC GLOBAL DEFAULT 8 isspace@@LIBC
870:   FUNC GLOBAL DEFAULT 8 siginterrupt@@LIBC
871:   FUNC GLOBAL DEFAULT 8 strerror_r@@LIBC
872:   FUNC GLOBAL DEFAULT 8 fstatfs64@@LIBC
873:   FUNC GLOBAL DEFAULT 8 inet_network@@LIBC
874:   FUNC GLOBAL DEFAULT 8 isalpha_l@@LIBC
875:   FUNC GLOBAL DEFAULT 8 isnanl@@LIBC
876:   FUNC GLOBAL DEFAULT 8 sched_yield@@LIBC
877:   FUNC GLOBAL DEFAULT 8 sigsuspend@@LIBC
878:   FUNC GLOBAL DEFAULT 8 mkdtemp@@LIBC
879:   FUNC GLOBAL DEFAULT 8 munlockall@@LIBC
880:   FUNC GLOBAL DEFAULT 8 pause@@LIBC
881:   FUNC GLOBAL DEFAULT 8 tolower_l@@LIBC
882:   FUNC GLOBAL DEFAULT 8 __pselect6@@LIBC
883:   FUNC GLOBAL DEFAULT 8 getpwnam_r@@LIBC
884:   FUNC GLOBAL DEFAULT 8 localtime64@@LIBC
885:   FUNC GLOBAL DEFAULT 8 mbrtoc32@@LIBC
886:   FUNC GLOBAL DEFAULT 8 __timer_gettime@@LIBC
887:   FUNC GLOBAL DEFAULT 8 duplocale@@LIBC
888:   FUNC GLOBAL DEFAULT 8 regcomp@@LIBC
889:   FUNC GLOBAL DEFAULT 8 res_init@@LIBC
890:   FUNC GLOBAL DEFAULT 8 valloc@@LIBC
891:   FUNC GLOBAL DEFAULT 8 execle@@LIBC
892:   FUNC GLOBAL DEFAULT 8 pthread_rwlockattr_getpsh@@LIBC
893:   FUNC GLOBAL DEFAULT 8 strcoll_l@@LIBC
894:   FUNC GLOBAL DEFAULT 8 unshare@@LIBC
895:   FUNC GLOBAL DEFAULT 8 wcsspn@@LIBC
896:   OBJECT GLOBAL DEFAULT 10 __progname@@LIBC
897:   FUNC GLOBAL DEFAULT 8 nice@@LIBC
898:   FUNC GLOBAL DEFAULT 8 towlower@@LIBC
899:   FUNC GLOBAL DEFAULT 8 __strlcpy_chk@@LIBC
900:   FUNC GLOBAL DEFAULT 8 getpt@@LIBC
901:   FUNC GLOBAL DEFAULT 8 sendfile64@@LIBC
902:   FUNC GLOBAL DEFAULT 8 ether_ntoa@@LIBC
903:   FUNC GLOBAL DEFAULT 8 flistxattr@@LIBC
904:   FUNC GLOBAL DEFAULT 8 fpurge@@LIBC
905:   FUNC GLOBAL DEFAULT 8 __aeabi_memcpy4
906:   FUNC GLOBAL DEFAULT 8 at_quick_exit@@LIBC
907:   FUNC GLOBAL DEFAULT 8 __mmap2@@LIBC
908:   FUNC GLOBAL DEFAULT 8 __res_nsend@@LIBC
909:   FUNC GLOBAL DEFAULT 8 statfs64@@LIBC
910:   OBJECT GLOBAL DEFAULT 10 timezone@@LIBC
911:   FUNC GLOBAL DEFAULT 8 initgroups@@LIBC
912:   FUNC GLOBAL DEFAULT 8 isxdigit_l@@LIBC
913:   FUNC GLOBAL DEFAULT 8 open64@@LIBC
914:   FUNC GLOBAL DEFAULT 8 pthread_mutex_trylock@@LIBC
915:   FUNC GLOBAL DEFAULT 8 pthread_rwlockattr_destro@@LIBC
916:   FUNC GLOBAL DEFAULT 8 __aeabi_memcpy8
917:   OBJECT GLOBAL DEFAULT 10 __p_type_syms@@LIBC
918:   FUNC GLOBAL DEFAULT 8 fstat@@LIBC
919:   FUNC GLOBAL DEFAULT 8 tee@@LIBC
920:   FUNC GLOBAL DEFAULT 8 getsockopt@@LIBC
921:   FUNC GLOBAL DEFAULT 8 tcflow@@LIBC
922:   FUNC GLOBAL DEFAULT 8 fwprintf@@LIBC
923:   FUNC GLOBAL DEFAULT 8 setutent@@LIBC
924:   FUNC GLOBAL DEFAULT 8 __atomic_swap@@LIBC
925:   FUNC GLOBAL DEFAULT 8 execlp@@LIBC
926:   FUNC GLOBAL DEFAULT 8 iswcntrl_l@@LIBC
927:   FUNC GLOBAL DEFAULT 8 pthread_condattr_init@@LIBC
928:   FUNC GLOBAL DEFAULT 8 sem_unlink@@LIBC
929:   FUNC GLOBAL DEFAULT 8 wcslcpy@@LIBC
930:   FUNC GLOBAL DEFAULT 8 localtime@@LIBC
931:   FUNC GLOBAL DEFAULT 8 pthread_rwlock_wrlock@@LIBC
932:   FUNC GLOBAL DEFAULT 8 strdup@@LIBC
933:   FUNC GLOBAL DEFAULT 8 tsearch@@LIBC
934:   FUNC GLOBAL DEFAULT 8 waitid@@LIBC
935:   OBJECT GLOBAL DEFAULT 10 _ctype_@@LIBC
936:   FUNC GLOBAL DEFAULT 8 acct@@LIBC
937:   FUNC GLOBAL DEFAULT 8 getdelim@@LIBC
938:   FUNC GLOBAL DEFAULT 8 iswlower_l@@LIBC
939:   FUNC GLOBAL DEFAULT 8 listxattr@@LIBC
940:   FUNC GLOBAL DEFAULT 8 strcoll@@LIBC
941:   FUNC GLOBAL DEFAULT 8 strtoimax@@LIBC
942:   FUNC GLOBAL DEFAULT 8 __fgets_chk@@LIBC
943:   FUNC GLOBAL DEFAULT 8 __stpncpy_chk@@LIBC
944:   FUNC GLOBAL DEFAULT 8 accept@@LIBC
945:   FUNC GLOBAL DEFAULT 8 c32rtomb@@LIBC
946:   FUNC GLOBAL DEFAULT 8 fgetpos@@LIBC
947:   FUNC GLOBAL DEFAULT 8 tcsetpgrp@@LIBC
948:   FUNC GLOBAL DEFAULT 8 ether_aton@@LIBC
949:   FUNC GLOBAL DEFAULT 8 towupper_l@@LIBC
950:   FUNC GLOBAL DEFAULT 8 __ns_msg_getflag@@LIBC
951:   FUNC GLOBAL DEFAULT 8 __ns_name_compress@@LIBC
952:   FUNC GLOBAL DEFAULT 8 localeconv@@LIBC
953:   FUNC GLOBAL DEFAULT 8 posix_fadvise64@@LIBC
954:   FUNC GLOBAL DEFAULT 8 tcsetattr@@LIBC
955:   FUNC GLOBAL DEFAULT 8 wprintf@@LIBC
956:   FUNC GLOBAL DEFAULT 8 __rt_sigpending@@LIBC
957:   FUNC GLOBAL DEFAULT 8 getprotobyname@@LIBC
958:   FUNC GLOBAL DEFAULT 8 iswctype@@LIBC
959:   FUNC GLOBAL DEFAULT 8 putc@@LIBC
960:   FUNC GLOBAL DEFAULT 8 rename@@LIBC
961:   FUNC GLOBAL DEFAULT 8 _Exit@@LIBC
962:   FUNC GLOBAL DEFAULT 8 __open_2@@LIBC
963:   FUNC GLOBAL DEFAULT 8 err@@LIBC
964:   FUNC GLOBAL DEFAULT 8 nanosleep@@LIBC
965:   FUNC GLOBAL DEFAULT 8 socket@@LIBC
966:   FUNC GLOBAL DEFAULT 8 bindresvport@@LIBC
967:   FUNC GLOBAL DEFAULT 8 wcpcpy@@LIBC
968:   FUNC GLOBAL DEFAULT 8 wcsdup@@LIBC
969:   FUNC GLOBAL DEFAULT 8 __ns_name_ntol@@LIBC
970:   FUNC GLOBAL DEFAULT 8 __vsprintf_chk@@LIBC
971:   FUNC GLOBAL DEFAULT 8 iscntrl@@LIBC
972:   FUNC GLOBAL DEFAULT 8 lchown@@LIBC
973:   FUNC GLOBAL DEFAULT 8 pthread_attr_setstack@@LIBC
974:   FUNC GLOBAL DEFAULT 8 timer_settime@@LIBC
975:   FUNC GLOBAL DEFAULT 8 epoll_create1@@LIBC
976:   FUNC GLOBAL DEFAULT 8 pthread_cond_timedwait_mo@@LIBC
977:   FUNC GLOBAL DEFAULT 8 sched_get_priority_max@@LIBC
978:   FUNC GLOBAL DEFAULT 8 __sprintf_chk@@LIBC
979:   FUNC GLOBAL DEFAULT 8 iswgraph@@LIBC
980:   FUNC GLOBAL DEFAULT 8 iswpunct@@LIBC
981:   FUNC GLOBAL DEFAULT 8 pthread_condattr_getclock@@LIBC
982:   FUNC GLOBAL DEFAULT 8 pthread_gettid_np@@LIBC
983:   FUNC GLOBAL DEFAULT 8 tcdrain@@LIBC
984:   FUNC GLOBAL DEFAULT 8 __fpclassify@@LIBC
985:   FUNC GLOBAL DEFAULT 8 sem_destroy@@LIBC
986:   FUNC GLOBAL DEFAULT 8 settimeofday@@LIBC
987:   FUNC GLOBAL DEFAULT 8 __ns_name_ntop@@LIBC
988:   FUNC GLOBAL DEFAULT 8 __res_nquery@@LIBC
989:   FUNC GLOBAL DEFAULT 8 __res_nsearch@@LIBC
990:   FUNC GLOBAL DEFAULT 8 __sched_cpualloc@@LIBC
991:   FUNC GLOBAL DEFAULT 8 iswctype_l@@LIBC
992:   FUNC GLOBAL DEFAULT 8 pthread_attr_setscope@@LIBC
993:   FUNC GLOBAL DEFAULT 8 pthread_mutex_destroy@@LIBC
994:   FUNC GLOBAL DEFAULT 8 strncmp@@LIBC
995:   FUNC GLOBAL DEFAULT 8 timer_delete@@LIBC
996:   FUNC GLOBAL DEFAULT 8 execvpe@@LIBC
997:   FUNC GLOBAL DEFAULT 8 toascii@@LIBC
998:   FUNC GLOBAL DEFAULT 8 getpeername@@LIBC
999:   FUNC GLOBAL DEFAULT 8 lrand48@@LIBC
1000:   FUNC GLOBAL DEFAULT 8 lremovexattr@@LIBC
1001:   FUNC GLOBAL DEFAULT 8 pthread_cond_broadcast@@LIBC
1002:   FUNC GLOBAL DEFAULT 8 sendto@@LIBC
1003:   FUNC GLOBAL DEFAULT 8 inotify_init1@@LIBC
1004:   FUNC GLOBAL DEFAULT 8 iswspace_l@@LIBC
1005:   FUNC GLOBAL DEFAULT 8 lseek64@@LIBC
1006:   FUNC GLOBAL DEFAULT 8 msync@@LIBC
1007:   FUNC GLOBAL DEFAULT 8 putwchar@@LIBC
1008:   FUNC GLOBAL DEFAULT 8 scandir64@@LIBC
1009:   FUNC GLOBAL DEFAULT 8 wmemcmp@@LIBC
1010:   FUNC GLOBAL DEFAULT 8 isupper_l@@LIBC
1011:   FUNC GLOBAL DEFAULT 8 linkat@@LIBC
1012:   FUNC GLOBAL DEFAULT 8 pthread_condattr_getpshar@@LIBC
1013:   FUNC GLOBAL DEFAULT 8 sigpending@@LIBC
1014:   FUNC GLOBAL DEFAULT 8 __p_cdname@@LIBC
1015:   FUNC GLOBAL DEFAULT 8 setns@@LIBC
1016:   FUNC GLOBAL DEFAULT 8 __res_send_setqhook@@LIBC
1017:   FUNC GLOBAL DEFAULT 8 __system_property_wait_an@@LIBC_DEPRECATED
1018:   FUNC GLOBAL DEFAULT 8 ftello@@LIBC
1019:   FUNC GLOBAL DEFAULT 8 ftrylockfile@@LIBC
1020:   FUNC GLOBAL DEFAULT 8 mprotect@@LIBC
1021:   FUNC GLOBAL DEFAULT 8 pthread_cond_timedwait_re@@LIBC
1022:   FUNC GLOBAL DEFAULT 8 setbuffer@@LIBC
1023:   FUNC GLOBAL DEFAULT 8 umount2@@LIBC
1024:   FUNC GLOBAL DEFAULT 8 inet_netof@@LIBC
1025:   FUNC GLOBAL DEFAULT 8 recvmsg@@LIBC
1026:   FUNC GLOBAL DEFAULT 8 seteuid@@LIBC
1027:   FUNC GLOBAL DEFAULT 8 wcsncpy@@LIBC
1028:   FUNC GLOBAL DEFAULT 8 getservbyname@@LIBC
1029:   FUNC GLOBAL DEFAULT 8 puts@@LIBC
1030:   FUNC GLOBAL DEFAULT 8 fstatat64@@LIBC
1031:   FUNC GLOBAL DEFAULT 8 fstatvfs@@LIBC
1032:   FUNC GLOBAL DEFAULT 8 getgrnam@@LIBC
1033:   OBJECT GLOBAL DEFAULT 10 daylight@@LIBC
1034:   FUNC GLOBAL DEFAULT 8 getresgid@@LIBC
1035:   FUNC GLOBAL DEFAULT 8 lstat64@@LIBC
1036:   OBJECT GLOBAL DEFAULT 10 optreset@@LIBC
1037:   FUNC GLOBAL DEFAULT 8 pututline@@LIBC
1038:   FUNC GLOBAL DEFAULT 8 setpriority@@LIBC
1039:   FUNC GLOBAL DEFAULT 8 vfwscanf@@LIBC
1040:   FUNC GLOBAL DEFAULT 8 _resolv_delete_cache_for_@@LIBC
1041:   FUNC GLOBAL DEFAULT 8 chown@@LIBC
1042:   FUNC GLOBAL DEFAULT 8 geteuid@@LIBC
1043:   FUNC GLOBAL DEFAULT 8 getnetbyname@@LIBC
1044:   FUNC GLOBAL DEFAULT 8 iswprint_l@@LIBC
1045:   FUNC GLOBAL DEFAULT 8 scanf@@LIBC
1046:   FUNC GLOBAL DEFAULT 8 wcstoumax@@LIBC
1047:   FUNC GLOBAL DEFAULT 8 __rt_sigaction@@LIBC
1048:   FUNC GLOBAL DEFAULT 8 fstat64@@LIBC
1049:   FUNC GLOBAL DEFAULT 8 iswdigit@@LIBC
1050:   FUNC GLOBAL DEFAULT 8 iswpunct_l@@LIBC
1051:   FUNC GLOBAL DEFAULT 8 putw@@LIBC
1052:   FUNC GLOBAL DEFAULT 8 sched_setaffinity@@LIBC
1053:   FUNC GLOBAL DEFAULT 8 imaxabs@@LIBC
1054:   FUNC GLOBAL DEFAULT 8 inotify_init@@LIBC
1055:   FUNC GLOBAL DEFAULT 8 mincore@@LIBC
1056:   FUNC GLOBAL DEFAULT 8 pwrite64@@LIBC
1057:   FUNC GLOBAL DEFAULT 8 __ns_sprintrr@@LIBC
1058:   FUNC GLOBAL DEFAULT 8 swapoff@@LIBC
1059:   FUNC GLOBAL DEFAULT 8 __p_query@@LIBC
1060:   FUNC GLOBAL DEFAULT 8 getxattr@@LIBC
1061:   FUNC GLOBAL DEFAULT 8 mlockall@@LIBC
1062:   FUNC GLOBAL DEFAULT 8 statvfs@@LIBC
1063:   FUNC GLOBAL DEFAULT 8 daemon@@LIBC
1064:   FUNC GLOBAL DEFAULT 8 iswalpha_l@@LIBC
1065:   FUNC GLOBAL DEFAULT 8 pthread_cond_destroy@@LIBC
1066:   FUNC GLOBAL DEFAULT 8 regfree@@LIBC
1067:   FUNC GLOBAL DEFAULT 8 fpathconf@@LIBC
1068:   FUNC GLOBAL DEFAULT 8 ftw@@LIBC
1069:   FUNC GLOBAL DEFAULT 8 getpid@@LIBC
1070:   FUNC GLOBAL DEFAULT 8 nftw64@@LIBC
1071:   FUNC GLOBAL DEFAULT 8 wcscasecmp@@LIBC
1072:   FUNC GLOBAL DEFAULT 8 inotify_rm_watch@@LIBC
1073:   FUNC GLOBAL DEFAULT 8 times@@LIBC
1074:   FUNC GLOBAL DEFAULT 8 vwarnx@@LIBC
1075:   FUNC GLOBAL DEFAULT 8 wcrtomb@@LIBC
1076:   FUNC GLOBAL DEFAULT 8 __getpid@@LIBC
1077:   FUNC GLOBAL DEFAULT 8 __ns_get32@@LIBC
1078:   FUNC GLOBAL DEFAULT 8 __ns_name_pton@@LIBC
1079:   FUNC GLOBAL DEFAULT 8 __p_class@@LIBC
1080:   FUNC GLOBAL DEFAULT 8 __res_nquerydomain@@LIBC
1081:   FUNC GLOBAL DEFAULT 8 poll@@LIBC
1082:   FUNC GLOBAL DEFAULT 8 closelog@@LIBC
1083:   FUNC GLOBAL DEFAULT 8 execve@@LIBC
1084:   FUNC GLOBAL DEFAULT 8 getgroups@@LIBC
1085:   FUNC GLOBAL DEFAULT 8 ptsname@@LIBC
1086:   FUNC GLOBAL DEFAULT 8 sem_init@@LIBC
1087:   FUNC GLOBAL DEFAULT 8 __ns_samename@@LIBC
1088:   FUNC GLOBAL DEFAULT 8 mbstowcs@@LIBC
1089:   FUNC GLOBAL DEFAULT 8 sendmmsg@@LIBC
1090:   FUNC GLOBAL DEFAULT 8 waitpid@@LIBC
1091:   FUNC GLOBAL DEFAULT 8 futimens@@LIBC
1092:   FUNC GLOBAL DEFAULT 8 iswupper@@LIBC
1093:   FUNC GLOBAL DEFAULT 8 sched_getparam@@LIBC
1094:   FUNC GLOBAL DEFAULT 8 setservent@@LIBC
1095:   FUNC GLOBAL DEFAULT 8 wcstoll_l@@LIBC
1096:   FUNC GLOBAL DEFAULT 8 free_malloc_leak_info@@LIBC_DEPRECATED
1097:   FUNC GLOBAL DEFAULT 8 strtold@@LIBC
1098:   FUNC GLOBAL DEFAULT 8 getgrgid@@LIBC
1099:   FUNC GLOBAL DEFAULT 8 pthread_attr_init@@LIBC
1100:   FUNC GLOBAL DEFAULT 8 sigaction@@LIBC
1101:   FUNC GLOBAL DEFAULT 8 __getcpu@@LIBC
1102:   FUNC GLOBAL DEFAULT 8 ftruncate64@@LIBC
1103:   FUNC GLOBAL DEFAULT 8 labs@@LIBC
1104:   FUNC GLOBAL DEFAULT 8 llabs@@LIBC
1105:   FUNC GLOBAL DEFAULT 8 ctime_r@@LIBC
1106:   FUNC GLOBAL DEFAULT 8 getopt@@LIBC
1107:   FUNC GLOBAL DEFAULT 8 isinff@@LIBC
1108:   FUNC GLOBAL DEFAULT 8 putchar@@LIBC
1109:   FUNC GLOBAL DEFAULT 8 pthread_getcpuclockid@@LIBC
1110:   FUNC GLOBAL DEFAULT 8 fallocate64@@LIBC
1111:   FUNC GLOBAL DEFAULT 8 fgetc@@LIBC
1112:   FUNC GLOBAL DEFAULT 8 posix_fallocate@@LIBC
1113:   FUNC GLOBAL DEFAULT 8 tfind@@LIBC
1114:   FUNC GLOBAL DEFAULT 8 vasprintf@@LIBC
1115:   FUNC GLOBAL DEFAULT 8 lsearch@@LIBC
1116:   FUNC GLOBAL DEFAULT 8 pthread_rwlock_tryrdlock@@LIBC
1117:   FUNC GLOBAL DEFAULT 8 setuid@@LIBC
1118:   FUNC GLOBAL DEFAULT 8 wcsxfrm@@LIBC
1119:   FUNC GLOBAL DEFAULT 8 __fcntl64@@LIBC
1120:   FUNC GLOBAL DEFAULT 8 div@@LIBC
1121:   FUNC GLOBAL DEFAULT 8 execvp@@LIBC
1122:   FUNC GLOBAL DEFAULT 8 ioctl@@LIBC
1123:   FUNC GLOBAL DEFAULT 8 wctob@@LIBC
1124:   FUNC GLOBAL DEFAULT 8 accept4@@LIBC
1125:   FUNC GLOBAL DEFAULT 8 ctime64@@LIBC
1126:   FUNC GLOBAL DEFAULT 8 delete_module@@LIBC
1127:   FUNC GLOBAL DEFAULT 8 fsetpos@@LIBC
1128:   FUNC GLOBAL DEFAULT 8 srand@@LIBC
1129:   FUNC GLOBAL DEFAULT 8 strtoll@@LIBC
1130:   FUNC GLOBAL DEFAULT 8 vwprintf@@LIBC
1131:   FUNC GLOBAL DEFAULT 8 clone@@LIBC
1132:   FUNC GLOBAL DEFAULT 8 fts_children@@LIBC
1133:   FUNC GLOBAL DEFAULT 8 isinfl@@LIBC
1134:   FUNC GLOBAL DEFAULT 8 opendir@@LIBC
1135:   FUNC GLOBAL DEFAULT 8 tmpnam@@LIBC
1136:   FUNC GLOBAL DEFAULT 8 wcswidth@@LIBC
1137:   FUNC GLOBAL DEFAULT 8 timerfd_create@@LIBC
1138:   FUNC GLOBAL DEFAULT 8 toupper_l@@LIBC
