 0x0000000e (SONAME)                     Library soname: [libsquashfs_utils.so]
  
Symbol   contains 20 entries:
Num:   Type Bind Vis Ndx Name
0:   NOTYPE LOCAL DEFAULT UND
1:   FUNC GLOBAL DEFAULT UND __cxa_finalize@LIBC (2)
2:   FUNC GLOBAL DEFAULT UND __errno@LIBC (2)
3:   FUNC GLOBAL DEFAULT UND __open_2@LIBC (2)
4:   FUNC GLOBAL DEFAULT UND __read_chk@LIBC (2)
5:   FUNC GLOBAL DEFAULT UND __stack_chk_fail@LIBC (2)
6:   OBJECT GLOBAL DEFAULT UND __stack_chk_guard@LIBC (2)
7:   FUNC GLOBAL DEFAULT UND close@LIBC (2)
8:   FUNC GLOBAL DEFAULT UND klog_write
9:   FUNC GLOBAL DEFAULT UND strerror@LIBC (2)
10:   FUNC GLOBAL DEFAULT UND memset@LIBC (2)
11:   FUNC GLOBAL DEFAULT 13 squashfs_get_sb_size
12:   FUNC GLOBAL DEFAULT 13 squashfs_parse_sb_buffer
13:   FUNC GLOBAL DEFAULT 13 __aeabi_memclr
14:   FUNC GLOBAL DEFAULT 13 __aeabi_memclr4
15:   FUNC GLOBAL DEFAULT 13 __aeabi_memclr8
16:   FUNC GLOBAL DEFAULT 13 squashfs_parse_sb
17:   FUNC GLOBAL DEFAULT 13 __aeabi_memset
18:   FUNC GLOBAL DEFAULT 13 __aeabi_memset4
19:   FUNC GLOBAL DEFAULT 13 __aeabi_memset8
