 0x0000000e (SONAME)                     Library soname: [libfec.so]
  
Symbol   contains 93 entries:
Num:   Type Bind Vis Ndx Name
0:   NOTYPE LOCAL DEFAULT UND
1:   FUNC GLOBAL DEFAULT UND __cxa_finalize@LIBC (2)
2:   FUNC GLOBAL DEFAULT UND SHA256_Final
3:   FUNC GLOBAL DEFAULT UND SHA256_Init
4:   FUNC GLOBAL DEFAULT UND SHA256_Update
5:   OBJECT GLOBAL DEFAULT UND _ZSt7nothrow
6:   FUNC GLOBAL DEFAULT UND _ZdaPv
7:   FUNC GLOBAL DEFAULT UND _ZdlPv
8:   FUNC GLOBAL DEFAULT UND _ZnwjRKSt9nothrow_t
9:   FUNC GLOBAL DEFAULT UND __errno@LIBC (2)
10:   FUNC GLOBAL DEFAULT UND __open_2@LIBC (2)
11:   FUNC GLOBAL DEFAULT UND __stack_chk_fail@LIBC (2)
12:   OBJECT GLOBAL DEFAULT UND __stack_chk_guard@LIBC (2)
13:   FUNC GLOBAL DEFAULT UND close@LIBC (2)
14:   FUNC GLOBAL DEFAULT UND ext4_parse_sb
15:   FUNC GLOBAL DEFAULT UND fdatasync@LIBC (2)
16:   FUNC GLOBAL DEFAULT UND fstat@LIBC (2)
17:   FUNC GLOBAL DEFAULT UND ioctl@LIBC (2)
18:   FUNC GLOBAL DEFAULT UND klog_write
19:   FUNC GLOBAL DEFAULT UND memcmp@LIBC (2)
20:   FUNC GLOBAL DEFAULT UND pthread_mutex_destroy@LIBC (2)
21:   FUNC GLOBAL DEFAULT UND pthread_mutex_init@LIBC (2)
22:   FUNC GLOBAL DEFAULT UND squashfs_get_sb_size
23:   FUNC GLOBAL DEFAULT UND squashfs_parse_sb_buffer
24:   FUNC GLOBAL DEFAULT UND strerror@LIBC (2)
25:   FUNC GLOBAL DEFAULT UND syscall@LIBC (2)
26:   FUNC GLOBAL DEFAULT UND _ZnajRKSt9nothrow_t
27:   FUNC GLOBAL DEFAULT UND __vsnprintf_chk@LIBC (2)
28:   FUNC GLOBAL DEFAULT UND isprint@LIBC (2)
29:   FUNC GLOBAL DEFAULT UND pread64@LIBC (2)
30:   FUNC GLOBAL DEFAULT UND pwrite64@LIBC (2)
31:   FUNC GLOBAL DEFAULT UND _ZN7android4base5SplitERK
32:   FUNC GLOBAL DEFAULT UND _ZNKSt3__112basic_stringI
33:   FUNC GLOBAL DEFAULT UND _ZNKSt3__121__basic_strin
34:   FUNC GLOBAL DEFAULT UND _Znwj
35:   FUNC GLOBAL DEFAULT UND __memcpy_chk@LIBC (2)
36:   FUNC GLOBAL DEFAULT UND strlen@LIBC (2)
37:   FUNC GLOBAL DEFAULT UND strtoull@LIBC (2)
38:   FUNC GLOBAL DEFAULT UND tolower@LIBC (2)
39:   FUNC GLOBAL DEFAULT UND _ZNKSt3__120__vector_base
40:   FUNC GLOBAL DEFAULT UND abort@LIBC (2)
41:   FUNC GLOBAL DEFAULT UND pthread_create@LIBC (2)
42:   FUNC GLOBAL DEFAULT UND pthread_join@LIBC (2)
43:   FUNC GLOBAL DEFAULT UND sysconf@LIBC (2)
44:   FUNC GLOBAL DEFAULT UND calloc@LIBC (2)
45:   FUNC GLOBAL DEFAULT UND free@LIBC (2)
46:   FUNC GLOBAL DEFAULT UND malloc@LIBC (2)
47:   FUNC GLOBAL DEFAULT UND memcpy@LIBC (2)
48:   FUNC GLOBAL DEFAULT UND memmove@LIBC (2)
49:   FUNC GLOBAL DEFAULT UND memset@LIBC (2)
50:   FUNC WEAK DEFAULT UND android_set_abort_message@LIBC (2)
51:   FUNC GLOBAL DEFAULT UND write@LIBC (2)
52:   FUNC WEAK DEFAULT 14 _ZNSt3__16vectorIlNS_9all
53:   FUNC GLOBAL DEFAULT 14 __divmodsi4
54:   FUNC GLOBAL DEFAULT 14 _Z9raw_preadP10fec_handle
55:   FUNC GLOBAL DEFAULT 14 __divsi3
56:   FUNC GLOBAL DEFAULT 14 __aeabi_memclr8
57:   FUNC GLOBAL DEFAULT 14 fec_ecc_get_metadata
58:   FUNC GLOBAL DEFAULT 14 fec_seek
59:   FUNC GLOBAL DEFAULT 14 free_rs_char
60:   FUNC GLOBAL DEFAULT 14 __aeabi_idivmod
61:   FUNC GLOBAL DEFAULT 14 __udivmoddi4
62:   FUNC GLOBAL DEFAULT 14 __aeabi_memmove8
63:   FUNC GLOBAL DEFAULT 14 fec_get_status
64:   FUNC GLOBAL DEFAULT 14 _Z10raw_pwriteP10fec_hand
65:   FUNC GLOBAL DEFAULT 14 __aeabi_memset
66:   FUNC GLOBAL DEFAULT 14 __aeabi_memset4
67:   FUNC GLOBAL DEFAULT 14 _Z19verity_parse_headerP1
68:   FUNC GLOBAL DEFAULT 14 fec_close
69:   FUNC GLOBAL DEFAULT 14 fec_pread
70:   FUNC GLOBAL DEFAULT 14 decode_rs_char
71:   FUNC GLOBAL DEFAULT 14 _Z15verity_get_sizeyPjS_
72:   FUNC GLOBAL DEFAULT 14 __aeabi_uidivmod
73:   FUNC GLOBAL DEFAULT 14 _Z7processP10fec_handlePh
74:   FUNC GLOBAL DEFAULT 14 __aeabi_uidiv
75:   FUNC GLOBAL DEFAULT 14 __aeabi_memcpy4
76:   FUNC GLOBAL DEFAULT 14 __aeabi_uldivmod
77:   FUNC GLOBAL DEFAULT 14 fec_open
78:   FUNC GLOBAL DEFAULT 14 _Z18verity_check_blockP10
79:   FUNC GLOBAL DEFAULT 14 fec_read
80:   FUNC GLOBAL DEFAULT 14 __aeabi_memmove
81:   FUNC GLOBAL DEFAULT 14 __udivsi3
82:   FUNC GLOBAL DEFAULT 14 __aeabi_memcpy
83:   FUNC GLOBAL DEFAULT 14 __udivmodsi4
84:   FUNC GLOBAL DEFAULT 14 __aeabi_memset8
85:   FUNC GLOBAL DEFAULT 14 __aeabi_memclr
86:   FUNC GLOBAL DEFAULT 14 fec_verity_get_metadata
87:   FUNC GLOBAL DEFAULT 14 init_rs_char
88:   FUNC GLOBAL DEFAULT 14 __aeabi_idiv
89:   FUNC GLOBAL DEFAULT 14 __aeabi_memmove4
90:   FUNC GLOBAL DEFAULT 14 __aeabi_memclr4
91:   FUNC GLOBAL DEFAULT 14 fec_verity_set_status
92:   FUNC GLOBAL DEFAULT 14 __aeabi_memcpy8
