 0x0000000e (SONAME)                     Library soname: [libcrypto_utils.so]
  
Symbol   contains 33 entries:
Num:   Type Bind Vis Ndx Name
0:   NOTYPE LOCAL DEFAULT UND
1:   FUNC GLOBAL DEFAULT UND __cxa_finalize@LIBC (2)
2:   FUNC GLOBAL DEFAULT UND BN_CTX_free
3:   FUNC GLOBAL DEFAULT UND BN_CTX_new
4:   FUNC GLOBAL DEFAULT UND BN_bin2bn
5:   FUNC GLOBAL DEFAULT UND BN_bn2bin_padded
6:   FUNC GLOBAL DEFAULT UND BN_div
7:   FUNC GLOBAL DEFAULT UND BN_free
8:   FUNC GLOBAL DEFAULT UND BN_get_word
9:   FUNC GLOBAL DEFAULT UND BN_mod_inverse
10:   FUNC GLOBAL DEFAULT UND BN_mod_sqr
11:   FUNC GLOBAL DEFAULT UND BN_new
12:   FUNC GLOBAL DEFAULT UND BN_set_bit
13:   FUNC GLOBAL DEFAULT UND BN_set_word
14:   FUNC GLOBAL DEFAULT UND BN_sub
15:   FUNC GLOBAL DEFAULT UND RSA_free
16:   FUNC GLOBAL DEFAULT UND RSA_new
17:   FUNC GLOBAL DEFAULT UND RSA_size
18:   FUNC GLOBAL DEFAULT UND __stack_chk_fail@LIBC (2)
19:   OBJECT GLOBAL DEFAULT UND __stack_chk_guard@LIBC (2)
20:   FUNC GLOBAL DEFAULT UND memcpy@LIBC (2)
21:   FUNC GLOBAL DEFAULT UND memset@LIBC (2)
22:   FUNC GLOBAL DEFAULT 12 android_pubkey_decode
23:   FUNC GLOBAL DEFAULT 12 android_pubkey_encode
24:   FUNC GLOBAL DEFAULT 12 __aeabi_memclr
25:   FUNC GLOBAL DEFAULT 12 __aeabi_memclr4
26:   FUNC GLOBAL DEFAULT 12 __aeabi_memclr8
27:   FUNC GLOBAL DEFAULT 12 __aeabi_memcpy
28:   FUNC GLOBAL DEFAULT 12 __aeabi_memcpy4
29:   FUNC GLOBAL DEFAULT 12 __aeabi_memcpy8
30:   FUNC GLOBAL DEFAULT 12 __aeabi_memset
31:   FUNC GLOBAL DEFAULT 12 __aeabi_memset4
32:   FUNC GLOBAL DEFAULT 12 __aeabi_memset8
