 0x0000000e (SONAME)                     Library soname: [libkeyutils.so]
  
Symbol   contains 19 entries:
Num:   Type Bind Vis Ndx Name
0:   NOTYPE LOCAL DEFAULT UND
1:   FUNC GLOBAL DEFAULT UND __cxa_finalize@LIBC (2)
2:   FUNC GLOBAL DEFAULT UND __stack_chk_fail@LIBC (2)
3:   OBJECT GLOBAL DEFAULT UND __stack_chk_guard@LIBC (2)
4:   FUNC GLOBAL DEFAULT UND syscall@LIBC (2)
5:   FUNC WEAK DEFAULT UND __gnu_Unwind_Find_exidx@LIBC_N (3)
6:   FUNC GLOBAL DEFAULT UND abort@LIBC (2)
7:   FUNC GLOBAL DEFAULT UND memcpy@LIBC (2)
8:   NOTYPE WEAK DEFAULT UND __cxa_begin_cleanup
9:   NOTYPE WEAK DEFAULT UND __cxa_type_match
10:   NOTYPE WEAK DEFAULT UND __cxa_call_unexpected
11:   FUNC GLOBAL DEFAULT 13 add_key
12:   FUNC GLOBAL DEFAULT 13 keyctl_get_keyring_ID
13:   FUNC GLOBAL DEFAULT 13 keyctl_restrict_keyring
14:   FUNC GLOBAL DEFAULT 13 keyctl_revoke
15:   FUNC GLOBAL DEFAULT 13 keyctl_search
16:   FUNC GLOBAL DEFAULT 13 keyctl_setperm
17:   FUNC GLOBAL DEFAULT 13 keyctl_get_security
18:   FUNC GLOBAL DEFAULT 13 keyctl_unlink
