 0x000000000000000e (SONAME)             Library soname: [libcgrouprc.so]
  
Symbol   contains 35 entries:
Num:   Type Bind Vis Ndx Name
0:   NOTYPE LOCAL DEFAULT UND
1:   FUNC GLOBAL DEFAULT UND __cxa_finalize@LIBC (3)
2:   FUNC GLOBAL DEFAULT UND _ZN7android4base10LogMess
3:   FUNC GLOBAL DEFAULT UND _ZN7android4base10LogMess
4:   FUNC GLOBAL DEFAULT UND _ZN7android4base10LogMess
5:   FUNC GLOBAL DEFAULT UND _ZNKSt3__16locale9use_fac
6:   FUNC GLOBAL DEFAULT UND _ZNKSt3__18ios_base6getlo
7:   FUNC GLOBAL DEFAULT UND _ZNSt3__113basic_ostreamI
8:   FUNC GLOBAL DEFAULT UND _ZNSt3__113basic_ostreamI
9:   OBJECT GLOBAL DEFAULT UND _ZNSt3__15ctypeIcE2idE
10:   FUNC GLOBAL DEFAULT UND _ZNSt3__16localeD1Ev
11:   FUNC GLOBAL DEFAULT UND _ZNSt3__18ios_base5clearE
12:   FUNC GLOBAL DEFAULT UND _ZdlPv
13:   FUNC GLOBAL DEFAULT UND _Znwm
14:   FUNC GLOBAL DEFAULT UND __stack_chk_fail@LIBC (3)
15:   FUNC GLOBAL DEFAULT UND memset@LIBC (3)
16:   FUNC GLOBAL DEFAULT UND _ZN7android4base21GetMini
17:   FUNC GLOBAL DEFAULT UND _ZNSt3__113basic_ostreamI
18:   FUNC GLOBAL DEFAULT UND __cxa_guard_acquire
19:   FUNC GLOBAL DEFAULT UND __cxa_guard_release
20:   FUNC GLOBAL DEFAULT UND __errno@LIBC (3)
21:   FUNC GLOBAL DEFAULT UND __open_2@LIBC (3)
22:   FUNC WEAK DEFAULT UND android_fdsan_close_with_@LIBC_Q (4)
23:   FUNC WEAK DEFAULT UND android_fdsan_create_owne@LIBC_Q (4)
24:   FUNC WEAK DEFAULT UND android_fdsan_exchange_ow@LIBC_Q (4)
25:   FUNC GLOBAL DEFAULT UND close@LIBC (3)
26:   FUNC GLOBAL DEFAULT UND fstat@LIBC (3)
27:   FUNC GLOBAL DEFAULT UND mmap@LIBC (3)
28:   FUNC GLOBAL DEFAULT UND munmap@LIBC (3)
29:   FUNC GLOBAL DEFAULT 15 ACgroupController_getName@@LIBCGROUPRC
30:   FUNC GLOBAL DEFAULT 15 ACgroupController_getPath@@LIBCGROUPRC
31:   FUNC GLOBAL DEFAULT 15 ACgroupController_getVers@@LIBCGROUPRC
32:   FUNC GLOBAL DEFAULT 15 ACgroupFile_getController@@LIBCGROUPRC
33:   FUNC GLOBAL DEFAULT 15 ACgroupFile_getController@@LIBCGROUPRC
34:   FUNC GLOBAL DEFAULT 15 ACgroupFile_getVersion@@LIBCGROUPRC
