 0x000000000000000e (SONAME)             Library soname: [libminuitwrp.so]
  
Symbol   contains 822 entries:
Num:   Type Bind Vis Ndx Name
0:   NOTYPE LOCAL DEFAULT UND
1:   FUNC GLOBAL DEFAULT UND __cxa_finalize@LIBC (2)
2:   FUNC GLOBAL DEFAULT UND __cxa_atexit@LIBC (2)
3:   FUNC GLOBAL DEFAULT UND __stack_chk_fail@LIBC (2)
4:   FUNC GLOBAL DEFAULT UND __vsnprintf_chk@LIBC (2)
5:   FUNC GLOBAL DEFAULT UND atoi@LIBC (2)
6:   FUNC GLOBAL DEFAULT UND free@LIBC (2)
7:   FUNC GLOBAL DEFAULT UND malloc@LIBC (2)
8:   FUNC GLOBAL DEFAULT UND memcpy@LIBC (2)
9:   FUNC GLOBAL DEFAULT UND memset@LIBC (2)
10:   FUNC GLOBAL DEFAULT UND property_get
11:   FUNC GLOBAL DEFAULT UND puts@LIBC (2)
12:   FUNC GLOBAL DEFAULT UND strlen@LIBC (2)
13:   FUNC GLOBAL DEFAULT UND write@LIBC (2)
14:   FUNC GLOBAL DEFAULT UND __open_2@LIBC (2)
15:   FUNC GLOBAL DEFAULT UND calloc@LIBC (2)
16:   FUNC GLOBAL DEFAULT UND close@LIBC (2)
17:   FUNC GLOBAL DEFAULT UND ioctl@LIBC (2)
18:   FUNC GLOBAL DEFAULT UND mmap@LIBC (2)
19:   FUNC GLOBAL DEFAULT UND munmap@LIBC (2)
20:   FUNC GLOBAL DEFAULT UND perror@LIBC (2)
21:   FUNC GLOBAL DEFAULT UND printf@LIBC (2)
22:   FUNC GLOBAL DEFAULT UND usleep@LIBC (2)
23:   FUNC GLOBAL DEFAULT UND __fread_chk@LIBC_N (3)
24:   FUNC GLOBAL DEFAULT UND fclose@LIBC (2)
25:   FUNC GLOBAL DEFAULT UND fopen@LIBC (2)
26:   FUNC GLOBAL DEFAULT UND longjmp@LIBC (2)
27:   FUNC GLOBAL DEFAULT UND png_create_info_struct
28:   FUNC GLOBAL DEFAULT UND png_create_read_struct
29:   FUNC GLOBAL DEFAULT UND png_destroy_read_struct
30:   FUNC GLOBAL DEFAULT UND png_get_IHDR
31:   FUNC GLOBAL DEFAULT UND png_get_channels
32:   FUNC GLOBAL DEFAULT UND png_init_io
33:   FUNC GLOBAL DEFAULT UND png_read_info
34:   FUNC GLOBAL DEFAULT UND png_read_row
35:   FUNC GLOBAL DEFAULT UND png_set_expand_gray_1_2_4
36:   FUNC GLOBAL DEFAULT UND png_set_longjmp_fn
37:   FUNC GLOBAL DEFAULT UND png_set_palette_to_rgb
38:   FUNC GLOBAL DEFAULT UND png_set_sig_bytes
39:   FUNC GLOBAL DEFAULT UND png_sig_cmp
40:   FUNC GLOBAL DEFAULT UND setjmp@LIBC (2)
41:   FUNC GLOBAL DEFAULT UND FT_Done_Face
42:   FUNC GLOBAL DEFAULT UND FT_Done_Glyph
43:   FUNC GLOBAL DEFAULT UND FT_Get_Char_Index
44:   FUNC GLOBAL DEFAULT UND FT_Get_Glyph
45:   FUNC GLOBAL DEFAULT UND FT_Get_Kerning
46:   FUNC GLOBAL DEFAULT UND FT_Glyph_Get_CBox
47:   FUNC GLOBAL DEFAULT UND FT_Init_FreeType
48:   FUNC GLOBAL DEFAULT UND FT_Load_Glyph
49:   FUNC GLOBAL DEFAULT UND FT_New_Face
50:   FUNC GLOBAL DEFAULT UND FT_Set_Char_Size
51:   FUNC GLOBAL DEFAULT UND _ZNKSt3__121__basic_strin
52:   FUNC GLOBAL DEFAULT UND _ZNSt3__112basic_stringIc
53:   FUNC GLOBAL DEFAULT UND _ZNSt3__112basic_stringIc
54:   FUNC GLOBAL DEFAULT UND _ZNSt3__112basic_stringIc
55:   FUNC GLOBAL DEFAULT UND _ZdaPv
56:   FUNC GLOBAL DEFAULT UND _ZdlPv
57:   FUNC GLOBAL DEFAULT UND _Znam
58:   FUNC GLOBAL DEFAULT UND _Znwm
59:   FUNC GLOBAL DEFAULT UND fprintf@LIBC (2)
60:   FUNC GLOBAL DEFAULT UND memcmp@LIBC (2)
61:   FUNC GLOBAL DEFAULT UND pthread_mutex_destroy@LIBC (2)
62:   FUNC GLOBAL DEFAULT UND pthread_mutex_init@LIBC (2)
63:   FUNC GLOBAL DEFAULT UND pthread_mutex_lock@LIBC (2)
64:   FUNC GLOBAL DEFAULT UND pthread_mutex_unlock@LIBC (2)
65:   OBJECT GLOBAL DEFAULT UND stderr@LIBC (2)
66:   FUNC GLOBAL DEFAULT UND strdup@LIBC (2)
67:   FUNC GLOBAL DEFAULT UND png_create_write_struct
68:   FUNC GLOBAL DEFAULT UND png_destroy_write_struct
69:   FUNC GLOBAL DEFAULT UND png_free_data
70:   FUNC GLOBAL DEFAULT UND png_set_IHDR
71:   FUNC GLOBAL DEFAULT UND png_set_filler
72:   FUNC GLOBAL DEFAULT UND png_write_end
73:   FUNC GLOBAL DEFAULT UND png_write_info
74:   FUNC GLOBAL DEFAULT UND png_write_row
75:   FUNC GLOBAL DEFAULT UND _ZNKSt3__16locale9has_fac
76:   FUNC GLOBAL DEFAULT UND _ZNKSt3__16locale9use_fac
77:   FUNC GLOBAL DEFAULT UND _ZNSt3__113basic_istreamI
78:   FUNC GLOBAL DEFAULT UND _ZNSt3__113basic_istreamI
79:   FUNC GLOBAL DEFAULT UND _ZNSt3__113basic_istreamI
80:   FUNC GLOBAL DEFAULT UND _ZNSt3__115basic_streambu
81:   FUNC GLOBAL DEFAULT UND _ZNSt3__115basic_streambu
82:   FUNC GLOBAL DEFAULT UND _ZNSt3__115basic_streambu
83:   FUNC GLOBAL DEFAULT UND _ZNSt3__115basic_streambu
84:   FUNC GLOBAL DEFAULT UND _ZNSt3__115basic_streambu
85:   FUNC GLOBAL DEFAULT UND _ZNSt3__115basic_streambu
86:   FUNC GLOBAL DEFAULT UND _ZNSt3__16localeC1ERKS0_
87:   FUNC GLOBAL DEFAULT UND _ZNSt3__16localeD1Ev
88:   OBJECT GLOBAL DEFAULT UND _ZNSt3__17codecvtIcc9mbst
89:   FUNC GLOBAL DEFAULT UND _ZNSt3__18ios_base4initEP
90:   FUNC GLOBAL DEFAULT UND _ZNSt3__18ios_base5clearE
91:   FUNC GLOBAL DEFAULT UND _ZNSt3__19basic_iosIcNS_1
92:   FUNC GLOBAL DEFAULT UND _ZTv0_n24_NSt3__113basic_
93:   FUNC GLOBAL DEFAULT UND _ZTv0_n24_NSt3__113basic_
94:   FUNC GLOBAL DEFAULT UND __openat_2@LIBC (2)
95:   FUNC GLOBAL DEFAULT UND __poll_chk@LIBC (2)
96:   FUNC GLOBAL DEFAULT UND __read_chk@LIBC (2)
97:   FUNC GLOBAL DEFAULT UND __strcat_chk@LIBC (2)
98:   FUNC GLOBAL DEFAULT UND __strlen_chk@LIBC (2)
99:   FUNC GLOBAL DEFAULT UND __vsprintf_chk@LIBC (2)
100:   FUNC GLOBAL DEFAULT UND abort@LIBC (2)
101:   FUNC GLOBAL DEFAULT UND closedir@LIBC (2)
102:   FUNC GLOBAL DEFAULT UND dirfd@LIBC (2)
103:   FUNC GLOBAL DEFAULT UND fflush@LIBC (2)
104:   FUNC GLOBAL DEFAULT UND fread@LIBC (2)
105:   FUNC GLOBAL DEFAULT UND fseeko@LIBC (2)
106:   FUNC GLOBAL DEFAULT UND ftello@LIBC (2)
107:   FUNC GLOBAL DEFAULT UND fwrite@LIBC (2)
108:   FUNC GLOBAL DEFAULT UND gettimeofday@LIBC (2)
109:   FUNC GLOBAL DEFAULT UND memmove@LIBC (2)
110:   FUNC GLOBAL DEFAULT UND opendir@LIBC (2)
111:   FUNC GLOBAL DEFAULT UND read@LIBC (2)
112:   FUNC GLOBAL DEFAULT UND readdir@LIBC (2)
113:   FUNC GLOBAL DEFAULT UND stat@LIBC (2)
114:   OBJECT GLOBAL DEFAULT UND stdout@LIBC (2)
115:   FUNC GLOBAL DEFAULT UND strchr@LIBC (2)
116:   FUNC GLOBAL DEFAULT UND strcmp@LIBC (2)
117:   FUNC GLOBAL DEFAULT UND strncmp@LIBC (2)
118:   FUNC GLOBAL DEFAULT UND strtok@LIBC (2)
119:   FUNC GLOBAL DEFAULT UND strtol@LIBC (2)
120:   FUNC GLOBAL DEFAULT UND asprintf@LIBC (2)
121:   FUNC GLOBAL DEFAULT UND open@LIBC (2)
122:   FUNC GLOBAL DEFAULT UND __errno@LIBC (2)
123:   FUNC GLOBAL DEFAULT UND __readlink_chk@LIBC (2)
124:   FUNC GLOBAL DEFAULT UND __strrchr_chk@LIBC (2)
125:   FUNC GLOBAL DEFAULT UND access@LIBC (2)
126:   FUNC GLOBAL DEFAULT UND chmod@LIBC (2)
127:   FUNC GLOBAL DEFAULT UND chown@LIBC (2)
128:   FUNC GLOBAL DEFAULT UND clock_gettime@LIBC (2)
129:   FUNC GLOBAL DEFAULT UND fscanf@LIBC (2)
130:   FUNC GLOBAL DEFAULT UND fstat@LIBC (2)
131:   FUNC GLOBAL DEFAULT UND getenv@LIBC (2)
132:   FUNC GLOBAL DEFAULT UND geteuid@LIBC (2)
133:   FUNC GLOBAL DEFAULT UND getline@LIBC (2)
134:   FUNC GLOBAL DEFAULT UND getpagesize@LIBC (2)
135:   FUNC GLOBAL DEFAULT UND log2@LIBC (4)
136:   FUNC GLOBAL DEFAULT UND mkdir@LIBC (2)
137:   FUNC GLOBAL DEFAULT UND mknod@LIBC (2)
138:   FUNC GLOBAL DEFAULT UND realloc@LIBC (2)
139:   FUNC GLOBAL DEFAULT UND remove@LIBC (2)
140:   FUNC GLOBAL DEFAULT UND sscanf@LIBC (2)
141:   FUNC GLOBAL DEFAULT UND strcasecmp@LIBC (2)
142:   FUNC GLOBAL DEFAULT UND strerror@LIBC (2)
143:   FUNC GLOBAL DEFAULT UND strncasecmp@LIBC (2)
144:   FUNC GLOBAL DEFAULT UND strncpy@LIBC (2)
145:   FUNC GLOBAL DEFAULT UND strndup@LIBC (2)
146:   FUNC GLOBAL DEFAULT UND strstr@LIBC (2)
147:   FUNC GLOBAL DEFAULT UND vasprintf@LIBC (2)
148:   FUNC GLOBAL DEFAULT UND vfprintf@LIBC (2)
149:   FUNC GLOBAL DEFAULT UND __strncpy_chk2@LIBC (2)
150:   FUNC GLOBAL DEFAULT UND qsort@LIBC (2)
151:   FUNC GLOBAL DEFAULT UND android_memset16
152:   FUNC GLOBAL DEFAULT UND android_memset32
153:   FUNC GLOBAL DEFAULT UND __android_log_print@LIBLOG (5)
154:   FUNC GLOBAL DEFAULT UND __android_log_assert@LIBLOG (5)
155:   FUNC GLOBAL DEFAULT UND __cxa_pure_virtual
156:   FUNC GLOBAL DEFAULT UND _ZN7android10VectorImpl13
157:   FUNC GLOBAL DEFAULT UND _ZN7android10VectorImpl13
158:   FUNC GLOBAL DEFAULT UND _ZN7android16SortedVector
159:   FUNC GLOBAL DEFAULT UND _ZN7android16SortedVector
160:   FUNC GLOBAL DEFAULT UND _ZN7android16SortedVector
161:   FUNC GLOBAL DEFAULT UND _ZNK7android16SortedVecto
162:   FUNC GLOBAL DEFAULT UND ashmem_create_region
163:   FUNC GLOBAL DEFAULT UND sysconf@LIBC (2)
164:   FUNC GLOBAL DEFAULT UND time@LIBC (2)
165:   FUNC GLOBAL DEFAULT UND _ZN7android10VectorImpl3a
166:   FUNC GLOBAL DEFAULT UND _ZN7android10VectorImpl5c
167:   FUNC GLOBAL DEFAULT UND _ZN7android10VectorImplC2
168:   FUNC GLOBAL DEFAULT UND _ZN7android10VectorImplD2
169:   FUNC GLOBAL DEFAULT 13 _Z6ev_getP11input_eventi
170:   FUNC WEAK DEFAULT 13 _ZNSt3__113basic_filebufI
171:   FUNC GLOBAL DEFAULT 13 drmOpen
172:   FUNC GLOBAL DEFAULT 13 drmModeGetLease
173:   FUNC GLOBAL DEFAULT 13 _ZN7android17RegisterAllo
174:   FUNC GLOBAL DEFAULT 13 _ZN7android13ggl_init_tra
175:   FUNC GLOBAL DEFAULT 13 drmAgpRelease
176:   FUNC GLOBAL DEFAULT 13 drmDelContextTag
177:   FUNC GLOBAL DEFAULT 13 _ZN7android12GGLAssembler
178:   FUNC GLOBAL DEFAULT 13 _ZN7android12GGLAssembler
179:   FUNC GLOBAL DEFAULT 13 _ZN7android12GGLAssembler
180:   FUNC GLOBAL DEFAULT 13 _ZN7android17ARMAssembler
181:   FUNC GLOBAL DEFAULT 13 _ZN7android17ARMAssembler
182:   FUNC GLOBAL DEFAULT 13 _Z11ev_dispatchv
183:   FUNC GLOBAL DEFAULT 13 _Z12ev_has_mousev
184:   FUNC GLOBAL DEFAULT 13 drmFreeBufs
185:   FUNC GLOBAL DEFAULT 13 drmSLDump
186:   FUNC GLOBAL DEFAULT 13 _ZN7android17ARMAssembler
187:   FUNC GLOBAL DEFAULT 13 _ZN7android19ArmToArm64As
188:   FUNC GLOBAL DEFAULT 13 drmGetRenderDeviceNameFro
189:   FUNC GLOBAL DEFAULT 13 drmUnmap
190:   FUNC GLOBAL DEFAULT 13 drmModeDirtyFB
191:   FUNC GLOBAL DEFAULT 13 _ZN7android17ARMAssembler
192:   FUNC GLOBAL DEFAULT 13 _ZN7android19ArmToArm64As
193:   FUNC GLOBAL DEFAULT 13 drmSLLookup
194:   FUNC GLOBAL DEFAULT 13 _ZN7android17ARMAssembler
195:   FUNC GLOBAL DEFAULT 13 _ZN7android19ArmToArm64As
196:   FUNC WEAK DEFAULT 13 _ZNSt3__113basic_filebufI
197:   FUNC GLOBAL DEFAULT 13 drmMarkBufs
198:   FUNC GLOBAL DEFAULT 13 drmModeSetCursor
199:   FUNC GLOBAL DEFAULT 13 _ZN7android26mspace_set_f
200:   FUNC GLOBAL DEFAULT 13 _ZNK7android19ArmToArm64A
201:   FUNC GLOBAL DEFAULT 13 drmAgpVendorId
202:   FUNC GLOBAL DEFAULT 13 drmGetDevice2
203:   FUNC GLOBAL DEFAULT 13 _ZN7android8AssemblyD2Ev
204:   FUNC GLOBAL DEFAULT 13 _Z8gr_colorhhhh
205:   FUNC GLOBAL DEFAULT 13 _ZN12twrpTruetypeC1Ev
206:   FUNC GLOBAL DEFAULT 13 drmModeGetResources
207:   FUNC GLOBAL DEFAULT 13 drmHandleEvent
208:   FUNC GLOBAL DEFAULT 13 drmModeFreeFB
209:   FUNC GLOBAL DEFAULT 13 destroy_mspace
210:   FUNC GLOBAL DEFAULT 13 drmFree
211:   FUNC GLOBAL DEFAULT 13 _ZN7android17ARMAssembler
212:   FUNC GLOBAL DEFAULT 13 _ZN7android17ARMAssembler
213:   FUNC GLOBAL DEFAULT 13 _ZN7android12GGLAssembler
214:   FUNC GLOBAL DEFAULT 13 drmGetPrimaryDeviceNameFr
215:   FUNC GLOBAL DEFAULT 13 drmMap
216:   FUNC GLOBAL DEFAULT 13 drmModeCreateLease
217:   FUNC GLOBAL DEFAULT 13 mspace_track_large_chunks
218:   FUNC GLOBAL DEFAULT 13 _ZNK7android17RegisterAll
219:   OBJECT WEAK DEFAULT 18 _ZTCNSt3__114basic_ifstre
220:   FUNC GLOBAL DEFAULT 13 _ZN7android19ArmToArm64As
221:   FUNC GLOBAL DEFAULT 13 drmOpenOnceWithType
222:   FUNC GLOBAL DEFAULT 13 drmSetMaster
223:   FUNC GLOBAL DEFAULT 13 drmSLCreate
224:   FUNC GLOBAL DEFAULT 13 _ZN7android17ARMAssembler
225:   FUNC GLOBAL DEFAULT 13 _ZN7android12GGLAssembler
226:   FUNC GLOBAL DEFAULT 13 _ZN7android19ArmToArm64As
227:   FUNC GLOBAL DEFAULT 13 _ZN7android19ArmToArm64As
228:   FUNC GLOBAL DEFAULT 13 _ZN12twrpTruetype22gr_ttf
229:   FUNC GLOBAL DEFAULT 13 drmGetEntry
230:   FUNC GLOBAL DEFAULT 13 drmGetHashTable
231:   FUNC GLOBAL DEFAULT 13 _ZN7android21ARMAssembler
232:   OBJECT GLOBAL DEFAULT 18 _ZTVN7android21ARMAssembl
233:   FUNC GLOBAL DEFAULT 13 _ZN7android19ArmToArm64As
234:   FUNC GLOBAL DEFAULT 13 _ZN7android19ArmToArm64As
235:   FUNC GLOBAL DEFAULT 13 drmModeFreeCrtc
236:   FUNC GLOBAL DEFAULT 13 drmCommandRead
237:   FUNC GLOBAL DEFAULT 13 drmGetContextPrivateMappi
238:   FUNC GLOBAL DEFAULT 13 _ZN7android12GGLAssembler
239:   FUNC GLOBAL DEFAULT 13 drmSLNext
240:   FUNC GLOBAL DEFAULT 13 _ZN7android17ARMAssembler
241:   FUNC GLOBAL DEFAULT 13 drmModeFreeObjectProperti
242:   FUNC GLOBAL DEFAULT 13 _Z8gglSqrtxi
243:   FUNC GLOBAL DEFAULT 13 mspace_mallopt
244:   FUNC GLOBAL DEFAULT 13 _ZN7android17ARMAssembler
245:   FUNC GLOBAL DEFAULT 13 _ZN7android12GGLAssembler
246:   FUNC GLOBAL DEFAULT 13 _ZN7android19ArmToArm64As
247:   FUNC GLOBAL DEFAULT 13 _ZN7android19ArmToArm64As
248:   FUNC GLOBAL DEFAULT 13 _ZNK7android19ArmToArm64A
249:   FUNC GLOBAL DEFAULT 13 _Z7gr_initv
250:   FUNC WEAK DEFAULT 13 _ZNSt3__13mapI15TrueTypeF
251:   FUNC GLOBAL DEFAULT 13 drmAgpVersionMajor
252:   FUNC GLOBAL DEFAULT 13 drmModeRevokeLease
253:   FUNC GLOBAL DEFAULT 13 _ZNK7android8Assembly9inc
254:   FUNC GLOBAL DEFAULT 13 _ZN7android12GGLAssembler
255:   FUNC GLOBAL DEFAULT 13 _ZN7android19ArmToArm64As
256:   FUNC WEAK DEFAULT 13 _ZNSt3__113__tree_removeI
257:   FUNC GLOBAL DEFAULT 13 _ZN7android19ArmToArm64As
258:   FUNC GLOBAL DEFAULT 13 drmModeAddFB2
259:   FUNC GLOBAL DEFAULT 13 drmModeConnectorSetProper
260:   FUNC GLOBAL DEFAULT 13 drmModeGetPropertyBlob
261:   FUNC GLOBAL DEFAULT 13 _ZN7android17ARMAssembler
262:   FUNC GLOBAL DEFAULT 13 _ZN7android17ARMAssembler
263:   FUNC GLOBAL DEFAULT 13 _ZN7android17ARMAssembler
264:   FUNC GLOBAL DEFAULT 13 _ZN7android17ARMAssembler
265:   FUNC GLOBAL DEFAULT 13 _ZN7android12GGLAssembler
266:   FUNC GLOBAL DEFAULT 13 drmModeObjectGetPropertie
267:   FUNC GLOBAL DEFAULT 13 _ZN7android17ARMAssembler
268:   OBJECT GLOBAL DEFAULT 18 _ZTVN7android12GGLAssembl
269:   FUNC GLOBAL DEFAULT 13 _ZN7android19ArmToArm64As
270:   FUNC GLOBAL DEFAULT 13 drmDestroyDrawable
271:   FUNC GLOBAL DEFAULT 13 drmGetDeviceNameFromFd2
272:   FUNC GLOBAL DEFAULT 13 _ZN7android17ARMAssembler
273:   FUNC GLOBAL DEFAULT 13 _ZN7android12GGLAssembler
274:   FUNC GLOBAL DEFAULT 13 _ZN7android12GGLAssembler
275:   FUNC GLOBAL DEFAULT 13 _ZN7android19ArmToArm64As
276:   FUNC GLOBAL DEFAULT 13 _Z14gr_get_surfacePPv
277:   FUNC GLOBAL DEFAULT 13 drmSetInterfaceVersion
278:   FUNC GLOBAL DEFAULT 13 drmSLFirst
279:   FUNC GLOBAL DEFAULT 13 drmModeCreatePropertyBlob
280:   FUNC GLOBAL DEFAULT 13 create_mspace_with_base
281:   FUNC GLOBAL DEFAULT 13 _ZN7android19ArmToArm64As
282:   FUNC WEAK DEFAULT 13 _ZNK7android12SortedVecto
283:   FUNC GLOBAL DEFAULT 13 drmFreeDevice
284:   FUNC GLOBAL DEFAULT 13 drmOpenRender
285:   FUNC GLOBAL DEFAULT 13 _ZN7android17ARMAssembler
286:   FUNC GLOBAL DEFAULT 13 _ZN7android19ArmToArm64As
287:   FUNC GLOBAL DEFAULT 13 _ZN7android19ArmToArm64As
288:   FUNC WEAK DEFAULT 13 _ZNSt3__113basic_filebufI
289:   FUNC WEAK DEFAULT 13 _ZNSt3__113basic_filebufI
290:   FUNC GLOBAL DEFAULT 13 drmCrtcQueueSequence
291:   FUNC GLOBAL DEFAULT 13 drmSetBusid
292:   FUNC GLOBAL DEFAULT 13 _ZN7android21ARMAssembler
293:   FUNC GLOBAL DEFAULT 13 _ZN7android12GGLAssembler
294:   FUNC GLOBAL DEFAULT 13 _ZN12twrpTruetype23gr_ttf
295:   FUNC GLOBAL DEFAULT 13 drmHashDelete
296:   FUNC GLOBAL DEFAULT 13 _ZN7android17ARMAssembler
297:   FUNC GLOBAL DEFAULT 13 _ZN7android17ARMAssembler
298:   FUNC GLOBAL DEFAULT 13 _ZN7android19ArmToArm64As
299:   FUNC GLOBAL DEFAULT 13 _Z7gr_clipiiii
300:   FUNC GLOBAL DEFAULT 13 drmModeAtomicDuplicate
301:   FUNC GLOBAL DEFAULT 13 _ZN7android9CodeCacheD2Ev
302:   FUNC GLOBAL DEFAULT 13 drmModeFreePlaneResources
303:   FUNC GLOBAL DEFAULT 13 _ZN7android19ArmToArm64As
304:   OBJECT WEAK DEFAULT 18 _ZTVN7android6VectorINS_1
305:   FUNC WEAK DEFAULT 13 _ZNSt3__113basic_filebufI
306:   FUNC GLOBAL DEFAULT 13 _ZN7android19ggl_uninit_s
307:   FUNC GLOBAL DEFAULT 13 _ZN7android19ArmToArm64As
308:   FUNC WEAK DEFAULT 13 _ZNSt3__16__treeINS_12__v
309:   FUNC GLOBAL DEFAULT 13 mspace_memalign
310:   FUNC GLOBAL DEFAULT 13 gglBitBlit
311:   FUNC GLOBAL DEFAULT 13 _ZN7android12GGLAssembler
312:   FUNC GLOBAL DEFAULT 13 _ZN7android19ArmToArm64As
313:   FUNC GLOBAL DEFAULT 13 _ZN7android19ArmToArm64As
314:   FUNC GLOBAL DEFAULT 13 _Z11gr_fb_blankb
315:   FUNC GLOBAL DEFAULT 13 drmAgpEnable
316:   FUNC GLOBAL DEFAULT 13 drmModeSetCrtc
317:   FUNC GLOBAL DEFAULT 13 drmOpenControl
318:   FUNC GLOBAL DEFAULT 13 drmPrimeFDToHandle
319:   FUNC GLOBAL DEFAULT 13 drmSyncobjWait
320:   FUNC GLOBAL DEFAULT 13 _ZN7android12GGLAssembler
321:   FUNC WEAK DEFAULT 13 _ZNK7android12SortedVecto
322:   FUNC GLOBAL DEFAULT 13 drmModeFreeEncoder
323:   FUNC GLOBAL DEFAULT 13 drmCreateContext
324:   FUNC GLOBAL DEFAULT 13 drmSLLookupNeighbors
325:   FUNC GLOBAL DEFAULT 13 drmCtlUninstHandler
326:   FUNC GLOBAL DEFAULT 13 drmSwitchToContext
327:   FUNC GLOBAL DEFAULT 13 drmModeFreeModeInfo
328:   FUNC GLOBAL DEFAULT 13 _ZN7android17ARMAssembler
329:   FUNC GLOBAL DEFAULT 13 _ZN7android17RegisterAllo
330:   FUNC GLOBAL DEFAULT 13 _ZN7android12GGLAssembler
331:   FUNC GLOBAL DEFAULT 13 drmSetServerInfo
332:   FUNC GLOBAL DEFAULT 13 drmModeAtomicSetCursor
333:   FUNC GLOBAL DEFAULT 13 _ZNK7android8Assembly4bas
334:   FUNC GLOBAL DEFAULT 13 _ZN7android17ARMAssembler
335:   FUNC GLOBAL DEFAULT 13 _Z8open_drmv
336:   FUNC GLOBAL DEFAULT 13 _ZN7android22mspace_footp
337:   FUNC GLOBAL DEFAULT 13 _ZNK7android8Assembly9dec
338:   FUNC GLOBAL DEFAULT 13 _ZN12twrpTruetype18gr_ttf
339:   FUNC GLOBAL DEFAULT 13 _ZNK7android9CodeCache6lo
340:   FUNC GLOBAL DEFAULT 13 _ZN7android12GGLAssembler
341:   FUNC GLOBAL DEFAULT 13 _Z7vibratei
342:   FUNC GLOBAL DEFAULT 13 drmFinish
343:   FUNC WEAK DEFAULT 13 _ZNK7android12SortedVecto
344:   FUNC GLOBAL DEFAULT 13 _Z7gr_filliiii
345:   FUNC GLOBAL DEFAULT 13 _ZN7android17ARMAssembler
346:   FUNC GLOBAL DEFAULT 13 _ZN7android12GGLAssembler
347:   FUNC GLOBAL DEFAULT 13 _ZN7android17RegisterAllo
348:   FUNC GLOBAL DEFAULT 13 _ZN7android19ArmToArm64As
349:   FUNC GLOBAL DEFAULT 13 _ZN7android19ArmToArm64As
350:   FUNC GLOBAL DEFAULT 13 _ZN7android21ARMAssembler
351:   FUNC GLOBAL DEFAULT 13 _Z10gglMulDiviiii
352:   FUNC WEAK DEFAULT 13 _ZNSt3__113basic_filebufI
353:   FUNC GLOBAL DEFAULT 13 _ZN7android12GGLAssembler
354:   FUNC GLOBAL DEFAULT 13 _ZN7android17ggl_pick_sca
355:   FUNC GLOBAL DEFAULT 13 _ZN7android19ArmToArm64As
356:   FUNC GLOBAL DEFAULT 13 _ZN12twrpTruetype28gr_ttf
357:   FUNC GLOBAL DEFAULT 13 _ZN7android17ARMAssembler
358:   FUNC GLOBAL DEFAULT 13 _Z13gglSqrtRecipxi
359:   FUNC GLOBAL DEFAULT 13 _ZN7android8ggl_pickEPNS_
360:   FUNC WEAK DEFAULT 13 _ZNSt3__127__tree_balance
361:   OBJECT WEAK DEFAULT 18 _ZTVNSt3__114basic_ifstre
362:   FUNC GLOBAL DEFAULT 13 drmSyncobjExportSyncFile
363:   FUNC GLOBAL DEFAULT 13 drmModeGetProperty
364:   FUNC GLOBAL DEFAULT 13 _ZN7android17ARMAssembler
365:   FUNC GLOBAL DEFAULT 13 drmWaitVBlank
366:   FUNC GLOBAL DEFAULT 13 _Z7gglPowxii
367:   FUNC GLOBAL DEFAULT 13 _ZN7android19ArmToArm64As
368:   FUNC GLOBAL DEFAULT 13 _ZN7android19ArmToArm64As
369:   FUNC GLOBAL DEFAULT 13 drmAuthMagic
370:   FUNC GLOBAL DEFAULT 13 drmModeFreePropertyBlob
371:   FUNC GLOBAL DEFAULT 13 _ZN12twrpTruetype15gr_ttf
372:   FUNC GLOBAL DEFAULT 13 _Z13write_to_fileRKNSt3__
373:   FUNC GLOBAL DEFAULT 13 _Z9gglRecipQii
374:   FUNC GLOBAL DEFAULT 13 _ZN7android19ArmToArm64As
375:   FUNC GLOBAL DEFAULT 13 drmAgpBind
376:   FUNC GLOBAL DEFAULT 13 drmModeCrtcGetGamma
377:   FUNC GLOBAL DEFAULT 13 _ZN7android17ARMAssembler
378:   FUNC GLOBAL DEFAULT 13 _ZN7android17ARMAssembler
379:   FUNC GLOBAL DEFAULT 13 _ZN7android17ARMAssembler
380:   FUNC GLOBAL DEFAULT 13 _ZN7android12GGLAssembler
381:   FUNC GLOBAL DEFAULT 13 _ZN7android19ArmToArm64As
382:   FUNC GLOBAL DEFAULT 13 _Z9gr_noclipv
383:   FUNC GLOBAL DEFAULT 13 drmHashLookup
384:   FUNC GLOBAL DEFAULT 13 _ZN7android10ggl_expandEj
385:   FUNC GLOBAL DEFAULT 13 _ZN7android21ARMAssembler
386:   FUNC GLOBAL DEFAULT 13 _Z19gglRecipQNormalizediP
387:   FUNC GLOBAL DEFAULT 13 _ZN7android19ArmToArm64As
388:   FUNC GLOBAL DEFAULT 13 drmSyncobjSignal
389:   FUNC GLOBAL DEFAULT 13 drmHashFirst
390:   FUNC GLOBAL DEFAULT 13 drmModeAddFB2WithModifier
391:   FUNC GLOBAL DEFAULT 13 drmModeGetPlaneResources
392:   FUNC GLOBAL DEFAULT 13 _ZN7android16ggl_init_con
393:   FUNC GLOBAL DEFAULT 13 _ZN12twrpTruetype16gr_ttf
394:   FUNC WEAK DEFAULT 13 _ZNSt3__113basic_filebufI
395:   FUNC GLOBAL DEFAULT 13 drmSLInsert
396:   FUNC GLOBAL DEFAULT 13 _ZN7android12GGLAssembler
397:   FUNC GLOBAL DEFAULT 13 _ZN7android17ggl_state_ch
398:   FUNC GLOBAL DEFAULT 13 _ZN7android8AssemblyD1Ev
399:   OBJECT GLOBAL DEFAULT 18 _ZTVN7android19ArmToArm64
400:   FUNC GLOBAL DEFAULT 13 _ZN7android12GGLAssembler
401:   FUNC WEAK DEFAULT 13 _ZNK7android12SortedVecto
402:   FUNC GLOBAL DEFAULT 13 drmHashCreate
403:   FUNC GLOBAL DEFAULT 13 drmSyncobjImportSyncFile
404:   FUNC GLOBAL DEFAULT 13 _ZN12twrpTruetype22gr_ttf
405:   FUNC GLOBAL DEFAULT 13 _ZN7android15ggl_init_pic
406:   FUNC GLOBAL DEFAULT 13 _ZN7android19ArmToArm64As
407:   FUNC GLOBAL DEFAULT 13 _ZN7android17ARMAssembler
408:   FUNC GLOBAL DEFAULT 13 _ZN7android19ArmToArm64As
409:   FUNC GLOBAL DEFAULT 13 _Z12gr_fb_heightv
410:   FUNC GLOBAL DEFAULT 13 gglInit
411:   FUNC GLOBAL DEFAULT 13 drmAvailable
412:   FUNC GLOBAL DEFAULT 13 drmGetDeviceNameFromFd
413:   FUNC GLOBAL DEFAULT 13 drmMapBufs
414:   FUNC GLOBAL DEFAULT 13 drmSetClientCap
415:   FUNC GLOBAL DEFAULT 13 drmModeDetachMode
416:   FUNC GLOBAL DEFAULT 13 _ZN7android17ARMAssembler
417:   FUNC GLOBAL DEFAULT 13 _ZN7android12GGLAssembler
418:   FUNC GLOBAL DEFAULT 13 _ZN7android19ArmToArm64As
419:   FUNC GLOBAL DEFAULT 13 _ZN12twrpTruetype16gr_ttf
420:   FUNC WEAK DEFAULT 13 _ZNSt3__16__treeINS_12__v
421:   FUNC GLOBAL DEFAULT 13 _ZN7android17RegisterAllo
422:   FUNC GLOBAL DEFAULT 13 _ZN12twrpTruetype24gr_ttf
423:   FUNC GLOBAL DEFAULT 13 _Z17arm64_disassemblejPc
424:   FUNC GLOBAL DEFAULT 13 drmGetReservedContextList
425:   FUNC GLOBAL DEFAULT 13 drmOpenOnce
426:   FUNC GLOBAL DEFAULT 13 _ZN7android19ArmToArm64As
427:   FUNC GLOBAL DEFAULT 13 _Z22res_create_surface_pn
428:   FUNC GLOBAL DEFAULT 13 drmClose
429:   FUNC GLOBAL DEFAULT 13 _ZN7android17ARMAssembler
430:   FUNC GLOBAL DEFAULT 13 _ZN7android17ARMAssembler
431:   FUNC GLOBAL DEFAULT 13 _ZN7android17ARMAssembler
432:   FUNC GLOBAL DEFAULT 13 _Z12ev_get_inputisP11inpu
433:   FUNC GLOBAL DEFAULT 13 drmDevicesEqual
434:   FUNC GLOBAL DEFAULT 13 drmGetContextFlags
435:   FUNC WEAK DEFAULT 13 _ZNK7android12SortedVecto
436:   FUNC GLOBAL DEFAULT 13 mspace_free
437:   FUNC GLOBAL DEFAULT 13 _Z12gr_get_widthPv
438:   FUNC GLOBAL DEFAULT 13 _ZN12twrpTruetype24gr_ttf
439:   FUNC WEAK DEFAULT 13 _ZNSt3__113basic_filebufI
440:   FUNC GLOBAL DEFAULT 13 drmGetNodeTypeFromFd
441:   FUNC GLOBAL DEFAULT 13 _ZN7android12GGLAssembler
442:   FUNC GLOBAL DEFAULT 13 _ZN7android17RegisterAllo
443:   FUNC GLOBAL DEFAULT 13 _ZNK7android17RegisterAll
444:   FUNC GLOBAL DEFAULT 13 _ZN7android12GGLAssembler
445:   FUNC GLOBAL DEFAULT 13 _ZN7android19ArmToArm64As
446:   FUNC WEAK DEFAULT 13 _ZNK7android12SortedVecto
447:   FUNC GLOBAL DEFAULT 13 drmIoctl
448:   FUNC GLOBAL DEFAULT 13 drmGetDevices
449:   FUNC GLOBAL DEFAULT 13 drmHashNext
450:   FUNC GLOBAL DEFAULT 13 drmModeMoveCursor
451:   FUNC GLOBAL DEFAULT 13 mspace_max_footprint
452:   FUNC GLOBAL DEFAULT 13 _ZN7android17ARMAssembler
453:   FUNC GLOBAL DEFAULT 13 _ZN7android17ARMAssembler
454:   FUNC GLOBAL DEFAULT 13 _ZNK7android12GGLAssemble
455:   FUNC GLOBAL DEFAULT 13 _ZN7android19ArmToArm64As
456:   FUNC GLOBAL DEFAULT 13 _ZN7android23mspace_reall
457:   FUNC GLOBAL DEFAULT 13 _ZN7android17RegisterAllo
458:   FUNC GLOBAL DEFAULT 13 _ZN7android19ArmToArm64As
459:   FUNC GLOBAL DEFAULT 13 drmGetDevices2
460:   FUNC GLOBAL DEFAULT 13 drmGetLock
461:   FUNC WEAK DEFAULT 13 _ZNK7android12SortedVecto
462:   FUNC GLOBAL DEFAULT 13 mspace_independent_calloc
463:   FUNC WEAK DEFAULT 13 _ZNSt3__16__treeINS_12__v
464:   FUNC GLOBAL DEFAULT 13 _Z18gr_save_screenshotPKc
465:   FUNC GLOBAL DEFAULT 13 drmCommandWriteRead
466:   FUNC GLOBAL DEFAULT 13 drmGetLibVersion
467:   FUNC GLOBAL DEFAULT 13 drmModeAtomicFree
468:   FUNC GLOBAL DEFAULT 13 _ZN7android17ARMAssembler
469:   FUNC GLOBAL DEFAULT 13 _ZN7android12GGLAssembler
470:   FUNC GLOBAL DEFAULT 13 _ZN7android12GGLAssembler
471:   FUNC GLOBAL DEFAULT 13 _ZN7android19ArmToArm64As
472:   FUNC GLOBAL DEFAULT 13 drmModeAtomicAlloc
473:   FUNC GLOBAL DEFAULT 13 _ZN7android19ArmToArm64As
474:   FUNC GLOBAL DEFAULT 13 _ZN7android19ArmToArm64As
475:   FUNC GLOBAL DEFAULT 13 _ZN7android12GGLAssembler
476:   FUNC GLOBAL DEFAULT 13 _ZN7android12GGLAssembler
477:   FUNC WEAK DEFAULT 13 _ZNK7android12SortedVecto
478:   FUNC GLOBAL DEFAULT 13 drmModeFreeResources
479:   FUNC GLOBAL DEFAULT 13 _ZN7android19ArmToArm64As
480:   FUNC GLOBAL DEFAULT 13 _ZN7android19ArmToArm64As
481:   FUNC GLOBAL DEFAULT 13 _Z8gr_clearv
482:   FUNC GLOBAL DEFAULT 13 drmSyncobjHandleToFD
483:   FUNC GLOBAL DEFAULT 13 _ZN7android17ARMAssembler
484:   FUNC GLOBAL DEFAULT 13 _ZN7android12GGLAssembler
485:   FUNC GLOBAL DEFAULT 13 _ZN7android17RegisterAllo
486:   FUNC WEAK DEFAULT 13 _ZNK7android6VectorINS_19
487:   FUNC GLOBAL DEFAULT 13 _Z7gr_exitv
488:   FUNC GLOBAL DEFAULT 13 drmModeGetConnectorCurren
489:   FUNC GLOBAL DEFAULT 13 _ZN7android17ARMAssembler
490:   FUNC GLOBAL DEFAULT 13 _ZN7android17RegisterAllo
491:   FUNC GLOBAL DEFAULT 13 _ZN7android12GGLAssembler
492:   FUNC GLOBAL DEFAULT 13 _ZN7android21ARMAssembler
493:   OBJECT GLOBAL DEFAULT 18 _ZTVN7android17ARMAssembl
494:   FUNC GLOBAL DEFAULT 13 _ZN7android19ArmToArm64As
495:   FUNC GLOBAL DEFAULT 13 drmModeFreeProperty
496:   FUNC GLOBAL DEFAULT 13 _ZN7android17ARMAssembler
497:   FUNC GLOBAL DEFAULT 13 _ZN7android19ArmToArm64As
498:   FUNC GLOBAL DEFAULT 13 _Z18res_create_surfacePKc
499:   FUNC GLOBAL DEFAULT 13 _ZN7android9CodeCacheD1Ev
500:   FUNC GLOBAL DEFAULT 13 _ZN7android21ARMAssembler
501:   FUNC GLOBAL DEFAULT 13 _ZN7android17ARMAssembler
502:   FUNC GLOBAL DEFAULT 13 _ZN7android19ArmToArm64As
503:   FUNC GLOBAL DEFAULT 13 drmGetDevice
504:   FUNC GLOBAL DEFAULT 13 drmModeCrtcSetGamma
505:   FUNC GLOBAL DEFAULT 13 _ZN7android16mspace_bulk_
506:   FUNC GLOBAL DEFAULT 13 _ZN7android8AssemblyC2Em
507:   FUNC GLOBAL DEFAULT 13 _ZN7android17ARMAssembler
508:   FUNC GLOBAL DEFAULT 13 _Z7gglDivQiii
509:   FUNC GLOBAL DEFAULT 13 _ZN7android19ArmToArm64As
510:   FUNC GLOBAL DEFAULT 13 drmModeRmFB
511:   FUNC GLOBAL DEFAULT 13 drmGetMap
512:   FUNC GLOBAL DEFAULT 13 _ZN7android15ggl_system_t
513:   FUNC GLOBAL DEFAULT 13 _ZN7android19ArmToArm64As
514:   FUNC GLOBAL DEFAULT 13 _ZN7android19ArmToArm64As
515:   FUNC GLOBAL DEFAULT 13 _ZN12twrpTruetype23gr_ttf
516:   FUNC GLOBAL DEFAULT 13 drmAgpFree
517:   FUNC GLOBAL DEFAULT 13 _ZN7android16ggl_pick_tex
518:   FUNC GLOBAL DEFAULT 13 _ZNK7android17RegisterAll
519:   FUNC GLOBAL DEFAULT 13 _ZN7android19ArmToArm64As
520:   FUNC GLOBAL DEFAULT 13 drmModeGetFB
521:   FUNC GLOBAL DEFAULT 13 drmModePageFlipTarget
522:   FUNC GLOBAL DEFAULT 13 _ZN7android19ArmToArm64As
523:   FUNC GLOBAL DEFAULT 13 _ZN12twrpTruetype13gr_ttf
524:   FUNC GLOBAL DEFAULT 13 drmCrtcGetSequence
525:   FUNC GLOBAL DEFAULT 13 drmCheckModesettingSuppor
526:   FUNC GLOBAL DEFAULT 13 drmModeListLessees
527:   FUNC GLOBAL DEFAULT 13 _ZN7android12GGLAssembler
528:   FUNC GLOBAL DEFAULT 13 _ZN7android17RegisterAllo
529:   FUNC GLOBAL DEFAULT 13 _ZN7android19ArmToArm64As
530:   FUNC WEAK DEFAULT 13 _ZNSt3__113basic_filebufI
531:   FUNC GLOBAL DEFAULT 13 drmGetVersion
532:   FUNC GLOBAL DEFAULT 13 _ZN7android18ggl_uninit_c
533:   FUNC GLOBAL DEFAULT 13 _ZN7android19ArmToArm64As
534:   FUNC GLOBAL DEFAULT 13 _Z15ROTATION_Y_DISPiii
535:   FUNC GLOBAL DEFAULT 13 _Z26surface_ROTATION_tran
536:   FUNC GLOBAL DEFAULT 13 drmModeFreePlane
537:   FUNC GLOBAL DEFAULT 13 _ZN7android17RegisterAllo
538:   FUNC GLOBAL DEFAULT 13 _Z16gr_render_circleihhhh
539:   FUNC GLOBAL DEFAULT 13 _Z7gr_blitPviiiiii
540:   FUNC GLOBAL DEFAULT 13 drmModeGetCrtc
541:   FUNC GLOBAL DEFAULT 13 drmRandomCreate
542:   FUNC GLOBAL DEFAULT 13 mspace_independent_comall
543:   FUNC GLOBAL DEFAULT 13 _ZN7android14ggl_init_cle
544:   FUNC GLOBAL DEFAULT 13 _ZN7android11ggl_pick_cbE
545:   FUNC GLOBAL DEFAULT 13 _Z7ev_initv
546:   FUNC GLOBAL DEFAULT 13 _ZN7android12GGLAssembler
547:   FUNC GLOBAL DEFAULT 13 _ZN12twrpTruetype15utf8_t
548:   NOTYPE GLOBAL DEFAULT 13 scanline_col32cb16blend_a
549:   FUNC GLOBAL DEFAULT 13 _ZN7android19ArmToArm64As
550:   FUNC GLOBAL DEFAULT 13 _ZN7android19ArmToArm64As
551:   FUNC GLOBAL DEFAULT 13 drmAgpAcquire
552:   FUNC GLOBAL DEFAULT 13 drmDropMaster
553:   FUNC GLOBAL DEFAULT 13 drmGetContextTag
554:   FUNC GLOBAL DEFAULT 13 drmGetStats
555:   FUNC GLOBAL DEFAULT 13 drmSyncobjFDToHandle
556:   FUNC GLOBAL DEFAULT 13 mspace_calloc
557:   FUNC GLOBAL DEFAULT 13 _ZN7android14ggl_pack_col
558:   FUNC GLOBAL DEFAULT 13 drmAddBufs
559:   FUNC GLOBAL DEFAULT 13 drmDMA
560:   OBJECT GLOBAL DEFAULT 18 _ZTVN7android8AssemblyE
561:   FUNC GLOBAL DEFAULT 13 _ZN7android19ArmToArm64As
562:   FUNC GLOBAL DEFAULT 13 _Z7gr_flipv
563:   FUNC GLOBAL DEFAULT 13 _Z7ev_waiti
564:   FUNC GLOBAL DEFAULT 13 drmModeGetConnector
565:   FUNC GLOBAL DEFAULT 13 drmAgpGetMode
566:   FUNC GLOBAL DEFAULT 13 drmRandom
567:   FUNC GLOBAL DEFAULT 13 _ZN7android12GGLAssembler
568:   FUNC GLOBAL DEFAULT 13 _ZN7android19ArmToArm64As
569:   FUNC GLOBAL DEFAULT 13 _ZN7android19ArmToArm64As
570:   FUNC GLOBAL DEFAULT 13 drmAddContextTag
571:   FUNC GLOBAL DEFAULT 13 _ZN7android17ARMAssembler
572:   FUNC GLOBAL DEFAULT 13 _ZN7android17ARMAssembler
573:   FUNC GLOBAL DEFAULT 13 _ZN7android17ARMAssembler
574:   FUNC GLOBAL DEFAULT 13 _Z11gr_fb_widthv
575:   FUNC GLOBAL DEFAULT 13 drmModePageFlip
576:   OBJECT WEAK DEFAULT 18 _ZTVN7android12SortedVect
577:   FUNC GLOBAL DEFAULT 13 _ZN7android17ARMAssembler
578:   FUNC GLOBAL DEFAULT 13 _ZN7android19ArmToArm64As
579:   FUNC GLOBAL DEFAULT 13 _ZN7android17ARMAssembler
580:   OBJECT WEAK DEFAULT 18 _ZTVNSt3__113basic_filebu
581:   FUNC GLOBAL DEFAULT 13 drmModeGetEncoder
582:   FUNC GLOBAL DEFAULT 13 drmAgpVersionMinor
583:   FUNC GLOBAL DEFAULT 13 _ZN7android12GGLAssembler
584:   FUNC GLOBAL DEFAULT 13 _ZN12twrpTruetype23gr_ttf
585:   FUNC GLOBAL DEFAULT 13 _Z15ROTATION_X_DISPiii
586:   FUNC GLOBAL DEFAULT 13 drmModeAddFB
587:   FUNC WEAK DEFAULT 13 _ZNK7android12SortedVecto
588:   FUNC GLOBAL DEFAULT 13 _ZN7android19ArmToArm64As
589:   FUNC GLOBAL DEFAULT 13 _ZN7android19ArmToArm64As
590:   FUNC WEAK DEFAULT 13 _ZNK7android12SortedVecto
591:   FUNC GLOBAL DEFAULT 13 drmModeFreeConnector
592:   FUNC GLOBAL DEFAULT 13 _ZN7android17ARMAssembler
593:   FUNC GLOBAL DEFAULT 13 _ZN7android12GGLAssembler
594:   FUNC GLOBAL DEFAULT 13 _ZN7android17RegisterAllo
595:   FUNC GLOBAL DEFAULT 13 _ZN7android19ArmToArm64As
596:   FUNC WEAK DEFAULT 13 _ZNSt3__113basic_filebufI
597:   FUNC GLOBAL DEFAULT 13 drmCommandNone
598:   FUNC GLOBAL DEFAULT 13 drmMsg
599:   FUNC GLOBAL DEFAULT 13 drmModeGetPlane
600:   FUNC GLOBAL DEFAULT 13 _ZN7android15ggl_init_ras
601:   FUNC GLOBAL DEFAULT 13 _ZN7android17ARMAssembler
602:   FUNC GLOBAL DEFAULT 13 _ZN7android17ARMAssembler
603:   FUNC GLOBAL DEFAULT 13 _ZN7android12GGLAssembler
604:   FUNC WEAK DEFAULT 13 _ZNK7android12SortedVecto
605:   FUNC GLOBAL DEFAULT 13 _Z10open_fbdevv
606:   FUNC GLOBAL DEFAULT 13 gglUninit
607:   FUNC GLOBAL DEFAULT 13 drmGetClient
608:   FUNC GLOBAL DEFAULT 13 drmHashInsert
609:   FUNC GLOBAL DEFAULT 13 _ZN7android19ArmToArm64As
610:   FUNC WEAK DEFAULT 13 _ZNK7android12SortedVecto
611:   FUNC GLOBAL DEFAULT 13 _ZN7android9CodeCacheC2Em
612:   FUNC GLOBAL DEFAULT 13 mspace_malloc_stats
613:   FUNC GLOBAL DEFAULT 13 _ZN7android19ArmToArm64As
614:   FUNC WEAK DEFAULT 13 _ZNK7android12SortedVecto
615:   FUNC WEAK DEFAULT 13 _ZNSt3__16__treeINS_12__v
616:   FUNC GLOBAL DEFAULT 13 drmUnlock
617:   FUNC GLOBAL DEFAULT 13 _ZN7android17ARMAssembler
618:   FUNC GLOBAL DEFAULT 13 _ZN7android12GGLAssembler
619:   FUNC GLOBAL DEFAULT 13 _ZN7android19ArmToArm64As
620:   FUNC WEAK DEFAULT 13 _ZNK7android6VectorINS_19
621:   FUNC GLOBAL DEFAULT 13 drmSyncobjCreate
622:   FUNC GLOBAL DEFAULT 13 _ZN7android9CodeCache5cac
623:   FUNC GLOBAL DEFAULT 13 _ZNK7android8Assembly4siz
624:   FUNC GLOBAL DEFAULT 13 mspace_realloc
625:   FUNC GLOBAL DEFAULT 13 _ZN7android12GGLAssembler
626:   FUNC GLOBAL DEFAULT 13 _ZN7android19ArmToArm64As
627:   FUNC GLOBAL DEFAULT 13 _ZN7android8AssemblyD0Ev
628:   FUNC GLOBAL DEFAULT 13 _ZN7android17RegisterAllo
629:   FUNC GLOBAL DEFAULT 13 drmScatterGatherFree
630:   OBJECT WEAK DEFAULT 18 _ZTVN7android11AssemblyKe
631:   FUNC WEAK DEFAULT 13 _ZNK7android6VectorINS_19
632:   FUNC GLOBAL DEFAULT 13 _Z16res_free_surfacePv
633:   FUNC GLOBAL DEFAULT 13 drmAgpAlloc
634:   FUNC GLOBAL DEFAULT 13 _ZN7android17ARMAssembler
635:   FUNC GLOBAL DEFAULT 13 _ZN7android17ARMAssembler
636:   FUNC WEAK DEFAULT 13 _ZNSt3__16__treeINS_12__v
637:   FUNC GLOBAL DEFAULT 13 drmAddContextPrivateMappi
638:   FUNC GLOBAL DEFAULT 13 drmCreateDrawable
639:   FUNC GLOBAL DEFAULT 13 drmModeAtomicCommit
640:   FUNC GLOBAL DEFAULT 13 _ZN7android17ARMAssembler
641:   FUNC GLOBAL DEFAULT 13 _ZN7android17RegisterAllo
642:   FUNC GLOBAL DEFAULT 13 _ZN12twrpTruetype15gr_ttf
643:   FUNC GLOBAL DEFAULT 13 drmModeAtomicMerge
644:   FUNC GLOBAL DEFAULT 13 _ZN7android21ARMAssembler
645:   FUNC GLOBAL DEFAULT 13 _ZN7android17ARMAssembler
646:   FUNC GLOBAL DEFAULT 13 _ZN7android12GGLAssembler
647:   FUNC GLOBAL DEFAULT 13 _ZN7android12GGLAssembler
648:   FUNC GLOBAL DEFAULT 13 drmGetCap
649:   FUNC GLOBAL DEFAULT 13 _ZN7android19ArmToArm64As
650:   FUNC GLOBAL DEFAULT 13 _ZN7android17ARMAssembler
651:   FUNC GLOBAL DEFAULT 13 _ZN7android17RegisterAllo
652:   FUNC GLOBAL DEFAULT 13 _ZN7android19ArmToArm64As
653:   FUNC GLOBAL DEFAULT 13 drmSyncobjDestroy
654:   FUNC GLOBAL DEFAULT 13 _ZN7android17ARMAssembler
655:   FUNC GLOBAL DEFAULT 13 _ZN7android12GGLAssembler
656:   FUNC GLOBAL DEFAULT 13 _ZN7android12GGLAssembler
657:   FUNC GLOBAL DEFAULT 13 _ZN7android12GGLAssembler
658:   FUNC WEAK DEFAULT 13 _ZNK7android12SortedVecto
659:   FUNC GLOBAL DEFAULT 13 _ZN12twrpTruetypeC2Ev
660:   FUNC GLOBAL DEFAULT 13 drmPrimeHandleToFD
661:   FUNC GLOBAL DEFAULT 13 mspace_footprint
662:   OBJECT WEAK DEFAULT 18 _ZTVN7android12SortedVect
663:   FUNC GLOBAL DEFAULT 13 drmCloseOnce
664:   FUNC WEAK DEFAULT 13 _ZNK7android12SortedVecto
665:   FUNC GLOBAL DEFAULT 13 drmError
666:   FUNC GLOBAL DEFAULT 13 drmGetInterruptFromBusID
667:   FUNC GLOBAL DEFAULT 13 _ZN7android12GGLAssembler
668:   FUNC GLOBAL DEFAULT 13 _ZN7android12GGLAssembler
669:   FUNC GLOBAL DEFAULT 13 _ZN7android16ggl_init_tex
670:   FUNC GLOBAL DEFAULT 13 _ZN7android17ARMAssembler
671:   FUNC GLOBAL DEFAULT 13 _ZN7android17ARMAssembler
672:   FUNC WEAK DEFAULT 13 _ZNK7android12SortedVecto
673:   OBJECT GLOBAL DEFAULT 22 gr_rotation
674:   FUNC GLOBAL DEFAULT 13 drmFreeBusid
675:   FUNC GLOBAL DEFAULT 13 drmUnmapBufs
676:   FUNC GLOBAL DEFAULT 13 _ZN7android19ArmToArm64As
677:   FUNC GLOBAL DEFAULT 13 drmAddMap
678:   FUNC GLOBAL DEFAULT 13 _ZN7android17ARMAssembler
679:   FUNC GLOBAL DEFAULT 13 _ZN7android12GGLAssembler
680:   FUNC GLOBAL DEFAULT 13 _ZN7android19ArmToArm64As
681:   FUNC GLOBAL DEFAULT 13 _ZN7android19ArmToArm64As
682:   FUNC GLOBAL DEFAULT 13 _ZN7android19ArmToArm64As
683:   FUNC GLOBAL DEFAULT 13 _Z15gr_free_surfacePv
684:   FUNC GLOBAL DEFAULT 13 drmAgpMemoryAvail
685:   FUNC GLOBAL DEFAULT 13 drmModeObjectSetProperty
686:   FUNC GLOBAL DEFAULT 13 _ZN7android17ARMAssembler
687:   FUNC GLOBAL DEFAULT 13 _ZN7android17ARMAssembler
688:   FUNC GLOBAL DEFAULT 13 drmOpenWithType
689:   FUNC GLOBAL DEFAULT 13 _ZN7android12GGLAssembler
690:   FUNC GLOBAL DEFAULT 13 _ZN7android19ArmToArm64As
691:   FUNC GLOBAL DEFAULT 13 _ZN7android19ArmToArm64As
692:   FUNC GLOBAL DEFAULT 13 _ZN7android12GGLAssembler
693:   FUNC GLOBAL DEFAULT 13 _ZN7android19ArmToArm64As
694:   FUNC GLOBAL DEFAULT 13 _ZN7android19ArmToArm64As
695:   FUNC GLOBAL DEFAULT 13 _ZN7android19ArmToArm64As
696:   FUNC GLOBAL DEFAULT 13 _ZN7android19ArmToArm64As
697:   OBJECT GLOBAL DEFAULT 22 gr_draw
698:   FUNC GLOBAL DEFAULT 13 drmAgpSize
699:   FUNC GLOBAL DEFAULT 13 drmGetBufInfo
700:   FUNC GLOBAL DEFAULT 13 _ZN7android17ARMAssembler
701:   FUNC GLOBAL DEFAULT 13 _ZN7android19ArmToArm64As
702:   FUNC GLOBAL DEFAULT 13 drmModeSetCursor2
703:   FUNC GLOBAL DEFAULT 13 _ZN7android17ARMAssembler
704:   FUNC GLOBAL DEFAULT 13 _ZN7android17RegisterAllo
705:   FUNC GLOBAL DEFAULT 13 _ZN7android12GGLAssembler
706:   FUNC GLOBAL DEFAULT 13 _ZN7android19horz_clamp_i
707:   FUNC GLOBAL DEFAULT 13 _ZN7android19ArmToArm64As
708:   FUNC WEAK DEFAULT 13 _ZNK7android6VectorINS_19
709:   FUNC GLOBAL DEFAULT 13 _ZN7android12GGLAssembler
710:   FUNC GLOBAL DEFAULT 13 _ZN7android17ggl_init_sca
711:   FUNC WEAK DEFAULT 13 _ZNK7android12SortedVecto
712:   FUNC GLOBAL DEFAULT 13 drmSyncobjReset
713:   FUNC GLOBAL DEFAULT 13 drmModeAtomicGetCursor
714:   FUNC WEAK DEFAULT 13 _ZNK7android12SortedVecto
715:   FUNC GLOBAL DEFAULT 13 _ZN7android21ARMAssembler
716:   FUNC GLOBAL DEFAULT 13 _ZN7android19ArmToArm64As
717:   FUNC GLOBAL DEFAULT 13 _ZN7android19ArmToArm64As
718:   FUNC WEAK DEFAULT 13 _ZNSt3__113basic_filebufI
719:   FUNC GLOBAL DEFAULT 13 _ZN12twrpTruetype28gr_ttf
720:   FUNC GLOBAL DEFAULT 13 drmAgpUnbind
721:   FUNC GLOBAL DEFAULT 13 _ZN7android17ARMAssembler
722:   FUNC GLOBAL DEFAULT 13 _ZN7android17ARMAssembler
723:   FUNC GLOBAL DEFAULT 13 _ZN7android19ArmToArm64As
724:   FUNC WEAK DEFAULT 13 _ZNK7android6VectorINS_19
725:   FUNC GLOBAL DEFAULT 13 _ZN7android8AssemblyC1Em
726:   FUNC GLOBAL DEFAULT 13 _ZN7android12GGLAssembler
727:   FUNC GLOBAL DEFAULT 13 _ZN7android12GGLAssembler
728:   FUNC GLOBAL DEFAULT 13 _ZN7android19ArmToArm64As
729:   FUNC GLOBAL DEFAULT 13 _ZN7android19ArmToArm64As
730:   FUNC GLOBAL DEFAULT 13 drmCommandWrite
731:   FUNC GLOBAL DEFAULT 13 drmGetMagic
732:   FUNC GLOBAL DEFAULT 13 drmModeSetPlane
733:   FUNC GLOBAL DEFAULT 13 _ZN7android8Assembly6resi
734:   FUNC GLOBAL DEFAULT 13 _ZN7android19ArmToArm64As
735:   FUNC GLOBAL DEFAULT 13 _ZN7android17ARMAssembler
736:   FUNC GLOBAL DEFAULT 13 _Z16gr_textEx_scaleWiiPKc
737:   FUNC GLOBAL DEFAULT 13 drmAgpDeviceId
738:   FUNC GLOBAL DEFAULT 13 drmRandomDouble
739:   FUNC GLOBAL DEFAULT 13 _ZN7android21ARMAssembler
740:   FUNC GLOBAL DEFAULT 13 _ZN7android17ARMAssembler
741:   FUNC GLOBAL DEFAULT 13 _ZN7android17RegisterAllo
742:   FUNC GLOBAL DEFAULT 13 _ZN7android19ArmToArm64As
743:   OBJECT WEAK DEFAULT 18 _ZTTNSt3__114basic_ifstre
744:   FUNC GLOBAL DEFAULT 13 drmMalloc
745:   FUNC GLOBAL DEFAULT 13 _ZN7android17RegisterAllo
746:   FUNC GLOBAL DEFAULT 13 _ZN7android19ArmToArm64As
747:   FUNC GLOBAL DEFAULT 13 drmFreeDevices
748:   FUNC GLOBAL DEFAULT 13 _ZN7android19ArmToArm64As
749:   FUNC GLOBAL DEFAULT 13 _ZN7android19ArmToArm64As
750:   FUNC GLOBAL DEFAULT 13 drmSLDelete
751:   FUNC GLOBAL DEFAULT 13 _ZN7android12GGLAssembler
752:   OBJECT WEAK DEFAULT 18 _ZTVN7android12SortedVect
753:   FUNC GLOBAL DEFAULT 13 drmAgpMemoryUsed
754:   FUNC GLOBAL DEFAULT 13 drmModeAttachMode
755:   FUNC GLOBAL DEFAULT 13 drmModeDestroyPropertyBlo
756:   FUNC GLOBAL DEFAULT 13 _ZN7android17ARMAssembler
757:   FUNC GLOBAL DEFAULT 13 _ZN7android19ArmToArm64As
758:   OBJECT GLOBAL DEFAULT 22 vi
759:   FUNC GLOBAL DEFAULT 13 drmAgpBase
760:   FUNC GLOBAL DEFAULT 13 drmSetContextFlags
761:   FUNC GLOBAL DEFAULT 13 mspace_usable_size
762:   FUNC GLOBAL DEFAULT 13 _ZN7android17RegisterAllo
763:   FUNC GLOBAL DEFAULT 13 _ZN7android12GGLAssembler
764:   FUNC GLOBAL DEFAULT 13 _ZN7android19ArmToArm64As
765:   FUNC WEAK DEFAULT 13 _ZNK7android12SortedVecto
766:   FUNC WEAK DEFAULT 13 _ZNK7android12SortedVecto
767:   FUNC GLOBAL DEFAULT 13 mspace_trim
768:   FUNC GLOBAL DEFAULT 13 gglGetPixelFormatTable
769:   FUNC GLOBAL DEFAULT 13 _ZN7android19ArmToArm64As
770:   FUNC GLOBAL DEFAULT 13 _ZN7android19ArmToArm64As
771:   FUNC GLOBAL DEFAULT 13 _Z17res_scale_surfacePvPS
772:   FUNC GLOBAL DEFAULT 13 drmDestroyContext
773:   FUNC GLOBAL DEFAULT 13 _ZN7android17ARMAssembler
774:   FUNC GLOBAL DEFAULT 13 _ZN7android19ArmToArm64As
775:   FUNC WEAK DEFAULT 13 _ZNK7android6VectorINS_19
776:   FUNC GLOBAL DEFAULT 13 _Z22gr_write_frame_to_fil
777:   FUNC WEAK DEFAULT 13 _ZNK7android12SortedVecto
778:   FUNC GLOBAL DEFAULT 13 _ZNK7android17RegisterAll
779:   FUNC GLOBAL DEFAULT 13 _ZN7android19ArmToArm64As
780:   FUNC GLOBAL DEFAULT 13 create_mspace
781:   FUNC GLOBAL DEFAULT 13 _ZN7android17ARMAssembler
782:   FUNC GLOBAL DEFAULT 13 _ZN7android17ARMAssembler
783:   FUNC GLOBAL DEFAULT 13 _ZN7android19ArmToArm64As
784:   FUNC GLOBAL DEFAULT 13 _ZN12twrpTruetype15gr_ttf
785:   FUNC GLOBAL DEFAULT 13 drmHashDestroy
786:   FUNC GLOBAL DEFAULT 13 _ZN7android17ARMAssembler
787:   FUNC GLOBAL DEFAULT 13 _Z7ev_exitv
788:   FUNC GLOBAL DEFAULT 13 drmFreeReservedContextLis
789:   FUNC GLOBAL DEFAULT 13 mspace_malloc
790:   FUNC WEAK DEFAULT 13 _ZNSt3__16__treeINS_12__v
791:   FUNC GLOBAL DEFAULT 13 drmSLDestroy
792:   FUNC GLOBAL DEFAULT 13 _ZN7android17ARMAssembler
793:   FUNC GLOBAL DEFAULT 13 _ZN7android6AAEdge4dumpEv
794:   FUNC GLOBAL DEFAULT 13 _ZN7android19ArmToArm64As
795:   FUNC GLOBAL DEFAULT 13 _ZN7android19ArmToArm64As
796:   FUNC GLOBAL DEFAULT 13 _Z13gr_get_heightPv
797:   FUNC GLOBAL DEFAULT 13 drmScatterGatherAlloc
798:   FUNC GLOBAL DEFAULT 13 drmModeAtomicAddProperty
799:   FUNC GLOBAL DEFAULT 13 _ZN7android15ggl_set_surf
800:   FUNC GLOBAL DEFAULT 13 _ZN7android12GGLAssembler
801:   FUNC GLOBAL DEFAULT 13 _ZN7android12GGLAssembler
802:   FUNC GLOBAL DEFAULT 13 _ZN7android9ggl_errorEPNS
803:   FUNC GLOBAL DEFAULT 13 _ZN7android17ARMAssembler
804:   FUNC GLOBAL DEFAULT 13 _ZN7android12GGLAssembler
805:   OBJECT GLOBAL DEFAULT 22 gr_mem_surface
806:   FUNC GLOBAL DEFAULT 13 drmCtlInstHandler
807:   FUNC GLOBAL DEFAULT 13 _ZN7android9CodeCacheC1Em
808:   FUNC GLOBAL DEFAULT 13 _ZN7android17RegisterAllo
809:   FUNC GLOBAL DEFAULT 13 _ZN7android12GGLAssembler
810:   FUNC GLOBAL DEFAULT 13 __clear_cache
811:   OBJECT WEAK DEFAULT 18 _ZTVN7android16ScanlineAs
812:   FUNC GLOBAL DEFAULT 13 _ZN7android19ArmToArm64As
813:   FUNC GLOBAL DEFAULT 13 drmGetBusid
814:   FUNC GLOBAL DEFAULT 13 drmUpdateDrawableInfo
815:   FUNC GLOBAL DEFAULT 13 drmRandomDestroy
816:   NOTYPE GLOBAL DEFAULT 13 scanline_t32cb16blend_arm
817:   FUNC GLOBAL DEFAULT 13 _Z7gr_lineiiiii
818:   FUNC GLOBAL DEFAULT 13 drmFreeVersion
819:   FUNC GLOBAL DEFAULT 13 drmRmMap
820:   FUNC GLOBAL DEFAULT 13 _ZN7android12GGLAssembler
821:   FUNC GLOBAL DEFAULT 13 _ZN7android19ArmToArm64As
