 0x000000000000000e (SONAME)             Library soname: [libwifikeystorehal.so]
  
Symbol   contains 224 entries:
Num:   Type Bind Vis Ndx Name
0:   NOTYPE LOCAL DEFAULT UND
1:   FUNC GLOBAL DEFAULT UND __cxa_finalize@LIBC (2)
2:   FUNC GLOBAL DEFAULT UND _ZN7android10IInterfaceD0
3:   FUNC GLOBAL DEFAULT UND _ZN7android10IInterfaceD1
4:   FUNC GLOBAL DEFAULT UND _ZN7android14sp_report_ra
5:   FUNC GLOBAL DEFAULT UND _ZN7android21defaultServi
6:   FUNC GLOBAL DEFAULT UND _ZN7android4base10LogMess
7:   FUNC GLOBAL DEFAULT UND _ZN7android4base10LogMess
8:   FUNC GLOBAL DEFAULT UND _ZN7android4base10LogMess
9:   FUNC GLOBAL DEFAULT UND _ZN7android4base21GetMini
10:   FUNC GLOBAL DEFAULT UND _ZN7android4hidl4base4V1_
11:   FUNC GLOBAL DEFAULT UND _ZN7android4hidl4base4V1_
12:   FUNC GLOBAL DEFAULT UND _ZN7android4hidl4base4V1_
13:   FUNC GLOBAL DEFAULT UND _ZN7android4hidl4base4V1_
14:   FUNC GLOBAL DEFAULT UND _ZN7android4hidl4base4V1_
15:   FUNC GLOBAL DEFAULT UND _ZN7android4hidl4base4V1_
16:   FUNC GLOBAL DEFAULT UND _ZN7android4hidl4base4V1_
17:   FUNC GLOBAL DEFAULT UND _ZN7android4hidl4base4V1_
18:   FUNC GLOBAL DEFAULT UND _ZN7android4hidl4base4V1_
19:   FUNC GLOBAL DEFAULT UND _ZN7android4hidl4base4V1_
20:   FUNC GLOBAL DEFAULT UND _ZN7android6binder6Status
21:   FUNC GLOBAL DEFAULT UND _ZN7android6system4wifi8k
22:   FUNC GLOBAL DEFAULT UND _ZN7android6system4wifi8k
23:   FUNC GLOBAL DEFAULT UND _ZN7android6system4wifi8k
24:   FUNC GLOBAL DEFAULT UND _ZN7android6system4wifi8k
25:   FUNC GLOBAL DEFAULT UND _ZN7android6system4wifi8k
26:   FUNC GLOBAL DEFAULT UND _ZN7android6system4wifi8k
27:   FUNC GLOBAL DEFAULT UND _ZN7android6system4wifi8k
28:   FUNC GLOBAL DEFAULT UND _ZN7android6system4wifi8k
29:   FUNC GLOBAL DEFAULT UND _ZN7android6system4wifi8k
30:   FUNC GLOBAL DEFAULT UND _ZN7android6system4wifi8k
31:   FUNC GLOBAL DEFAULT UND _ZN7android7BBinder10onTr
32:   FUNC GLOBAL DEFAULT UND _ZN7android7BBinder10ping
33:   FUNC GLOBAL DEFAULT UND _ZN7android7BBinder11link
34:   FUNC GLOBAL DEFAULT UND _ZN7android7BBinder11loca
35:   FUNC GLOBAL DEFAULT UND _ZN7android7BBinder12atta
36:   FUNC GLOBAL DEFAULT UND _ZN7android7BBinder12deta
37:   FUNC GLOBAL DEFAULT UND _ZN7android7BBinder13unli
38:   FUNC GLOBAL DEFAULT UND _ZN7android7BBinder4dumpE
39:   FUNC GLOBAL DEFAULT UND _ZN7android7BBinder8trans
40:   FUNC GLOBAL DEFAULT UND _ZN7android7BBinderC1Ev
41:   FUNC GLOBAL DEFAULT UND _ZN7android7BBinderC2Ev
42:   FUNC GLOBAL DEFAULT UND _ZN7android7BBinderD0Ev
43:   FUNC GLOBAL DEFAULT UND _ZN7android7BBinderD1Ev
44:   FUNC GLOBAL DEFAULT UND _ZN7android7BBinderD2Ev
45:   FUNC GLOBAL DEFAULT UND _ZN7android7IBinder11loca
46:   FUNC GLOBAL DEFAULT UND _ZN7android7IBinder12remo
47:   FUNC GLOBAL DEFAULT UND _ZN7android7IBinder19quer
48:   FUNC GLOBAL DEFAULT UND _ZN7android7IBinderD0Ev
49:   FUNC GLOBAL DEFAULT UND _ZN7android7IBinderD1Ev
50:   FUNC GLOBAL DEFAULT UND _ZN7android7RefBase10onFi
51:   FUNC GLOBAL DEFAULT UND _ZN7android7RefBase13onLa
52:   FUNC GLOBAL DEFAULT UND _ZN7android7RefBase15onLa
53:   FUNC GLOBAL DEFAULT UND _ZN7android7RefBase20onIn
54:   FUNC GLOBAL DEFAULT UND _ZN7android7RefBaseC2Ev
55:   FUNC GLOBAL DEFAULT UND _ZN7android7RefBaseD2Ev
56:   FUNC GLOBAL DEFAULT UND _ZN7android7String85setTo
57:   FUNC GLOBAL DEFAULT UND _ZN7android7String8D1Ev
58:   FUNC GLOBAL DEFAULT UND _ZN7android8String16C1EPK
59:   FUNC GLOBAL DEFAULT UND _ZN7android8String16C1ERK
60:   FUNC GLOBAL DEFAULT UND _ZN7android8String16D1Ev
61:   FUNC GLOBAL DEFAULT UND _ZN7android8hardware7deta
62:   FUNC GLOBAL DEFAULT UND _ZN7android8security8keys
63:   OBJECT GLOBAL DEFAULT UND _ZN7android8security8keys
64:   FUNC GLOBAL DEFAULT UND _ZN7android8security8keys
65:   FUNC GLOBAL DEFAULT UND _ZN7android8security8keys
66:   FUNC GLOBAL DEFAULT UND _ZN7android8security8keys
67:   FUNC GLOBAL DEFAULT UND _ZN7android8security8keys
68:   FUNC GLOBAL DEFAULT UND _ZN7android8security8keys
69:   OBJECT GLOBAL DEFAULT UND _ZN7android8security8keys
70:   FUNC GLOBAL DEFAULT UND _ZN7android8security8keys
71:   FUNC GLOBAL DEFAULT UND _ZN7android8security8keys
72:   FUNC GLOBAL DEFAULT UND _ZN7android8security8keys
73:   FUNC GLOBAL DEFAULT UND _ZN7android8security8keys
74:   FUNC GLOBAL DEFAULT UND _ZN7android8security8keys
75:   OBJECT GLOBAL DEFAULT UND _ZN7android8security8keys
76:   FUNC GLOBAL DEFAULT UND _ZN7android8security8keys
77:   FUNC GLOBAL DEFAULT UND _ZN7android8security8keys
78:   FUNC GLOBAL DEFAULT UND _ZN7android8security8keys
79:   FUNC GLOBAL DEFAULT UND _ZN7android8security8keys
80:   FUNC GLOBAL DEFAULT UND _ZN7android8security8keys
81:   OBJECT GLOBAL DEFAULT UND _ZN7android8security8keys
82:   FUNC GLOBAL DEFAULT UND _ZN7android8security8keys
83:   FUNC GLOBAL DEFAULT UND _ZN7android8security8keys
84:   FUNC GLOBAL DEFAULT UND _ZN7android8security8keys
85:   FUNC GLOBAL DEFAULT UND _ZN7android8security8keys
86:   FUNC GLOBAL DEFAULT UND _ZN7android8security8keys
87:   FUNC GLOBAL DEFAULT UND _ZN7android8security9keym
88:   FUNC GLOBAL DEFAULT UND _ZN7android8security9keym
89:   FUNC GLOBAL DEFAULT UND _ZNK7android7BBinder10fin
90:   FUNC GLOBAL DEFAULT UND _ZNK7android7BBinder13isB
91:   FUNC GLOBAL DEFAULT UND _ZNK7android7BBinder22get
92:   FUNC GLOBAL DEFAULT UND _ZNK7android7IBinder13che
93:   FUNC GLOBAL DEFAULT UND _ZNK7android7RefBase9decS
94:   FUNC GLOBAL DEFAULT UND _ZNK7android7RefBase9incS
95:   FUNC GLOBAL DEFAULT UND _ZNK7android8String164siz
96:   FUNC GLOBAL DEFAULT UND _ZNK7android8hardware11hi
97:   FUNC GLOBAL DEFAULT UND _ZNK7android8security8key
98:   FUNC GLOBAL DEFAULT UND _ZNK7android8security8key
99:   FUNC GLOBAL DEFAULT UND _ZNK7android8security8key
100:   FUNC GLOBAL DEFAULT UND _ZNK7android8security8key
101:   FUNC GLOBAL DEFAULT UND _ZNKSt3__120__vector_base
102:   FUNC GLOBAL DEFAULT UND _ZNKSt3__16locale9use_fac
103:   FUNC GLOBAL DEFAULT UND _ZNKSt3__18ios_base6getlo
104:   FUNC GLOBAL DEFAULT UND _ZNSt13exception_ptrC1ERK
105:   FUNC GLOBAL DEFAULT UND _ZNSt13exception_ptrD1Ev
106:   FUNC GLOBAL DEFAULT UND _ZNSt3__112future_errorC1
107:   FUNC GLOBAL DEFAULT UND _ZNSt3__113basic_ostreamI
108:   FUNC GLOBAL DEFAULT UND _ZNSt3__113basic_ostreamI
109:   FUNC GLOBAL DEFAULT UND _ZNSt3__113basic_ostreamI
110:   FUNC GLOBAL DEFAULT UND _ZNSt3__114__shared_count
111:   FUNC GLOBAL DEFAULT UND _ZNSt3__115future_categor
112:   FUNC GLOBAL DEFAULT UND _ZNSt3__117__assoc_sub_st
113:   FUNC GLOBAL DEFAULT UND _ZNSt3__117__assoc_sub_st
114:   FUNC GLOBAL DEFAULT UND _ZNSt3__118condition_vari
115:   FUNC GLOBAL DEFAULT UND _ZNSt3__118condition_vari
116:   OBJECT GLOBAL DEFAULT UND _ZNSt3__15ctypeIcE2idE
117:   FUNC GLOBAL DEFAULT UND _ZNSt3__15mutex4lockEv
118:   FUNC GLOBAL DEFAULT UND _ZNSt3__15mutex6unlockEv
119:   FUNC GLOBAL DEFAULT UND _ZNSt3__15mutexD1Ev
120:   FUNC GLOBAL DEFAULT UND _ZNSt3__16localeD1Ev
121:   FUNC GLOBAL DEFAULT UND _ZNSt3__18ios_base5clearE
122:   FUNC GLOBAL DEFAULT UND _ZSt17rethrow_exceptionSt
123:   OBJECT GLOBAL DEFAULT UND _ZTVN7android8security8ke
124:   OBJECT GLOBAL DEFAULT UND _ZTVN7android8security9ke
125:   OBJECT GLOBAL DEFAULT UND _ZTVN7android8security9ke
126:   OBJECT GLOBAL DEFAULT UND _ZTVN7android8security9ke
127:   OBJECT GLOBAL DEFAULT UND _ZTVN7android8security9ke
128:   OBJECT GLOBAL DEFAULT UND _ZTVN7android8security9ke
129:   OBJECT GLOBAL DEFAULT UND _ZTVNSt3__117__assoc_sub_
130:   FUNC GLOBAL DEFAULT UND _ZThn8_N7android8security
131:   FUNC GLOBAL DEFAULT UND _ZThn8_N7android8security
132:   FUNC GLOBAL DEFAULT UND _ZThn8_N7android8security
133:   FUNC GLOBAL DEFAULT UND _ZThn8_N7android8security
134:   FUNC GLOBAL DEFAULT UND _ZTv0_n24_N7android10IInt
135:   FUNC GLOBAL DEFAULT UND _ZTv0_n24_N7android10IInt
136:   FUNC GLOBAL DEFAULT UND _ZTv0_n24_N7android7BBind
137:   FUNC GLOBAL DEFAULT UND _ZTv0_n24_N7android7BBind
138:   FUNC GLOBAL DEFAULT UND _ZTv0_n24_N7android7IBind
139:   FUNC GLOBAL DEFAULT UND _ZTv0_n24_N7android7IBind
140:   FUNC GLOBAL DEFAULT UND _ZTv0_n24_N7android8secur
141:   FUNC GLOBAL DEFAULT UND _ZTv0_n24_N7android8secur
142:   FUNC GLOBAL DEFAULT UND _ZTv0_n24_N7android8secur
143:   FUNC GLOBAL DEFAULT UND _ZTv0_n24_N7android8secur
144:   FUNC GLOBAL DEFAULT UND _ZTv0_n24_N7android8secur
145:   FUNC GLOBAL DEFAULT UND _ZTv0_n24_N7android8secur
146:   FUNC GLOBAL DEFAULT UND _ZTv0_n24_N7android8secur
147:   FUNC GLOBAL DEFAULT UND _ZTv0_n24_N7android8secur
148:   FUNC GLOBAL DEFAULT UND _ZdaPv
149:   FUNC GLOBAL DEFAULT UND _ZdlPv
150:   FUNC GLOBAL DEFAULT UND _Znam
151:   FUNC GLOBAL DEFAULT UND _Znwm
152:   FUNC GLOBAL DEFAULT UND __cxa_pure_virtual
153:   FUNC GLOBAL DEFAULT UND __errno@LIBC (2)
154:   FUNC GLOBAL DEFAULT UND __stack_chk_fail@LIBC (2)
155:   FUNC GLOBAL DEFAULT UND abort@LIBC (2)
156:   FUNC GLOBAL DEFAULT UND memcpy@LIBC (2)
157:   FUNC GLOBAL DEFAULT UND memset@LIBC (2)
158:   FUNC GLOBAL DEFAULT UND strzcmp16
159:   OBJECT WEAK DEFAULT 18 _ZTCN8keystore15CallbackP
160:   OBJECT WEAK DEFAULT 18 _ZTCN8keystore15CallbackP
161:   OBJECT GLOBAL DEFAULT 18 _ZTTN7android6system4wifi
162:   OBJECT WEAK DEFAULT 18 _ZTTN8keystore15CallbackP
163:   OBJECT WEAK DEFAULT 18 _ZTTN8keystore15CallbackP
164:   OBJECT WEAK DEFAULT 18 _ZTVN8keystore15CallbackP
165:   FUNC WEAK DEFAULT 14 _ZNSt3__113__assoc_stateI
166:   FUNC WEAK DEFAULT 14 _ZN7android11BnInterfaceI
167:   FUNC WEAK DEFAULT 14 _ZNSt3__113__assoc_stateI
168:   OBJECT WEAK DEFAULT 18 _ZTCN8keystore15CallbackP
169:   OBJECT GLOBAL DEFAULT 18 _ZTVN7android6system4wifi
170:   OBJECT WEAK DEFAULT 18 _ZTVN8keystore15CallbackP
171:   OBJECT WEAK DEFAULT 18 _ZTVN8keystore15CallbackP
172:   OBJECT WEAK DEFAULT 18 _ZTVNSt3__113__assoc_stat
173:   FUNC WEAK DEFAULT 14 _ZNSt3__113__assoc_stateI
174:   OBJECT WEAK DEFAULT 18 _ZTCN8keystore15CallbackP
175:   OBJECT WEAK DEFAULT 18 _ZTCN8keystore15CallbackP
176:   FUNC WEAK DEFAULT 14 _ZNSt3__17promiseINS_5tup
177:   OBJECT WEAK DEFAULT 18 _ZTCN8keystore15CallbackP
178:   OBJECT WEAK DEFAULT 18 _ZTTN8keystore15CallbackP
179:   FUNC WEAK DEFAULT 14 _ZNSt3__113__assoc_stateI
180:   OBJECT WEAK DEFAULT 18 _ZTCN8keystore15CallbackP
181:   OBJECT WEAK DEFAULT 18 _ZTCN8keystore15CallbackP
182:   OBJECT WEAK DEFAULT 18 _ZTCN8keystore15CallbackP
183:   OBJECT WEAK DEFAULT 18 _ZTVN8keystore15CallbackP
184:   FUNC WEAK DEFAULT 14 _ZNSt3__17promiseIN7andro
185:   OBJECT WEAK DEFAULT 18 _ZTCN8keystore15CallbackP
186:   OBJECT WEAK DEFAULT 18 _ZTCN8keystore15CallbackP
187:   OBJECT WEAK DEFAULT 18 _ZTVNSt3__113__assoc_stat
188:   FUNC WEAK DEFAULT 14 _ZN7android11BnInterfaceI
189:   FUNC WEAK DEFAULT 14 _ZNSt3__113__assoc_stateI
190:   FUNC WEAK DEFAULT 14 _ZNSt3__17promiseIN7andro
191:   OBJECT WEAK DEFAULT 18 _ZTCN8keystore15CallbackP
192:   OBJECT WEAK DEFAULT 18 _ZTCN8keystore15CallbackP
193:   FUNC WEAK DEFAULT 14 _ZN7android11BnInterfaceI
194:   FUNC GLOBAL DEFAULT 14 _ZN7android6system4wifi8k
195:   FUNC WEAK DEFAULT 14 _ZNSt3__113__assoc_stateI
196:   FUNC WEAK DEFAULT 14 _ZNSt3__113__assoc_stateI
197:   FUNC WEAK DEFAULT 14 _ZNSt3__124__put_characte
198:   OBJECT GLOBAL DEFAULT 18 _ZTCN7android6system4wifi
199:   OBJECT WEAK DEFAULT 18 _ZTVNSt3__113__assoc_stat
200:   FUNC WEAK DEFAULT 14 _ZN7android11BnInterfaceI
201:   OBJECT WEAK DEFAULT 18 _ZTCN8keystore15CallbackP
202:   FUNC WEAK DEFAULT 14 _ZNSt3__113__assoc_stateI
203:   OBJECT WEAK DEFAULT 18 _ZTCN8keystore15CallbackP
204:   OBJECT WEAK DEFAULT 18 _ZTVNSt3__113__assoc_stat
205:   FUNC GLOBAL DEFAULT 14 HIDL_FETCH_IKeystore
206:   FUNC WEAK DEFAULT 14 _ZNSt3__113__assoc_stateI
207:   OBJECT WEAK DEFAULT 18 _ZTCN8keystore15CallbackP
208:   OBJECT WEAK DEFAULT 18 _ZTCN8keystore15CallbackP
209:   OBJECT WEAK DEFAULT 18 _ZTCN8keystore15CallbackP
210:   OBJECT WEAK DEFAULT 18 _ZTCN8keystore15CallbackP
211:   FUNC WEAK DEFAULT 14 _ZNSt3__113__assoc_stateI
212:   FUNC WEAK DEFAULT 14 _ZNSt3__113__assoc_stateI
213:   OBJECT GLOBAL DEFAULT 18 _ZTCN7android6system4wifi
214:   OBJECT WEAK DEFAULT 18 _ZTCN8keystore15CallbackP
215:   OBJECT WEAK DEFAULT 18 _ZTCN8keystore15CallbackP
216:   OBJECT WEAK DEFAULT 18 _ZTTN8keystore15CallbackP
217:   FUNC GLOBAL DEFAULT 14 _ZN7android6system4wifi8k
218:   FUNC GLOBAL DEFAULT 14 _ZN7android6system4wifi8k
219:   FUNC WEAK DEFAULT 14 _ZNSt3__113__assoc_stateI
220:   FUNC WEAK DEFAULT 14 _ZNSt3__17promiseIN7andro
221:   OBJECT WEAK DEFAULT 18 _ZTCN8keystore15CallbackP
222:   OBJECT WEAK DEFAULT 18 _ZTCN8keystore15CallbackP
223:   OBJECT WEAK DEFAULT 18 _ZTCN8keystore15CallbackP
