 0x000000000000000e (SONAME)             Library soname: [libprocessgroup.so]
  
Symbol   contains 740 entries:
Num:   Type Bind Vis Ndx Name
0:   NOTYPE LOCAL DEFAULT UND
1:   NOTYPE WEAK DEFAULT UND __gmon_start__
2:   NOTYPE WEAK DEFAULT UND _ITM_deregisterTMCloneTab
3:   NOTYPE WEAK DEFAULT UND _ITM_registerTMCloneTable
4:   FUNC WEAK DEFAULT UND __cxa_finalize@GLIBC_2.2.5 (2)
5:   NOTYPE WEAK DEFAULT UND _Jv_RegisterClasses
6:   FUNC GLOBAL DEFAULT UND ACgroupController_getName@LIBCGROUPRC (3)
7:   FUNC GLOBAL DEFAULT UND ACgroupController_getPath@LIBCGROUPRC (3)
8:   FUNC GLOBAL DEFAULT UND ACgroupController_getVers@LIBCGROUPRC (3)
9:   FUNC GLOBAL DEFAULT UND ACgroupFile_getController@LIBCGROUPRC (3)
10:   FUNC GLOBAL DEFAULT UND ACgroupFile_getController@LIBCGROUPRC (3)
11:   FUNC GLOBAL DEFAULT UND ACgroupFile_getVersion@LIBCGROUPRC (3)
12:   FUNC GLOBAL DEFAULT UND _ZN7android4base10LogMess
13:   FUNC GLOBAL DEFAULT UND _ZN7android4base10LogMess
14:   FUNC GLOBAL DEFAULT UND _ZN7android4base10LogMess
15:   FUNC GLOBAL DEFAULT UND _ZN7android4base12StringP
16:   FUNC GLOBAL DEFAULT UND _ZN7android4base16ReadFil
17:   FUNC GLOBAL DEFAULT UND _ZN7android4base21GetMini
18:   FUNC GLOBAL DEFAULT UND _ZNKSt3__112basic_stringI
19:   FUNC GLOBAL DEFAULT UND _ZNKSt3__112basic_stringI
20:   FUNC GLOBAL DEFAULT UND _ZNKSt3__120__vector_base
21:   FUNC GLOBAL DEFAULT UND _ZNKSt3__121__basic_strin
22:   FUNC GLOBAL DEFAULT UND _ZNKSt3__123__match_any_b
23:   FUNC GLOBAL DEFAULT UND _ZNKSt3__16locale4nameEv
24:   FUNC GLOBAL DEFAULT UND _ZNKSt3__16locale9use_fac
25:   FUNC GLOBAL DEFAULT UND _ZNKSt3__18ios_base6getlo
26:   FUNC GLOBAL DEFAULT UND _ZNSt3__112basic_stringIc
27:   FUNC GLOBAL DEFAULT UND _ZNSt3__112basic_stringIc
28:   FUNC GLOBAL DEFAULT UND _ZNSt3__112basic_stringIc
29:   FUNC GLOBAL DEFAULT UND _ZNSt3__112basic_stringIc
30:   FUNC GLOBAL DEFAULT UND _ZNSt3__112basic_stringIc
31:   FUNC GLOBAL DEFAULT UND _ZNSt3__112basic_stringIc
32:   FUNC GLOBAL DEFAULT UND _ZNSt3__112basic_stringIc
33:   FUNC GLOBAL DEFAULT UND _ZNSt3__113basic_ostreamI
34:   FUNC GLOBAL DEFAULT UND _ZNSt3__113basic_ostreamI
35:   FUNC GLOBAL DEFAULT UND _ZNSt3__113basic_ostreamI
36:   FUNC GLOBAL DEFAULT UND _ZNSt3__113basic_ostreamI
37:   FUNC GLOBAL DEFAULT UND _ZNSt3__115__get_classnam
38:   FUNC GLOBAL DEFAULT UND _ZNSt3__119__shared_weak_
39:   FUNC GLOBAL DEFAULT UND _ZNSt3__119__shared_weak_
40:   FUNC GLOBAL DEFAULT UND _ZNSt3__120__get_collatio
41:   OBJECT GLOBAL DEFAULT UND _ZNSt3__15ctypeIcE2idE
42:   FUNC GLOBAL DEFAULT UND _ZNSt3__16localeC1ERKS0_
43:   FUNC GLOBAL DEFAULT UND _ZNSt3__16localeC1Ev
44:   FUNC GLOBAL DEFAULT UND _ZNSt3__16localeD1Ev
45:   OBJECT GLOBAL DEFAULT UND _ZNSt3__17collateIcE2idE
46:   FUNC GLOBAL DEFAULT UND _ZNSt3__18ios_base5clearE
47:   FUNC GLOBAL DEFAULT UND _ZNSt3__19to_stringEi
48:   FUNC GLOBAL DEFAULT UND _ZNSt3__19to_stringEj
49:   FUNC GLOBAL DEFAULT UND _ZNSt3__1plIcNS_11char_tr
50:   OBJECT GLOBAL DEFAULT UND _ZTINSt3__119__shared_wea
51:   OBJECT GLOBAL DEFAULT UND _ZTVN10__cxxabiv117__clas
52:   OBJECT GLOBAL DEFAULT UND _ZTVN10__cxxabiv120__si_c
53:   FUNC GLOBAL DEFAULT UND _ZdlPv
54:   FUNC GLOBAL DEFAULT UND _Znwm
55:   FUNC GLOBAL DEFAULT UND __cxa_guard_acquire
56:   FUNC GLOBAL DEFAULT UND __cxa_guard_release
57:   FUNC GLOBAL DEFAULT UND __errno_location@GLIBC_2.2.5 (4)
58:   FUNC GLOBAL DEFAULT UND __stack_chk_fail@GLIBC_2.4 (5)
59:   FUNC GLOBAL DEFAULT UND abort@GLIBC_2.2.5 (2)
60:   FUNC GLOBAL DEFAULT UND access@GLIBC_2.2.5 (2)
61:   FUNC GLOBAL DEFAULT UND getpid@GLIBC_2.2.5 (2)
62:   FUNC GLOBAL DEFAULT UND memchr@GLIBC_2.2.5 (2)
63:   FUNC GLOBAL DEFAULT UND memcmp@GLIBC_2.2.5 (2)
64:   FUNC GLOBAL DEFAULT UND memcpy@GLIBC_2.14 (6)
65:   FUNC GLOBAL DEFAULT UND memmove@GLIBC_2.2.5 (2)
66:   FUNC GLOBAL DEFAULT UND memset@GLIBC_2.2.5 (2)
67:   FUNC GLOBAL DEFAULT UND strlen@GLIBC_2.2.5 (2)
68:   FUNC GLOBAL DEFAULT UND _ZN7android4base10StartsW
69:   FUNC GLOBAL DEFAULT UND _ZN7android4base15GetBool
70:   FUNC GLOBAL DEFAULT UND _ZN7android4base17WriteSt
71:   FUNC GLOBAL DEFAULT UND _ZNSt3__111this_thread9sl
72:   FUNC GLOBAL DEFAULT UND _ZNSt3__112basic_stringIc
73:   FUNC GLOBAL DEFAULT UND _ZNSt3__113basic_ostreamI
74:   FUNC GLOBAL DEFAULT UND _ZNSt3__16chrono12steady_
75:   FUNC GLOBAL DEFAULT UND _ZNSt3__19to_stringEl
76:   FUNC GLOBAL DEFAULT UND chown@GLIBC_2.2.5 (2)
77:   FUNC GLOBAL DEFAULT UND closedir@GLIBC_2.2.5 (2)
78:   FUNC GLOBAL DEFAULT UND fclose@GLIBC_2.2.5 (2)
79:   FUNC GLOBAL DEFAULT UND feof@GLIBC_2.2.5 (2)
80:   FUNC GLOBAL DEFAULT UND fopen@GLIBC_2.2.5 (2)
81:   FUNC GLOBAL DEFAULT UND fscanf@GLIBC_2.2.5 (2)
82:   FUNC GLOBAL DEFAULT UND getpgid@GLIBC_2.2.5 (2)
83:   FUNC GLOBAL DEFAULT UND kill@GLIBC_2.2.5 (2)
84:   FUNC GLOBAL DEFAULT UND mkdir@GLIBC_2.2.5 (2)
85:   FUNC GLOBAL DEFAULT UND opendir@GLIBC_2.2.5 (2)
86:   FUNC GLOBAL DEFAULT UND readdir@GLIBC_2.2.5 (2)
87:   FUNC GLOBAL DEFAULT UND rmdir@GLIBC_2.2.5 (2)
88:   FUNC GLOBAL DEFAULT UND _ZN7android4base11GetThre
89:   FUNC GLOBAL DEFAULT UND _ZNSt3__15mutex4lockEv
90:   FUNC GLOBAL DEFAULT UND _ZNSt3__15mutex6unlockEv
91:   FUNC GLOBAL DEFAULT UND _ZNSt3__15mutexD1Ev
92:   FUNC GLOBAL DEFAULT UND close@GLIBC_2.2.5 (4)
93:   FUNC GLOBAL DEFAULT UND open@GLIBC_2.2.5 (4)
94:   FUNC GLOBAL DEFAULT UND strerror@GLIBC_2.2.5 (2)
95:   FUNC GLOBAL DEFAULT UND strtoul@GLIBC_2.2.5 (2)
96:   FUNC GLOBAL DEFAULT UND write@GLIBC_2.2.5 (4)
97:   FUNC GLOBAL DEFAULT UND _ZNSt3__112basic_stringIc
98:   FUNC GLOBAL DEFAULT UND _ZNSt3__112basic_stringIc
99:   FUNC GLOBAL DEFAULT UND _ZNSt3__112basic_stringIc
100:   FUNC GLOBAL DEFAULT UND _ZNSt3__112basic_stringIc
101:   FUNC GLOBAL DEFAULT UND _ZNSt3__112basic_stringIc
102:   FUNC GLOBAL DEFAULT UND _ZNSt3__113basic_istreamI
103:   FUNC GLOBAL DEFAULT UND exit@GLIBC_2.2.5 (2)
104:   FUNC GLOBAL DEFAULT UND fprintf@GLIBC_2.2.5 (2)
105:   FUNC GLOBAL DEFAULT UND snprintf@GLIBC_2.2.5 (2)
106:   FUNC GLOBAL DEFAULT UND sscanf@GLIBC_2.2.5 (2)
107:   OBJECT GLOBAL DEFAULT UND stderr@GLIBC_2.2.5 (2)
108:   FUNC GLOBAL DEFAULT UND _ZdaPv
109:   FUNC GLOBAL DEFAULT UND _Znam
110:   FUNC GLOBAL DEFAULT UND free@GLIBC_2.2.5 (2)
111:   FUNC GLOBAL DEFAULT UND malloc@GLIBC_2.2.5 (2)
112:   FUNC GLOBAL DEFAULT UND modf@GLIBC_2.2.5 (7)
113:   FUNC GLOBAL DEFAULT UND strcmp@GLIBC_2.2.5 (2)
114:   FUNC GLOBAL DEFAULT UND _ZNSt3__113basic_ostreamI
115:   FUNC GLOBAL DEFAULT UND _ZNSt3__113basic_ostreamI
116:   FUNC GLOBAL DEFAULT UND _ZNSt3__113basic_ostreamI
117:   FUNC GLOBAL DEFAULT UND _ZNSt3__115basic_streambu
118:   FUNC GLOBAL DEFAULT UND _ZNSt3__115basic_streambu
119:   FUNC GLOBAL DEFAULT UND _ZNSt3__115basic_streambu
120:   FUNC GLOBAL DEFAULT UND _ZNSt3__115basic_streambu
121:   FUNC GLOBAL DEFAULT UND _ZNSt3__115basic_streambu
122:   FUNC GLOBAL DEFAULT UND _ZNSt3__115basic_streambu
123:   FUNC GLOBAL DEFAULT UND _ZNSt3__115basic_streambu
124:   FUNC GLOBAL DEFAULT UND _ZNSt3__115basic_streambu
125:   FUNC GLOBAL DEFAULT UND _ZNSt3__115basic_streambu
126:   FUNC GLOBAL DEFAULT UND _ZNSt3__18ios_base4initEP
127:   FUNC GLOBAL DEFAULT UND _ZNSt3__19basic_iosIcNS_1
128:   OBJECT GLOBAL DEFAULT UND _ZTINSt3__113basic_ostrea
129:   OBJECT GLOBAL DEFAULT UND _ZTINSt3__115basic_stream
130:   FUNC GLOBAL DEFAULT UND _ZTv0_n24_NSt3__113basic_
131:   FUNC GLOBAL DEFAULT UND _ZTv0_n24_NSt3__113basic_
132:   FUNC GLOBAL DEFAULT UND __cxa_pure_virtual
133:   FUNC GLOBAL DEFAULT UND strpbrk@GLIBC_2.2.5 (2)
134:   FUNC WEAK DEFAULT 12 _ZNKSt3__111__end_stateIc
135:   OBJECT WEAK DEFAULT 21 _ZTVNSt3__120__bracket_ex
136:   FUNC GLOBAL DEFAULT 12 _ZN4Json13ValueIteratorC1
137:   FUNC GLOBAL DEFAULT 12 _ZN4Json13valueToStringEx
138:   FUNC GLOBAL DEFAULT 12 _ZN4Json13valueToStringEy
139:   FUNC WEAK DEFAULT 12 _ZNKSt3__118__back_ref_co
140:   OBJECT WEAK DEFAULT 21 _ZTVNSt3__118__back_ref_c
141:   FUNC GLOBAL DEFAULT 12 _ZN12TaskProfiles4LoadERK
142:   OBJECT GLOBAL DEFAULT 21 _ZTI15SetClampsAction
143:   FUNC WEAK DEFAULT 12 _ZNSt3__16__treeINS_12__v
144:   OBJECT WEAK DEFAULT 21 _ZTVNSt3__115basic_string
145:   FUNC GLOBAL DEFAULT 12 _ZNK4Json4Path7resolveERK
146:   FUNC GLOBAL DEFAULT 12 _ZNK4Json5Value6asBoolEv
147:   FUNC GLOBAL DEFAULT 12 _ZNK16CgroupController8Ha
148:   FUNC WEAK DEFAULT 12 _ZNKSt3__112regex_traitsI
149:   FUNC WEAK DEFAULT 12 _ZNKSt3__115basic_stringb
150:   FUNC WEAK DEFAULT 12 _ZNSt3__111__lookaheadIcN
151:   FUNC WEAK DEFAULT 12 _ZNSt3__111basic_regexIcN
152:   OBJECT WEAK DEFAULT 9 _ZTSNSt3__115__word_bound
153:   OBJECT WEAK DEFAULT 21 _ZTVNSt3__111__end_stateI
154:   FUNC GLOBAL DEFAULT 12 _ZN4Json13ValueIteratorC2
155:   FUNC GLOBAL DEFAULT 12 _ZN4Json5Value8CZStringC1
156:   FUNC WEAK DEFAULT 12 _ZNSt3__115basic_stringbu
157:   FUNC WEAK DEFAULT 12 _ZNSt3__111basic_regexIcN
158:   OBJECT WEAK DEFAULT 21 _ZTVNSt3__112__match_char
159:   FUNC GLOBAL DEFAULT 12 _ZN4Json5Value14setOffset
160:   FUNC GLOBAL DEFAULT 12 _ZN4Json5ValueixERKNS_12S
161:   FUNC GLOBAL DEFAULT 12 _ZNK4Json5Value12isValidI
162:   FUNC WEAK DEFAULT 12 _ZNKSt3__112regex_traitsI
163:   FUNC WEAK DEFAULT 12 _ZNSt3__120__match_char_c
164:   FUNC GLOBAL DEFAULT 12 _ZN4Json5Value12removeMem
165:   FUNC GLOBAL DEFAULT 12 _ZNK16CgroupController16G
166:   FUNC WEAK DEFAULT 12 _ZNSt3__16vectorINS_9sub_
167:   FUNC WEAK DEFAULT 12 _ZNSt3__111basic_regexIcN
168:   FUNC GLOBAL DEFAULT 12 _ZNK4Json5Value5asIntEv
169:   FUNC GLOBAL DEFAULT 12 _ZNK4Json5Value5isIntEv
170:   FUNC WEAK DEFAULT 12 _ZNSt3__15dequeIN4Json6Re
171:   FUNC WEAK DEFAULT 12 _ZN4Json10FastWriterD2Ev
172:   FUNC GLOBAL DEFAULT 12 _ZN4Json12StyledWriter23w
173:   FUNC WEAK DEFAULT 12 _ZNKSt3__16__loopIcE6__ex
174:   FUNC GLOBAL DEFAULT 12 _ZN4Json18ValueConstItera
175:   FUNC GLOBAL DEFAULT 12 _ZNK4Json5Value8CZString5
176:   FUNC GLOBAL DEFAULT 12 _ZN4Json10FastWriterC2Ev
177:   FUNC WEAK DEFAULT 12 _ZNSt3__16vectorINS_9sub_
178:   OBJECT WEAK DEFAULT 9 _ZTSNSt3__120__match_char
179:   OBJECT GLOBAL DEFAULT 9 _ZN4Json5Value14maxLarges
180:   FUNC WEAK DEFAULT 12 _ZNSt3__111basic_regexIcN
181:   FUNC WEAK DEFAULT 12 _ZNSt3__118__match_char_i
182:   OBJECT WEAK DEFAULT 21 _ZTINSt3__111__end_stateI
183:   FUNC GLOBAL DEFAULT 12 _ZN15SetCgroupActionC1ERK
184:   FUNC GLOBAL DEFAULT 12 _ZN4Json6Reader5matchEPKc
185:   FUNC GLOBAL DEFAULT 12 _ZN4Json6Reader9pushError
186:   FUNC GLOBAL DEFAULT 12 _ZN4Json8FeaturesC2Ev
187:   FUNC GLOBAL DEFAULT 12 _ZN4Json5ValueC2EPKcS2_
188:   FUNC GLOBAL DEFAULT 12 _ZN4Json12StyledWriter14i
189:   FUNC GLOBAL DEFAULT 12 CgroupGetAttributePathFor
190:   FUNC WEAK DEFAULT 12 _ZN18SetAttributeActionD2
191:   FUNC GLOBAL DEFAULT 12 _ZNK15SetClampsAction17Ex
192:   FUNC WEAK DEFAULT 12 _ZNK19SetTimerSlackAction
193:   FUNC GLOBAL DEFAULT 12 _ZN4Json5Value11CommentIn
194:   FUNC GLOBAL DEFAULT 12 _ZNK16CgroupController4na
195:   FUNC GLOBAL DEFAULT 12 _ZNK12TaskProfiles10GetPr
196:   FUNC GLOBAL DEFAULT 12 killProcessGroupOnce
197:   OBJECT WEAK DEFAULT 9 _ZTS19SetTimerSlackAction
198:   FUNC GLOBAL DEFAULT 12 _ZN4Json5Value11CommentIn
199:   FUNC WEAK DEFAULT 12 _ZNSt3__118__back_ref_col
200:   OBJECT WEAK DEFAULT 21 _ZTVNSt3__115__word_bound
201:   OBJECT WEAK DEFAULT 21 _ZTVNSt3__116__owns_one_s
202:   OBJECT WEAK DEFAULT 21 _ZTV19SetTimerSlackAction
203:   OBJECT GLOBAL DEFAULT 9 _ZN4Json5Value13maxLarges
204:   FUNC GLOBAL DEFAULT 12 _ZNK4Json17ValueIteratorB
205:   FUNC WEAK DEFAULT 12 _ZNKSt3__111__match_anyIc
206:   FUNC WEAK DEFAULT 12 _ZNKSt3__112regex_traitsI
207:   FUNC WEAK DEFAULT 12 _ZNSt3__111basic_regexIcN
208:   FUNC WEAK DEFAULT 12 _ZNSt3__16vectorINS_12bas
209:   FUNC GLOBAL DEFAULT 12 _ZNK11TaskProfile14Execut
210:   FUNC GLOBAL DEFAULT 12 _ZN15SetCgroupActionC2ERK
211:   FUNC GLOBAL DEFAULT 12 _ZNK4Json5ValuegtERKS0_
212:   FUNC WEAK DEFAULT 12 _ZNSt3__115basic_stringbu
213:   FUNC WEAK DEFAULT 12 _ZNSt3__124__put_characte
214:   FUNC GLOBAL DEFAULT 12 _ZN15SetCgroupAction14Add
215:   FUNC WEAK DEFAULT 12 _ZN15SetCgroupActionD2Ev
216:   FUNC GLOBAL DEFAULT 12 _ZNK4Json5Value14getOffse
217:   FUNC GLOBAL DEFAULT 12 _ZN4Json5Value6resizeEj
218:   FUNC GLOBAL DEFAULT 12 _ZNK4Json5ValuegeERKS0_
219:   FUNC GLOBAL DEFAULT 12 _ZN9CgroupMap10LoadRcFile
220:   FUNC WEAK DEFAULT 12 _ZNSt3__111basic_regexIcN
221:   FUNC WEAK DEFAULT 12 _ZNSt3__120__bracket_expr
222:   OBJECT WEAK DEFAULT 21 _ZTVNSt3__111__alternateI
223:   FUNC WEAK DEFAULT 12 _ZNSt3__16__treeIiNS_4les
224:   FUNC GLOBAL DEFAULT 12 _ZN4Json5ValueC1EPKcS2_
225:   FUNC GLOBAL DEFAULT 12 _ZN4Json12StyledWriter32w
226:   FUNC WEAK DEFAULT 12 _ZNKSt3__112regex_traitsI
227:   FUNC WEAK DEFAULT 12 _ZNSt3__111__match_anyIcE
228:   FUNC WEAK DEFAULT 12 _ZNSt3__111basic_regexIcN
229:   FUNC GLOBAL DEFAULT 12 _ZN4Json6ReaderC1Ev
230:   OBJECT GLOBAL DEFAULT 21 _ZTI15SetCgroupAction
231:   FUNC WEAK DEFAULT 12 _ZNSt3__117__owns_two_sta
232:   FUNC WEAK DEFAULT 12 _ZNSt3__16__treeINS_12__v
233:   FUNC GLOBAL DEFAULT 12 _ZN4Json18ValueConstItera
234:   FUNC WEAK DEFAULT 12 _ZNSt3__111basic_regexIcN
235:   FUNC GLOBAL DEFAULT 12 setProcessGroupSwappiness
236:   FUNC GLOBAL DEFAULT 12 _ZN4Json5ValueC1ERKS0_
237:   FUNC GLOBAL DEFAULT 12 _ZNK4Json5ValueixERKNSt3_
238:   FUNC GLOBAL DEFAULT 12 _ZN4Json10FastWriter20dro
239:   FUNC WEAK DEFAULT 12 _ZNKSt3__16__loopIcE12__e
240:   FUNC WEAK DEFAULT 12 _ZN4Json12StyledWriterD2E
241:   FUNC GLOBAL DEFAULT 12 _ZN4Json5ValueC2ERKS0_
242:   FUNC WEAK DEFAULT 12 _ZNKSt3__118__match_char_
243:   OBJECT GLOBAL DEFAULT 9 _ZN4Json5Value13minLarges
244:   FUNC GLOBAL DEFAULT 12 _ZN4Json12StyledWriterC2E
245:   FUNC GLOBAL DEFAULT 12 _ZN4Json18StyledStreamWri
246:   FUNC GLOBAL DEFAULT 12 _ZNK16CgroupController7ve
247:   OBJECT WEAK DEFAULT 21 _ZTINSt3__116__back_ref_i
248:   OBJECT WEAK DEFAULT 9 _ZTSNSt3__120__bracket_ex
249:   FUNC GLOBAL DEFAULT 12 SetTaskProfiles
250:   FUNC GLOBAL DEFAULT 12 _ZNK4Json6Reader24getLoca
251:   OBJECT WEAK DEFAULT 21 _ZTINSt3__111__alternateI
252:   OBJECT WEAK DEFAULT 21 _ZTVNSt3__128__begin_mark
253:   FUNC GLOBAL DEFAULT 12 _ZN4Json6Reader9readArray
254:   FUNC GLOBAL DEFAULT 12 _ZN4Json10FastWriter23ena
255:   FUNC WEAK DEFAULT 12 _ZNSt3__126__end_marked_s
256:   OBJECT WEAK DEFAULT 21 _ZTINSt3__118__back_ref_c
257:   FUNC GLOBAL DEFAULT 12 _ZNK4Json6Reader24getForm
258:   FUNC GLOBAL DEFAULT 12 _ZNK4Json6Reader24getLoca
259:   FUNC GLOBAL DEFAULT 12 _ZN4Json17ValueIteratorBa
260:   FUNC GLOBAL DEFAULT 12 _ZN4Json6Reader10readObje
261:   FUNC WEAK DEFAULT 12 _ZNSt3__15dequeIN4Json6Re
262:   OBJECT WEAK DEFAULT 9 _ZTSNSt3__115basic_string
263:   FUNC WEAK DEFAULT 12 _ZNKSt3__120__match_char_
264:   OBJECT WEAK DEFAULT 21 _ZTVNSt3__117__owns_two_s
265:   OBJECT GLOBAL DEFAULT 9 _ZTS15SetClampsAction
266:   OBJECT WEAK DEFAULT 9 _ZTSNSt3__110__r_anchorIc
267:   FUNC WEAK DEFAULT 12 _ZNSt3__113__tree_removeI
268:   FUNC GLOBAL DEFAULT 12 _ZNK4Json17ValueIteratorB
269:   FUNC WEAK DEFAULT 12 _ZTv0_n24_NSt3__119basic_
270:   FUNC WEAK DEFAULT 12 _ZNSt3__15dequeINS_7__sta
271:   FUNC GLOBAL DEFAULT 12 _ZNK4Json5Value8isObjectE
272:   FUNC GLOBAL DEFAULT 12 _ZNK4Json5ValueeqERKS0_
273:   FUNC GLOBAL DEFAULT 12 _ZN4Json6WriterD0Ev
274:   FUNC GLOBAL DEFAULT 12 _ZNK9CgroupMap14FindContr
275:   FUNC GLOBAL DEFAULT 12 removeAllProcessGroups
276:   FUNC WEAK DEFAULT 12 _ZNK13ProfileAction17Exec
277:   FUNC GLOBAL DEFAULT 12 _ZN4Json17ValueIteratorBa
278:   FUNC GLOBAL DEFAULT 12 _ZN4Json5Value8CZStringC1
279:   FUNC GLOBAL DEFAULT 12 _ZNK4Json17ValueIteratorB
280:   FUNC WEAK DEFAULT 12 _ZNSt3__16vectorINS_7__st
281:   OBJECT WEAK DEFAULT 21 _ZTINSt3__110__r_anchorIc
282:   FUNC GLOBAL DEFAULT 12 _ZN4Json6Reader9readToken
283:   FUNC GLOBAL DEFAULT 12 _ZN4Json18ValueConstItera
284:   FUNC GLOBAL DEFAULT 12 _ZN4Json5Value12removeMem
285:   OBJECT WEAK DEFAULT 9 _ZTSNSt3__119basic_ostrin
286:   FUNC GLOBAL DEFAULT 12 _ZN4Json12PathArgumentC2E
287:   FUNC GLOBAL DEFAULT 12 _ZNK4Json5Value5beginEv
288:   FUNC GLOBAL DEFAULT 12 UsePerAppMemcg
289:   FUNC GLOBAL DEFAULT 12 get_sched_policy_name
290:   FUNC WEAK DEFAULT 12 _ZN19SetTimerSlackActionD
291:   FUNC GLOBAL DEFAULT 12 _ZN4Json12StyledWriter11w
292:   FUNC WEAK DEFAULT 12 _ZNSt3__114__split_buffer
293:   OBJECT WEAK DEFAULT 21 _ZTVNSt3__118__match_char
294:   FUNC GLOBAL DEFAULT 12 _ZN4Json6Reader27decodeUn
295:   OBJECT GLOBAL DEFAULT 21 _ZN4Json8kNullRefE
296:   FUNC GLOBAL DEFAULT 12 _ZNK4Json5Value7compareER
297:   OBJECT WEAK DEFAULT 21 _ZTINSt3__119basic_ostrin
298:   FUNC WEAK DEFAULT 12 _ZNKSt3__111__lookaheadIc
299:   FUNC WEAK DEFAULT 12 _ZNKSt3__16__treeINS_12__
300:   FUNC WEAK DEFAULT 12 _ZNSt3__15dequeIN4Json6Re
301:   FUNC GLOBAL DEFAULT 12 _ZN4Json18StyledStreamWri
302:   FUNC GLOBAL DEFAULT 12 _ZN4JsonlsERNSt3__113basi
303:   OBJECT GLOBAL DEFAULT 9 _ZTSN4Json6WriterE
304:   FUNC GLOBAL DEFAULT 12 _ZNK16CgroupController4pa
305:   FUNC WEAK DEFAULT 12 _ZNSt3__114__split_buffer
306:   FUNC WEAK DEFAULT 12 _ZNSt3__114__split_buffer
307:   FUNC GLOBAL DEFAULT 12 SetProcessProfiles
308:   FUNC GLOBAL DEFAULT 12 _ZN4Json5Value14setOffset
309:   FUNC GLOBAL DEFAULT 12 _ZNK4Json5Value14toStyled
310:   FUNC GLOBAL DEFAULT 12 _ZN4Json5Value8CZStringC2
311:   OBJECT WEAK DEFAULT 21 _ZTINSt3__117__repeat_one
312:   FUNC WEAK DEFAULT 12 _ZNSt3__127__tree_balance
313:   FUNC GLOBAL DEFAULT 12 setProcessGroupSoftLimit
314:   FUNC WEAK DEFAULT 12 _ZNKSt3__112regex_traitsI
315:   FUNC WEAK DEFAULT 12 _ZNSt3__17__stateIcEC2ERK
316:   OBJECT WEAK DEFAULT 9 _ZTSNSt3__113__empty_stat
317:   FUNC WEAK DEFAULT 12 _ZNSt3__16vectorIPKN4Json
318:   FUNC GLOBAL DEFAULT 12 _ZN4Json12StyledWriter10w
319:   OBJECT WEAK DEFAULT 21 _ZTINSt3__121__empty_non_
320:   FUNC GLOBAL DEFAULT 12 _ZN4Json4Path11invalidPat
321:   FUNC GLOBAL DEFAULT 12 _ZNK4Json5ValueixEi
322:   OBJECT WEAK DEFAULT 9 _ZTSNSt3__117__repeat_one
323:   FUNC GLOBAL DEFAULT 12 _ZNK11TaskProfile17Execut
324:   FUNC GLOBAL DEFAULT 12 _ZNK4Json5ValueixEj
325:   FUNC GLOBAL DEFAULT 12 _ZN4Json5Value8CZStringD1
326:   FUNC GLOBAL DEFAULT 12 _ZNK4Json5Value3endEv
327:   FUNC WEAK DEFAULT 12 _ZNSt3__111basic_regexIcN
328:   OBJECT WEAK DEFAULT 9 _ZTSNSt3__16__nodeIcEE
329:   FUNC GLOBAL DEFAULT 12 _ZN4Json5Value11CommentIn
330:   FUNC GLOBAL DEFAULT 12 _ZN4JsonrsERNSt3__113basi
331:   FUNC GLOBAL DEFAULT 12 _ZN4Json5Value11CommentIn
332:   OBJECT WEAK DEFAULT 21 _ZTTNSt3__119basic_ostrin
333:   OBJECT GLOBAL DEFAULT 21 _ZTVN4Json6WriterE
334:   FUNC WEAK DEFAULT 12 _ZNSt3__16vectorINS_4pair
335:   FUNC GLOBAL DEFAULT 12 _ZN4Json4Path8makePathERK
336:   FUNC GLOBAL DEFAULT 12 _ZNK4Json5Value4typeEv
337:   FUNC GLOBAL DEFAULT 12 _ZNK4Json5Value7asFloatEv
338:   OBJECT WEAK DEFAULT 21 _ZTINSt3__115__has_one_st
339:   OBJECT WEAK DEFAULT 21 _ZTVNSt3__121__empty_non_
340:   OBJECT GLOBAL DEFAULT 9 _ZN4Json5Value6minIntE
341:   OBJECT WEAK DEFAULT 9 _ZTSNSt3__126__end_marked
342:   FUNC GLOBAL DEFAULT 12 _ZN4Json5ValueixEPKc
343:   FUNC GLOBAL DEFAULT 12 _ZN4Json6Reader17readCSty
344:   FUNC WEAK DEFAULT 12 _ZNSt3__115basic_stringbu
345:   FUNC WEAK DEFAULT 12 _ZNKSt3__111basic_regexIc
346:   OBJECT WEAK DEFAULT 21 _ZTINSt3__116__owns_one_s
347:   FUNC WEAK DEFAULT 12 _ZNSt3__16vectorINS_10uni
348:   FUNC GLOBAL DEFAULT 12 _ZN4Json6Reader5parseEPKc
349:   FUNC WEAK DEFAULT 12 _ZNKSt3__113__empty_state
350:   FUNC WEAK DEFAULT 12 _ZNSt3__111basic_regexIcN
351:   FUNC WEAK DEFAULT 12 _ZN4Json6ReaderD2Ev
352:   FUNC WEAK DEFAULT 12 _ZNSt3__16vectorINS_12bas
353:   OBJECT WEAK DEFAULT 9 _ZTSNSt3__111__end_stateI
354:   FUNC GLOBAL DEFAULT 12 _ZN4Json6ReaderC2Ev
355:   OBJECT WEAK DEFAULT 21 _ZTINSt3__16__nodeIcEE
356:   FUNC GLOBAL DEFAULT 12 killProcessGroup
357:   OBJECT GLOBAL DEFAULT 9 _ZTS15SetCgroupAction
358:   FUNC GLOBAL DEFAULT 12 _ZN4Json6Reader22decodeUn
359:   FUNC WEAK DEFAULT 12 _ZNSt3__16vectorIN4Json12
360:   OBJECT WEAK DEFAULT 21 _ZTCNSt3__119basic_ostrin
361:   OBJECT WEAK DEFAULT 21 _ZTVNSt3__111__lookaheadI
362:   FUNC GLOBAL DEFAULT 12 _ZNK18SetAttributeAction1
363:   FUNC GLOBAL DEFAULT 12 setProcessGroupLimit
364:   FUNC GLOBAL DEFAULT 12 _ZNK4Json6Reader4goodEv
365:   FUNC GLOBAL DEFAULT 12 _ZN11TaskProfile21EnableR
366:   OBJECT GLOBAL DEFAULT 21 _ZN4Json5Value4nullE
367:   FUNC GLOBAL DEFAULT 12 _ZN4Json12PathArgumentC2E
368:   FUNC GLOBAL DEFAULT 12 _ZNK15SetCgroupAction17Ex
369:   OBJECT GLOBAL DEFAULT 21 _ZTIN4Json6WriterE
370:   FUNC WEAK DEFAULT 12 _ZNSt3__111basic_regexIcN
371:   FUNC WEAK DEFAULT 12 _ZNSt3__116__back_ref_ica
372:   FUNC WEAK DEFAULT 12 _ZNSt3__121__empty_non_ow
373:   FUNC GLOBAL DEFAULT 12 _ZN15SetCgroupAction18IsA
374:   FUNC GLOBAL DEFAULT 12 _ZN4Json5Value10setCommen
375:   FUNC GLOBAL DEFAULT 12 _ZNK4Json5Value14getMembe
376:   FUNC WEAK DEFAULT 12 _ZNKSt3__117__repeat_one_
377:   FUNC WEAK DEFAULT 12 _ZNSt3__16__loopIcED0Ev
378:   OBJECT GLOBAL DEFAULT 9 _ZTS18SetAttributeAction
379:   FUNC GLOBAL DEFAULT 12 _ZN4Json6Reader10skipSpac
380:   FUNC GLOBAL DEFAULT 12 _ZN4Json18StyledStreamWri
381:   FUNC WEAK DEFAULT 12 _ZNSt3__116__owns_one_sta
382:   FUNC WEAK DEFAULT 12 _ZNSt3__119basic_ostrings
383:   FUNC GLOBAL DEFAULT 12 _ZNK16CgroupController12G
384:   FUNC WEAK DEFAULT 12 _ZNSt3__111basic_regexIcN
385:   OBJECT GLOBAL DEFAULT 9 _ZN4Json5Value8minInt64E
386:   FUNC GLOBAL DEFAULT 12 _ZN4Json12StyledWriter6in
387:   FUNC WEAK DEFAULT 12 _ZTv0_n24_NSt3__119basic_
388:   FUNC WEAK DEFAULT 12 _ZNKSt3__126__end_marked_
389:   FUNC WEAK DEFAULT 12 _ZNSt3__115__word_boundar
390:   OBJECT WEAK DEFAULT 21 _ZTINSt3__118__match_char
391:   OBJECT WEAK DEFAULT 21 _ZTI13ProfileAction
392:   FUNC GLOBAL DEFAULT 12 _ZN4Json12StyledWriter5wr
393:   FUNC GLOBAL DEFAULT 12 _ZN4Json6WriterD1Ev
394:   FUNC WEAK DEFAULT 12 _ZNKSt3__115__word_bounda
395:   FUNC WEAK DEFAULT 12 _ZNSt3__110__back_refIcED
396:   FUNC WEAK DEFAULT 12 _ZNSt3__120__shared_ptr_p
397:   OBJECT WEAK DEFAULT 9 _ZTSNSt3__110__back_refIc
398:   OBJECT WEAK DEFAULT 9 _ZTSNSt3__118__back_ref_c
399:   FUNC GLOBAL DEFAULT 12 _ZN4Json5ValueixEi
400:   FUNC GLOBAL DEFAULT 12 _ZN4Json5Value4swapERS0_
401:   FUNC GLOBAL DEFAULT 12 _ZN4Json5Value8CZStringC2
402:   FUNC WEAK DEFAULT 12 _ZNSt3__111basic_regexIcN
403:   FUNC GLOBAL DEFAULT 12 _ZN4Json18ValueConstItera
404:   FUNC GLOBAL DEFAULT 12 _ZN4Json5ValueixEj
405:   FUNC WEAK DEFAULT 12 _ZNSt3__125__lexicographi
406:   OBJECT WEAK DEFAULT 9 _ZTSNSt3__111__alternateI
407:   FUNC GLOBAL DEFAULT 12 CgroupGetAttributePath
408:   FUNC GLOBAL DEFAULT 12 _ZN12TaskProfilesC1Ev
409:   FUNC GLOBAL DEFAULT 12 _ZN4Json6Reader11getNextC
410:   FUNC GLOBAL DEFAULT 12 _ZNK4Json17ValueIteratorB
411:   FUNC WEAK DEFAULT 12 _ZNSt3__111__lookaheadIcN
412:   FUNC WEAK DEFAULT 12 _ZNSt3__111basic_regexIcN
413:   OBJECT WEAK DEFAULT 21 _ZTINSt3__110__back_refIc
414:   OBJECT GLOBAL DEFAULT 21 _ZTI18SetAttributeAction
415:   FUNC GLOBAL DEFAULT 12 _ZN4Json6Reader10readStri
416:   FUNC GLOBAL DEFAULT 12 _ZN4Json5Value5clearEv
417:   OBJECT GLOBAL DEFAULT 9 _ZN4Json5Value9maxUInt64E
418:   FUNC GLOBAL DEFAULT 12 _ZNK4Json5Value9asCString
419:   FUNC GLOBAL DEFAULT 12 _ZN4Json10FastWriter5writ
420:   FUNC WEAK DEFAULT 12 _ZNSt3__111basic_regexIcN
421:   FUNC GLOBAL DEFAULT 12 _ZN4Json6Reader17skipComm
422:   FUNC GLOBAL DEFAULT 12 _ZN4Json6Reader16recoverF
423:   OBJECT GLOBAL DEFAULT 9 _ZN4Json5Value7maxUIntE
424:   FUNC GLOBAL DEFAULT 12 _ZN4Json5ValueC2ENS_9Valu
425:   FUNC WEAK DEFAULT 12 _ZNKSt3__110__back_refIcE
426:   FUNC WEAK DEFAULT 12 _ZNSt3__112__deque_baseIN
427:   FUNC GLOBAL DEFAULT 12 _ZN4Json5ValueC1ERKNS_12S
428:   FUNC GLOBAL DEFAULT 12 _ZN4Json18StyledStreamWri
429:   OBJECT WEAK DEFAULT 21 _ZTINSt3__115basic_string
430:   FUNC WEAK DEFAULT 12 _ZNKSt3__120__shared_ptr_
431:   FUNC WEAK DEFAULT 12 _ZNKSt3__121__empty_non_o
432:   FUNC WEAK DEFAULT 12 _ZNSt3__111basic_regexIcN
433:   FUNC WEAK DEFAULT 12 _ZNSt3__111basic_regexIcN
434:   FUNC WEAK DEFAULT 12 _ZNSt3__111basic_regexIcN
435:   FUNC GLOBAL DEFAULT 12 _ZN4Json6Reader18addError
436:   FUNC GLOBAL DEFAULT 12 _ZN4Json18StyledStreamWri
437:   FUNC WEAK DEFAULT 12 _ZNSt3__120__shared_ptr_p
438:   OBJECT WEAK DEFAULT 9 _ZTSNSt3__115__has_one_st
439:   OBJECT WEAK DEFAULT 9 _ZTS13ProfileAction
440:   FUNC GLOBAL DEFAULT 12 _ZNK4Json5ValuentEv
441:   OBJECT WEAK DEFAULT 21 _ZTVNSt3__119basic_ostrin
442:   FUNC WEAK DEFAULT 12 _ZNSt3__111basic_regexIcN
443:   FUNC WEAK DEFAULT 12 _ZNSt3__111basic_regexIcN
444:   FUNC GLOBAL DEFAULT 12 _ZN4Json13ValueIteratorC2
445:   FUNC GLOBAL DEFAULT 12 _ZN4Json12StyledWriter18h
446:   FUNC GLOBAL DEFAULT 12 _ZN4Json18StyledStreamWri
447:   OBJECT GLOBAL DEFAULT 21 _ZTVN4Json10FastWriterE
448:   FUNC WEAK DEFAULT 12 _ZNKSt3__111__alternateIc
449:   FUNC WEAK DEFAULT 12 _ZNSt3__118__match_char_i
450:   FUNC WEAK DEFAULT 12 _ZNSt3__123__match_any_bu
451:   OBJECT WEAK DEFAULT 21 _ZTINSt3__123__match_any_
452:   FUNC WEAK DEFAULT 12 _ZNSt3__16vectorIN4Json6R
453:   FUNC GLOBAL DEFAULT 12 _ZN4Json5Value8CZStringD2
454:   FUNC GLOBAL DEFAULT 12 _ZN4Json12StyledWriter8un
455:   FUNC WEAK DEFAULT 12 _ZNKSt3__120__bracket_exp
456:   OBJECT WEAK DEFAULT 21 _ZTVNSt3__110__r_anchorIc
457:   FUNC GLOBAL DEFAULT 12 _ZNK4Json5Value7asInt64Ev
458:   OBJECT WEAK DEFAULT 9 _ZTSNSt3__120__shared_ptr
459:   FUNC WEAK DEFAULT 12 _ZN15SetClampsActionD0Ev
460:   FUNC GLOBAL DEFAULT 12 _ZN4Json5ValueC2ERKNSt3__
461:   FUNC GLOBAL DEFAULT 12 _ZNK4Json5Value10hasComme
462:   FUNC WEAK DEFAULT 12 _ZNSt3__16__treeINS_12__v
463:   FUNC WEAK DEFAULT 12 _ZNSt3__118__back_ref_col
464:   OBJECT WEAK DEFAULT 9 _ZTSNSt3__110__l_anchorIc
465:   OBJECT WEAK DEFAULT 9 _ZTSNSt3__112__match_char
466:   OBJECT WEAK DEFAULT 21 _ZTVNSt3__111__match_anyI
467:   OBJECT WEAK DEFAULT 21 _ZTVNSt3__120__shared_ptr
468:   FUNC GLOBAL DEFAULT 12 _ZNK18SetAttributeAction1
469:   FUNC GLOBAL DEFAULT 12 _ZNK4Json6Reader19getStru
470:   FUNC GLOBAL DEFAULT 12 _ZN4Json12PathArgumentC1E
471:   OBJECT WEAK DEFAULT 21 _ZTINSt3__120__shared_ptr
472:   FUNC GLOBAL DEFAULT 12 _ZN4Json17ValueIteratorBa
473:   FUNC GLOBAL DEFAULT 12 _ZNK4Json5Value8CZStringl
474:   FUNC WEAK DEFAULT 12 _ZNKSt3__111basic_regexIc
475:   FUNC GLOBAL DEFAULT 12 _ZN4Json6Reader9readValue
476:   FUNC GLOBAL DEFAULT 12 _ZNK4Json5Value12asLarges
477:   FUNC GLOBAL DEFAULT 12 _ZNK4Json5Value9isNumeric
478:   FUNC WEAK DEFAULT 12 _ZNSt3__115basic_stringbu
479:   OBJECT WEAK DEFAULT 21 _ZTINSt3__110__l_anchorIc
480:   OBJECT WEAK DEFAULT 21 _ZTINSt3__112__match_char
481:   FUNC GLOBAL DEFAULT 12 get_sched_policy
482:   FUNC GLOBAL DEFAULT 12 _ZN4Json13ValueIteratorC1
483:   FUNC WEAK DEFAULT 12 _ZNSt3__120__bracket_expr
484:   FUNC WEAK DEFAULT 12 _ZNSt3__128__begin_marked
485:   FUNC GLOBAL DEFAULT 12 _ZN4Json6Reader10addComme
486:   FUNC GLOBAL DEFAULT 12 _ZNK4Json5Value8CZString5
487:   FUNC GLOBAL DEFAULT 12 _ZN4Json18StyledStreamWri
488:   FUNC GLOBAL DEFAULT 12 _ZN9CgroupMap11GetInstanc
489:   FUNC GLOBAL DEFAULT 12 _ZNK12TaskProfiles12GetAt
490:   FUNC WEAK DEFAULT 12 _ZNSt3__114__split_buffer
491:   FUNC WEAK DEFAULT 12 _ZNKSt3__111basic_regexIc
492:   FUNC WEAK DEFAULT 12 _ZNSt3__15dequeINS_7__sta
493:   FUNC GLOBAL DEFAULT 12 _ZN9CgroupMapC1Ev
494:   FUNC WEAK DEFAULT 12 _ZNSt3__114__split_buffer
495:   FUNC GLOBAL DEFAULT 12 _ZN4Json5Value8CZString4s
496:   FUNC WEAK DEFAULT 12 _ZNKSt3__110__r_anchorIcE
497:   FUNC WEAK DEFAULT 12 _ZNSt3__112__deque_baseIN
498:   FUNC WEAK DEFAULT 12 _ZNSt3__114regex_iterator
499:   OBJECT WEAK DEFAULT 21 _ZTINSt3__111__match_anyI
500:   FUNC WEAK DEFAULT 12 _ZNSt3__16vectorINS_9sub_
501:   OBJECT GLOBAL DEFAULT 21 _ZTV15SetClampsAction
502:   FUNC WEAK DEFAULT 12 _ZNSt3__114__split_buffer
503:   FUNC WEAK DEFAULT 12 _ZNSt3__15dequeIPN4Json5V
504:   FUNC WEAK DEFAULT 12 _ZNKSt3__111basic_regexIc
505:   FUNC WEAK DEFAULT 12 _ZNSt3__112__match_charIc
506:   FUNC GLOBAL DEFAULT 12 _ZN4Json5ValueC1Eb
507:   FUNC GLOBAL DEFAULT 12 _ZN4Json5Value5beginEv
508:   FUNC GLOBAL DEFAULT 12 _ZNK4Json5Value8isStringE
509:   FUNC GLOBAL DEFAULT 12 _ZNK4Json5Value8isUInt64E
510:   OBJECT WEAK DEFAULT 9 _ZTSNSt3__116__back_ref_i
511:   FUNC GLOBAL DEFAULT 12 _ZN4Json12PathArgumentC1E
512:   FUNC GLOBAL DEFAULT 12 _ZN4Json12PathArgumentC1E
513:   FUNC WEAK DEFAULT 12 _ZNSt3__16__treeINS_12__v
514:   FUNC GLOBAL DEFAULT 12 _ZN4Json5ValueC1Ed
515:   FUNC WEAK DEFAULT 12 _ZNSt3__114__split_buffer
516:   FUNC GLOBAL DEFAULT 12 _ZN4Json12PathArgumentC1E
517:   OBJECT GLOBAL DEFAULT 21 _ZTIN4Json12StyledWriterE
518:   FUNC GLOBAL DEFAULT 12 _ZNK4Json5Value8isMemberE
519:   FUNC WEAK DEFAULT 12 _ZNSt3__120__match_char_c
520:   OBJECT WEAK DEFAULT 21 _ZTINSt3__120__match_char
521:   FUNC GLOBAL DEFAULT 12 createProcessGroup
522:   FUNC GLOBAL DEFAULT 12 _ZN4Json13ValueIteratoraS
523:   FUNC GLOBAL DEFAULT 12 _ZN4Json18StyledStreamWri
524:   FUNC GLOBAL DEFAULT 12 _ZN4Json18StyledStreamWri
525:   FUNC WEAK DEFAULT 12 _ZNSt3__115basic_stringbu
526:   FUNC GLOBAL DEFAULT 12 _ZNK4Json5Value10getComme
527:   FUNC GLOBAL DEFAULT 12 _ZNK4Json5Value3getERKNSt
528:   FUNC GLOBAL DEFAULT 12 _ZNK4Json5Value6isUIntEv
529:   FUNC WEAK DEFAULT 12 _ZNSt3__119basic_ostrings
530:   FUNC WEAK DEFAULT 12 _ZNSt3__111__end_stateIcE
531:   FUNC WEAK DEFAULT 12 _ZNSt3__16vectorINS_4pair
532:   OBJECT WEAK DEFAULT 21 _ZTVNSt3__113__empty_stat
533:   FUNC WEAK DEFAULT 12 _ZNSt3__114__split_buffer
534:   FUNC GLOBAL DEFAULT 12 _ZN4Json6Reader12decodeNu
535:   FUNC GLOBAL DEFAULT 12 _ZN4Json6Reader19readCppS
536:   FUNC WEAK DEFAULT 12 _ZNSt3__15dequeIN4Json6Re
537:   FUNC GLOBAL DEFAULT 12 _ZN4Json5ValueC1Ei
538:   FUNC GLOBAL DEFAULT 12 _ZN4Json6WriterD2Ev
539:   FUNC GLOBAL DEFAULT 12 _ZNK4Json4Path7resolveERK
540:   FUNC WEAK DEFAULT 12 _ZN4Json10FastWriterD0Ev
541:   OBJECT WEAK DEFAULT 21 _ZTVNSt3__16__loopIcEE
542:   FUNC GLOBAL DEFAULT 12 _ZN4Json6Reader10readNumb
543:   FUNC GLOBAL DEFAULT 12 _ZN4Json5ValueC1Ej
544:   FUNC GLOBAL DEFAULT 12 _ZNK4Json17ValueIteratorB
545:   FUNC GLOBAL DEFAULT 12 _ZNK4Json5Value6isBoolEv
546:   FUNC WEAK DEFAULT 12 _ZNSt3__16__treeINS_12__v
547:   FUNC WEAK DEFAULT 12 _ZNSt3__16__treeINS_12__v
548:   FUNC WEAK DEFAULT 12 _ZNKSt3__111__alternateIc
549:   OBJECT WEAK DEFAULT 9 _ZTSNSt3__16__loopIcEE
550:   FUNC GLOBAL DEFAULT 12 _ZN12TaskProfilesC2Ev
551:   FUNC GLOBAL DEFAULT 12 _ZNK4Json5Value8asUInt64E
552:   FUNC GLOBAL DEFAULT 12 _ZN4Json12StyledWriter12n
553:   OBJECT GLOBAL DEFAULT 21 _ZTIN4Json10FastWriterE
554:   FUNC WEAK DEFAULT 12 _ZNSt3__114__split_buffer
555:   OBJECT WEAK DEFAULT 21 _ZTINSt3__117__owns_two_s
556:   OBJECT WEAK DEFAULT 21 _ZTINSt3__128__begin_mark
557:   FUNC WEAK DEFAULT 12 _ZN13ProfileAction21Enabl
558:   FUNC WEAK DEFAULT 12 _ZN18SetAttributeActionD0
559:   FUNC WEAK DEFAULT 12 _ZNSt3__111basic_regexIcN
560:   OBJECT WEAK DEFAULT 9 _ZTSNSt3__114default_dele
561:   OBJECT WEAK DEFAULT 9 _ZTSNSt3__118__match_char
562:   FUNC GLOBAL DEFAULT 12 _ZN15SetCgroupAction21Ena
563:   FUNC GLOBAL DEFAULT 12 _ZN4Json8Features3allEv
564:   FUNC GLOBAL DEFAULT 12 _ZN4Json18StyledStreamWri
565:   FUNC WEAK DEFAULT 12 _ZNKSt3__113match_results
566:   FUNC GLOBAL DEFAULT 12 _ZN4Json6Reader8addErrorE
567:   FUNC GLOBAL DEFAULT 12 _ZN4Json5ValueC2EPKc
568:   OBJECT WEAK DEFAULT 9 _ZTSNSt3__117__owns_two_s
569:   FUNC GLOBAL DEFAULT 12 _ZNK4Json5Value8asStringE
570:   FUNC GLOBAL DEFAULT 12 _ZN4Json6Reader11readComm
571:   FUNC WEAK DEFAULT 12 _ZNKSt3__112__match_charI
572:   FUNC WEAK DEFAULT 12 _ZNSt3__111__alternateIcE
573:   OBJECT WEAK DEFAULT 21 _ZTINSt3__120__bracket_ex
574:   OBJECT WEAK DEFAULT 9 _ZTSNSt3__116__owns_one_s
575:   FUNC WEAK DEFAULT 12 _ZN15SetCgroupActionD0Ev
576:   FUNC GLOBAL DEFAULT 12 _ZNK4Json17ValueIteratorB
577:   FUNC GLOBAL DEFAULT 12 _ZN4Json13ValueIteratorC1
578:   FUNC GLOBAL DEFAULT 12 _ZN4Json5Value3endEv
579:   FUNC GLOBAL DEFAULT 12 _ZN4Json5Value8CZStringaS
580:   OBJECT WEAK DEFAULT 21 _ZTINSt3__16__loopIcEE
581:   OBJECT GLOBAL DEFAULT 21 _ZTV15SetCgroupAction
582:   FUNC GLOBAL DEFAULT 12 _ZN4Json8Features10strict
583:   FUNC GLOBAL DEFAULT 12 _ZNK4Json5Value10isIntegr
584:   FUNC WEAK DEFAULT 12 _ZNSt3__117__owns_two_sta
585:   OBJECT WEAK DEFAULT 21 _ZTINSt3__111__lookaheadI
586:   FUNC GLOBAL DEFAULT 12 _ZN4Json5ValueD1Ev
587:   FUNC GLOBAL DEFAULT 12 _ZN4Json6Reader12decodeDo
588:   FUNC GLOBAL DEFAULT 12 _ZN4Json13ValueIteratorC1
589:   FUNC GLOBAL DEFAULT 12 _ZNK4Json5Value13asLarges
590:   FUNC WEAK DEFAULT 12 _ZNSt3__113__empty_stateI
591:   FUNC GLOBAL DEFAULT 12 _ZN4Json4PathC2ERKNSt3__1
592:   FUNC GLOBAL DEFAULT 12 _ZN4Json5Value9initBasicE
593:   FUNC WEAK DEFAULT 12 _ZNSt3__111basic_regexIcN
594:   FUNC GLOBAL DEFAULT 12 _ZN4Json5Value10setCommen
595:   FUNC GLOBAL DEFAULT 12 _ZN4Json6Reader9pushError
596:   FUNC GLOBAL DEFAULT 12 _ZN4Json17ValueIteratorBa
597:   FUNC GLOBAL DEFAULT 12 _ZN4Json4PathC1ERKNSt3__1
598:   FUNC WEAK DEFAULT 12 _ZN4Json12StyledWriterD0E
599:   OBJECT WEAK DEFAULT 21 _ZTVNSt3__110__back_refIc
600:   FUNC GLOBAL DEFAULT 12 _ZN4Json5ValueC1Ex
601:   FUNC GLOBAL DEFAULT 12 _ZN4Json12PathArgumentC2E
602:   FUNC GLOBAL DEFAULT 12 _ZN4Json5Value8CZStringC1
603:   FUNC GLOBAL DEFAULT 12 _ZNK15SetClampsAction14Ex
604:   FUNC GLOBAL DEFAULT 12 _ZN4Json5ValueC1Ey
605:   FUNC GLOBAL DEFAULT 12 _ZN4Json5Value8CZStringC2
606:   FUNC WEAK DEFAULT 12 _ZNKSt3__128__begin_marke
607:   FUNC WEAK DEFAULT 12 _ZNSt3__113match_resultsI
608:   FUNC GLOBAL DEFAULT 12 _ZN4Json17ValueIteratorBa
609:   FUNC GLOBAL DEFAULT 12 _ZN4Json5Value6appendERKS
610:   OBJECT WEAK DEFAULT 21 _ZTI19SetTimerSlackAction
611:   FUNC GLOBAL DEFAULT 12 _ZNK4Json5Value7isArrayEv
612:   FUNC GLOBAL DEFAULT 12 _ZN4Json13ValueIteratorC2
613:   FUNC WEAK DEFAULT 12 _ZNSt3__110__l_anchorIcED
614:   FUNC WEAK DEFAULT 12 _ZNSt3__16vectorINS_12bas
615:   FUNC GLOBAL DEFAULT 12 _ZNK4Json5Value8isDoubleE
616:   FUNC GLOBAL DEFAULT 12 _ZN4Json12StyledWriter15w
617:   OBJECT WEAK DEFAULT 9 _ZTSNSt3__128__begin_mark
618:   OBJECT GLOBAL DEFAULT 9 _ZN4Json5Value8maxInt64E
619:   FUNC GLOBAL DEFAULT 12 _ZNK4Json5Value15isConver
620:   FUNC GLOBAL DEFAULT 12 _ZN9CgroupMapC2Ev
621:   OBJECT WEAK DEFAULT 21 _ZTVNSt3__117__repeat_one
622:   OBJECT WEAK DEFAULT 21 _ZTVNSt3__126__end_marked
623:   FUNC WEAK DEFAULT 12 _ZNSt3__120__shared_ptr_p
624:   FUNC WEAK DEFAULT 12 _ZNSt3__16__treeINS_12__v
625:   FUNC GLOBAL DEFAULT 12 _ZN4Json5ValueC2ERKNS_12S
626:   OBJECT WEAK DEFAULT 21 _ZTINSt3__113__empty_stat
627:   OBJECT WEAK DEFAULT 21 _ZTINSt3__115__word_bound
628:   OBJECT WEAK DEFAULT 21 _ZTINSt3__126__end_marked
629:   FUNC GLOBAL DEFAULT 12 _ZN4Json5ValueC2Eb
630:   FUNC GLOBAL DEFAULT 12 _ZNK4Json5Value3getEPKcRK
631:   FUNC GLOBAL DEFAULT 12 _ZNK4Json5Value7isInt64Ev
632:   FUNC WEAK DEFAULT 12 _ZNKSt3__110__l_anchorIcE
633:   FUNC WEAK DEFAULT 12 _ZNSt3__111basic_regexIcN
634:   FUNC GLOBAL DEFAULT 12 _ZN12TaskProfiles11GetIns
635:   FUNC GLOBAL DEFAULT 12 _ZNK4Json5Value6isNullEv
636:   OBJECT WEAK DEFAULT 9 _ZTSNSt3__111__lookaheadI
637:   OBJECT WEAK DEFAULT 21 _ZTVNSt3__116__back_ref_i
638:   FUNC GLOBAL DEFAULT 12 _ZN4Json5ValueaSES0_
639:   FUNC GLOBAL DEFAULT 12 _ZN4Json12PathArgumentC2E
640:   FUNC GLOBAL DEFAULT 12 _ZN4Json18ValueConstItera
641:   FUNC GLOBAL DEFAULT 12 _ZN4Json5ValueC2Ed
642:   FUNC WEAK DEFAULT 12 _ZNSt3__16vectorINS_4pair
643:   FUNC WEAK DEFAULT 12 _ZNKSt3__16__treeINS_12__
644:   FUNC GLOBAL DEFAULT 12 _ZN4Json6Reader12decodeSt
645:   FUNC GLOBAL DEFAULT 12 _ZN4Json5ValueixERKNSt3__
646:   FUNC GLOBAL DEFAULT 12 _ZN4Json6Reader5parseERNS
647:   FUNC GLOBAL DEFAULT 12 _ZNK4Json5Value5emptyEv
648:   FUNC GLOBAL DEFAULT 12 _ZNK4Json5ValueneERKS0_
649:   FUNC WEAK DEFAULT 12 _ZNSt3__16vectorINS_4pair
650:   OBJECT WEAK DEFAULT 21 _ZTVNSt3__110__l_anchorIc
651:   FUNC GLOBAL DEFAULT 12 set_sched_policy
652:   OBJECT GLOBAL DEFAULT 9 _ZN4Json5Value6maxIntE
653:   FUNC GLOBAL DEFAULT 12 _ZNK4Json5Value8asDoubleE
654:   FUNC GLOBAL DEFAULT 12 _ZN4Json6Reader11expectTo
655:   FUNC GLOBAL DEFAULT 12 _ZN4Json6ReaderC1ERKNS_8F
656:   FUNC GLOBAL DEFAULT 12 _ZNK4Json5Value8CZStringe
657:   FUNC GLOBAL DEFAULT 12 _ZN4Json19valueToQuotedSt
658:   OBJECT WEAK DEFAULT 9 _ZTSNSt3__111__match_anyI
659:   FUNC GLOBAL DEFAULT 12 _ZNK16CgroupController16G
660:   FUNC WEAK DEFAULT 12 _ZNSt3__115__word_boundar
661:   OBJECT WEAK DEFAULT 9 _ZTSNSt3__123__match_any_
662:   FUNC GLOBAL DEFAULT 12 _ZN4Json6Reader12decodeNu
663:   FUNC GLOBAL DEFAULT 12 _ZN4Json5Value16resolveRe
664:   FUNC GLOBAL DEFAULT 12 _ZN4Json5ValueC2Ei
665:   FUNC GLOBAL DEFAULT 12 _ZNK4Json5Value3getEjRKS0
666:   FUNC GLOBAL DEFAULT 12 _ZN4Json13valueToStringEb
667:   FUNC WEAK DEFAULT 12 _ZNSt3__113regex_replaceI
668:   FUNC GLOBAL DEFAULT 12 _ZNK16ProfileAttribute14G
669:   FUNC GLOBAL DEFAULT 12 _ZN4Json17ValueIteratorBa
670:   FUNC GLOBAL DEFAULT 12 _ZN4Json5ValueC2Ej
671:   FUNC GLOBAL DEFAULT 12 _ZN4Json10FastWriterC1Ev
672:   FUNC GLOBAL DEFAULT 12 _ZN4Json5ValueC1ENS_9Valu
673:   FUNC GLOBAL DEFAULT 12 _ZNK15SetCgroupAction14Ex
674:   FUNC GLOBAL DEFAULT 12 _ZN4Json13valueToStringEd
675:   FUNC GLOBAL DEFAULT 12 _ZN4Json12StyledWriter9pu
676:   FUNC GLOBAL DEFAULT 12 _ZN4Json18StyledStreamWri
677:   FUNC GLOBAL DEFAULT 12 _ZN4Json18StyledStreamWri
678:   FUNC GLOBAL DEFAULT 12 _ZN16CgroupController8IsU
679:   FUNC WEAK DEFAULT 12 _ZNSt3__110__r_anchorIcED
680:   FUNC GLOBAL DEFAULT 12 _ZN4Json8FeaturesC1Ev
681:   FUNC WEAK DEFAULT 12 _ZNSt3__17getlineIcNS_11c
682:   FUNC WEAK DEFAULT 12 _ZNSt3__111basic_regexIcN
683:   FUNC GLOBAL DEFAULT 12 _ZN4Json6Reader12decodeDo
684:   FUNC GLOBAL DEFAULT 12 _ZN4Json6Reader12decodeSt
685:   FUNC GLOBAL DEFAULT 12 _ZN4Json5ValueC1ERKNSt3__
686:   FUNC GLOBAL DEFAULT 12 _ZNK4Json5Value8isMemberE
687:   FUNC GLOBAL DEFAULT 12 _ZNK4Json5ValueltERKS0_
688:   FUNC GLOBAL DEFAULT 12 _ZNK4Json5ValueixEPKc
689:   OBJECT GLOBAL DEFAULT 21 _ZTV18SetAttributeAction
690:   FUNC WEAK DEFAULT 12 _ZNSt3__114__split_buffer
691:   FUNC GLOBAL DEFAULT 12 _ZN4Json12StyledWriter15w
692:   FUNC GLOBAL DEFAULT 12 _ZN4Json18StyledStreamWri
693:   FUNC GLOBAL DEFAULT 12 _ZNK4Json5Value14getOffse
694:   FUNC GLOBAL DEFAULT 12 _ZN4Json5ValueC1EPKc
695:   FUNC GLOBAL DEFAULT 12 _ZN4Json13valueToStringEi
696:   FUNC GLOBAL DEFAULT 14 _fini
697:   FUNC GLOBAL DEFAULT 12 _ZNK4Json4Path4makeERNS_5
698:   FUNC GLOBAL DEFAULT 12 _ZN4Json13valueToStringEj
699:   FUNC WEAK DEFAULT 12 _ZNSt3__111basic_regexIcN
700:   FUNC GLOBAL DEFAULT 12 _ZN4Json6Reader12currentV
701:   FUNC GLOBAL DEFAULT 12 _ZN4Json10FastWriter10wri
702:   FUNC GLOBAL DEFAULT 12 _ZN4Json10FastWriter18omi
703:   FUNC GLOBAL DEFAULT 12 _ZNK4Json6Reader25getForm
704:   FUNC GLOBAL DEFAULT 12 _ZN4Json6ReaderC2ERKNS_8F
705:   FUNC GLOBAL DEFAULT 12 _ZNK4Json5ValueleERKS0_
706:   FUNC GLOBAL DEFAULT 12 _ZN4Json18StyledStreamWri
707:   OBJECT GLOBAL DEFAULT 9 _ZTSN4Json12StyledWriterE
708:   FUNC GLOBAL DEFAULT 13 _init
709:   OBJECT WEAK DEFAULT 21 _ZTVNSt3__120__match_char
710:   FUNC GLOBAL DEFAULT 12 _ZN4Json4Path12addPathInA
711:   OBJECT GLOBAL DEFAULT 21 _ZTVN4Json12StyledWriterE
712:   FUNC GLOBAL DEFAULT 12 _ZN4Json5ValueD2Ev
713:   FUNC GLOBAL DEFAULT 12 _ZNK9CgroupMap5PrintEv
714:   FUNC WEAK DEFAULT 12 _ZNSt3__117__repeat_one_l
715:   OBJECT WEAK DEFAULT 9 _ZTSNSt3__121__empty_non_
716:   FUNC GLOBAL DEFAULT 12 _ZNK4Json5Value8CZString1
717:   FUNC WEAK DEFAULT 12 _ZNSt3__16__treeINS_12__v
718:   FUNC WEAK DEFAULT 12 _ZNKSt3__116__back_ref_ic
719:   FUNC GLOBAL DEFAULT 12 CgroupGetControllerPath
720:   FUNC GLOBAL DEFAULT 12 _ZN4Json12StyledWriterC1E
721:   FUNC GLOBAL DEFAULT 12 _ZN4Json5ValueC2Ex
722:   FUNC WEAK DEFAULT 12 _ZNSt3__115basic_stringbu
723:   OBJECT WEAK DEFAULT 21 _ZTVNSt3__123__match_any_
724:   FUNC GLOBAL DEFAULT 12 _ZNK4Json5Value4sizeEv
725:   FUNC GLOBAL DEFAULT 12 _ZN4Json5Value11CommentIn
726:   FUNC GLOBAL DEFAULT 12 _ZN4Json5ValueC2Ey
727:   FUNC WEAK DEFAULT 12 _ZNSt3__111basic_regexIcN
728:   FUNC WEAK DEFAULT 12 _ZNSt3__16vectorINS_9sub_
729:   FUNC WEAK DEFAULT 12 _ZN13ProfileActionD2Ev
730:   FUNC GLOBAL DEFAULT 12 _ZN4Json18StyledStreamWri
731:   FUNC WEAK DEFAULT 12 _ZNSt3__111basic_regexIcN
732:   FUNC GLOBAL DEFAULT 12 _ZNK4Json5Value6asUIntEv
733:   FUNC WEAK DEFAULT 12 _ZNSt3__116__back_ref_ica
734:   FUNC GLOBAL DEFAULT 12 _ZN4Json13ValueIteratorC2
735:   FUNC GLOBAL DEFAULT 12 _ZN4Json17ValueIteratorBa
736:   FUNC GLOBAL DEFAULT 12 _ZN4Json6Reader5parseERKN
737:   FUNC WEAK DEFAULT 12 _ZNSt3__116__owns_one_sta
738:   FUNC WEAK DEFAULT 12 _ZNSt3__16vectorIN4Json12
739:   OBJECT GLOBAL DEFAULT 9 _ZTSN4Json10FastWriterE
