 0x0000000e (SONAME)                     Library soname: [liblp.so]
  
Symbol   contains 282 entries:
Num:   Type Bind Vis Ndx Name
0:   NOTYPE LOCAL DEFAULT UND
1:   FUNC GLOBAL DEFAULT UND __cxa_atexit@LIBC (2)
2:   FUNC GLOBAL DEFAULT UND __cxa_finalize@LIBC (2)
3:   FUNC GLOBAL DEFAULT UND _ZN7android4base10LogMess
4:   FUNC GLOBAL DEFAULT UND _ZN7android4base10LogMess
5:   FUNC GLOBAL DEFAULT UND _ZN7android4base10LogMess
6:   FUNC GLOBAL DEFAULT UND _ZN7android4base15GetBool
7:   FUNC GLOBAL DEFAULT UND _ZN7android4base21GetMini
8:   FUNC GLOBAL DEFAULT UND _ZNKSt3__112basic_stringI
9:   FUNC GLOBAL DEFAULT UND _ZNKSt3__120__vector_base
10:   FUNC GLOBAL DEFAULT UND _ZNKSt3__121__basic_strin
11:   FUNC GLOBAL DEFAULT UND _ZNKSt3__16locale9use_fac
12:   FUNC GLOBAL DEFAULT UND _ZNKSt3__18ios_base6getlo
13:   FUNC GLOBAL DEFAULT UND _ZNSt3__112basic_stringIc
14:   FUNC GLOBAL DEFAULT UND _ZNSt3__112basic_stringIc
15:   FUNC GLOBAL DEFAULT UND _ZNSt3__112basic_stringIc
16:   FUNC GLOBAL DEFAULT UND _ZNSt3__112basic_stringIc
17:   FUNC GLOBAL DEFAULT UND _ZNSt3__112basic_stringIc
18:   FUNC GLOBAL DEFAULT UND _ZNSt3__113basic_ostreamI
19:   FUNC GLOBAL DEFAULT UND _ZNSt3__113basic_ostreamI
20:   FUNC GLOBAL DEFAULT UND _ZNSt3__113basic_ostreamI
21:   FUNC GLOBAL DEFAULT UND _ZNSt3__113basic_ostreamI
22:   FUNC GLOBAL DEFAULT UND _ZNSt3__113basic_ostreamI
23:   OBJECT GLOBAL DEFAULT UND _ZNSt3__15ctypeIcE2idE
24:   FUNC GLOBAL DEFAULT UND _ZNSt3__16localeD1Ev
25:   FUNC GLOBAL DEFAULT UND _ZNSt3__18ios_base5clearE
26:   FUNC GLOBAL DEFAULT UND _ZdlPv
27:   FUNC GLOBAL DEFAULT UND _Znwj
28:   FUNC GLOBAL DEFAULT UND __errno@LIBC (2)
29:   FUNC GLOBAL DEFAULT UND __stack_chk_fail@LIBC (2)
30:   OBJECT GLOBAL DEFAULT UND __stack_chk_guard@LIBC (2)
31:   FUNC GLOBAL DEFAULT UND abort@LIBC (2)
32:   FUNC GLOBAL DEFAULT UND memcmp@LIBC (2)
33:   FUNC GLOBAL DEFAULT UND strlen@LIBC (2)
34:   FUNC GLOBAL DEFAULT UND strncpy@LIBC (2)
35:   FUNC GLOBAL DEFAULT UND _ZN13TemporaryFile7releas
36:   FUNC GLOBAL DEFAULT UND _ZN13TemporaryFileC1Ev
37:   FUNC GLOBAL DEFAULT UND _ZN13TemporaryFileD1Ev
38:   FUNC GLOBAL DEFAULT UND _ZN7android4base10WriteFu
39:   FUNC GLOBAL DEFAULT UND _ZN7android4base9ReadFull
40:   FUNC GLOBAL DEFAULT UND _ZNSt3__112basic_stringIc
41:   FUNC GLOBAL DEFAULT UND _ZNSt3__112basic_stringIc
42:   FUNC GLOBAL DEFAULT UND _ZNSt3__1plIcNS_11char_tr
43:   FUNC GLOBAL DEFAULT UND _ZdaPv
44:   FUNC GLOBAL DEFAULT UND _Znaj
45:   FUNC WEAK DEFAULT UND android_fdsan_close_with_@LIBC_Q (3)
46:   FUNC WEAK DEFAULT UND android_fdsan_create_owne@LIBC_Q (3)
47:   FUNC WEAK DEFAULT UND android_fdsan_exchange_ow@LIBC_Q (3)
48:   FUNC GLOBAL DEFAULT UND close@LIBC (2)
49:   FUNC GLOBAL DEFAULT UND open@LIBC (2)
50:   FUNC GLOBAL DEFAULT UND sparse_file_add_data
51:   FUNC GLOBAL DEFAULT UND sparse_file_add_fd
52:   FUNC GLOBAL DEFAULT UND sparse_file_add_fill
53:   FUNC GLOBAL DEFAULT UND sparse_file_destroy
54:   FUNC GLOBAL DEFAULT UND sparse_file_import
55:   FUNC GLOBAL DEFAULT UND sparse_file_new
56:   FUNC GLOBAL DEFAULT UND sparse_file_write
57:   FUNC GLOBAL DEFAULT UND _ZN7android4base8Basename
58:   FUNC GLOBAL DEFAULT UND ioctl@LIBC (2)
59:   FUNC GLOBAL DEFAULT UND _ZNSt3__113basic_ostreamI
60:   OBJECT GLOBAL DEFAULT UND _ZSt7nothrow
61:   FUNC GLOBAL DEFAULT UND _ZnajRKSt9nothrow_t
62:   FUNC GLOBAL DEFAULT UND SHA256_Final
63:   FUNC GLOBAL DEFAULT UND SHA256_Init
64:   FUNC GLOBAL DEFAULT UND SHA256_Update
65:   FUNC GLOBAL DEFAULT UND __open_2@LIBC (2)
66:   FUNC GLOBAL DEFAULT UND android_get_control_file
67:   FUNC GLOBAL DEFAULT UND dup@LIBC (2)
68:   FUNC GLOBAL DEFAULT UND fstat@LIBC (2)
69:   FUNC GLOBAL DEFAULT UND get_block_device_size
70:   FUNC GLOBAL DEFAULT UND lseek64@LIBC (2)
71:   FUNC WEAK DEFAULT UND android_set_abort_message@LIBC (2)
72:   FUNC GLOBAL DEFAULT UND write@LIBC (2)
73:   FUNC GLOBAL DEFAULT UND memcpy@LIBC (2)
74:   FUNC GLOBAL DEFAULT UND memmove@LIBC (2)
75:   FUNC GLOBAL DEFAULT UND memset@LIBC (2)
76:   FUNC GLOBAL DEFAULT 14 _ZN7android6fs_mgr15Metad
77:   FUNC GLOBAL DEFAULT 14 _ZN7android6fs_mgr15Metad
78:   FUNC WEAK DEFAULT 14 _ZNSt3__16vectorI24LpMeta
79:   FUNC GLOBAL DEFAULT 14 __aeabi_memclr8
80:   FUNC GLOBAL DEFAULT 14 __aeabi_memcpy
81:   FUNC GLOBAL DEFAULT 14 __aeabi_memmove
82:   FUNC GLOBAL DEFAULT 14 _ZN7android6fs_mgr19Flash
83:   FUNC GLOBAL DEFAULT 14 _ZN7android6fs_mgr15Metad
84:   FUNC GLOBAL DEFAULT 14 _ZN7android6fs_mgr15Metad
85:   FUNC GLOBAL DEFAULT 14 _ZN7android6fs_mgr19ReadP
86:   FUNC GLOBAL DEFAULT 14 _ZN7android6fs_mgr6SHA256
87:   FUNC GLOBAL DEFAULT 14 __udivsi3
88:   FUNC GLOBAL DEFAULT 14 _ZN7android6fs_mgr15Metad
89:   FUNC GLOBAL DEFAULT 14 __aeabi_uidivmod
90:   FUNC GLOBAL DEFAULT 14 _ZN7android6fs_mgr24GetPr
91:   FUNC WEAK DEFAULT 14 _ZNSt3__16vectorIN7androi
92:   FUNC WEAK DEFAULT 14 _ZNSt3__16__treeINS_12__v
93:   FUNC GLOBAL DEFAULT 14 __aeabi_uldivmod
94:   FUNC WEAK DEFAULT 14 _ZNSt3__16__treeINS_12__v
95:   FUNC GLOBAL DEFAULT 14 _ZN7android6fs_mgr9Partit
96:   FUNC GLOBAL DEFAULT 14 _ZNK7android6fs_mgr15Meta
97:   FUNC GLOBAL DEFAULT 14 __aeabi_memset4
98:   OBJECT GLOBAL DEFAULT 23 _ZN7android6fs_mgr15Metad
99:   FUNC GLOBAL DEFAULT 14 _ZNK7android6fs_mgr15Meta
100:   FUNC WEAK DEFAULT 14 _ZNSt3__110__function6__f
101:   FUNC GLOBAL DEFAULT 14 _ZN7android6fs_mgr12ReadM
102:   FUNC GLOBAL DEFAULT 14 _ZN7android6fs_mgr15Metad
103:   FUNC GLOBAL DEFAULT 14 _ZNK7android6fs_mgr15Meta
104:   FUNC WEAK DEFAULT 14 _ZNSt3__16vectorIN7androi
105:   FUNC GLOBAL DEFAULT 14 _ZN7android6fs_mgr16Write
106:   FUNC GLOBAL DEFAULT 14 _ZN7android6fs_mgr23GetBa
107:   FUNC GLOBAL DEFAULT 14 _ZN7android6fs_mgr19Flash
108:   FUNC WEAK DEFAULT 14 _ZNSt3__110__function6__f
109:   FUNC GLOBAL DEFAULT 14 __aeabi_uidiv
110:   FUNC GLOBAL DEFAULT 14 __udivmoddi4
111:   FUNC GLOBAL DEFAULT 14 _ZN7android6fs_mgr15Metad
112:   FUNC GLOBAL DEFAULT 14 _ZNK7android6fs_mgr12Line
113:   FUNC GLOBAL DEFAULT 14 _ZNK7android6fs_mgr9Parti
114:   FUNC GLOBAL DEFAULT 14 _ZN7android6fs_mgr17Seria
115:   FUNC GLOBAL DEFAULT 14 _ZN7android6fs_mgr20Write
116:   FUNC GLOBAL DEFAULT 14 __aeabi_ldivmod
117:   FUNC GLOBAL DEFAULT 14 _ZN7android6fs_mgr15Metad
118:   FUNC GLOBAL DEFAULT 14 _ZN7android6fs_mgr20Updat
119:   FUNC WEAK DEFAULT 14 _ZNKSt3__110__function6__
120:   FUNC GLOBAL DEFAULT 14 __aeabi_memset8
121:   FUNC GLOBAL DEFAULT 14 _ZN7android6fs_mgr15Metad
122:   FUNC GLOBAL DEFAULT 14 _ZN7android6fs_mgr23SlotS
123:   FUNC WEAK DEFAULT 14 _ZNSt3__16vectorINS_12bas
124:   FUNC GLOBAL DEFAULT 14 _ZN7android6fs_mgr15Metad
125:   FUNC GLOBAL DEFAULT 14 _ZNK7android6fs_mgr15Meta
126:   FUNC GLOBAL DEFAULT 14 _ZNK7android6fs_mgr15Meta
127:   FUNC GLOBAL DEFAULT 14 _ZN7android6fs_mgr10SeekF
128:   FUNC WEAK DEFAULT 14 _ZNSt3__16__sortIRNS_6__l
129:   FUNC WEAK DEFAULT 14 _ZNSt3__16vectorIN7androi
130:   FUNC GLOBAL DEFAULT 14 _ZN7android6fs_mgr18ReadB
131:   FUNC GLOBAL DEFAULT 14 _ZN7android6fs_mgr24Updat
132:   FUNC WEAK DEFAULT 14 _ZNSt3__127__insertion_so
133:   FUNC WEAK DEFAULT 14 _ZNSt3__16vectorI21LpMeta
134:   FUNC WEAK DEFAULT 14 _ZNSt3__16vectorI21LpMeta
135:   FUNC WEAK DEFAULT 14 _ZNSt3__16__treeINS_12__v
136:   FUNC WEAK DEFAULT 14 _ZNSt3__16__treeINS_12__v
137:   FUNC GLOBAL DEFAULT 14 __aeabi_memclr
138:   FUNC WEAK DEFAULT 14 _ZNSt3__16vectorIN7androi
139:   FUNC GLOBAL DEFAULT 14 _ZN7android6fs_mgr15Metad
140:   FUNC GLOBAL DEFAULT 14 _ZN7android6fs_mgr24GetPr
141:   FUNC GLOBAL DEFAULT 14 _ZN7android6fs_mgr15Metad
142:   FUNC GLOBAL DEFAULT 14 _ZNK7android6fs_mgr15Meta
143:   OBJECT GLOBAL DEFAULT 18 _ZTVN7android6fs_mgr12Lin
144:   FUNC WEAK DEFAULT 14 _ZNSt3__17__sort4IRNS_6__
145:   FUNC GLOBAL DEFAULT 14 _ZN7android6fs_mgr20Updat
146:   FUNC GLOBAL DEFAULT 14 _ZN7android6fs_mgr15Metad
147:   FUNC GLOBAL DEFAULT 14 _ZN7android6fs_mgr9Partit
148:   FUNC GLOBAL DEFAULT 14 _ZN7android6fs_mgr12Image
149:   FUNC GLOBAL DEFAULT 14 _ZN7android6fs_mgr15Metad
150:   FUNC GLOBAL DEFAULT 14 _ZN7android6fs_mgr15Metad
151:   FUNC GLOBAL DEFAULT 14 _ZN7android6fs_mgr20GetTo
152:   FUNC WEAK DEFAULT 14 _ZNKSt3__16__treeINS_12ba
153:   FUNC GLOBAL DEFAULT 14 _ZN7android6fs_mgr12Image
154:   FUNC GLOBAL DEFAULT 14 _ZN7android6fs_mgr12Image
155:   FUNC GLOBAL DEFAULT 14 _ZN7android6fs_mgr12Image
156:   FUNC GLOBAL DEFAULT 14 _ZN7android6fs_mgr16Write
157:   FUNC WEAK DEFAULT 14 _ZNSt3__113__tree_removeI
158:   OBJECT WEAK DEFAULT 18 _ZTVN7android6fs_mgr10Fil
159:   FUNC WEAK DEFAULT 14 _ZNSt3__110__function6__f
160:   OBJECT WEAK DEFAULT 18 _ZTVNSt3__110__function6_
161:   FUNC GLOBAL DEFAULT 14 __divmoddi4
162:   FUNC GLOBAL DEFAULT 14 _ZN7android6fs_mgr15Metad
163:   FUNC GLOBAL DEFAULT 14 _ZN7android6fs_mgr17Seria
164:   FUNC GLOBAL DEFAULT 14 _ZN7android6fs_mgr18ReadB
165:   FUNC GLOBAL DEFAULT 14 _ZNK7android6fs_mgr15Meta
166:   FUNC WEAK DEFAULT 14 _ZNSt3__113__vector_baseI
167:   FUNC WEAK DEFAULT 14 _ZNSt3__16vectorI21LpMeta
168:   FUNC GLOBAL DEFAULT 14 __aeabi_memset
169:   FUNC GLOBAL DEFAULT 14 __udivmodsi4
170:   FUNC GLOBAL DEFAULT 14 _ZN7android6fs_mgr15Metad
171:   FUNC GLOBAL DEFAULT 14 _ZNK7android6fs_mgr15Meta
172:   FUNC GLOBAL DEFAULT 14 _ZNK7android6fs_mgr15Meta
173:   FUNC GLOBAL DEFAULT 14 _ZN7android6fs_mgr12Image
174:   FUNC WEAK DEFAULT 14 _ZNKSt3__110__function6__
175:   FUNC WEAK DEFAULT 14 _ZNSt3__16vectorI16LpMeta
176:   OBJECT GLOBAL DEFAULT 23 _ZN7android6fs_mgr15Metad
177:   FUNC WEAK DEFAULT 14 _ZNSt3__16vectorIN7androi
178:   FUNC WEAK DEFAULT 14 _ZNSt3__16vectorINS_10uni
179:   FUNC GLOBAL DEFAULT 14 _ZNK7android6fs_mgr15Part
180:   FUNC GLOBAL DEFAULT 14 _ZN7android6fs_mgr19ReadP
181:   FUNC GLOBAL DEFAULT 14 _ZN7android6fs_mgr20Updat
182:   FUNC GLOBAL DEFAULT 14 _ZN7android6fs_mgr15Metad
183:   FUNC GLOBAL DEFAULT 14 _ZN7android6fs_mgr9Partit
184:   FUNC WEAK DEFAULT 14 _ZNSt3__16vectorI16LpMeta
185:   FUNC GLOBAL DEFAULT 14 _ZNK7android6fs_mgr12Imag
186:   FUNC GLOBAL DEFAULT 14 __mulodi4
187:   FUNC GLOBAL DEFAULT 14 __aeabi_memmove4
188:   FUNC GLOBAL DEFAULT 14 _ZN7android6fs_mgr16GetPa
189:   FUNC WEAK DEFAULT 14 _ZNSt3__16vectorI21LpMeta
190:   FUNC GLOBAL DEFAULT 14 _ZN7android6fs_mgr12Image
191:   FUNC GLOBAL DEFAULT 14 _ZN7android6fs_mgr12Image
192:   FUNC WEAK DEFAULT 14 _ZNSt3__1plIcNS_11char_tr
193:   FUNC GLOBAL DEFAULT 14 _ZN7android6fs_mgr15Metad
194:   FUNC GLOBAL DEFAULT 14 _ZN7android6fs_mgr22GetPa
195:   FUNC WEAK DEFAULT 14 _ZNSt3__16vectorINS_10uni
196:   FUNC WEAK DEFAULT 14 _ZNSt3__16vectorI21LpMeta
197:   FUNC GLOBAL DEFAULT 14 _ZN7android6fs_mgr15Metad
198:   OBJECT GLOBAL DEFAULT 18 _ZTVN7android6fs_mgr15Par
199:   FUNC GLOBAL DEFAULT 14 _ZN7android6fs_mgr20GetCo
200:   FUNC GLOBAL DEFAULT 14 _ZN7android6fs_mgr9Partit
201:   OBJECT GLOBAL DEFAULT 18 _ZTVN7android6fs_mgr10Zer
202:   FUNC GLOBAL DEFAULT 14 _ZN7android6fs_mgr12Image
203:   OBJECT WEAK DEFAULT 18 _ZTVN7android6fs_mgr12Mem
204:   FUNC WEAK DEFAULT 14 _ZNSt3__16vectorI24LpMeta
205:   FUNC GLOBAL DEFAULT 14 __aeabi_memmove8
206:   FUNC WEAK DEFAULT 14 _ZNSt3__16__treeINS_12__v
207:   FUNC WEAK DEFAULT 14 _ZNSt3__16vectorI19LpMeta
208:   FUNC WEAK DEFAULT 14 _ZNSt3__16vectorI21LpMeta
209:   FUNC WEAK DEFAULT 14 _ZNSt3__16vectorIN7androi
210:   FUNC GLOBAL DEFAULT 14 _ZN7android6fs_mgr13Parse
211:   FUNC GLOBAL DEFAULT 14 _ZN7android6fs_mgr15Metad
212:   FUNC GLOBAL DEFAULT 14 _ZNK7android6fs_mgr15Meta
213:   FUNC GLOBAL DEFAULT 14 _ZN7android6fs_mgr26GetTo
214:   FUNC WEAK DEFAULT 14 _ZNSt3__16vectorIN7androi
215:   FUNC GLOBAL DEFAULT 14 _ZN7android6fs_mgr23SlotN
216:   FUNC GLOBAL DEFAULT 14 _ZN7android6fs_mgr21GetPa
217:   FUNC WEAK DEFAULT 14 _ZNSt3__16vectorINS_10uni
218:   FUNC GLOBAL DEFAULT 14 _ZN7android6fs_mgr13Parse
219:   FUNC WEAK DEFAULT 14 _ZNSt3__114__split_buffer
220:   FUNC WEAK DEFAULT 14 _ZNSt3__16__treeINS_12__v
221:   FUNC GLOBAL DEFAULT 14 _ZN7android6fs_mgr23GetBa
222:   FUNC GLOBAL DEFAULT 14 _ZN7android6fs_mgr15Metad
223:   FUNC GLOBAL DEFAULT 14 _ZN7android6fs_mgr17ReadF
224:   FUNC GLOBAL DEFAULT 14 _ZNK7android6fs_mgr12Imag
225:   FUNC GLOBAL DEFAULT 14 _ZN7android6fs_mgr28GetBl
226:   FUNC WEAK DEFAULT 14 _ZNSt3__16vectorIN7androi
227:   FUNC WEAK DEFAULT 14 _ZNSt3__16vectorINS_10uni
228:   FUNC WEAK DEFAULT 14 _ZNSt3__16vectorINS_10uni
229:   FUNC GLOBAL DEFAULT 14 _ZNK7android6fs_mgr15Part
230:   FUNC WEAK DEFAULT 14 _ZNSt3__16vectorI19LpMeta
231:   FUNC GLOBAL DEFAULT 14 _ZN7android6fs_mgr15Metad
232:   FUNC GLOBAL DEFAULT 14 _ZN7android6fs_mgr27GetMe
233:   FUNC GLOBAL DEFAULT 14 _ZN7android6fs_mgr13Parse
234:   FUNC GLOBAL DEFAULT 14 _ZN7android6fs_mgr12ReadM
235:   FUNC WEAK DEFAULT 14 _ZNSt3__16vectorI21LpMeta
236:   FUNC GLOBAL DEFAULT 14 _ZN7android6fs_mgr30Updat
237:   FUNC WEAK DEFAULT 14 _ZNSt3__16__treeINS_12__v
238:   FUNC GLOBAL DEFAULT 14 _ZNK7android6fs_mgr10Zero
239:   FUNC GLOBAL DEFAULT 14 __divdi3
240:   FUNC WEAK DEFAULT 14 _ZNSt3__127__tree_balance
241:   FUNC GLOBAL DEFAULT 14 _ZN7android6fs_mgr15Metad
242:   FUNC GLOBAL DEFAULT 14 _ZN7android6fs_mgr15Metad
243:   FUNC WEAK DEFAULT 14 _ZNSt3__16vectorIN7androi
244:   FUNC GLOBAL DEFAULT 14 _ZN7android6fs_mgr17ReadF
245:   FUNC GLOBAL DEFAULT 14 _ZN7android6fs_mgr15Metad
246:   FUNC GLOBAL DEFAULT 14 _ZN7android6fs_mgr9Partit
247:   FUNC GLOBAL DEFAULT 14 _ZNK7android6fs_mgr15Meta
248:   FUNC GLOBAL DEFAULT 14 _ZN7android6fs_mgr16SetBl
249:   FUNC GLOBAL DEFAULT 14 _ZN7android6fs_mgr15Metad
250:   FUNC GLOBAL DEFAULT 14 _ZN7android6fs_mgr15Metad
251:   FUNC GLOBAL DEFAULT 14 _ZNK7android6fs_mgr15Meta
252:   FUNC GLOBAL DEFAULT 14 _ZN7android6fs_mgr17ReadF
253:   FUNC GLOBAL DEFAULT 14 __aeabi_memcpy4
254:   FUNC GLOBAL DEFAULT 14 _ZN7android6fs_mgr27GetBl
255:   FUNC GLOBAL DEFAULT 14 _ZNK7android6fs_mgr15Meta
256:   FUNC GLOBAL DEFAULT 14 _ZNK7android6fs_mgr15Meta
257:   FUNC WEAK DEFAULT 14 _ZNSt3__124__put_characte
258:   FUNC WEAK DEFAULT 14 _ZNSt3__16vectorIPN7andro
259:   FUNC GLOBAL DEFAULT 14 _ZN7android6fs_mgr12Image
260:   FUNC GLOBAL DEFAULT 14 _ZN7android6fs_mgr17GetDe
261:   FUNC GLOBAL DEFAULT 14 _ZNK7android6fs_mgr15Meta
262:   FUNC GLOBAL DEFAULT 14 _ZNK7android6fs_mgr12Imag
263:   FUNC WEAK DEFAULT 14 _ZNSt3__16vectorINS_10uni
264:   FUNC WEAK DEFAULT 14 _ZNSt3__16vectorI16LpMeta
265:   FUNC GLOBAL DEFAULT 14 _ZN7android6fs_mgr15Metad
266:   FUNC GLOBAL DEFAULT 14 _ZN7android6fs_mgr15Metad
267:   FUNC GLOBAL DEFAULT 14 _ZN7android6fs_mgr15Metad
268:   FUNC GLOBAL DEFAULT 14 _ZNK7android6fs_mgr15Meta
269:   FUNC GLOBAL DEFAULT 14 __aeabi_memclr4
270:   FUNC GLOBAL DEFAULT 14 _ZN7android6fs_mgr16Write
271:   FUNC WEAK DEFAULT 14 _ZNSt3__16__treeINS_12__v
272:   FUNC GLOBAL DEFAULT 14 _ZN7android6fs_mgr15Metad
273:   FUNC GLOBAL DEFAULT 14 _ZN7android6fs_mgr28ReadL
274:   FUNC GLOBAL DEFAULT 14 __aeabi_memcpy8
275:   FUNC GLOBAL DEFAULT 14 _ZN7android6fs_mgr15Metad
276:   FUNC WEAK DEFAULT 14 _ZNSt3__16__treeINS_12__v
277:   FUNC GLOBAL DEFAULT 14 _ZN7android6fs_mgr12Image
278:   FUNC GLOBAL DEFAULT 14 _ZN7android6fs_mgr15Metad
279:   FUNC WEAK DEFAULT 14 _ZNSt3__17__sort3IRNS_6__
280:   FUNC WEAK DEFAULT 14 _ZNSt3__16__treeINS_12__v
281:   FUNC WEAK DEFAULT 14 _ZNSt3__16vectorINS_12bas
