 0x0000000e (SONAME)                     Library soname: [libfscrypt.so]
  
Symbol   contains 62 entries:
Num:   Type Bind Vis Ndx Name
0:   NOTYPE LOCAL DEFAULT UND
1:   FUNC GLOBAL DEFAULT UND __cxa_atexit@LIBC (2)
2:   FUNC GLOBAL DEFAULT UND __cxa_finalize@LIBC (2)
3:   FUNC GLOBAL DEFAULT UND _ZN7android4base10LogMess
4:   FUNC GLOBAL DEFAULT UND _ZN7android4base10LogMess
5:   FUNC GLOBAL DEFAULT UND _ZN7android4base10LogMess
6:   FUNC GLOBAL DEFAULT UND _ZN7android4base21GetMini
7:   FUNC GLOBAL DEFAULT UND _ZNKSt3__16locale9use_fac
8:   FUNC GLOBAL DEFAULT UND _ZNKSt3__18ios_base6getlo
9:   FUNC GLOBAL DEFAULT UND _ZNSt3__113basic_ostreamI
10:   FUNC GLOBAL DEFAULT UND _ZNSt3__113basic_ostreamI
11:   FUNC GLOBAL DEFAULT UND _ZNSt3__113basic_ostreamI
12:   FUNC GLOBAL DEFAULT UND _ZNSt3__113basic_ostreamI
13:   OBJECT GLOBAL DEFAULT UND _ZNSt3__15ctypeIcE2idE
14:   FUNC GLOBAL DEFAULT UND _ZNSt3__16localeD1Ev
15:   FUNC GLOBAL DEFAULT UND _ZNSt3__18ios_base5clearE
16:   FUNC GLOBAL DEFAULT UND _ZdlPv
17:   FUNC GLOBAL DEFAULT UND _Znwj
18:   FUNC GLOBAL DEFAULT UND __errno@LIBC (2)
19:   FUNC GLOBAL DEFAULT UND __open_2@LIBC (2)
20:   FUNC GLOBAL DEFAULT UND __stack_chk_fail@LIBC (2)
21:   OBJECT GLOBAL DEFAULT UND __stack_chk_guard@LIBC (2)
22:   FUNC GLOBAL DEFAULT UND android_fork_execvp_ext
23:   FUNC GLOBAL DEFAULT UND close@LIBC (2)
24:   FUNC GLOBAL DEFAULT UND closedir@LIBC (2)
25:   FUNC GLOBAL DEFAULT UND ioctl@LIBC (2)
26:   FUNC GLOBAL DEFAULT UND memcmp@LIBC (2)
27:   FUNC GLOBAL DEFAULT UND opendir@LIBC (2)
28:   FUNC GLOBAL DEFAULT UND property_get
29:   FUNC GLOBAL DEFAULT UND readdir@LIBC (2)
30:   FUNC GLOBAL DEFAULT UND strcmp@LIBC (2)
31:   FUNC GLOBAL DEFAULT UND strlen@LIBC (2)
32:   FUNC GLOBAL DEFAULT UND _ZN7android4base12StringP
33:   FUNC GLOBAL DEFAULT UND _ZN7android4base16ReadFil
34:   FUNC GLOBAL DEFAULT UND _ZN7android4base5SplitERK
35:   FUNC GLOBAL DEFAULT UND _ZNKSt3__112basic_stringI
36:   FUNC GLOBAL DEFAULT UND _ZNKSt3__121__basic_strin
37:   FUNC GLOBAL DEFAULT UND _ZNSt3__112basic_stringIc
38:   FUNC GLOBAL DEFAULT UND _ZNSt3__112basic_stringIc
39:   FUNC GLOBAL DEFAULT UND _ZNSt3__112basic_stringIc
40:   FUNC GLOBAL DEFAULT UND _ZNSt3__112basic_stringIc
41:   FUNC GLOBAL DEFAULT UND add_key
42:   FUNC GLOBAL DEFAULT UND getpid@LIBC (2)
43:   FUNC GLOBAL DEFAULT UND strchr@LIBC (2)
44:   FUNC GLOBAL DEFAULT UND strncmp@LIBC (2)
45:   FUNC GLOBAL DEFAULT UND memcpy@LIBC (2)
46:   FUNC GLOBAL DEFAULT UND memset@LIBC (2)
47:   FUNC WEAK DEFAULT 13 _ZNSt3__124__put_characte
48:   FUNC GLOBAL DEFAULT 13 __aeabi_memcpy
49:   FUNC GLOBAL DEFAULT 13 fscrypt_install_keyring
50:   FUNC GLOBAL DEFAULT 13 fscrypt_set_directory_pol
51:   FUNC GLOBAL DEFAULT 13 __aeabi_memcpy8
52:   FUNC GLOBAL DEFAULT 13 __aeabi_memclr8
53:   FUNC GLOBAL DEFAULT 13 __aeabi_memset8
54:   FUNC GLOBAL DEFAULT 13 __aeabi_memset
55:   FUNC GLOBAL DEFAULT 13 fscrypt_is_native
56:   FUNC GLOBAL DEFAULT 13 fscrypt_policy_ensure
57:   FUNC WEAK DEFAULT 13 _ZNSt3__1plIcNS_11char_tr
58:   FUNC GLOBAL DEFAULT 13 __aeabi_memclr
59:   FUNC GLOBAL DEFAULT 13 __aeabi_memcpy4
60:   FUNC GLOBAL DEFAULT 13 __aeabi_memclr4
61:   FUNC GLOBAL DEFAULT 13 __aeabi_memset4
