 0x0000000e (SONAME)                     Library soname: [libprocessgroup.so]
  
Symbol   contains 660 entries:
Num:   Type Bind Vis Ndx Name
0:   NOTYPE LOCAL DEFAULT UND
1:   FUNC GLOBAL DEFAULT UND __cxa_finalize@LIBC (2)
2:   FUNC GLOBAL DEFAULT UND ACgroupController_getName@LIBCGROUPRC (3)
3:   FUNC GLOBAL DEFAULT UND ACgroupController_getPath@LIBCGROUPRC (3)
4:   FUNC GLOBAL DEFAULT UND ACgroupController_getVers@LIBCGROUPRC (3)
5:   FUNC GLOBAL DEFAULT UND ACgroupFile_getController@LIBCGROUPRC (3)
6:   FUNC GLOBAL DEFAULT UND ACgroupFile_getController@LIBCGROUPRC (3)
7:   FUNC GLOBAL DEFAULT UND ACgroupFile_getVersion@LIBCGROUPRC (3)
8:   FUNC GLOBAL DEFAULT UND _ZN7android4base10LogMess
9:   FUNC GLOBAL DEFAULT UND _ZN7android4base10LogMess
10:   FUNC GLOBAL DEFAULT UND _ZN7android4base10LogMess
11:   FUNC GLOBAL DEFAULT UND _ZN7android4base12StringP
12:   FUNC GLOBAL DEFAULT UND _ZN7android4base16ReadFil
13:   FUNC GLOBAL DEFAULT UND _ZN7android4base21GetMini
14:   FUNC GLOBAL DEFAULT UND _ZNKSt3__112basic_stringI
15:   FUNC GLOBAL DEFAULT UND _ZNKSt3__112basic_stringI
16:   FUNC GLOBAL DEFAULT UND _ZNKSt3__119__shared_weak
17:   FUNC GLOBAL DEFAULT UND _ZNKSt3__120__vector_base
18:   FUNC GLOBAL DEFAULT UND _ZNKSt3__121__basic_strin
19:   FUNC GLOBAL DEFAULT UND _ZNKSt3__123__match_any_b
20:   FUNC GLOBAL DEFAULT UND _ZNKSt3__16locale4nameEv
21:   FUNC GLOBAL DEFAULT UND _ZNKSt3__16locale9use_fac
22:   FUNC GLOBAL DEFAULT UND _ZNKSt3__18ios_base6getlo
23:   FUNC GLOBAL DEFAULT UND _ZNSt3__112basic_stringIc
24:   FUNC GLOBAL DEFAULT UND _ZNSt3__112basic_stringIc
25:   FUNC GLOBAL DEFAULT UND _ZNSt3__112basic_stringIc
26:   FUNC GLOBAL DEFAULT UND _ZNSt3__112basic_stringIc
27:   FUNC GLOBAL DEFAULT UND _ZNSt3__112basic_stringIc
28:   FUNC GLOBAL DEFAULT UND _ZNSt3__112basic_stringIc
29:   FUNC GLOBAL DEFAULT UND _ZNSt3__112basic_stringIc
30:   FUNC GLOBAL DEFAULT UND _ZNSt3__113basic_ostreamI
31:   FUNC GLOBAL DEFAULT UND _ZNSt3__113basic_ostreamI
32:   FUNC GLOBAL DEFAULT UND _ZNSt3__113basic_ostreamI
33:   FUNC GLOBAL DEFAULT UND _ZNSt3__113basic_ostreamI
34:   FUNC GLOBAL DEFAULT UND _ZNSt3__115__get_classnam
35:   FUNC GLOBAL DEFAULT UND _ZNSt3__119__shared_weak_
36:   FUNC GLOBAL DEFAULT UND _ZNSt3__119__shared_weak_
37:   FUNC GLOBAL DEFAULT UND _ZNSt3__120__get_collatio
38:   OBJECT GLOBAL DEFAULT UND _ZNSt3__15ctypeIcE2idE
39:   FUNC GLOBAL DEFAULT UND _ZNSt3__16localeC1ERKS0_
40:   FUNC GLOBAL DEFAULT UND _ZNSt3__16localeC1Ev
41:   FUNC GLOBAL DEFAULT UND _ZNSt3__16localeD1Ev
42:   OBJECT GLOBAL DEFAULT UND _ZNSt3__17collateIcE2idE
43:   FUNC GLOBAL DEFAULT UND _ZNSt3__18ios_base5clearE
44:   FUNC GLOBAL DEFAULT UND _ZNSt3__19to_stringEi
45:   FUNC GLOBAL DEFAULT UND _ZNSt3__19to_stringEj
46:   FUNC GLOBAL DEFAULT UND _ZNSt3__1plIcNS_11char_tr
47:   FUNC GLOBAL DEFAULT UND _ZdlPv
48:   FUNC GLOBAL DEFAULT UND _Znwj
49:   FUNC GLOBAL DEFAULT UND __cxa_guard_acquire
50:   FUNC GLOBAL DEFAULT UND __cxa_guard_release
51:   FUNC GLOBAL DEFAULT UND __errno@LIBC (2)
52:   FUNC GLOBAL DEFAULT UND __stack_chk_fail@LIBC (2)
53:   OBJECT GLOBAL DEFAULT UND __stack_chk_guard@LIBC (2)
54:   FUNC GLOBAL DEFAULT UND abort@LIBC (2)
55:   FUNC GLOBAL DEFAULT UND access@LIBC (2)
56:   FUNC GLOBAL DEFAULT UND getpid@LIBC (2)
57:   FUNC GLOBAL DEFAULT UND memchr@LIBC (2)
58:   FUNC GLOBAL DEFAULT UND memcmp@LIBC (2)
59:   FUNC GLOBAL DEFAULT UND strlen@LIBC (2)
60:   FUNC GLOBAL DEFAULT UND _ZN7android4base10StartsW
61:   FUNC GLOBAL DEFAULT UND _ZN7android4base15GetBool
62:   FUNC GLOBAL DEFAULT UND _ZN7android4base17WriteSt
63:   FUNC GLOBAL DEFAULT UND _ZNSt3__111this_thread9sl
64:   FUNC GLOBAL DEFAULT UND _ZNSt3__112basic_stringIc
65:   FUNC GLOBAL DEFAULT UND _ZNSt3__113basic_ostreamI
66:   FUNC GLOBAL DEFAULT UND _ZNSt3__16chrono12steady_
67:   FUNC GLOBAL DEFAULT UND _ZNSt3__19to_stringEx
68:   FUNC GLOBAL DEFAULT UND chown@LIBC (2)
69:   FUNC GLOBAL DEFAULT UND closedir@LIBC (2)
70:   FUNC GLOBAL DEFAULT UND fclose@LIBC (2)
71:   FUNC GLOBAL DEFAULT UND feof@LIBC (2)
72:   FUNC GLOBAL DEFAULT UND fopen@LIBC (2)
73:   FUNC GLOBAL DEFAULT UND fscanf@LIBC (2)
74:   FUNC GLOBAL DEFAULT UND getpgid@LIBC (2)
75:   FUNC GLOBAL DEFAULT UND kill@LIBC (2)
76:   FUNC GLOBAL DEFAULT UND mkdir@LIBC (2)
77:   FUNC GLOBAL DEFAULT UND opendir@LIBC (2)
78:   FUNC GLOBAL DEFAULT UND readdir@LIBC (2)
79:   FUNC GLOBAL DEFAULT UND rmdir@LIBC (2)
80:   FUNC GLOBAL DEFAULT UND _ZN7android4base11GetThre
81:   FUNC GLOBAL DEFAULT UND _ZNSt3__15mutex4lockEv
82:   FUNC GLOBAL DEFAULT UND _ZNSt3__15mutex6unlockEv
83:   FUNC GLOBAL DEFAULT UND _ZNSt3__15mutexD1Ev
84:   FUNC GLOBAL DEFAULT UND _ZNSt3__19to_stringEm
85:   FUNC GLOBAL DEFAULT UND __open_2@LIBC (2)
86:   FUNC GLOBAL DEFAULT UND __write_chk@LIBC_N (4)
87:   FUNC WEAK DEFAULT UND android_fdsan_close_with_@LIBC_Q (5)
88:   FUNC WEAK DEFAULT UND android_fdsan_create_owne@LIBC_Q (5)
89:   FUNC WEAK DEFAULT UND android_fdsan_exchange_ow@LIBC_Q (5)
90:   FUNC GLOBAL DEFAULT UND close@LIBC (2)
91:   FUNC GLOBAL DEFAULT UND prctl@LIBC (2)
92:   FUNC GLOBAL DEFAULT UND strerror@LIBC (2)
93:   FUNC GLOBAL DEFAULT UND strtoul@LIBC (2)
94:   FUNC GLOBAL DEFAULT UND write@LIBC (2)
95:   FUNC GLOBAL DEFAULT UND _ZNSt3__112basic_stringIc
96:   FUNC GLOBAL DEFAULT UND _ZNSt3__112basic_stringIc
97:   FUNC GLOBAL DEFAULT UND _ZNSt3__112basic_stringIc
98:   FUNC GLOBAL DEFAULT UND _ZNSt3__112basic_stringIc
99:   FUNC GLOBAL DEFAULT UND _ZNSt3__112basic_stringIc
100:   FUNC GLOBAL DEFAULT UND _ZNSt3__113basic_istreamI
101:   FUNC GLOBAL DEFAULT UND __memcpy_chk@LIBC (2)
102:   FUNC GLOBAL DEFAULT UND __vsnprintf_chk@LIBC (2)
103:   FUNC GLOBAL DEFAULT UND exit@LIBC (2)
104:   FUNC GLOBAL DEFAULT UND fprintf@LIBC (2)
105:   FUNC GLOBAL DEFAULT UND sscanf@LIBC (2)
106:   OBJECT GLOBAL DEFAULT UND stderr@LIBC (2)
107:   FUNC GLOBAL DEFAULT UND _ZdaPv
108:   FUNC GLOBAL DEFAULT UND _Znaj
109:   FUNC GLOBAL DEFAULT UND __strchr_chk@LIBC (2)
110:   FUNC GLOBAL DEFAULT UND free@LIBC (2)
111:   FUNC GLOBAL DEFAULT UND malloc@LIBC (2)
112:   FUNC GLOBAL DEFAULT UND modf@LIBC (6)
113:   FUNC GLOBAL DEFAULT UND strcmp@LIBC (2)
114:   FUNC GLOBAL DEFAULT UND _ZNSt3__113basic_ostreamI
115:   FUNC GLOBAL DEFAULT UND _ZNSt3__113basic_ostreamI
116:   FUNC GLOBAL DEFAULT UND _ZNSt3__113basic_ostreamI
117:   FUNC GLOBAL DEFAULT UND _ZNSt3__115basic_streambu
118:   FUNC GLOBAL DEFAULT UND _ZNSt3__115basic_streambu
119:   FUNC GLOBAL DEFAULT UND _ZNSt3__115basic_streambu
120:   FUNC GLOBAL DEFAULT UND _ZNSt3__115basic_streambu
121:   FUNC GLOBAL DEFAULT UND _ZNSt3__115basic_streambu
122:   FUNC GLOBAL DEFAULT UND _ZNSt3__115basic_streambu
123:   FUNC GLOBAL DEFAULT UND _ZNSt3__115basic_streambu
124:   FUNC GLOBAL DEFAULT UND _ZNSt3__115basic_streambu
125:   FUNC GLOBAL DEFAULT UND _ZNSt3__115basic_streambu
126:   FUNC GLOBAL DEFAULT UND _ZNSt3__18ios_base4initEP
127:   FUNC GLOBAL DEFAULT UND _ZNSt3__19basic_iosIcNS_1
128:   FUNC GLOBAL DEFAULT UND _ZTv0_n12_NSt3__113basic_
129:   FUNC GLOBAL DEFAULT UND _ZTv0_n12_NSt3__113basic_
130:   FUNC GLOBAL DEFAULT UND __cxa_pure_virtual
131:   FUNC GLOBAL DEFAULT UND strpbrk@LIBC (2)
132:   FUNC GLOBAL DEFAULT UND memcpy@LIBC (2)
133:   FUNC GLOBAL DEFAULT UND memmove@LIBC (2)
134:   FUNC GLOBAL DEFAULT UND memset@LIBC (2)
135:   OBJECT WEAK DEFAULT 18 _ZTVNSt3__120__bracket_ex
136:   FUNC GLOBAL DEFAULT 14 _ZN4Json6Reader17skipComm
137:   FUNC GLOBAL DEFAULT 14 _ZN4Json18StyledStreamWri
138:   FUNC GLOBAL DEFAULT 14 _ZN15SetCgroupActionC2ERK
139:   FUNC GLOBAL DEFAULT 14 _ZN4Json6Reader12decodeNu
140:   FUNC WEAK DEFAULT 14 _ZNKSt3__113__empty_state
141:   FUNC WEAK DEFAULT 14 _ZNSt3__111basic_regexIcN
142:   FUNC WEAK DEFAULT 14 _ZNSt3__111basic_regexIcN
143:   FUNC WEAK DEFAULT 14 _ZNSt3__17getlineIcNS_11c
144:   FUNC GLOBAL DEFAULT 14 _ZN4Json5Value9initBasicE
145:   FUNC GLOBAL DEFAULT 14 _ZN4Json6Reader5parseERKN
146:   FUNC GLOBAL DEFAULT 14 _ZN4Json5Value8CZStringC2
147:   FUNC WEAK DEFAULT 14 _ZNSt3__114__split_buffer
148:   FUNC GLOBAL DEFAULT 14 _ZN4Json12StyledWriter10w
149:   FUNC GLOBAL DEFAULT 14 _ZN12TaskProfilesC1Ev
150:   FUNC GLOBAL DEFAULT 14 _ZN4Json5Value8CZString4s
151:   FUNC WEAK DEFAULT 14 _ZNSt3__16vectorIN4Json12
152:   FUNC GLOBAL DEFAULT 14 _ZN4Json10FastWriter18omi
153:   FUNC WEAK DEFAULT 14 _ZNSt3__114regex_iterator
154:   FUNC WEAK DEFAULT 14 _ZNSt3__16vectorIcNS_9all
155:   FUNC GLOBAL DEFAULT 14 _ZNK4Json5Value3getEPKcRK
156:   FUNC WEAK DEFAULT 14 _ZNSt3__15dequeIN4Json6Re
157:   OBJECT GLOBAL DEFAULT 12 _ZN4Json5Value7maxUIntE
158:   FUNC WEAK DEFAULT 14 _ZNSt3__115basic_stringbu
159:   FUNC WEAK DEFAULT 14 _ZNKSt3__110__l_anchorIcE
160:   OBJECT WEAK DEFAULT 18 _ZTVNSt3__110__r_anchorIc
161:   FUNC GLOBAL DEFAULT 14 _ZN4Json8FeaturesC2Ev
162:   FUNC WEAK DEFAULT 14 _ZNSt3__114__split_buffer
163:   FUNC GLOBAL DEFAULT 14 _ZN4Json6Reader12decodeDo
164:   FUNC WEAK DEFAULT 14 _ZNSt3__111basic_regexIcN
165:   FUNC GLOBAL DEFAULT 14 _ZNK12TaskProfiles12GetAt
166:   FUNC WEAK DEFAULT 14 _ZNSt3__112__deque_baseIN
167:   FUNC GLOBAL DEFAULT 14 _ZNK4Json5Value5isIntEv
168:   FUNC GLOBAL DEFAULT 14 _ZNK4Json5Value8CZString5
169:   FUNC GLOBAL DEFAULT 14 _ZN4Json12StyledWriter14i
170:   FUNC GLOBAL DEFAULT 14 _ZN9CgroupMapC1Ev
171:   FUNC WEAK DEFAULT 14 _ZNKSt3__112__match_charI
172:   FUNC GLOBAL DEFAULT 14 _ZN19SetTimerSlackAction2
173:   OBJECT GLOBAL DEFAULT 18 _ZTV19SetTimerSlackAction
174:   OBJECT GLOBAL DEFAULT 12 _ZN4Json5Value14maxLarges
175:   FUNC GLOBAL DEFAULT 14 _ZN4Json5Value8CZStringC1
176:   FUNC GLOBAL DEFAULT 14 _ZN11TaskProfile21EnableR
177:   FUNC GLOBAL DEFAULT 14 createProcessGroup
178:   FUNC GLOBAL DEFAULT 14 _ZNK4Json5Value4sizeEv
179:   FUNC GLOBAL DEFAULT 14 _ZN4Json6Reader10readNumb
180:   FUNC GLOBAL DEFAULT 14 _ZN4Json6Reader18addError
181:   FUNC GLOBAL DEFAULT 14 _ZNK4Json5Value5beginEv
182:   FUNC GLOBAL DEFAULT 14 _ZNK4Json5Value8asDoubleE
183:   FUNC WEAK DEFAULT 14 _ZNSt3__120__shared_ptr_p
184:   FUNC WEAK DEFAULT 14 _ZNSt3__16vectorIN4Json6R
185:   FUNC WEAK DEFAULT 14 _ZNSt3__111basic_regexIcN
186:   FUNC WEAK DEFAULT 14 _ZNSt3__111basic_regexIcN
187:   FUNC GLOBAL DEFAULT 14 _ZNK4Json5Value8asStringE
188:   OBJECT GLOBAL DEFAULT 12 _ZN4Json5Value13maxLarges
189:   OBJECT GLOBAL DEFAULT 18 _ZTVN4Json6WriterE
190:   FUNC WEAK DEFAULT 14 _ZNKSt3__111__match_anyIc
191:   OBJECT GLOBAL DEFAULT 18 _ZTVN4Json12StyledWriterE
192:   FUNC GLOBAL DEFAULT 14 _ZNK16CgroupController4na
193:   FUNC WEAK DEFAULT 14 _ZNKSt3__111basic_regexIc
194:   OBJECT WEAK DEFAULT 18 _ZTVNSt3__121__empty_non_
195:   FUNC GLOBAL DEFAULT 14 _ZN4Json6Reader10addComme
196:   FUNC GLOBAL DEFAULT 14 _ZN4Json6Reader9readValue
197:   FUNC GLOBAL DEFAULT 14 _ZNK16CgroupController8Ha
198:   FUNC GLOBAL DEFAULT 14 _ZN4Json5Value8CZStringD1
199:   FUNC GLOBAL DEFAULT 14 _ZNK4Json5Value12asLarges
200:   FUNC GLOBAL DEFAULT 14 _ZN4Json6Reader11getNextC
201:   FUNC GLOBAL DEFAULT 14 _ZN4Json5Value10setCommen
202:   FUNC GLOBAL DEFAULT 14 __aeabi_ul2d
203:   FUNC GLOBAL DEFAULT 14 _ZN4Json12StyledWriter23w
204:   FUNC GLOBAL DEFAULT 14 __floatdidf
205:   OBJECT WEAK DEFAULT 18 _ZTVNSt3__111__alternateI
206:   FUNC GLOBAL DEFAULT 14 _ZNK4Json17ValueIteratorB
207:   FUNC GLOBAL DEFAULT 14 _ZN4Json12StyledWriter8un
208:   FUNC WEAK DEFAULT 14 _ZNSt3__111basic_regexIcN
209:   FUNC WEAK DEFAULT 14 _ZNSt3__114__split_buffer
210:   FUNC GLOBAL DEFAULT 14 _ZN4Json13ValueIteratorC1
211:   FUNC GLOBAL DEFAULT 14 _ZNK4Json5Value7isInt64Ev
212:   FUNC GLOBAL DEFAULT 14 __aeabi_ul2f
213:   FUNC WEAK DEFAULT 14 _ZNSt3__115basic_stringbu
214:   FUNC GLOBAL DEFAULT 14 _ZN12TaskProfiles4LoadERK
215:   FUNC GLOBAL DEFAULT 14 _ZN4Json18ValueConstItera
216:   FUNC GLOBAL DEFAULT 14 _ZNK4Json5Value6asBoolEv
217:   FUNC WEAK DEFAULT 14 _ZNKSt3__128__begin_marke
218:   FUNC GLOBAL DEFAULT 14 _ZN4Json6Reader27decodeUn
219:   FUNC GLOBAL DEFAULT 14 _ZN4Json5ValueC1ERKS0_
220:   FUNC GLOBAL DEFAULT 14 _ZN4Json18StyledStreamWri
221:   FUNC GLOBAL DEFAULT 14 _ZN4Json6WriterD0Ev
222:   FUNC GLOBAL DEFAULT 14 CgroupGetAttributePath
223:   FUNC WEAK DEFAULT 14 _ZNKSt3__16__treeINS_12__
224:   FUNC GLOBAL DEFAULT 14 _ZN4Json18ValueConstItera
225:   FUNC GLOBAL DEFAULT 14 __aeabi_memset
226:   FUNC GLOBAL DEFAULT 14 _ZNK4Json5Value3endEv
227:   FUNC GLOBAL DEFAULT 14 __aeabi_d2lz
228:   FUNC WEAK DEFAULT 14 _ZNSt3__111basic_regexIcN
229:   FUNC GLOBAL DEFAULT 14 _ZN4Json5ValueixEi
230:   FUNC GLOBAL DEFAULT 14 _ZN4Json12StyledWriter15w
231:   FUNC WEAK DEFAULT 14 _ZNSt3__117__owns_two_sta
232:   FUNC GLOBAL DEFAULT 14 _ZN4Json4PathC2ERKNSt3__1
233:   FUNC GLOBAL DEFAULT 14 _ZN4Json5Value8CZStringC2
234:   FUNC GLOBAL DEFAULT 14 _ZN4Json5ValueC2ENS_9Valu
235:   FUNC GLOBAL DEFAULT 14 _ZN4Json5ValueixEj
236:   FUNC GLOBAL DEFAULT 14 _ZNK4Json5Value6isUIntEv
237:   FUNC GLOBAL DEFAULT 14 _ZNK4Json5Value8isDoubleE
238:   FUNC GLOBAL DEFAULT 14 _ZN4Json12PathArgumentC2E
239:   FUNC GLOBAL DEFAULT 14 _ZN4Json6ReaderC1Ev
240:   FUNC GLOBAL DEFAULT 14 _ZN4Json6Reader10skipSpac
241:   FUNC WEAK DEFAULT 14 _ZNSt3__114__split_buffer
242:   FUNC GLOBAL DEFAULT 14 _ZN4Json5ValueC2EPKc
243:   FUNC GLOBAL DEFAULT 14 _ZNK4Json5Value7asFloatEv
244:   FUNC GLOBAL DEFAULT 14 setProcessGroupSoftLimit
245:   FUNC GLOBAL DEFAULT 14 get_sched_policy_name
246:   FUNC GLOBAL DEFAULT 14 set_sched_policy
247:   OBJECT GLOBAL DEFAULT 12 _ZN4Json5Value6maxIntE
248:   FUNC WEAK DEFAULT 14 _ZNSt3__15dequeIN4Json6Re
249:   FUNC GLOBAL DEFAULT 14 _ZNK16CgroupController16G
250:   FUNC WEAK DEFAULT 14 _ZNKSt3__111__lookaheadIc
251:   FUNC GLOBAL DEFAULT 14 _ZN4Json5Value14setOffset
252:   FUNC GLOBAL DEFAULT 14 _ZNK4Json4Path7resolveERK
253:   FUNC WEAK DEFAULT 14 _ZNSt3__16vectorINS_4pair
254:   FUNC GLOBAL DEFAULT 14 _ZNK11TaskProfile14Execut
255:   FUNC GLOBAL DEFAULT 14 _ZN4Json13ValueIteratorC2
256:   FUNC GLOBAL DEFAULT 14 _ZN4Json5ValueD2Ev
257:   FUNC GLOBAL DEFAULT 14 _ZN4Json5ValueixERKNS_12S
258:   FUNC GLOBAL DEFAULT 14 _ZN4Json17ValueIteratorBa
259:   FUNC GLOBAL DEFAULT 14 _ZNK4Json5Value14getMembe
260:   FUNC GLOBAL DEFAULT 14 _ZNK16CgroupController12G
261:   FUNC WEAK DEFAULT 14 _ZNKSt3__110__r_anchorIcE
262:   FUNC GLOBAL DEFAULT 14 _ZN4Json5Value14setOffset
263:   FUNC WEAK DEFAULT 14 _ZNSt3__114__split_buffer
264:   FUNC GLOBAL DEFAULT 14 _ZNK4Json17ValueIteratorB
265:   FUNC WEAK DEFAULT 14 _ZNKSt3__112regex_traitsI
266:   FUNC WEAK DEFAULT 14 _ZNKSt3__121__empty_non_o
267:   FUNC WEAK DEFAULT 14 _ZNSt3__111basic_regexIcN
268:   FUNC WEAK DEFAULT 14 _ZNSt3__111basic_regexIcN
269:   OBJECT WEAK DEFAULT 18 _ZTVNSt3__126__end_marked
270:   OBJECT WEAK DEFAULT 18 _ZTVNSt3__110__l_anchorIc
271:   FUNC GLOBAL DEFAULT 14 _ZNK16CgroupController4pa
272:   FUNC WEAK DEFAULT 14 _ZNSt3__15dequeINS_7__sta
273:   FUNC GLOBAL DEFAULT 14 _ZNK4Json5Value14getOffse
274:   FUNC GLOBAL DEFAULT 14 _ZN4Json5Value6resizeEj
275:   FUNC WEAK DEFAULT 14 _ZNSt3__16vectorINS_12bas
276:   FUNC WEAK DEFAULT 14 _ZNSt3__114__split_buffer
277:   FUNC GLOBAL DEFAULT 14 _ZN4Json5ValueC2ERKS0_
278:   FUNC GLOBAL DEFAULT 14 _ZNK4Json4Path4makeERNS_5
279:   FUNC GLOBAL DEFAULT 14 _ZNK9CgroupMap14FindContr
280:   FUNC GLOBAL DEFAULT 14 _ZN4Json6Reader12decodeSt
281:   FUNC GLOBAL DEFAULT 14 _ZN4Json12StyledWriter32w
282:   FUNC GLOBAL DEFAULT 14 _ZNK4Json5Value14getOffse
283:   FUNC GLOBAL DEFAULT 14 __aeabi_memset4
284:   FUNC WEAK DEFAULT 14 _ZNSt3__111basic_regexIcN
285:   FUNC GLOBAL DEFAULT 14 _ZN4Json5Value11CommentIn
286:   FUNC GLOBAL DEFAULT 14 _ZN4Json12StyledWriter15w
287:   FUNC WEAK DEFAULT 14 _ZNKSt3__112regex_traitsI
288:   FUNC WEAK DEFAULT 14 _ZNKSt3__120__match_char_
289:   FUNC WEAK DEFAULT 14 _ZNSt3__16vectorINS_7__st
290:   FUNC GLOBAL DEFAULT 14 killProcessGroup
291:   OBJECT GLOBAL DEFAULT 12 _ZN4Json5Value13minLarges
292:   FUNC GLOBAL DEFAULT 14 _ZN4Json13ValueIteratoraS
293:   FUNC GLOBAL DEFAULT 14 _ZNK4Json5Value8isStringE
294:   FUNC WEAK DEFAULT 14 _ZNSt3__111basic_regexIcN
295:   FUNC GLOBAL DEFAULT 14 _ZNK4Json5Value14toStyled
296:   FUNC WEAK DEFAULT 14 _ZNSt3__16__treeINS_12__v
297:   FUNC GLOBAL DEFAULT 14 _ZN4Json18StyledStreamWri
298:   FUNC GLOBAL DEFAULT 14 __aeabi_memset8
299:   FUNC GLOBAL DEFAULT 14 __aeabi_memmove
300:   OBJECT GLOBAL DEFAULT 18 _ZTV18SetAttributeAction
301:   FUNC WEAK DEFAULT 14 _ZNSt3__111basic_regexIcN
302:   OBJECT WEAK DEFAULT 18 _ZTVNSt3__128__begin_mark
303:   FUNC GLOBAL DEFAULT 14 _ZN12TaskProfilesC2Ev
304:   FUNC GLOBAL DEFAULT 14 _ZN4Json6Reader9readArray
305:   FUNC GLOBAL DEFAULT 14 _ZN4Json12StyledWriterC1E
306:   FUNC GLOBAL DEFAULT 14 _ZNK4Json5Value10isIntegr
307:   FUNC WEAK DEFAULT 14 _ZNSt3__111basic_regexIcN
308:   FUNC GLOBAL DEFAULT 14 _ZN4Json10FastWriterC1Ev
309:   FUNC WEAK DEFAULT 14 _ZNSt3__111basic_regexIcN
310:   FUNC GLOBAL DEFAULT 14 CgroupGetAttributePathFor
311:   FUNC GLOBAL DEFAULT 14 _ZN4Json17ValueIteratorBa
312:   FUNC GLOBAL DEFAULT 14 __aeabi_memmove4
313:   FUNC GLOBAL DEFAULT 14 _ZN4Json6Reader9readToken
314:   FUNC GLOBAL DEFAULT 14 _ZN4Json12PathArgumentC1E
315:   FUNC GLOBAL DEFAULT 14 _ZN4Json13ValueIteratorC2
316:   FUNC WEAK DEFAULT 14 _ZNSt3__16__treeINS_12__v
317:   FUNC GLOBAL DEFAULT 14 _ZN4Json6ReaderC1ERKNS_8F
318:   FUNC GLOBAL DEFAULT 14 _ZN4Json5Value10setCommen
319:   FUNC GLOBAL DEFAULT 14 _ZN4Json5ValueC1EPKc
320:   FUNC GLOBAL DEFAULT 14 _ZN4Json18StyledStreamWri
321:   FUNC WEAK DEFAULT 14 _ZNKSt3__111__alternateIc
322:   FUNC GLOBAL DEFAULT 14 cpusets_enabled
323:   FUNC GLOBAL DEFAULT 14 _ZN4Json6Reader10readObje
324:   FUNC GLOBAL DEFAULT 14 _ZN4Json10FastWriter5writ
325:   FUNC GLOBAL DEFAULT 14 _ZN4Json18StyledStreamWri
326:   FUNC GLOBAL DEFAULT 14 _ZN9CgroupMapC2Ev
327:   FUNC WEAK DEFAULT 14 _ZNKSt3__117__repeat_one_
328:   FUNC WEAK DEFAULT 14 _ZNSt3__114__split_buffer
329:   OBJECT WEAK DEFAULT 18 _ZTVNSt3__111__end_stateI
330:   FUNC GLOBAL DEFAULT 14 _ZN4Json5ValueC1ENS_9Valu
331:   FUNC GLOBAL DEFAULT 14 __aeabi_memmove8
332:   FUNC WEAK DEFAULT 14 _ZNKSt3__111basic_regexIc
333:   OBJECT WEAK DEFAULT 18 _ZTVNSt3__110__back_refIc
334:   OBJECT WEAK DEFAULT 18 _ZTVNSt3__115__word_bound
335:   FUNC GLOBAL DEFAULT 14 _ZNK4Json5Value10hasComme
336:   FUNC GLOBAL DEFAULT 14 _ZNK4Json5ValuentEv
337:   FUNC WEAK DEFAULT 14 _ZNKSt3__16__loopIcE12__e
338:   FUNC WEAK DEFAULT 14 _ZNSt3__16vectorINS_10uni
339:   FUNC GLOBAL DEFAULT 14 _ZNK4Json5ValueneERKS0_
340:   FUNC GLOBAL DEFAULT 14 UsePerAppMemcg
341:   FUNC GLOBAL DEFAULT 14 _ZN4JsonrsERNSt3__113basi
342:   FUNC WEAK DEFAULT 14 _ZNKSt3__111basic_regexIc
343:   FUNC GLOBAL DEFAULT 14 _ZNK15SetCgroupAction17Ex
344:   FUNC GLOBAL DEFAULT 14 _ZN4Json5ValueixERKNSt3__
345:   FUNC GLOBAL DEFAULT 14 _ZN4Json12PathArgumentC1E
346:   FUNC WEAK DEFAULT 14 _ZNSt3__111basic_regexIcN
347:   OBJECT WEAK DEFAULT 18 _ZTVNSt3__118__back_ref_c
348:   FUNC WEAK DEFAULT 14 _ZNKSt3__126__end_marked_
349:   FUNC WEAK DEFAULT 14 _ZNSt3__16vectorINS_4pair
350:   FUNC GLOBAL DEFAULT 14 _ZN4Json5ValueC1Eb
351:   FUNC GLOBAL DEFAULT 14 _ZN4Json5Value8CZStringD2
352:   FUNC GLOBAL DEFAULT 14 _ZNK4Json5Value6isNullEv
353:   FUNC WEAK DEFAULT 14 _ZNSt3__111basic_regexIcN
354:   FUNC GLOBAL DEFAULT 14 _ZN4Json12StyledWriter12n
355:   FUNC GLOBAL DEFAULT 14 _ZN4Json18StyledStreamWri
356:   FUNC WEAK DEFAULT 14 _ZNKSt3__118__back_ref_co
357:   FUNC GLOBAL DEFAULT 14 _ZN4Json5ValueC1Ed
358:   FUNC GLOBAL DEFAULT 14 _ZNK4Json5Value8isMemberE
359:   FUNC GLOBAL DEFAULT 14 _ZN4Json10FastWriter23ena
360:   FUNC GLOBAL DEFAULT 14 _ZN4Json13valueToStringEb
361:   FUNC GLOBAL DEFAULT 14 _ZN4Json6Reader5parseEPKc
362:   FUNC WEAK DEFAULT 14 _ZNSt3__114__split_buffer
363:   FUNC GLOBAL DEFAULT 14 _ZNK4Json5Value8asUInt64E
364:   FUNC GLOBAL DEFAULT 14 _ZN4Json13valueToStringEd
365:   FUNC GLOBAL DEFAULT 14 _ZNK4Json5Value8CZStringe
366:   FUNC WEAK DEFAULT 14 _ZNSt3__16vectorINS_4pair
367:   FUNC GLOBAL DEFAULT 14 _ZNK4Json5ValueixEPKc
368:   FUNC GLOBAL DEFAULT 14 _ZN4Json8Features10strict
369:   FUNC GLOBAL DEFAULT 14 _ZN4Json10FastWriter20dro
370:   FUNC GLOBAL DEFAULT 14 _ZN4Json6WriterD1Ev
371:   FUNC WEAK DEFAULT 14 _ZNKSt3__111__alternateIc
372:   FUNC WEAK DEFAULT 14 _ZNSt3__111basic_regexIcN
373:   FUNC GLOBAL DEFAULT 14 _ZNK19SetTimerSlackAction
374:   FUNC WEAK DEFAULT 14 _ZNSt3__16__treeINS_12__v
375:   FUNC GLOBAL DEFAULT 14 _ZN4Json18StyledStreamWri
376:   FUNC WEAK DEFAULT 14 _ZNSt3__115basic_stringbu
377:   FUNC GLOBAL DEFAULT 14 get_sched_policy
378:   FUNC WEAK DEFAULT 14 _ZNSt3__16__treeINS_12__v
379:   FUNC GLOBAL DEFAULT 14 _ZN4Json6Reader12decodeSt
380:   FUNC GLOBAL DEFAULT 14 _ZN4Json5ValueC1Ei
381:   FUNC GLOBAL DEFAULT 14 _ZN4Json18StyledStreamWri
382:   FUNC WEAK DEFAULT 14 _ZNSt3__127__tree_balance
383:   FUNC GLOBAL DEFAULT 14 _ZNK15SetClampsAction14Ex
384:   FUNC GLOBAL DEFAULT 14 _ZN4Json6Reader12currentV
385:   FUNC GLOBAL DEFAULT 14 _ZN4Json6Reader9pushError
386:   FUNC GLOBAL DEFAULT 14 _ZN4Json8Features3allEv
387:   FUNC WEAK DEFAULT 14 _ZNSt3__114__split_buffer
388:   FUNC GLOBAL DEFAULT 14 _ZN4Json4Path8makePathERK
389:   FUNC GLOBAL DEFAULT 14 _ZN4Json5ValueC1Ej
390:   FUNC GLOBAL DEFAULT 14 _ZNK4Json5Value8isMemberE
391:   FUNC GLOBAL DEFAULT 14 __floatundisf
392:   FUNC WEAK DEFAULT 14 _ZNKSt3__111basic_regexIc
393:   FUNC GLOBAL DEFAULT 14 _ZN4Json17ValueIteratorBa
394:   OBJECT GLOBAL DEFAULT 12 _ZN4Json5Value8maxInt64E
395:   FUNC GLOBAL DEFAULT 14 _ZN4Json13valueToStringEi
396:   FUNC GLOBAL DEFAULT 14 _ZN16CgroupController8IsU
397:   FUNC WEAK DEFAULT 14 _ZNSt3__16__treeINS_12__v
398:   FUNC GLOBAL DEFAULT 14 _ZN4Json5ValueaSES0_
399:   FUNC GLOBAL DEFAULT 14 _ZN4Json12PathArgumentC1E
400:   FUNC GLOBAL DEFAULT 14 _ZN4Json5Value5beginEv
401:   FUNC GLOBAL DEFAULT 14 _ZNK4Json5Value8CZString1
402:   FUNC WEAK DEFAULT 14 _ZNSt3__16vectorIPKN4Json
403:   FUNC GLOBAL DEFAULT 14 _ZN4Json13valueToStringEj
404:   FUNC GLOBAL DEFAULT 14 __aeabi_uidivmod
405:   OBJECT WEAK DEFAULT 18 _ZTVNSt3__116__back_ref_i
406:   FUNC GLOBAL DEFAULT 14 _ZNK4Json6Reader25getForm
407:   FUNC GLOBAL DEFAULT 14 _ZN4Json6ReaderC2Ev
408:   FUNC GLOBAL DEFAULT 14 _ZNK4Json5Value6asUIntEv
409:   FUNC WEAK DEFAULT 14 _ZNSt3__114__split_buffer
410:   FUNC WEAK DEFAULT 14 _ZNSt3__116__owns_one_sta
411:   FUNC WEAK DEFAULT 14 _ZNSt3__16vectorIcNS_9all
412:   FUNC GLOBAL DEFAULT 14 _ZN4Json6Reader12decodeDo
413:   FUNC GLOBAL DEFAULT 14 _ZN4Json6Reader16recoverF
414:   FUNC GLOBAL DEFAULT 14 _ZN4Json10FastWriter10wri
415:   FUNC GLOBAL DEFAULT 14 _ZN15SetCgroupAction18IsA
416:   FUNC WEAK DEFAULT 14 _ZNSt3__16vectorINS_9sub_
417:   FUNC GLOBAL DEFAULT 14 _ZN4Json17ValueIteratorBa
418:   FUNC GLOBAL DEFAULT 14 _ZN4Json5Value6appendERKS
419:   FUNC GLOBAL DEFAULT 14 _ZNK4Json4Path7resolveERK
420:   FUNC WEAK DEFAULT 14 _ZNSt3__16vectorINS_12bas
421:   FUNC GLOBAL DEFAULT 14 _ZN4Json6Reader22decodeUn
422:   OBJECT GLOBAL DEFAULT 12 _ZN4Json5Value6minIntE
423:   FUNC GLOBAL DEFAULT 14 _ZN4Json5Value11CommentIn
424:   FUNC GLOBAL DEFAULT 14 _ZNK4Json5Value8isUInt64E
425:   FUNC GLOBAL DEFAULT 14 _ZN4Json18StyledStreamWri
426:   FUNC WEAK DEFAULT 14 _ZNSt3__15dequeINS_7__sta
427:   OBJECT WEAK DEFAULT 18 _ZTVNSt3__120__match_char
428:   FUNC GLOBAL DEFAULT 14 schedboost_enabled
429:   FUNC GLOBAL DEFAULT 14 _ZNK4Json5Value4typeEv
430:   FUNC GLOBAL DEFAULT 14 _ZNK4Json5ValueixERKNSt3_
431:   FUNC WEAK DEFAULT 14 _ZNSt3__125__lexicographi
432:   OBJECT WEAK DEFAULT 18 _ZTVNSt3__112__match_char
433:   FUNC WEAK DEFAULT 14 _ZNSt3__15dequeIN4Json6Re
434:   FUNC GLOBAL DEFAULT 14 _ZNK4Json5ValueeqERKS0_
435:   FUNC GLOBAL DEFAULT 14 _ZNK4Json5ValuegeERKS0_
436:   FUNC GLOBAL DEFAULT 14 _ZNK4Json5Value10getComme
437:   FUNC GLOBAL DEFAULT 14 _ZNK4Json5Value7asInt64Ev
438:   FUNC WEAK DEFAULT 14 _ZNSt3__114__split_buffer
439:   FUNC WEAK DEFAULT 14 _ZNSt3__120__shared_ptr_p
440:   FUNC GLOBAL DEFAULT 14 _ZN4Json5ValueC1Ex
441:   FUNC GLOBAL DEFAULT 14 _ZN4Json18ValueConstItera
442:   FUNC GLOBAL DEFAULT 14 __udivmodsi4
443:   FUNC GLOBAL DEFAULT 14 _ZN4Json6Reader17readCSty
444:   FUNC GLOBAL DEFAULT 14 _ZN4Json5ValueC1Ey
445:   FUNC GLOBAL DEFAULT 14 _ZN4Json18ValueConstItera
446:   OBJECT GLOBAL DEFAULT 18 _ZN4Json8kNullRefE
447:   FUNC WEAK DEFAULT 14 _ZNKSt3__113match_results
448:   FUNC WEAK DEFAULT 14 _ZNKSt3__16__loopIcE6__ex
449:   FUNC GLOBAL DEFAULT 14 _ZN4Json13valueToStringEx
450:   FUNC GLOBAL DEFAULT 14 _ZN4Json5Value11CommentIn
451:   FUNC GLOBAL DEFAULT 14 _ZNK12TaskProfiles10GetPr
452:   FUNC GLOBAL DEFAULT 14 _ZNK18SetAttributeAction1
453:   FUNC GLOBAL DEFAULT 14 _ZN4Json13valueToStringEy
454:   FUNC GLOBAL DEFAULT 14 _ZN4Json5Value4swapERS0_
455:   FUNC GLOBAL DEFAULT 14 _ZN4Json18StyledStreamWri
456:   OBJECT WEAK DEFAULT 18 _ZTTNSt3__119basic_ostrin
457:   FUNC GLOBAL DEFAULT 14 _ZN4Json5Value11CommentIn
458:   FUNC GLOBAL DEFAULT 14 _ZN4Json5Value8CZStringC2
459:   FUNC GLOBAL DEFAULT 14 _ZNK4Json5Value3getEjRKS0
460:   OBJECT WEAK DEFAULT 18 _ZTVNSt3__119basic_ostrin
461:   FUNC GLOBAL DEFAULT 14 __fixdfdi
462:   FUNC GLOBAL DEFAULT 14 _ZN15SetCgroupActionC1ERK
463:   FUNC GLOBAL DEFAULT 14 _ZN4Json5ValueC1ERKNSt3__
464:   FUNC GLOBAL DEFAULT 14 _ZNK4Json6Reader24getLoca
465:   FUNC GLOBAL DEFAULT 14 _ZN4Json12PathArgumentC1E
466:   FUNC GLOBAL DEFAULT 14 _ZN4Json13ValueIteratorC1
467:   FUNC GLOBAL DEFAULT 14 _ZN4Json12StyledWriterC2E
468:   FUNC WEAK DEFAULT 14 _ZNSt3__16vectorINS_9sub_
469:   FUNC GLOBAL DEFAULT 14 _ZN4Json5Value3endEv
470:   FUNC GLOBAL DEFAULT 14 _ZNK4Json17ValueIteratorB
471:   FUNC GLOBAL DEFAULT 14 _ZN4Json10FastWriterC2Ev
472:   FUNC WEAK DEFAULT 14 _ZNSt3__114__split_buffer
473:   FUNC WEAK DEFAULT 14 _ZNSt3__15dequeIN4Json6Re
474:   FUNC GLOBAL DEFAULT 14 _ZN4Json17ValueIteratorBa
475:   FUNC WEAK DEFAULT 14 _ZNSt3__16vectorINS_12bas
476:   OBJECT WEAK DEFAULT 18 _ZTVNSt3__111__lookaheadI
477:   OBJECT WEAK DEFAULT 18 _ZTVNSt3__116__owns_one_s
478:   FUNC GLOBAL DEFAULT 14 _ZNK4Json5Value8isObjectE
479:   FUNC GLOBAL DEFAULT 14 _ZN4Json17ValueIteratorBa
480:   FUNC GLOBAL DEFAULT 14 _ZN4Json5ValueC1ERKNS_12S
481:   FUNC WEAK DEFAULT 14 _ZNSt3__111basic_regexIcN
482:   FUNC GLOBAL DEFAULT 14 _ZNK4Json6Reader19getStru
483:   FUNC WEAK DEFAULT 14 _ZNSt3__111basic_regexIcN
484:   FUNC WEAK DEFAULT 14 _ZNSt3__16vectorINS_9sub_
485:   FUNC GLOBAL DEFAULT 14 setProcessGroupSwappiness
486:   FUNC GLOBAL DEFAULT 14 _ZN4Json17ValueIteratorBa
487:   FUNC GLOBAL DEFAULT 14 _ZN4Json5Value8CZStringC1
488:   FUNC WEAK DEFAULT 14 _ZNSt3__111basic_regexIcN
489:   FUNC WEAK DEFAULT 14 _ZNSt3__111basic_regexIcN
490:   FUNC WEAK DEFAULT 14 _ZNSt3__16vectorINS_9sub_
491:   FUNC GLOBAL DEFAULT 14 SetTaskProfiles
492:   FUNC GLOBAL DEFAULT 14 set_cpuset_policy
493:   FUNC GLOBAL DEFAULT 14 _ZN4Json6Reader11expectTo
494:   FUNC GLOBAL DEFAULT 14 _ZNK4Json17ValueIteratorB
495:   FUNC GLOBAL DEFAULT 14 _ZNK4Json17ValueIteratorB
496:   FUNC GLOBAL DEFAULT 14 _ZNK4Json5ValueleERKS0_
497:   FUNC WEAK DEFAULT 14 _ZNSt3__16vectorINS_4pair
498:   OBJECT WEAK DEFAULT 18 _ZTVNSt3__118__match_char
499:   FUNC GLOBAL DEFAULT 14 _ZNK16ProfileAttribute14G
500:   FUNC GLOBAL DEFAULT 14 _ZN4Json18StyledStreamWri
501:   FUNC GLOBAL DEFAULT 14 __floatundidf
502:   FUNC WEAK DEFAULT 14 _ZNKSt3__118__match_char_
503:   OBJECT WEAK DEFAULT 18 _ZTVNSt3__120__shared_ptr
504:   FUNC GLOBAL DEFAULT 14 __aeabi_memclr4
505:   FUNC GLOBAL DEFAULT 14 _ZN4Json6Reader10readStri
506:   FUNC GLOBAL DEFAULT 14 _ZNK4Json5ValuegtERKS0_
507:   FUNC WEAK DEFAULT 14 _ZNSt3__16__treeINS_12__v
508:   FUNC GLOBAL DEFAULT 14 _ZN4Json12PathArgumentC2E
509:   FUNC GLOBAL DEFAULT 14 _ZN4Json12PathArgumentC2E
510:   FUNC GLOBAL DEFAULT 14 _ZN4Json5ValueC2ERKNSt3__
511:   OBJECT WEAK DEFAULT 18 _ZTVNSt3__117__owns_two_s
512:   FUNC GLOBAL DEFAULT 14 _ZN15SetCgroupAction14Add
513:   FUNC GLOBAL DEFAULT 14 _ZN4Json8FeaturesC1Ev
514:   FUNC GLOBAL DEFAULT 14 _ZNK4Json5Value5emptyEv
515:   FUNC GLOBAL DEFAULT 14 _ZNK4Json5Value8CZStringl
516:   FUNC GLOBAL DEFAULT 14 __aeabi_l2d
517:   FUNC GLOBAL DEFAULT 14 __aeabi_memcpy4
518:   FUNC WEAK DEFAULT 14 _ZNSt3__16__treeIiNS_4les
519:   FUNC GLOBAL DEFAULT 14 _ZN4Json6Reader5matchEPKc
520:   FUNC WEAK DEFAULT 14 _ZNSt3__114__split_buffer
521:   FUNC GLOBAL DEFAULT 14 _ZN4Json5ValueC2Eb
522:   FUNC GLOBAL DEFAULT 14 _ZNK4Json5Value9isNumeric
523:   FUNC GLOBAL DEFAULT 14 _ZN4Json12StyledWriter18h
524:   FUNC GLOBAL DEFAULT 14 CgroupGetControllerPath
525:   FUNC GLOBAL DEFAULT 14 __aeabi_l2f
526:   FUNC GLOBAL DEFAULT 14 __aeabi_memclr8
527:   FUNC WEAK DEFAULT 14 _ZNKSt3__116__back_ref_ic
528:   FUNC GLOBAL DEFAULT 14 killProcessGroupOnce
529:   FUNC GLOBAL DEFAULT 14 _ZN4Json5ValueC2Ed
530:   FUNC GLOBAL DEFAULT 14 _ZN4Json12StyledWriter9pu
531:   FUNC GLOBAL DEFAULT 14 _ZN4Json18StyledStreamWri
532:   FUNC WEAK DEFAULT 14 _ZNKSt3__111__end_stateIc
533:   FUNC WEAK DEFAULT 14 _ZNSt3__113__tree_removeI
534:   FUNC GLOBAL DEFAULT 14 setProcessGroupLimit
535:   FUNC GLOBAL DEFAULT 14 _ZN4Json5ValueC2EPKcS2_
536:   FUNC GLOBAL DEFAULT 14 _ZNK4Json5Value12isValidI
537:   OBJECT WEAK DEFAULT 18 _ZTCNSt3__119basic_ostrin
538:   FUNC GLOBAL DEFAULT 14 __aeabi_memcpy8
539:   FUNC GLOBAL DEFAULT 14 _ZNK9CgroupMap5PrintEv
540:   FUNC GLOBAL DEFAULT 14 _ZNK16CgroupController16G
541:   FUNC GLOBAL DEFAULT 14 _ZNK4Json5Value7isArrayEv
542:   FUNC GLOBAL DEFAULT 14 _ZN4Json6WriterD2Ev
543:   FUNC GLOBAL DEFAULT 14 __divdi3
544:   FUNC GLOBAL DEFAULT 14 _ZNK16CgroupController7ve
545:   FUNC GLOBAL DEFAULT 14 _ZN4Json5Value5clearEv
546:   FUNC GLOBAL DEFAULT 14 _ZNK4Json5Value13asLarges
547:   FUNC WEAK DEFAULT 14 _ZNSt3__111basic_regexIcN
548:   FUNC GLOBAL DEFAULT 14 SetProcessProfiles
549:   FUNC GLOBAL DEFAULT 14 removeAllProcessGroups
550:   FUNC GLOBAL DEFAULT 14 _ZN4Json5ValueC2Ei
551:   FUNC GLOBAL DEFAULT 14 _ZNK4Json5Value3getERKNSt
552:   FUNC WEAK DEFAULT 14 _ZNSt3__16vectorIN4Json12
553:   FUNC WEAK DEFAULT 14 _ZNSt3__111basic_regexIcN
554:   FUNC GLOBAL DEFAULT 14 _ZN4Json12StyledWriter5wr
555:   FUNC GLOBAL DEFAULT 14 _ZN4Json5Value16resolveRe
556:   FUNC GLOBAL DEFAULT 14 _ZN4Json5ValueC2Ej
557:   FUNC WEAK DEFAULT 14 _ZNSt3__117__owns_two_sta
558:   FUNC GLOBAL DEFAULT 14 _ZN4Json6Reader5parseERNS
559:   FUNC GLOBAL DEFAULT 14 _ZN4Json13ValueIteratorC1
560:   OBJECT GLOBAL DEFAULT 12 _ZN4Json5Value8minInt64E
561:   FUNC GLOBAL DEFAULT 14 _ZNK4Json17ValueIteratorB
562:   FUNC GLOBAL DEFAULT 14 _ZN4Json19valueToQuotedSt
563:   OBJECT WEAK DEFAULT 18 _ZTVNSt3__115basic_string
564:   FUNC WEAK DEFAULT 14 _ZNSt3__114regex_iterator
565:   FUNC GLOBAL DEFAULT 14 _ZNK15SetCgroupAction14Ex
566:   FUNC WEAK DEFAULT 14 _ZNSt3__16__treeINS_12__v
567:   FUNC GLOBAL DEFAULT 14 _ZN4Json12PathArgumentC2E
568:   FUNC GLOBAL DEFAULT 14 _ZN4Json13ValueIteratorC2
569:   FUNC GLOBAL DEFAULT 14 _ZNK4Json5Value15isConver
570:   FUNC GLOBAL DEFAULT 14 _ZN4Json6Reader19readCppS
571:   FUNC GLOBAL DEFAULT 14 _ZN4Json4Path11invalidPat
572:   FUNC GLOBAL DEFAULT 14 _ZN9CgroupMap11GetInstanc
573:   FUNC WEAK DEFAULT 14 _ZNSt3__112__deque_baseIN
574:   FUNC WEAK DEFAULT 14 _ZNSt3__15dequeIPN4Json5V
575:   FUNC GLOBAL DEFAULT 14 _ZN4Json13ValueIteratorC1
576:   FUNC GLOBAL DEFAULT 14 __udivsi3
577:   FUNC WEAK DEFAULT 14 _ZNKSt3__120__bracket_exp
578:   FUNC WEAK DEFAULT 14 _ZNSt3__111basic_regexIcN
579:   FUNC GLOBAL DEFAULT 14 _ZN4Json4PathC1ERKNSt3__1
580:   FUNC GLOBAL DEFAULT 14 _ZN4Json5Value8CZStringC1
581:   FUNC GLOBAL DEFAULT 14 _ZN4Json5ValueixEPKc
582:   FUNC GLOBAL DEFAULT 14 _ZNK4Json6Reader24getLoca
583:   FUNC WEAK DEFAULT 14 _ZNKSt3__115basic_stringb
584:   FUNC GLOBAL DEFAULT 14 _ZN4Json5Value12removeMem
585:   OBJECT GLOBAL DEFAULT 18 _ZN4Json5Value4nullE
586:   FUNC GLOBAL DEFAULT 14 __aeabi_d2ulz
587:   FUNC GLOBAL DEFAULT 14 __divmoddi4
588:   FUNC WEAK DEFAULT 14 _ZNKSt3__112regex_traitsI
589:   FUNC GLOBAL DEFAULT 14 _ZN4Json6Reader12decodeNu
590:   FUNC GLOBAL DEFAULT 14 _ZNK4Json6Reader4goodEv
591:   FUNC WEAK DEFAULT 14 _ZNKSt3__112regex_traitsI
592:   FUNC GLOBAL DEFAULT 14 _ZNK11TaskProfile17Execut
593:   FUNC GLOBAL DEFAULT 14 _ZN9CgroupMap10LoadRcFile
594:   FUNC WEAK DEFAULT 14 _ZNKSt3__112regex_traitsI
595:   FUNC WEAK DEFAULT 14 _ZNSt3__111basic_regexIcN
596:   FUNC WEAK DEFAULT 14 _ZNSt3__111basic_regexIcN
597:   FUNC WEAK DEFAULT 14 _ZNKSt3__16__treeINS_12__
598:   FUNC WEAK DEFAULT 14 _ZNSt3__113regex_replaceI
599:   FUNC WEAK DEFAULT 14 _ZNSt3__116__owns_one_sta
600:   FUNC GLOBAL DEFAULT 14 _ZN4Json5Value8CZStringaS
601:   FUNC GLOBAL DEFAULT 14 _ZN4JsonlsERNSt3__113basi
602:   FUNC GLOBAL DEFAULT 14 _ZN4Json5Value12removeMem
603:   FUNC GLOBAL DEFAULT 14 _ZNK4Json5ValueixEi
604:   FUNC GLOBAL DEFAULT 14 _ZN4Json18StyledStreamWri
605:   FUNC GLOBAL DEFAULT 14 __floatdisf
606:   FUNC GLOBAL DEFAULT 14 __udivmoddi4
607:   OBJECT WEAK DEFAULT 18 _ZTVNSt3__16__loopIcEE
608:   FUNC GLOBAL DEFAULT 14 _ZN4Json5ValueD1Ev
609:   FUNC GLOBAL DEFAULT 14 _ZNK4Json5ValueixEj
610:   FUNC GLOBAL DEFAULT 14 _ZN4Json5ValueC2Ex
611:   FUNC GLOBAL DEFAULT 14 _ZN4Json12StyledWriter11w
612:   FUNC GLOBAL DEFAULT 14 _ZN4Json18StyledStreamWri
613:   OBJECT GLOBAL DEFAULT 18 _ZTVN4Json10FastWriterE
614:   FUNC GLOBAL DEFAULT 14 __aeabi_memclr
615:   FUNC WEAK DEFAULT 14 _ZNKSt3__115__word_bounda
616:   FUNC GLOBAL DEFAULT 14 _ZN12TaskProfiles11GetIns
617:   FUNC GLOBAL DEFAULT 14 _ZN4Json18ValueConstItera
618:   OBJECT GLOBAL DEFAULT 12 _ZN4Json5Value9maxUInt64E
619:   FUNC GLOBAL DEFAULT 14 _ZN4Json5ValueC1EPKcS2_
620:   FUNC GLOBAL DEFAULT 14 _ZN4Json5ValueC2Ey
621:   FUNC GLOBAL DEFAULT 14 __fixunsdfdi
622:   FUNC GLOBAL DEFAULT 14 _ZN4Json6ReaderC2ERKNS_8F
623:   FUNC GLOBAL DEFAULT 14 _ZN4Json5ValueC2ERKNS_12S
624:   FUNC GLOBAL DEFAULT 14 _ZNK4Json5Value6isBoolEv
625:   FUNC GLOBAL DEFAULT 14 _ZNK4Json5Value8CZString5
626:   FUNC GLOBAL DEFAULT 14 _ZN4Json12StyledWriter6in
627:   FUNC GLOBAL DEFAULT 14 _ZNK15SetClampsAction17Ex
628:   OBJECT GLOBAL DEFAULT 18 _ZTV15SetCgroupAction
629:   FUNC GLOBAL DEFAULT 14 _ZN4Json6Reader9pushError
630:   FUNC GLOBAL DEFAULT 14 _ZNK4Json5Value5asIntEv
631:   FUNC GLOBAL DEFAULT 14 _ZNK4Json5Value7compareER
632:   FUNC WEAK DEFAULT 14 _ZNKSt3__110__back_refIcE
633:   FUNC WEAK DEFAULT 14 _ZNSt3__124__put_characte
634:   FUNC WEAK DEFAULT 14 _ZNSt3__15dequeINS_7__sta
635:   OBJECT WEAK DEFAULT 18 _ZTVNSt3__111__match_anyI
636:   FUNC GLOBAL DEFAULT 14 _ZN4Json4Path12addPathInA
637:   FUNC GLOBAL DEFAULT 14 _ZN4Json5Value11CommentIn
638:   FUNC WEAK DEFAULT 14 _ZNSt3__111basic_regexIcN
639:   FUNC GLOBAL DEFAULT 14 _ZNK18SetAttributeAction1
640:   OBJECT GLOBAL DEFAULT 18 _ZTV15SetClampsAction
641:   FUNC GLOBAL DEFAULT 14 _ZNK4Json6Reader24getForm
642:   FUNC GLOBAL DEFAULT 14 __aeabi_uidiv
643:   FUNC WEAK DEFAULT 14 _ZNSt3__111basic_regexIcN
644:   OBJECT WEAK DEFAULT 18 _ZTVNSt3__117__repeat_one
645:   FUNC GLOBAL DEFAULT 14 __aeabi_uldivmod
646:   FUNC GLOBAL DEFAULT 14 _ZNK4Json5ValueltERKS0_
647:   FUNC GLOBAL DEFAULT 14 _ZN4Json18StyledStreamWri
648:   FUNC WEAK DEFAULT 14 _ZNSt3__111basic_regexIcN
649:   FUNC GLOBAL DEFAULT 14 _ZN4Json6Reader11readComm
650:   FUNC GLOBAL DEFAULT 14 _ZN4Json13ValueIteratorC2
651:   OBJECT WEAK DEFAULT 18 _ZTVNSt3__113__empty_stat
652:   OBJECT WEAK DEFAULT 18 _ZTVNSt3__123__match_any_
653:   FUNC GLOBAL DEFAULT 14 __aeabi_memcpy
654:   FUNC GLOBAL DEFAULT 14 __aeabi_ldivmod
655:   FUNC GLOBAL DEFAULT 14 _ZN15SetCgroupAction21Ena
656:   FUNC GLOBAL DEFAULT 14 _ZN4Json6Reader8addErrorE
657:   FUNC GLOBAL DEFAULT 14 _ZNK4Json5Value9asCString
658:   FUNC WEAK DEFAULT 14 _ZNSt3__16__treeINS_12__v
659:   FUNC WEAK DEFAULT 14 _ZNSt3__115basic_stringbu
