 0x0000000e (SONAME)                     Library soname: [android.hardware.health@1.0.so]
  
Symbol   contains 251 entries:
Num:   Type Bind Vis Ndx Name
0:   NOTYPE LOCAL DEFAULT UND
1:   FUNC GLOBAL DEFAULT UND __cxa_finalize@LIBC (2)
2:   FUNC GLOBAL DEFAULT UND _ZN7android14sp_report_ra
3:   FUNC GLOBAL DEFAULT UND _ZN7android21report_syspr
4:   OBJECT GLOBAL DEFAULT UND _ZN7android4hidl4base4V1_
5:   FUNC GLOBAL DEFAULT UND _ZN7android4hidl4base4V1_
6:   FUNC GLOBAL DEFAULT UND _ZN7android4hidl4base4V1_
7:   FUNC GLOBAL DEFAULT UND _ZN7android4hidl4base4V1_
8:   FUNC GLOBAL DEFAULT UND _ZN7android4hidl4base4V1_
9:   FUNC GLOBAL DEFAULT UND _ZN7android4hidl4base4V1_
10:   FUNC GLOBAL DEFAULT UND _ZN7android4hidl4base4V1_
11:   FUNC GLOBAL DEFAULT UND _ZN7android4hidl4base4V1_
12:   FUNC GLOBAL DEFAULT UND _ZN7android4hidl4base4V1_
13:   FUNC GLOBAL DEFAULT UND _ZN7android4hidl4base4V1_
14:   FUNC GLOBAL DEFAULT UND _ZN7android4hidl4base4V1_
15:   FUNC GLOBAL DEFAULT UND _ZN7android4hidl4base4V1_
16:   FUNC GLOBAL DEFAULT UND _ZN7android4hidl4base4V1_
17:   FUNC GLOBAL DEFAULT UND _ZN7android4hidl4base4V1_
18:   FUNC GLOBAL DEFAULT UND _ZN7android4hidl4base4V1_
19:   FUNC GLOBAL DEFAULT UND _ZN7android4hidl4base4V1_
20:   FUNC GLOBAL DEFAULT UND _ZN7android4hidl4base4V1_
21:   FUNC GLOBAL DEFAULT UND _ZN7android4hidl4base4V1_
22:   FUNC GLOBAL DEFAULT UND _ZN7android4hidl4base4V1_
23:   FUNC GLOBAL DEFAULT UND _ZN7android4hidl4base4V1_
24:   FUNC GLOBAL DEFAULT UND _ZN7android4hidl4base4V1_
25:   FUNC GLOBAL DEFAULT UND _ZN7android4hidl4base4V1_
26:   FUNC GLOBAL DEFAULT UND _ZN7android4hidl4base4V1_
27:   FUNC GLOBAL DEFAULT UND _ZN7android4hidl4base4V1_
28:   FUNC GLOBAL DEFAULT UND _ZN7android7RefBase10onFi
29:   FUNC GLOBAL DEFAULT UND _ZN7android7RefBase12weak
30:   FUNC GLOBAL DEFAULT UND _ZN7android7RefBase13onLa
31:   FUNC GLOBAL DEFAULT UND _ZN7android7RefBase15onLa
32:   FUNC GLOBAL DEFAULT UND _ZN7android7RefBase20onIn
33:   FUNC GLOBAL DEFAULT UND _ZN7android7RefBaseC2Ev
34:   FUNC GLOBAL DEFAULT UND _ZN7android7RefBaseD2Ev
35:   FUNC GLOBAL DEFAULT UND _ZN7android8hardware10IIn
36:   FUNC GLOBAL DEFAULT UND _ZN7android8hardware10IIn
37:   FUNC GLOBAL DEFAULT UND _ZN7android8hardware10IIn
38:   FUNC GLOBAL DEFAULT UND _ZN7android8hardware10IIn
39:   FUNC GLOBAL DEFAULT UND _ZN7android8hardware10IIn
40:   FUNC GLOBAL DEFAULT UND _ZN7android8hardware11BpH
41:   FUNC GLOBAL DEFAULT UND _ZN7android8hardware11BpH
42:   FUNC GLOBAL DEFAULT UND _ZN7android8hardware11BpH
43:   FUNC GLOBAL DEFAULT UND _ZN7android8hardware11BpH
44:   FUNC GLOBAL DEFAULT UND _ZN7android8hardware11BpH
45:   FUNC GLOBAL DEFAULT UND _ZN7android8hardware11BpH
46:   FUNC GLOBAL DEFAULT UND _ZN7android8hardware11BpH
47:   FUNC GLOBAL DEFAULT UND _ZN7android8hardware11hid
48:   FUNC GLOBAL DEFAULT UND _ZN7android8hardware11hid
49:   FUNC GLOBAL DEFAULT UND _ZN7android8hardware11hid
50:   FUNC GLOBAL DEFAULT UND _ZN7android8hardware11hid
51:   FUNC GLOBAL DEFAULT UND _ZN7android8hardware11hid
52:   FUNC GLOBAL DEFAULT UND _ZN7android8hardware12Pro
53:   FUNC GLOBAL DEFAULT UND _ZN7android8hardware12Pro
54:   FUNC GLOBAL DEFAULT UND _ZN7android8hardware13wri
55:   FUNC GLOBAL DEFAULT UND _ZN7android8hardware14rea
56:   FUNC GLOBAL DEFAULT UND _ZN7android8hardware21def
57:   FUNC GLOBAL DEFAULT UND _ZN7android8hardware23get
58:   FUNC GLOBAL DEFAULT UND _ZN7android8hardware27hid
59:   FUNC GLOBAL DEFAULT UND _ZN7android8hardware27hid
60:   FUNC GLOBAL DEFAULT UND _ZN7android8hardware6Parc
61:   FUNC GLOBAL DEFAULT UND _ZN7android8hardware6Parc
62:   FUNC GLOBAL DEFAULT UND _ZN7android8hardware6Parc
63:   FUNC GLOBAL DEFAULT UND _ZN7android8hardware6Parc
64:   FUNC GLOBAL DEFAULT UND _ZN7android8hardware6Parc
65:   FUNC GLOBAL DEFAULT UND _ZN7android8hardware6Parc
66:   FUNC GLOBAL DEFAULT UND _ZN7android8hardware6Parc
67:   FUNC GLOBAL DEFAULT UND _ZN7android8hardware6Stat
68:   FUNC GLOBAL DEFAULT UND _ZN7android8hardware6Stat
69:   FUNC GLOBAL DEFAULT UND _ZN7android8hardware6Stat
70:   FUNC GLOBAL DEFAULT UND _ZN7android8hardware6Stat
71:   FUNC GLOBAL DEFAULT UND _ZN7android8hardware7IBin
72:   FUNC GLOBAL DEFAULT UND _ZN7android8hardware7IBin
73:   FUNC GLOBAL DEFAULT UND _ZN7android8hardware7IBin
74:   FUNC GLOBAL DEFAULT UND _ZN7android8hardware7IBin
75:   FUNC GLOBAL DEFAULT UND _ZN7android8hardware7deta
76:   FUNC GLOBAL DEFAULT UND _ZN7android8hardware7deta
77:   FUNC GLOBAL DEFAULT UND _ZN7android8hardware7deta
78:   FUNC GLOBAL DEFAULT UND _ZN7android8hardware7deta
79:   FUNC GLOBAL DEFAULT UND _ZN7android8hardware7deta
80:   FUNC GLOBAL DEFAULT UND _ZN7android8hardware7deta
81:   FUNC GLOBAL DEFAULT UND _ZN7android8hardware7deta
82:   OBJECT GLOBAL DEFAULT UND _ZN7android8hardware7deta
83:   OBJECT GLOBAL DEFAULT UND _ZN7android8hardware7deta
84:   FUNC GLOBAL DEFAULT UND _ZN7android8hardware7deta
85:   FUNC GLOBAL DEFAULT UND _ZN7android8hardware7deta
86:   FUNC GLOBAL DEFAULT UND _ZN7android8hardware7deta
87:   FUNC GLOBAL DEFAULT UND _ZN7android8hardware7deta
88:   FUNC GLOBAL DEFAULT UND _ZN7android8hardware7deta
89:   FUNC GLOBAL DEFAULT UND _ZN7android8hardware7deta
90:   FUNC GLOBAL DEFAULT UND _ZN7android8hardware7deta
91:   FUNC GLOBAL DEFAULT UND _ZN7android8hardware7deta
92:   FUNC GLOBAL DEFAULT UND _ZN7android8hardware7deta
93:   OBJECT GLOBAL DEFAULT UND _ZN7android8hardware7deta
94:   FUNC GLOBAL DEFAULT UND _ZN7android8hardware9BHwB
95:   FUNC GLOBAL DEFAULT UND _ZN7android8hardware9BHwB
96:   FUNC GLOBAL DEFAULT UND _ZN7android8hardware9BHwB
97:   FUNC GLOBAL DEFAULT UND _ZN7android8hardware9BHwB
98:   FUNC GLOBAL DEFAULT UND _ZN7android8hardware9BHwB
99:   FUNC GLOBAL DEFAULT UND _ZN7android8hardware9BHwB
100:   FUNC GLOBAL DEFAULT UND _ZN7android8hardware9BHwB
101:   FUNC GLOBAL DEFAULT UND _ZN7android8hardware9BHwB
102:   FUNC GLOBAL DEFAULT UND _ZN7android8hardware9BHwB
103:   FUNC GLOBAL DEFAULT UND _ZN7android8hardware9BHwB
104:   FUNC GLOBAL DEFAULT UND _ZNK7android7RefBase10cre
105:   FUNC GLOBAL DEFAULT UND _ZNK7android7RefBase11get
106:   FUNC GLOBAL DEFAULT UND _ZNK7android7RefBase9decS
107:   FUNC GLOBAL DEFAULT UND _ZNK7android7RefBase9incS
108:   FUNC GLOBAL DEFAULT UND _ZNK7android8hardware6Par
109:   FUNC GLOBAL DEFAULT UND _ZNK7android8hardware6Par
110:   FUNC GLOBAL DEFAULT UND _ZNK7android8hardware6Par
111:   FUNC GLOBAL DEFAULT UND _ZNK7android8hardware6Par
112:   FUNC GLOBAL DEFAULT UND _ZNK7android8hardware6Par
113:   FUNC GLOBAL DEFAULT UND _ZNK7android8hardware7IBi
114:   FUNC GLOBAL DEFAULT UND _ZNK7android8hardware7det
115:   FUNC GLOBAL DEFAULT UND _ZNK7android8hardware9BHw
116:   FUNC GLOBAL DEFAULT UND _ZNKSt3__120__vector_base
117:   FUNC GLOBAL DEFAULT UND _ZNKSt3__121__basic_strin
118:   FUNC GLOBAL DEFAULT UND _ZNSt3__112basic_stringIc
119:   FUNC GLOBAL DEFAULT UND _ZNSt3__15mutex4lockEv
120:   FUNC GLOBAL DEFAULT UND _ZNSt3__15mutex6unlockEv
121:   FUNC GLOBAL DEFAULT UND _ZNSt3__15mutexD1Ev
122:   FUNC GLOBAL DEFAULT UND _ZTv0_n12_N7android4hidl4
123:   FUNC GLOBAL DEFAULT UND _ZTv0_n12_N7android4hidl4
124:   FUNC GLOBAL DEFAULT UND _ZTv0_n12_N7android8hardw
125:   FUNC GLOBAL DEFAULT UND _ZTv0_n12_N7android8hardw
126:   FUNC GLOBAL DEFAULT UND _ZTv0_n12_N7android8hardw
127:   FUNC GLOBAL DEFAULT UND _ZTv0_n12_N7android8hardw
128:   FUNC GLOBAL DEFAULT UND _ZTv0_n12_N7android8hardw
129:   FUNC GLOBAL DEFAULT UND _ZTv0_n12_N7android8hardw
130:   FUNC GLOBAL DEFAULT UND _ZTv0_n12_N7android8hardw
131:   FUNC GLOBAL DEFAULT UND _ZTv0_n12_N7android8hardw
132:   FUNC GLOBAL DEFAULT UND _ZTv0_n16_N7android8hardw
133:   FUNC GLOBAL DEFAULT UND _ZTv0_n20_N7android8hardw
134:   FUNC GLOBAL DEFAULT UND _ZTv0_n24_N7android8hardw
135:   FUNC GLOBAL DEFAULT UND _ZdaPv
136:   FUNC GLOBAL DEFAULT UND _ZdlPv
137:   FUNC GLOBAL DEFAULT UND _Znaj
138:   FUNC GLOBAL DEFAULT UND _Znwj
139:   FUNC GLOBAL DEFAULT UND __android_log_assert@LIBLOG (3)
140:   FUNC GLOBAL DEFAULT UND __cxa_pure_virtual
141:   FUNC GLOBAL DEFAULT UND __stack_chk_fail@LIBC (2)
142:   OBJECT GLOBAL DEFAULT UND __stack_chk_guard@LIBC (2)
143:   FUNC GLOBAL DEFAULT UND abort@LIBC (2)
144:   FUNC GLOBAL DEFAULT UND atrace_begin_body
145:   OBJECT GLOBAL DEFAULT UND atrace_enabled_tags
146:   FUNC GLOBAL DEFAULT UND atrace_end_body
147:   OBJECT GLOBAL DEFAULT UND atrace_is_ready
148:   FUNC GLOBAL DEFAULT UND atrace_setup
149:   FUNC GLOBAL DEFAULT UND memcmp@LIBC (2)
150:   FUNC GLOBAL DEFAULT UND strlen@LIBC (2)
151:   FUNC GLOBAL DEFAULT UND _ZN7android8hardware21wri
152:   FUNC GLOBAL DEFAULT UND _ZN7android8hardware22rea
153:   FUNC GLOBAL DEFAULT UND memcpy@LIBC (2)
154:   FUNC GLOBAL DEFAULT UND memset@LIBC (2)
155:   FUNC GLOBAL DEFAULT 14 _ZN7android8hardware6heal
156:   FUNC GLOBAL DEFAULT 14 _ZN7android8hardware6heal
157:   FUNC GLOBAL DEFAULT 14 _ZN7android8hardware6heal
158:   FUNC WEAK DEFAULT 14 _ZNSt3__16vectorINS_8func
159:   OBJECT GLOBAL DEFAULT 18 _ZTCN7android8hardware6he
160:   OBJECT GLOBAL DEFAULT 18 _ZTCN7android8hardware6he
161:   FUNC GLOBAL DEFAULT 14 _ZThn20_N7android8hardwar
162:   FUNC GLOBAL DEFAULT 14 _ZN7android8hardware6heal
163:   FUNC GLOBAL DEFAULT 14 _ZN7android8hardware6heal
164:   FUNC GLOBAL DEFAULT 14 _ZN7android8hardware6heal
165:   FUNC GLOBAL DEFAULT 14 _ZN7android8hardware6heal
166:   FUNC WEAK DEFAULT 14 _ZNSt3__16vectorIPvNS_9al
167:   FUNC GLOBAL DEFAULT 14 _ZN7android8hardware6heal
168:   FUNC WEAK DEFAULT 14 _ZNSt3__16__treeINS_12__v
169:   FUNC GLOBAL DEFAULT 14 _ZN7android8hardware6heal
170:   FUNC WEAK DEFAULT 14 _ZNSt3__16__treeINS_12__v
171:   OBJECT GLOBAL DEFAULT 18 _ZTCN7android8hardware6he
172:   OBJECT GLOBAL DEFAULT 18 _ZTTN7android8hardware6he
173:   FUNC GLOBAL DEFAULT 14 _ZN7android8hardware6heal
174:   FUNC GLOBAL DEFAULT 14 _ZN7android8hardware6heal
175:   OBJECT GLOBAL DEFAULT 18 _ZTVN7android8hardware6he
176:   FUNC GLOBAL DEFAULT 14 _ZN7android8hardware6heal
177:   FUNC GLOBAL DEFAULT 14 _ZTv0_n12_N7android8hardw
178:   FUNC GLOBAL DEFAULT 14 _ZN7android8hardware6heal
179:   OBJECT GLOBAL DEFAULT 18 _ZTCN7android8hardware6he
180:   OBJECT GLOBAL DEFAULT 18 _ZTVN7android8hardware6he
181:   FUNC GLOBAL DEFAULT 14 __aeabi_memset
182:   FUNC GLOBAL DEFAULT 14 _ZN7android8hardware6heal
183:   FUNC GLOBAL DEFAULT 14 _ZN7android8hardware6heal
184:   FUNC GLOBAL DEFAULT 14 _ZN7android8hardware6heal
185:   FUNC GLOBAL DEFAULT 14 __aeabi_memclr4
186:   FUNC GLOBAL DEFAULT 14 _ZN7android8hardware6heal
187:   FUNC GLOBAL DEFAULT 14 _ZN7android8hardware6heal
188:   FUNC WEAK DEFAULT 14 _ZN7android8hardware7deta
189:   FUNC GLOBAL DEFAULT 14 _ZThn20_N7android8hardwar
190:   FUNC GLOBAL DEFAULT 14 _ZN7android8hardware6heal
191:   FUNC GLOBAL DEFAULT 14 _ZN7android8hardware6heal
192:   OBJECT WEAK DEFAULT 18 _ZTVN7android8hardware6he
193:   FUNC GLOBAL DEFAULT 14 _ZN7android8hardware6heal
194:   FUNC GLOBAL DEFAULT 14 _ZN7android8hardware6heal
195:   FUNC GLOBAL DEFAULT 14 _ZN7android8hardware6heal
196:   FUNC GLOBAL DEFAULT 14 _ZN7android8hardware6heal
197:   FUNC GLOBAL DEFAULT 14 _ZN7android8hardware6heal
198:   FUNC GLOBAL DEFAULT 14 _ZN7android8hardware6heal
199:   FUNC GLOBAL DEFAULT 14 __aeabi_memcpy4
200:   FUNC GLOBAL DEFAULT 14 __aeabi_memset4
201:   FUNC GLOBAL DEFAULT 14 _ZN7android8hardware6heal
202:   FUNC GLOBAL DEFAULT 14 __aeabi_memclr8
203:   FUNC GLOBAL DEFAULT 14 _ZN7android8hardware6heal
204:   FUNC GLOBAL DEFAULT 14 _ZN7android8hardware6heal
205:   FUNC GLOBAL DEFAULT 14 _ZN7android8hardware6heal
206:   FUNC WEAK DEFAULT 14 _ZNSt3__16__treeINS_12__v
207:   OBJECT GLOBAL DEFAULT 18 _ZTCN7android8hardware6he
208:   OBJECT GLOBAL DEFAULT 18 _ZTTN7android8hardware6he
209:   OBJECT GLOBAL DEFAULT 18 _ZTVN7android8hardware6he
210:   FUNC GLOBAL DEFAULT 14 _ZN7android8hardware6heal
211:   FUNC GLOBAL DEFAULT 14 _ZN7android8hardware6heal
212:   FUNC WEAK DEFAULT 14 _ZNSt3__16__treeINS_12__v
213:   FUNC GLOBAL DEFAULT 14 _ZN7android8hardware6heal
214:   OBJECT GLOBAL DEFAULT 18 _ZTCN7android8hardware6he
215:   FUNC GLOBAL DEFAULT 14 _ZTv0_n12_N7android8hardw
216:   FUNC GLOBAL DEFAULT 14 __aeabi_memcpy
217:   FUNC GLOBAL DEFAULT 14 __aeabi_memcpy8
218:   FUNC GLOBAL DEFAULT 14 __aeabi_memset8
219:   FUNC GLOBAL DEFAULT 14 _ZN7android8hardware6heal
220:   FUNC GLOBAL DEFAULT 14 _ZN7android8hardware6heal
221:   FUNC GLOBAL DEFAULT 14 _ZN7android8hardware6heal
222:   FUNC GLOBAL DEFAULT 14 _ZN7android8hardware6heal
223:   FUNC WEAK DEFAULT 14 _ZNSt3__16__treeINS_12__v
224:   FUNC WEAK DEFAULT 14 _ZNSt3__16vectorIN7androi
225:   FUNC GLOBAL DEFAULT 14 _ZN7android8hardware6heal
226:   FUNC GLOBAL DEFAULT 14 _ZN7android8hardware6heal
227:   OBJECT GLOBAL DEFAULT 18 _ZTCN7android8hardware6he
228:   FUNC GLOBAL DEFAULT 14 _ZN7android8hardware6heal
229:   FUNC GLOBAL DEFAULT 14 _ZN7android8hardware6heal
230:   OBJECT GLOBAL DEFAULT 16 _ZN7android8hardware6heal
231:   OBJECT WEAK DEFAULT 18 _ZTCN7android8hardware6he
232:   OBJECT GLOBAL DEFAULT 18 _ZTTN7android8hardware6he
233:   FUNC GLOBAL DEFAULT 14 _ZN7android8hardware6heal
234:   FUNC GLOBAL DEFAULT 14 _ZN7android8hardware6heal
235:   FUNC GLOBAL DEFAULT 14 _ZN7android8hardware6heal
236:   FUNC WEAK DEFAULT 14 _ZNSt3__113__tree_removeI
237:   OBJECT GLOBAL DEFAULT 18 _ZTCN7android8hardware6he
238:   FUNC GLOBAL DEFAULT 14 __aeabi_memclr
239:   FUNC GLOBAL DEFAULT 14 _ZN7android8hardware6heal
240:   FUNC GLOBAL DEFAULT 14 _ZN7android8hardware6heal
241:   FUNC GLOBAL DEFAULT 14 _ZN7android8hardware6heal
242:   FUNC WEAK DEFAULT 14 _ZN7android8hardware7deta
243:   FUNC GLOBAL DEFAULT 14 _ZN7android8hardware6heal
244:   FUNC GLOBAL DEFAULT 14 _ZN7android8hardware6heal
245:   FUNC GLOBAL DEFAULT 14 _ZN7android8hardware6heal
246:   FUNC GLOBAL DEFAULT 14 _ZN7android8hardware6heal
247:   FUNC WEAK DEFAULT 14 _ZNSt3__127__tree_balance
248:   FUNC WEAK DEFAULT 14 _ZNSt3__16__treeINS_12__v
249:   OBJECT GLOBAL DEFAULT 18 _ZTCN7android8hardware6he
250:   FUNC GLOBAL DEFAULT 14 _ZN7android8hardware6heal
