 0x000000000000000e (SONAME)             Library soname: [libbootloader_message.so]
  
Symbol   contains 158 entries:
Num:   Type Bind Vis Ndx Name
0:   NOTYPE LOCAL DEFAULT UND
1:   FUNC GLOBAL DEFAULT UND __cxa_finalize@LIBC (2)
2:   FUNC GLOBAL DEFAULT UND __cxa_atexit@LIBC (2)
3:   FUNC GLOBAL DEFAULT UND _ZN7android4base10WriteFu
4:   FUNC GLOBAL DEFAULT UND _ZN7android4base12StringP
5:   FUNC GLOBAL DEFAULT UND _ZN7android4base9ReadFull
6:   FUNC GLOBAL DEFAULT UND _ZNKSt3__112basic_stringI
7:   FUNC GLOBAL DEFAULT UND _ZNKSt3__121__basic_strin
8:   FUNC GLOBAL DEFAULT UND _ZNSt3__112basic_stringIc
9:   FUNC GLOBAL DEFAULT UND _ZNSt3__112basic_stringIc
10:   FUNC GLOBAL DEFAULT UND _ZNSt3__112basic_stringIc
11:   FUNC GLOBAL DEFAULT UND _ZNSt3__112basic_stringIc
12:   FUNC GLOBAL DEFAULT UND _ZNSt3__112basic_stringIc
13:   FUNC GLOBAL DEFAULT UND _ZNSt3__112basic_stringIc
14:   FUNC GLOBAL DEFAULT UND _ZdlPv
15:   FUNC GLOBAL DEFAULT UND _Znwm
16:   FUNC GLOBAL DEFAULT UND __errno@LIBC (2)
17:   FUNC GLOBAL DEFAULT UND __open_2@LIBC (2)
18:   FUNC GLOBAL DEFAULT UND __stack_chk_fail@LIBC (2)
19:   FUNC GLOBAL DEFAULT UND __strlcat_chk@LIBC (2)
20:   FUNC GLOBAL DEFAULT UND __strlcpy_chk@LIBC (2)
21:   FUNC WEAK DEFAULT UND android_fdsan_close_with_@LIBC_Q (3)
22:   FUNC WEAK DEFAULT UND android_fdsan_create_owne@LIBC_Q (3)
23:   FUNC WEAK DEFAULT UND android_fdsan_exchange_ow@LIBC_Q (3)
24:   FUNC GLOBAL DEFAULT UND close@LIBC (2)
25:   FUNC GLOBAL DEFAULT UND fsync@LIBC (2)
26:   FUNC GLOBAL DEFAULT UND lseek@LIBC (2)
27:   FUNC GLOBAL DEFAULT UND memcpy@LIBC (2)
28:   FUNC GLOBAL DEFAULT UND memset@LIBC (2)
29:   FUNC GLOBAL DEFAULT UND sleep@LIBC (2)
30:   FUNC GLOBAL DEFAULT UND stat@LIBC (2)
31:   FUNC GLOBAL DEFAULT UND strerror@LIBC (2)
32:   FUNC GLOBAL DEFAULT UND strlen@LIBC (2)
33:   FUNC GLOBAL DEFAULT UND _ZN7android4base10LogMess
34:   FUNC GLOBAL DEFAULT UND _ZN7android4base10LogMess
35:   FUNC GLOBAL DEFAULT UND _ZN7android4base10LogMess
36:   FUNC GLOBAL DEFAULT UND _ZN7android4base10StartsW
37:   FUNC GLOBAL DEFAULT UND _ZN7android4base16ReadFil
38:   FUNC GLOBAL DEFAULT UND _ZN7android4base21GetMini
39:   FUNC GLOBAL DEFAULT UND _ZN7android4base5SplitERK
40:   FUNC GLOBAL DEFAULT UND _ZN7android4base8Basename
41:   FUNC GLOBAL DEFAULT UND _ZNKSt3__112basic_stringI
42:   FUNC GLOBAL DEFAULT UND _ZNKSt3__120__vector_base
43:   FUNC GLOBAL DEFAULT UND _ZNKSt3__16locale9use_fac
44:   FUNC GLOBAL DEFAULT UND _ZNKSt3__18ios_base6getlo
45:   FUNC GLOBAL DEFAULT UND _ZNSt3__112basic_stringIc
46:   FUNC GLOBAL DEFAULT UND _ZNSt3__112basic_stringIc
47:   FUNC GLOBAL DEFAULT UND _ZNSt3__112basic_stringIc
48:   FUNC GLOBAL DEFAULT UND _ZNSt3__112basic_stringIc
49:   FUNC GLOBAL DEFAULT UND _ZNSt3__112basic_stringIc
50:   FUNC GLOBAL DEFAULT UND _ZNSt3__113basic_ostreamI
51:   FUNC GLOBAL DEFAULT UND _ZNSt3__113basic_ostreamI
52:   FUNC GLOBAL DEFAULT UND _ZNSt3__113basic_ostreamI
53:   FUNC GLOBAL DEFAULT UND _ZNSt3__113basic_ostreamI
54:   FUNC GLOBAL DEFAULT UND _ZNSt3__113basic_ostreamI
55:   FUNC GLOBAL DEFAULT UND _ZNSt3__113basic_ostreamI
56:   FUNC GLOBAL DEFAULT UND _ZNSt3__113basic_ostreamI
57:   FUNC GLOBAL DEFAULT UND _ZNSt3__115basic_streambu
58:   FUNC GLOBAL DEFAULT UND _ZNSt3__115basic_streambu
59:   FUNC GLOBAL DEFAULT UND _ZNSt3__115basic_streambu
60:   FUNC GLOBAL DEFAULT UND _ZNSt3__115basic_streambu
61:   FUNC GLOBAL DEFAULT UND _ZNSt3__115basic_streambu
62:   FUNC GLOBAL DEFAULT UND _ZNSt3__115basic_streambu
63:   FUNC GLOBAL DEFAULT UND _ZNSt3__115basic_streambu
64:   FUNC GLOBAL DEFAULT UND _ZNSt3__115basic_streambu
65:   FUNC GLOBAL DEFAULT UND _ZNSt3__115basic_streambu
66:   OBJECT GLOBAL DEFAULT UND _ZNSt3__15ctypeIcE2idE
67:   FUNC GLOBAL DEFAULT UND _ZNSt3__16localeD1Ev
68:   FUNC GLOBAL DEFAULT UND _ZNSt3__18ios_base4initEP
69:   FUNC GLOBAL DEFAULT UND _ZNSt3__18ios_base5clearE
70:   FUNC GLOBAL DEFAULT UND _ZNSt3__19basic_iosIcNS_1
71:   FUNC GLOBAL DEFAULT UND _ZNSt3__1plIcNS_11char_tr
72:   FUNC GLOBAL DEFAULT UND _ZTv0_n24_NSt3__113basic_
73:   FUNC GLOBAL DEFAULT UND _ZTv0_n24_NSt3__113basic_
74:   FUNC GLOBAL DEFAULT UND __cxa_guard_acquire
75:   FUNC GLOBAL DEFAULT UND __cxa_guard_release
76:   FUNC GLOBAL DEFAULT UND __strchr_chk@LIBC (2)
77:   FUNC GLOBAL DEFAULT UND abort@LIBC (2)
78:   FUNC GLOBAL DEFAULT UND access@LIBC (2)
79:   FUNC GLOBAL DEFAULT UND closedir@LIBC (2)
80:   FUNC GLOBAL DEFAULT UND fclose@LIBC (2)
81:   FUNC GLOBAL DEFAULT UND fmemopen@LIBC (2)
82:   FUNC GLOBAL DEFAULT UND fopen@LIBC (2)
83:   FUNC GLOBAL DEFAULT UND free@LIBC (2)
84:   FUNC GLOBAL DEFAULT UND getline@LIBC (2)
85:   FUNC GLOBAL DEFAULT UND isspace@LIBC (2)
86:   FUNC GLOBAL DEFAULT UND memchr@LIBC (2)
87:   FUNC GLOBAL DEFAULT UND memcmp@LIBC (2)
88:   FUNC GLOBAL DEFAULT UND opendir@LIBC (2)
89:   FUNC GLOBAL DEFAULT UND readdir@LIBC (2)
90:   FUNC GLOBAL DEFAULT UND strtok_r@LIBC (2)
91:   FUNC GLOBAL DEFAULT UND strtoll@LIBC (2)
92:   FUNC GLOBAL DEFAULT UND strtoull@LIBC (2)
93:   FUNC GLOBAL DEFAULT UND sysconf@LIBC (2)
94:   FUNC GLOBAL DEFAULT UND tolower@LIBC (2)
95:   FUNC GLOBAL DEFAULT UND _ZN7android4base11GetProp
96:   FUNC GLOBAL DEFAULT UND write@LIBC (2)
97:   FUNC WEAK DEFAULT UND android_set_abort_message@LIBC (2)
98:   FUNC GLOBAL DEFAULT 14 _Z35update_bootloader_mes
99:   FUNC WEAK DEFAULT 14 _ZNSt3__16vectorIN7androi
100:   FUNC GLOBAL DEFAULT 14 _Z24clear_bootloader_mess
101:   FUNC GLOBAL DEFAULT 14 _Z27write_bootloader_mess
102:   FUNC GLOBAL DEFAULT 14 _Z28ReadMiscPartitionVend
103:   FUNC GLOBAL DEFAULT 14 _ZN7android6fs_mgr16ReadD
104:   FUNC GLOBAL DEFAULT 14 _ZN7android6fs_mgr17ReadF
105:   OBJECT WEAK DEFAULT 19 _ZTVNSt3__115basic_string
106:   OBJECT WEAK DEFAULT 19 _ZTVNSt3__119basic_ostrin
107:   FUNC GLOBAL DEFAULT 14 _Z18write_wipe_packageRKN
108:   FUNC GLOBAL DEFAULT 14 write_bootloader_message
109:   FUNC WEAK DEFAULT 14 _ZNSt3__115basic_stringbu
110:   FUNC WEAK DEFAULT 14 _ZNSt3__1plIcNS_11char_tr
111:   FUNC GLOBAL DEFAULT 14 _Z28fs_mgr_update_for_slo
112:   FUNC WEAK DEFAULT 14 _ZNSt3__115basic_stringbu
113:   FUNC WEAK DEFAULT 14 _ZNSt3__16vectorINS_4pair
114:   FUNC GLOBAL DEFAULT 14 write_reboot_bootloader
115:   FUNC GLOBAL DEFAULT 14 _ZN7android6fs_mgr15ReadF
116:   FUNC GLOBAL DEFAULT 14 _ZN7android6fs_mgr24Build
117:   FUNC WEAK DEFAULT 14 _ZNSt3__16vectorIN7androi
118:   FUNC GLOBAL DEFAULT 14 _Z34fs_mgr_get_boot_confi
119:   FUNC GLOBAL DEFAULT 14 _Z29WriteMiscPartitionVen
120:   FUNC GLOBAL DEFAULT 14 _Z42fs_mgr_get_boot_confi
121:   FUNC WEAK DEFAULT 14 _ZNSt3__115basic_stringbu
122:   FUNC WEAK DEFAULT 14 _ZNSt3__16vectorINS_4pair
123:   FUNC WEAK DEFAULT 14 _ZN7android4base4JoinINSt
124:   FUNC GLOBAL DEFAULT 14 _ZN7android6fs_mgr14GetBo
125:   FUNC WEAK DEFAULT 14 _ZNKSt3__115basic_stringb
126:   FUNC WEAK DEFAULT 14 _ZNSt3__16__treeINS_12bas
127:   FUNC GLOBAL DEFAULT 14 _Z24write_bootloader_mess
128:   FUNC GLOBAL DEFAULT 14 _Z24write_bootloader_mess
129:   FUNC GLOBAL DEFAULT 14 _Z18get_android_dt_dirv
130:   FUNC WEAK DEFAULT 14 _ZN7android4base8ParseInt
131:   FUNC GLOBAL DEFAULT 14 _Z22fs_mgr_get_boot_confi
132:   FUNC WEAK DEFAULT 14 _ZNSt3__127__tree_balance
133:   FUNC GLOBAL DEFAULT 14 _Z24fs_mgr_parse_boot_con
134:   FUNC GLOBAL DEFAULT 14 _Z22fs_mgr_get_slot_suffi
135:   FUNC GLOBAL DEFAULT 14 _Z23read_bootloader_messa
136:   FUNC GLOBAL DEFAULT 14 _Z25SetMiscBlockDeviceFor
137:   FUNC GLOBAL DEFAULT 14 _ZN7android6fs_mgr22SkipM
138:   FUNC WEAK DEFAULT 14 _ZNSt3__16__treeINS_12bas
139:   FUNC WEAK DEFAULT 14 _ZNSt3__16vectorIN7androi
140:   OBJECT WEAK DEFAULT 19 _ZTCNSt3__119basic_ostrin
141:   FUNC WEAK DEFAULT 14 _ZNSt3__16vectorINS_4pair
142:   FUNC WEAK DEFAULT 14 _ZN7android4base9ParseUin
143:   FUNC WEAK DEFAULT 14 _ZNSt3__16__treeINS_12bas
144:   FUNC WEAK DEFAULT 14 _ZNSt3__16__treeINS_12bas
145:   FUNC GLOBAL DEFAULT 14 _Z17read_wipe_packagePNSt
146:   FUNC GLOBAL DEFAULT 14 _Z28read_bootloader_messa
147:   FUNC GLOBAL DEFAULT 14 _Z16is_dt_compatiblev
148:   FUNC GLOBAL DEFAULT 14 _ZN7android6fs_mgr19GetVe
149:   FUNC GLOBAL DEFAULT 14 _ZN7android6fs_mgr21GetEn
150:   FUNC WEAK DEFAULT 14 _ZNSt3__124__put_characte
151:   OBJECT WEAK DEFAULT 19 _ZTTNSt3__119basic_ostrin
152:   FUNC GLOBAL DEFAULT 14 _Z28fs_mgr_get_other_slot
153:   FUNC GLOBAL DEFAULT 14 _Z23write_reboot_bootload
154:   FUNC GLOBAL DEFAULT 14 _Z25update_bootloader_mes
155:   FUNC WEAK DEFAULT 14 _ZNSt3__115basic_stringbu
156:   FUNC GLOBAL DEFAULT 14 _Z33get_bootloader_messag
157:   FUNC WEAK DEFAULT 14 _ZNSt3__16vectorINS_12bas
