 0x000000000000000e (SONAME)             Library soname: [libadbd_services.so]
  
Symbol   contains 747 entries:
Num:   Type Bind Vis Ndx Name
0:   NOTYPE LOCAL DEFAULT UND
1:   FUNC GLOBAL DEFAULT UND __cxa_finalize@LIBC (2)
2:   FUNC GLOBAL DEFAULT UND __cxa_atexit@LIBC (2)
3:   FUNC GLOBAL DEFAULT UND _ZN7android4base10LogMess
4:   FUNC GLOBAL DEFAULT UND _ZN7android4base10LogMess
5:   FUNC GLOBAL DEFAULT UND _ZN7android4base10LogMess
6:   FUNC GLOBAL DEFAULT UND _ZN7android4base10StartsW
7:   FUNC GLOBAL DEFAULT UND _ZN7android4base12StringP
8:   FUNC GLOBAL DEFAULT UND _ZN7android4base21GetMini
9:   FUNC GLOBAL DEFAULT UND _ZN7android4base5SplitERK
10:   FUNC GLOBAL DEFAULT UND _ZN7android4base7DirnameE
11:   FUNC GLOBAL DEFAULT UND _ZN7android4base8Readlink
12:   FUNC GLOBAL DEFAULT UND _ZNKSt3__112basic_stringI
13:   FUNC GLOBAL DEFAULT UND _ZNKSt3__112basic_stringI
14:   FUNC GLOBAL DEFAULT UND _ZNKSt3__121__basic_strin
15:   FUNC GLOBAL DEFAULT UND _ZNKSt3__16locale9use_fac
16:   FUNC GLOBAL DEFAULT UND _ZNKSt3__18ios_base6getlo
17:   FUNC GLOBAL DEFAULT UND _ZNSt3__112basic_stringIc
18:   FUNC GLOBAL DEFAULT UND _ZNSt3__112basic_stringIc
19:   FUNC GLOBAL DEFAULT UND _ZNSt3__112basic_stringIc
20:   FUNC GLOBAL DEFAULT UND _ZNSt3__113basic_ostreamI
21:   FUNC GLOBAL DEFAULT UND _ZNSt3__113basic_ostreamI
22:   OBJECT GLOBAL DEFAULT UND _ZNSt3__15ctypeIcE2idE
23:   FUNC GLOBAL DEFAULT UND _ZNSt3__16localeD1Ev
24:   FUNC GLOBAL DEFAULT UND _ZNSt3__18ios_base5clearE
25:   FUNC GLOBAL DEFAULT UND _ZdlPv
26:   FUNC GLOBAL DEFAULT UND _Znwm
27:   FUNC GLOBAL DEFAULT UND __android_log_security_bs@LIBLOG_PRIVATE (3)
28:   FUNC GLOBAL DEFAULT UND __errno@LIBC (2)
29:   FUNC GLOBAL DEFAULT UND __open_2@LIBC (2)
30:   FUNC GLOBAL DEFAULT UND __read_chk@LIBC (2)
31:   FUNC GLOBAL DEFAULT UND __stack_chk_fail@LIBC (2)
32:   FUNC WEAK DEFAULT UND android_fdsan_close_with_@LIBC_Q (4)
33:   FUNC WEAK DEFAULT UND android_fdsan_create_owne@LIBC_Q (4)
34:   FUNC WEAK DEFAULT UND android_fdsan_exchange_ow@LIBC_Q (4)
35:   FUNC GLOBAL DEFAULT UND atrace_begin_body
36:   OBJECT GLOBAL DEFAULT UND atrace_enabled_tags
37:   FUNC GLOBAL DEFAULT UND atrace_end_body
38:   OBJECT GLOBAL DEFAULT UND atrace_is_ready
39:   FUNC GLOBAL DEFAULT UND atrace_setup
40:   FUNC GLOBAL DEFAULT UND chown@LIBC (2)
41:   FUNC GLOBAL DEFAULT UND close@LIBC (2)
42:   FUNC GLOBAL DEFAULT UND closedir@LIBC (2)
43:   FUNC GLOBAL DEFAULT UND fchmod@LIBC (2)
44:   FUNC GLOBAL DEFAULT UND fchown@LIBC (2)
45:   FUNC GLOBAL DEFAULT UND fcntl@LIBC (2)
46:   FUNC GLOBAL DEFAULT UND fs_config
47:   FUNC GLOBAL DEFAULT UND lstat@LIBC (2)
48:   FUNC GLOBAL DEFAULT UND lutimes@LIBC_O (5)
49:   FUNC GLOBAL DEFAULT UND memcpy@LIBC (2)
50:   FUNC GLOBAL DEFAULT UND memset@LIBC (2)
51:   FUNC GLOBAL DEFAULT UND mkdir@LIBC (2)
52:   FUNC GLOBAL DEFAULT UND open@LIBC (2)
53:   FUNC GLOBAL DEFAULT UND opendir@LIBC (2)
54:   FUNC GLOBAL DEFAULT UND posix_fadvise@LIBC (2)
55:   FUNC GLOBAL DEFAULT UND readdir@LIBC (2)
56:   FUNC GLOBAL DEFAULT UND removexattr@LIBC (2)
57:   FUNC GLOBAL DEFAULT UND selinux_android_restoreco
58:   FUNC GLOBAL DEFAULT UND setxattr@LIBC (2)
59:   FUNC GLOBAL DEFAULT UND stat@LIBC (2)
60:   FUNC GLOBAL DEFAULT UND strerror@LIBC (2)
61:   FUNC GLOBAL DEFAULT UND strlen@LIBC (2)
62:   FUNC GLOBAL DEFAULT UND strtoul@LIBC (2)
63:   FUNC GLOBAL DEFAULT UND symlink@LIBC (2)
64:   FUNC GLOBAL DEFAULT UND unlink@LIBC (2)
65:   FUNC GLOBAL DEFAULT UND _ZNSt3__112basic_stringIc
66:   FUNC GLOBAL DEFAULT UND _ZNSt3__113basic_ostreamI
67:   FUNC GLOBAL DEFAULT UND _ZNSt3__113basic_ostreamI
68:   FUNC GLOBAL DEFAULT UND _ZNSt3__113basic_ostreamI
69:   FUNC GLOBAL DEFAULT UND _ZNSt3__119__shared_weak_
70:   FUNC GLOBAL DEFAULT UND _ZdaPv
71:   FUNC GLOBAL DEFAULT UND _Znam
72:   FUNC GLOBAL DEFAULT UND __android_log_is_debuggab@LIBLOG_O (6)
73:   FUNC GLOBAL DEFAULT UND abort@LIBC (2)
74:   FUNC GLOBAL DEFAULT UND memchr@LIBC (2)
75:   FUNC GLOBAL DEFAULT UND memcmp@LIBC (2)
76:   FUNC GLOBAL DEFAULT UND pipe2@LIBC (2)
77:   FUNC GLOBAL DEFAULT UND socketpair@LIBC (2)
78:   FUNC GLOBAL DEFAULT UND sscanf@LIBC (2)
79:   FUNC GLOBAL DEFAULT UND _Exit@LIBC (2)
80:   FUNC GLOBAL DEFAULT UND _ZN7android4base11GetProp
81:   FUNC GLOBAL DEFAULT UND _ZNKSt3__120__vector_base
82:   FUNC GLOBAL DEFAULT UND _ZNSt3__112__next_primeEm
83:   FUNC GLOBAL DEFAULT UND _ZNSt3__112basic_stringIc
84:   FUNC GLOBAL DEFAULT UND _ZNSt3__112basic_stringIc
85:   FUNC GLOBAL DEFAULT UND _ZNSt3__112basic_stringIc
86:   FUNC GLOBAL DEFAULT UND _ZNSt3__115__thread_struc
87:   FUNC GLOBAL DEFAULT UND _ZNSt3__115__thread_struc
88:   FUNC GLOBAL DEFAULT UND _ZNSt3__119__thread_local
89:   FUNC GLOBAL DEFAULT UND _ZNSt3__120__throw_system
90:   FUNC GLOBAL DEFAULT UND _ZNSt3__16thread6detachEv
91:   FUNC GLOBAL DEFAULT UND _ZNSt3__16threadD1Ev
92:   FUNC GLOBAL DEFAULT UND _ZNSt3__1plIcNS_11char_tr
93:   FUNC GLOBAL DEFAULT UND __FD_CLR_chk@LIBC (2)
94:   FUNC GLOBAL DEFAULT UND __FD_ISSET_chk@LIBC (2)
95:   FUNC GLOBAL DEFAULT UND __FD_SET_chk@LIBC (2)
96:   FUNC GLOBAL DEFAULT UND __strlen_chk@LIBC (2)
97:   FUNC GLOBAL DEFAULT UND __write_chk@LIBC_N (7)
98:   FUNC GLOBAL DEFAULT UND cfmakeraw@LIBC (2)
99:   FUNC GLOBAL DEFAULT UND dup@LIBC (2)
100:   FUNC GLOBAL DEFAULT UND dup2@LIBC (2)
101:   OBJECT GLOBAL DEFAULT UND environ@LIBC (2)
102:   FUNC GLOBAL DEFAULT UND execle@LIBC (2)
103:   FUNC GLOBAL DEFAULT UND fork@LIBC (2)
104:   FUNC GLOBAL DEFAULT UND forkpty@LIBC (2)
105:   FUNC GLOBAL DEFAULT UND gethostname@LIBC (2)
106:   FUNC GLOBAL DEFAULT UND getpwuid@LIBC (2)
107:   FUNC GLOBAL DEFAULT UND getuid@LIBC (2)
108:   FUNC GLOBAL DEFAULT UND ioctl@LIBC (2)
109:   FUNC GLOBAL DEFAULT UND kill@LIBC (2)
110:   FUNC GLOBAL DEFAULT UND pthread_create@LIBC (2)
111:   FUNC GLOBAL DEFAULT UND pthread_self@LIBC (2)
112:   FUNC GLOBAL DEFAULT UND pthread_setname_np@LIBC (2)
113:   FUNC GLOBAL DEFAULT UND pthread_setspecific@LIBC (2)
114:   FUNC GLOBAL DEFAULT UND read@LIBC (2)
115:   FUNC GLOBAL DEFAULT UND select@LIBC (2)
116:   FUNC GLOBAL DEFAULT UND setsid@LIBC (2)
117:   FUNC GLOBAL DEFAULT UND shutdown@LIBC (2)
118:   FUNC GLOBAL DEFAULT UND signal@LIBC (2)
119:   FUNC GLOBAL DEFAULT UND strchr@LIBC (2)
120:   FUNC GLOBAL DEFAULT UND strncpy@LIBC (2)
121:   FUNC GLOBAL DEFAULT UND tcgetattr@LIBC (2)
122:   FUNC GLOBAL DEFAULT UND tcsetattr@LIBC (2)
123:   FUNC GLOBAL DEFAULT UND waitpid@LIBC (2)
124:   FUNC GLOBAL DEFAULT UND write@LIBC (2)
125:   FUNC GLOBAL DEFAULT UND _ZN7android4base27Receive
126:   FUNC GLOBAL DEFAULT UND _ZNSt3__15mutex4lockEv
127:   FUNC GLOBAL DEFAULT UND _ZNSt3__15mutex6unlockEv
128:   FUNC GLOBAL DEFAULT UND execvp@LIBC (2)
129:   FUNC GLOBAL DEFAULT UND DNSServiceRefDeallocate
130:   FUNC GLOBAL DEFAULT UND DNSServiceRegister
131:   FUNC GLOBAL DEFAULT UND _ZN7android4base11SetProp
132:   FUNC GLOBAL DEFAULT UND _ZN7android4base15WaitFor
133:   FUNC GLOBAL DEFAULT UND _ZN7android4base15GetBool
134:   FUNC GLOBAL DEFAULT UND __strncpy_chk2@LIBC (2)
135:   FUNC GLOBAL DEFAULT UND access@LIBC (2)
136:   FUNC GLOBAL DEFAULT UND connect@LIBC (2)
137:   FUNC GLOBAL DEFAULT UND pause@LIBC (2)
138:   FUNC GLOBAL DEFAULT UND socket@LIBC (2)
139:   FUNC GLOBAL DEFAULT UND sync@LIBC (2)
140:   FUNC GLOBAL DEFAULT UND _exit@LIBC (2)
141:   FUNC GLOBAL DEFAULT UND execl@LIBC (2)
142:   FUNC GLOBAL DEFAULT UND strsignal@LIBC (2)
143:   FUNC GLOBAL DEFAULT UND _Z22fs_mgr_overlayfs_setu
144:   FUNC GLOBAL DEFAULT UND _Z25fs_mgr_overlayfs_tear
145:   FUNC GLOBAL DEFAULT UND _ZN7android6fs_mgr16ReadD
146:   FUNC GLOBAL DEFAULT UND fec_close
147:   FUNC GLOBAL DEFAULT UND fec_open
148:   FUNC GLOBAL DEFAULT UND fec_verity_get_metadata
149:   FUNC GLOBAL DEFAULT UND fec_verity_set_status
150:   FUNC GLOBAL DEFAULT UND __system_property_find@LIBC (2)
151:   FUNC GLOBAL DEFAULT UND __system_property_read_ca@LIBC_O (5)
152:   FUNC GLOBAL DEFAULT UND _ZN7android6fs_mgr17ReadF
153:   FUNC GLOBAL DEFAULT UND _ZN7android6fs_mgr21GetEn
154:   FUNC GLOBAL DEFAULT UND fputs@LIBC (2)
155:   FUNC GLOBAL DEFAULT UND free@LIBC (2)
156:   FUNC GLOBAL DEFAULT UND malloc@LIBC (2)
157:   OBJECT GLOBAL DEFAULT UND stderr@LIBC (2)
158:   FUNC GLOBAL DEFAULT UND strcmp@LIBC (2)
159:   FUNC GLOBAL DEFAULT UND calloc@LIBC (2)
160:   FUNC GLOBAL DEFAULT UND lseek@LIBC (2)
161:   FUNC GLOBAL DEFAULT UND strdup@LIBC (2)
162:   FUNC GLOBAL DEFAULT UND strrchr@LIBC (2)
163:   FUNC GLOBAL DEFAULT UND _ZN7android4base17GetExec
164:   FUNC GLOBAL DEFAULT UND _ZN7android4base4JoinINSt
165:   FUNC GLOBAL DEFAULT UND _ZNSt3__111this_thread9sl
166:   FUNC GLOBAL DEFAULT UND _ZNSt3__113basic_ostreamI
167:   FUNC GLOBAL DEFAULT UND memmove@LIBC (2)
168:   FUNC GLOBAL DEFAULT UND printf@LIBC (2)
169:   FUNC GLOBAL DEFAULT UND strncmp@LIBC (2)
170:   FUNC GLOBAL DEFAULT UND _ZN7android4base13StringA
171:   FUNC GLOBAL DEFAULT UND _ZNSt3__112basic_stringIc
172:   FUNC GLOBAL DEFAULT UND sched_yield@LIBC (2)
173:   FUNC GLOBAL DEFAULT UND _ZN7android4base13StringA
174:   FUNC GLOBAL DEFAULT UND accept@LIBC (2)
175:   FUNC GLOBAL DEFAULT UND setsockopt@LIBC (2)
176:   FUNC GLOBAL DEFAULT UND _ZN7android4base10LogdLog
177:   FUNC GLOBAL DEFAULT UND _ZN7android4base10LogdLog
178:   FUNC GLOBAL DEFAULT UND _ZN7android4base11InitLog
179:   FUNC GLOBAL DEFAULT UND _ZN7android4base12StderrL
180:   FUNC GLOBAL DEFAULT UND _ZN7android4base14Default
181:   FUNC GLOBAL DEFAULT UND _ZN7android4base21SetMini
182:   FUNC GLOBAL DEFAULT UND fprintf@LIBC (2)
183:   FUNC GLOBAL DEFAULT UND getenv@LIBC (2)
184:   FUNC GLOBAL DEFAULT UND getpid@LIBC (2)
185:   FUNC GLOBAL DEFAULT UND isatty@LIBC (2)
186:   FUNC GLOBAL DEFAULT UND localtime_r@LIBC (2)
187:   FUNC GLOBAL DEFAULT UND strftime@LIBC (2)
188:   FUNC GLOBAL DEFAULT UND time@LIBC (2)
189:   FUNC GLOBAL DEFAULT UND tzset@LIBC (2)
190:   FUNC GLOBAL DEFAULT UND _ZN7android4base8Basename
191:   FUNC GLOBAL DEFAULT UND _ZNKSt3__112basic_stringI
192:   FUNC GLOBAL DEFAULT UND _ZNSt3__112basic_stringIc
193:   FUNC GLOBAL DEFAULT UND __vsnprintf_chk@LIBC (2)
194:   FUNC GLOBAL DEFAULT UND exit@LIBC (2)
195:   FUNC GLOBAL DEFAULT UND fflush@LIBC (2)
196:   FUNC GLOBAL DEFAULT UND getcwd@LIBC (2)
197:   FUNC GLOBAL DEFAULT UND getpwuid_r@LIBC (2)
198:   FUNC GLOBAL DEFAULT UND isprint@LIBC (2)
199:   FUNC GLOBAL DEFAULT UND isspace@LIBC (2)
200:   FUNC GLOBAL DEFAULT UND putc@LIBC (2)
201:   OBJECT GLOBAL DEFAULT UND stdout@LIBC (2)
202:   FUNC GLOBAL DEFAULT UND strtoll@LIBC (2)
203:   FUNC GLOBAL DEFAULT UND sysconf@LIBC (2)
204:   FUNC GLOBAL DEFAULT UND vfprintf@LIBC (2)
205:   FUNC GLOBAL DEFAULT UND _ZN7android4base10boot_cl
206:   FUNC GLOBAL DEFAULT UND _ZN7android4base11GetThre
207:   FUNC GLOBAL DEFAULT UND _ZNSt3__16chrono12steady_
208:   FUNC GLOBAL DEFAULT UND __cxa_guard_acquire
209:   FUNC GLOBAL DEFAULT UND __cxa_guard_release
210:   FUNC GLOBAL DEFAULT UND poll@LIBC (2)
211:   FUNC GLOBAL DEFAULT UND puts@LIBC (2)
212:   FUNC GLOBAL DEFAULT UND _ZNKSt3__119__shared_weak
213:   FUNC GLOBAL DEFAULT UND _ZNSt3__112basic_stringIc
214:   FUNC GLOBAL DEFAULT UND _ZNSt3__115recursive_mute
215:   FUNC GLOBAL DEFAULT UND _ZNSt3__115recursive_mute
216:   FUNC GLOBAL DEFAULT UND _ZNSt3__115recursive_mute
217:   FUNC GLOBAL DEFAULT UND _ZNSt3__119__shared_weak_
218:   FUNC GLOBAL DEFAULT UND writev@LIBC (2)
219:   FUNC GLOBAL DEFAULT UND _ZN7android4base15ParseNe
220:   FUNC GLOBAL DEFAULT UND _ZNSt3__112basic_stringIc
221:   FUNC GLOBAL DEFAULT UND __strchr_chk@LIBC (2)
222:   FUNC GLOBAL DEFAULT UND bind@LIBC (2)
223:   FUNC GLOBAL DEFAULT UND getsockname@LIBC (2)
224:   FUNC GLOBAL DEFAULT UND listen@LIBC (2)
225:   FUNC GLOBAL DEFAULT UND socket_get_local_port
226:   FUNC GLOBAL DEFAULT UND socket_inaddr_any_server
227:   FUNC GLOBAL DEFAULT UND socket_local_client
228:   FUNC GLOBAL DEFAULT UND socket_local_server
229:   FUNC GLOBAL DEFAULT UND strtoull@LIBC (2)
230:   FUNC GLOBAL DEFAULT UND tolower@LIBC (2)
231:   FUNC GLOBAL DEFAULT UND _ZNSt3__111__call_onceERV
232:   FUNC GLOBAL DEFAULT UND _ZNSt3__113basic_ostreamI
233:   FUNC GLOBAL DEFAULT UND _ZNSt3__113basic_ostreamI
234:   FUNC GLOBAL DEFAULT UND _ZNSt3__113basic_ostreamI
235:   FUNC GLOBAL DEFAULT UND _ZNSt3__113basic_ostreamI
236:   FUNC GLOBAL DEFAULT UND _ZNSt3__115basic_streambu
237:   FUNC GLOBAL DEFAULT UND _ZNSt3__115basic_streambu
238:   FUNC GLOBAL DEFAULT UND _ZNSt3__115basic_streambu
239:   FUNC GLOBAL DEFAULT UND _ZNSt3__115basic_streambu
240:   FUNC GLOBAL DEFAULT UND _ZNSt3__115basic_streambu
241:   FUNC GLOBAL DEFAULT UND _ZNSt3__115basic_streambu
242:   FUNC GLOBAL DEFAULT UND _ZNSt3__115basic_streambu
243:   FUNC GLOBAL DEFAULT UND _ZNSt3__115basic_streambu
244:   FUNC GLOBAL DEFAULT UND _ZNSt3__115basic_streambu
245:   FUNC GLOBAL DEFAULT UND _ZNSt3__118condition_vari
246:   FUNC GLOBAL DEFAULT UND _ZNSt3__118condition_vari
247:   FUNC GLOBAL DEFAULT UND _ZNSt3__118condition_vari
248:   FUNC GLOBAL DEFAULT UND _ZNSt3__118condition_vari
249:   FUNC GLOBAL DEFAULT UND _ZNSt3__15mutexD1Ev
250:   FUNC GLOBAL DEFAULT UND _ZNSt3__16chrono12system_
251:   FUNC GLOBAL DEFAULT UND _ZNSt3__16thread4joinEv
252:   FUNC GLOBAL DEFAULT UND _ZNSt3__18ios_base4initEP
253:   FUNC GLOBAL DEFAULT UND _ZNSt3__19basic_iosIcNS_1
254:   FUNC GLOBAL DEFAULT UND _ZSt9terminatev
255:   FUNC GLOBAL DEFAULT UND _ZTv0_n24_NSt3__113basic_
256:   FUNC GLOBAL DEFAULT UND _ZTv0_n24_NSt3__113basic_
257:   FUNC GLOBAL DEFAULT UND __cxa_pure_virtual
258:   FUNC GLOBAL DEFAULT UND isalnum@LIBC (2)
259:   FUNC GLOBAL DEFAULT UND gai_strerror@LIBC (2)
260:   OBJECT GLOBAL DEFAULT UND in6addr_loopback@LIBC_N (7)
261:   FUNC GLOBAL DEFAULT UND socket_network_client_tim
262:   FUNC GLOBAL DEFAULT UND RSA_free
263:   FUNC GLOBAL DEFAULT UND RSA_verify
264:   FUNC GLOBAL DEFAULT UND _ZN7android4base16ReadFil
265:   FUNC GLOBAL DEFAULT UND __b64_pton@LIBC (2)
266:   FUNC GLOBAL DEFAULT UND android_get_control_socke
267:   FUNC GLOBAL DEFAULT UND android_pubkey_decode
268:   FUNC GLOBAL DEFAULT UND fclose@LIBC (2)
269:   FUNC GLOBAL DEFAULT UND fopen@LIBC (2)
270:   FUNC GLOBAL DEFAULT UND fread@LIBC (2)
271:   FUNC GLOBAL DEFAULT UND strpbrk@LIBC (2)
272:   FUNC GLOBAL DEFAULT UND _ZN7android4base24SendFil
273:   FUNC GLOBAL DEFAULT UND _ZNSt3__19to_stringEi
274:   FUNC GLOBAL DEFAULT UND recvfrom@LIBC (2)
275:   FUNC GLOBAL DEFAULT UND _ZN7android4base10WriteFu
276:   FUNC GLOBAL DEFAULT UND _ZN7android4base9ReadFull
277:   FUNC GLOBAL DEFAULT UND io_getevents
278:   FUNC GLOBAL DEFAULT UND io_prep
279:   FUNC GLOBAL DEFAULT UND io_setup
280:   FUNC GLOBAL DEFAULT UND io_submit
281:   FUNC GLOBAL DEFAULT UND posix_madvise@LIBC (2)
282:   FUNC WEAK DEFAULT UND android_set_abort_message@LIBC (2)
283:   FUNC WEAK DEFAULT 14 _ZNKSt3__110__function6__
284:   FUNC WEAK DEFAULT 14 _ZNSt3__110__function6__f
285:   FUNC WEAK DEFAULT 14 _ZNSt3__112__hash_tableIN
286:   FUNC WEAK DEFAULT 14 _ZNSt3__15dequeINS_10shar
287:   FUNC GLOBAL DEFAULT 14 _ZN25BlockingConnectionAd
288:   FUNC WEAK DEFAULT 14 _ZNSt3__124__put_characte
289:   FUNC GLOBAL DEFAULT 14 avb_ops_user_free
290:   FUNC GLOBAL DEFAULT 14 avb_ab_data_update_crc_an
291:   FUNC GLOBAL DEFAULT 14 avb_ab_mark_slot_successf
292:   FUNC GLOBAL DEFAULT 14 _ZN10atransport11SetFeatu
293:   FUNC GLOBAL DEFAULT 14 _Z13fdevent_resetv
294:   FUNC GLOBAL DEFAULT 14 _ZN12FdConnection4ReadEP7
295:   FUNC WEAK DEFAULT 14 _ZNSt3__112__hash_tableIN
296:   OBJECT WEAK DEFAULT 18 _ZTVNSt3__120__shared_ptr
297:   FUNC WEAK DEFAULT 14 _ZN7android4base22Receive
298:   FUNC GLOBAL DEFAULT 14 _Z15usb_init_legacyv
299:   FUNC GLOBAL DEFAULT 14 _Z15errno_from_wirei
300:   FUNC WEAK DEFAULT 14 _ZNSt3__114__split_buffer
301:   FUNC GLOBAL DEFAULT 14 _Z8SendOkayi
302:   FUNC GLOBAL DEFAULT 14 _ZN10atransport14RunDisco
303:   FUNC GLOBAL DEFAULT 14 _Z16start_device_logv
304:   FUNC GLOBAL DEFAULT 14 _ZN12FdConnection5WriteEP
305:   FUNC WEAK DEFAULT 14 _ZNSt3__15dequeINS_10uniq
306:   FUNC GLOBAL DEFAULT 14 _Z23network_loopback_clie
307:   FUNC GLOBAL DEFAULT 14 _Z15NextTransportIdv
308:   FUNC WEAK DEFAULT 14 _ZNKSt3__110__function6__
309:   FUNC WEAK DEFAULT 14 _ZNSt3__112__hash_tableIN
310:   FUNC GLOBAL DEFAULT 14 avb_memcpy
311:   FUNC GLOBAL DEFAULT 14 _Z13handle_packetP7apacke
312:   OBJECT WEAK DEFAULT 18 _ZTVNSt3__110__function6_
313:   OBJECT GLOBAL DEFAULT 16 os_desc_compat
314:   FUNC GLOBAL DEFAULT 14 _Z13remove_socketP7asocke
315:   FUNC GLOBAL DEFAULT 14 avb_htobe64
316:   FUNC WEAK DEFAULT 14 _ZNKSt3__110__function6__
317:   OBJECT WEAK DEFAULT 18 _ZTVNSt3__110__function6_
318:   FUNC GLOBAL DEFAULT 14 _ZNK10atransport11has_fea
319:   OBJECT GLOBAL DEFAULT 18 kFeaturePushSync
320:   FUNC GLOBAL DEFAULT 14 _ZN13UsbConnection5ResetE
321:   FUNC GLOBAL DEFAULT 14 __eqtf2
322:   FUNC GLOBAL DEFAULT 14 __addtf3
323:   FUNC GLOBAL DEFAULT 14 avb_rsa_public_key_header
324:   FUNC GLOBAL DEFAULT 14 avb_vbmeta_image_verify
325:   FUNC GLOBAL DEFAULT 14 _Z17update_transportsv
326:   FUNC WEAK DEFAULT 14 _ZNSt3__112__hash_tableIN
327:   FUNC GLOBAL DEFAULT 14 _Z20server_socket_threadN
328:   FUNC GLOBAL DEFAULT 14 _ZN13UsbConnectionD1Ev
329:   OBJECT GLOBAL DEFAULT 18 _ZTV13UsbConnection
330:   FUNC GLOBAL DEFAULT 14 _Z15remount_serviceN7andr
331:   OBJECT WEAK DEFAULT 18 _ZTVNSt3__110__function6_
332:   FUNC WEAK DEFAULT 14 _ZNSt3__16vectorIPKcNS_9a
333:   FUNC GLOBAL DEFAULT 14 avb_ab_data_write
334:   FUNC GLOBAL DEFAULT 14 _Z18adbd_auth_verifiedP10
335:   FUNC GLOBAL DEFAULT 14 _Z17use_qemu_goldfishv
336:   FUNC GLOBAL DEFAULT 14 _Z18qemu_socket_threadi
337:   FUNC GLOBAL DEFAULT 14 avb_memset
338:   FUNC GLOBAL DEFAULT 14 _Z21acquire_one_transport
339:   FUNC WEAK DEFAULT 14 _ZNSt3__114__split_buffer
340:   FUNC GLOBAL DEFAULT 14 _Z29UsbNoPermissionsShort
341:   FUNC GLOBAL DEFAULT 14 _ZNK10atransport21connect
342:   FUNC GLOBAL DEFAULT 14 avb_str_concat
343:   OBJECT GLOBAL DEFAULT 18 _ZTV25BlockingConnectionA
344:   OBJECT WEAK DEFAULT 18 _ZTVNSt3__120__shared_ptr
345:   FUNC GLOBAL DEFAULT 14 _Z19restart_usb_serviceN7
346:   FUNC WEAK DEFAULT 14 _ZNSt3__112__hash_tableIN
347:   FUNC GLOBAL DEFAULT 14 _Z19socket_spec_connectPN
348:   FUNC GLOBAL DEFAULT 14 avb_strdup
349:   FUNC GLOBAL DEFAULT 14 _Z12send_connectP10atrans
350:   FUNC GLOBAL DEFAULT 14 _Z20adb_get_homedir_pathv
351:   FUNC GLOBAL DEFAULT 14 avb_memcmp
352:   FUNC GLOBAL DEFAULT 14 _ZN9alistenerD1Ev
353:   FUNC WEAK DEFAULT 14 _ZNSt3__114__split_buffer
354:   FUNC GLOBAL DEFAULT 14 _Z21adbd_auth_confirm_key
355:   FUNC GLOBAL DEFAULT 14 _Z18close_smartsocketsv
356:   FUNC WEAK DEFAULT 14 _ZNSt3__110__function6__f
357:   FUNC GLOBAL DEFAULT 14 _Z11close_stdinv
358:   FUNC WEAK DEFAULT 14 _ZNSt3__110__function6__f
359:   FUNC GLOBAL DEFAULT 14 avb_sha512_final
360:   FUNC GLOBAL DEFAULT 14 _Z19ReadOrderlyShutdowni
361:   FUNC WEAK DEFAULT 14 _ZNSt3__114__split_buffer
362:   FUNC WEAK DEFAULT 14 _ZNSt3__16vectorIP4iocbNS
363:   FUNC WEAK DEFAULT 14 _ZNSt3__110__function6__f
364:   FUNC GLOBAL DEFAULT 14 _Z15fdevent_releaseP7fdev
365:   FUNC GLOBAL DEFAULT 14 _Z19execute_abb_commandNS
366:   FUNC GLOBAL DEFAULT 14 _Z19restart_tcp_serviceN7
367:   FUNC GLOBAL DEFAULT 14 avb_kernel_cmdline_descri
368:   FUNC GLOBAL DEFAULT 14 avb_sha256_update
369:   FUNC GLOBAL DEFAULT 14 avb_strv_find_str
370:   FUNC GLOBAL DEFAULT 14 _Z20create_remote_socketj
371:   FUNC GLOBAL DEFAULT 14 _Z21init_socket_transport
372:   OBJECT GLOBAL DEFAULT 18 kFeatureCmd
373:   FUNC GLOBAL DEFAULT 14 _Z15StartSubprocessNSt3__
374:   FUNC GLOBAL DEFAULT 14 avb_bin2hex
375:   FUNC WEAK DEFAULT 14 _ZNSt3__112__hash_tableIN
376:   FUNC GLOBAL DEFAULT 14 avb_vbmeta_verify_result_
377:   FUNC GLOBAL DEFAULT 14 __multf3
378:   FUNC WEAK DEFAULT 14 _ZNKSt3__110__function6__
379:   FUNC WEAK DEFAULT 14 _ZNSt3__114__thread_proxy
380:   FUNC WEAK DEFAULT 14 _ZNSt3__114__thread_proxy
381:   OBJECT WEAK DEFAULT 18 _ZTVNSt3__110__function6_
382:   FUNC GLOBAL DEFAULT 14 _ZN10atransportD1Ev
383:   FUNC WEAK DEFAULT 14 _ZNSt3__14listIP11adiscon
384:   FUNC GLOBAL DEFAULT 14 _Z14WriteFdExactlyiRKNSt3
385:   FUNC GLOBAL DEFAULT 14 avb_htobe32
386:   FUNC GLOBAL DEFAULT 14 _Z11send_packetP7apacketP
387:   FUNC GLOBAL DEFAULT 14 _Z20daemon_service_to_fdN
388:   FUNC WEAK DEFAULT 14 _ZNKSt3__110__function6__
389:   FUNC WEAK DEFAULT 14 _ZNSt3__112__hash_tableIN
390:   FUNC WEAK DEFAULT 14 _ZNSt3__16vectorIiNS_9all
391:   OBJECT GLOBAL DEFAULT 16 kADBServiceType
392:   FUNC GLOBAL DEFAULT 14 _Z11get_apacketv
393:   FUNC WEAK DEFAULT 14 _ZNSt3__115basic_stringbu
394:   FUNC GLOBAL DEFAULT 14 _Z17create_usb_handlejj
395:   FUNC WEAK DEFAULT 14 _ZNSt3__110__function6__f
396:   FUNC GLOBAL DEFAULT 14 avb_rsa_verify
397:   FUNC GLOBAL DEFAULT 14 _Z9usb_writeP10usb_handle
398:   OBJECT WEAK DEFAULT 18 _ZTCNSt3__119basic_ostrin
399:   OBJECT WEAK DEFAULT 18 _ZTTNSt3__119basic_ostrin
400:   OBJECT WEAK DEFAULT 18 _ZTVNSt3__110__function6_
401:   FUNC GLOBAL DEFAULT 14 avb_replace
402:   FUNC GLOBAL DEFAULT 14 _Z26calculate_apacket_che
403:   OBJECT GLOBAL DEFAULT 18 kFeatureAbb
404:   FUNC GLOBAL DEFAULT 14 _Z9init_jdwpv
405:   FUNC GLOBAL DEFAULT 14 _Z10escape_argRKNSt3__112
406:   FUNC GLOBAL DEFAULT 14 _Z24adb_get_android_dir_p
407:   OBJECT WEAK DEFAULT 18 _ZTV10SinkSocket
408:   FUNC GLOBAL DEFAULT 14 avb_descriptor_get_all
409:   OBJECT GLOBAL DEFAULT 18 kFeatureFixedPushSymlinkT
410:   FUNC GLOBAL DEFAULT 14 _Z8usb_readP10usb_handleP
411:   FUNC GLOBAL DEFAULT 14 avb_uppercase
412:   FUNC GLOBAL DEFAULT 14 _Z18supported_featuresv
413:   FUNC WEAK DEFAULT 14 _ZNSt3__14listIP10atransp
414:   FUNC GLOBAL DEFAULT 14 _Z8dump_hexPKvm
415:   OBJECT GLOBAL DEFAULT 18 _ZTV13ShellProtocol
416:   FUNC GLOBAL DEFAULT 14 avb_slot_verify_data_calc
417:   FUNC GLOBAL DEFAULT 14 _Z11perror_exitPKcz
418:   FUNC GLOBAL DEFAULT 14 avb_sha512_update
419:   FUNC GLOBAL DEFAULT 14 _Z27create_local_service_
420:   FUNC GLOBAL DEFAULT 14 _Z23network_loopback_serv
421:   FUNC GLOBAL DEFAULT 14 _ZN12FdConnection5CloseEv
422:   FUNC WEAK DEFAULT 14 _ZNKSt3__112__hash_tableI
423:   FUNC GLOBAL DEFAULT 14 _ZN13UsbConnection4ReadEP
424:   FUNC GLOBAL DEFAULT 14 avb_hashtree_descriptor_v
425:   FUNC GLOBAL DEFAULT 14 _ZN25BlockingConnectionAd
426:   FUNC WEAK DEFAULT 14 _ZNSt3__110__function6__f
427:   OBJECT WEAK DEFAULT 18 _ZTV12SourceSocket
428:   FUNC GLOBAL DEFAULT 14 _ZN10atransport18SetConne
429:   FUNC WEAK DEFAULT 14 _ZNSt3__14listIP7fdeventN
430:   FUNC GLOBAL DEFAULT 14 _Z21parse_tcp_socket_spec
431:   FUNC GLOBAL DEFAULT 14 _ZN13ShellProtocolD1Ev
432:   FUNC GLOBAL DEFAULT 14 _Z14adb_trace_initPPc
433:   FUNC WEAK DEFAULT 14 _ZNKSt3__110__function6__
434:   FUNC GLOBAL DEFAULT 14 _Z6getcwdPNSt3__112basic_
435:   FUNC WEAK DEFAULT 14 _ZNSt3__16vectorINS_10uni
436:   FUNC WEAK DEFAULT 14 _ZNSt3__110__function6__f
437:   FUNC WEAK DEFAULT 14 _ZNSt3__115basic_stringbu
438:   FUNC WEAK DEFAULT 14 _ZNSt3__110__function6__f
439:   FUNC GLOBAL DEFAULT 14 _ZN13UsbConnection5CloseE
440:   OBJECT GLOBAL DEFAULT 18 _ZTV12FdConnection
441:   FUNC WEAK DEFAULT 14 _ZNSt3__110__function6__f
442:   FUNC WEAK DEFAULT 14 _ZNSt3__114__thread_proxy
443:   FUNC GLOBAL DEFAULT 14 _Z17get_trace_settingv
444:   FUNC WEAK DEFAULT 14 _ZNSt3__110__function6__f
445:   FUNC WEAK DEFAULT 14 _ZNSt3__16vectorIN7androi
446:   FUNC GLOBAL DEFAULT 14 __getf2
447:   FUNC GLOBAL DEFAULT 14 _Z8SendFailiNSt3__117basi
448:   FUNC GLOBAL DEFAULT 14 _Z21get_connection_string
449:   FUNC GLOBAL DEFAULT 14 _Z15fdevent_destroyP7fdev
450:   FUNC GLOBAL DEFAULT 14 _Z13service_to_fdNSt3__11
451:   FUNC GLOBAL DEFAULT 14 __fe_raise_inexact
452:   FUNC GLOBAL DEFAULT 14 _Z14WriteFdExactlyiPKvm
453:   FUNC GLOBAL DEFAULT 14 avb_be64toh
454:   FUNC GLOBAL DEFAULT 14 avb_abort
455:   OBJECT WEAK DEFAULT 18 _ZTVNSt3__110__function6_
456:   FUNC GLOBAL DEFAULT 14 _ZN25BlockingConnectionAd
457:   FUNC WEAK DEFAULT 14 _ZNSt3__16vectorIN7androi
458:   FUNC WEAK DEFAULT 14 _ZNSt3__114__thread_proxy
459:   FUNC GLOBAL DEFAULT 14 __gttf2
460:   FUNC GLOBAL DEFAULT 14 _Z21create_service_thread
461:   FUNC GLOBAL DEFAULT 14 _Z11dump_headerPK8amessag
462:   FUNC WEAK DEFAULT 14 _ZNSt3__1plIcNS_11char_tr
463:   FUNC WEAK DEFAULT 14 _ZNSt3__114__split_buffer
464:   FUNC WEAK DEFAULT 14 _ZNSt3__15dequeINS_8funct
465:   FUNC WEAK DEFAULT 14 _ZNSt3__120__shared_ptr_p
466:   FUNC GLOBAL DEFAULT 14 _ZN25BlockingConnectionAd
467:   FUNC GLOBAL DEFAULT 14 _ZN13ShellProtocolC1Ei
468:   FUNC GLOBAL DEFAULT 14 avb_be32toh
469:   FUNC GLOBAL DEFAULT 14 avb_printv
470:   FUNC GLOBAL DEFAULT 14 avb_ab_data_init
471:   FUNC GLOBAL DEFAULT 14 _Z23fdevent_installed_cou
472:   FUNC GLOBAL DEFAULT 14 _ZN10atransport5WriteEP7a
473:   FUNC GLOBAL DEFAULT 14 _ZN10atransport9Reconnect
474:   FUNC WEAK DEFAULT 14 _ZNSt3__112__deque_baseIN
475:   FUNC GLOBAL DEFAULT 14 _Z22restart_unroot_servic
476:   FUNC GLOBAL DEFAULT 14 avb_ab_flow_result_to_str
477:   FUNC GLOBAL DEFAULT 14 _Z13handle_onlineP10atran
478:   FUNC WEAK DEFAULT 14 _ZNKSt3__110__function6__
479:   FUNC GLOBAL DEFAULT 14 _Z16directory_existsRKNSt
480:   FUNC GLOBAL DEFAULT 14 _Z12ShellServiceNSt3__117
481:   FUNC GLOBAL DEFAULT 14 avb_ab_flow
482:   FUNC WEAK DEFAULT 14 _ZNSt3__110__function6__f
483:   FUNC GLOBAL DEFAULT 14 _Z9usb_closeP10usb_handle
484:   FUNC GLOBAL DEFAULT 14 _Z32set_verity_enabled_st
485:   FUNC GLOBAL DEFAULT 14 avb_user_verity_set
486:   FUNC GLOBAL DEFAULT 14 avb_basename
487:   FUNC GLOBAL DEFAULT 14 avb_malloc
488:   FUNC GLOBAL DEFAULT 14 _Z25create_jdwp_connectio
489:   FUNC GLOBAL DEFAULT 14 avb_strcmp
490:   FUNC GLOBAL DEFAULT 14 _Z17close_all_socketsP10a
491:   FUNC WEAK DEFAULT 14 _ZNSt3__114__split_buffer
492:   OBJECT GLOBAL DEFAULT 18 kFeatureShell2
493:   FUNC WEAK DEFAULT 14 _ZNSt3__110__function6__f
494:   FUNC GLOBAL DEFAULT 14 _ZN10atransport14update_v
495:   OBJECT GLOBAL DEFAULT 18 _ZTV10atransport
496:   OBJECT GLOBAL DEFAULT 18 kFeatureFixedPushMkdir
497:   FUNC GLOBAL DEFAULT 14 _Z17should_use_libusbv
498:   FUNC GLOBAL DEFAULT 14 _ZN13UsbConnectionD2Ev
499:   FUNC GLOBAL DEFAULT 14 _Z26create_jdwp_service_s
500:   FUNC GLOBAL DEFAULT 14 _ZN13ShellProtocol5WriteE
501:   FUNC GLOBAL DEFAULT 14 avb_chain_partition_descr
502:   FUNC GLOBAL DEFAULT 14 _ZN10atransport16RemoveDi
503:   FUNC WEAK DEFAULT 14 _ZNKSt3__110__function6__
504:   FUNC WEAK DEFAULT 14 _ZNSt3__110__function6__f
505:   FUNC GLOBAL DEFAULT 14 _Z29local_connect_arbitra
506:   FUNC WEAK DEFAULT 14 _ZNSt3__114__thread_proxy
507:   FUNC GLOBAL DEFAULT 14 avb_sub_cmdline
508:   FUNC GLOBAL DEFAULT 14 avb_safe_add_to
509:   FUNC GLOBAL DEFAULT 14 avb_div_by_10
510:   FUNC WEAK DEFAULT 14 _ZNSt3__16vectorINS_12bas
511:   FUNC WEAK DEFAULT 14 _ZNKSt3__110__function6__
512:   FUNC GLOBAL DEFAULT 14 avb_sha256_final
513:   FUNC GLOBAL DEFAULT 14 _Z10perror_strPKc
514:   FUNC GLOBAL DEFAULT 14 _Z20is_local_socket_specN
515:   FUNC WEAK DEFAULT 14 _ZNSt3__112__hash_tableIN
516:   FUNC GLOBAL DEFAULT 14 _Z16format_listenersv
517:   FUNC GLOBAL DEFAULT 14 _Z14is_socket_specNSt3__1
518:   FUNC GLOBAL DEFAULT 14 avb_new_cmdline_subst_lis
519:   FUNC GLOBAL DEFAULT 14 _ZN9alistenerD2Ev
520:   FUNC WEAK DEFAULT 14 _ZNSt3__112__hash_tableIN
521:   FUNC WEAK DEFAULT 14 _ZNSt3__114__split_buffer
522:   OBJECT WEAK DEFAULT 18 _ZTV13ServiceSocket
523:   FUNC GLOBAL DEFAULT 14 avb_ops_user_new
524:   FUNC GLOBAL DEFAULT 14 _Z14fdevent_createiPFvP7f
525:   FUNC WEAK DEFAULT 14 _ZNSt3__112__hash_tableIN
526:   FUNC WEAK DEFAULT 14 _ZNSt3__110__function6__f
527:   FUNC WEAK DEFAULT 14 _ZNSt3__112__deque_baseIN
528:   FUNC GLOBAL DEFAULT 14 _Z21StartCommandInProcess
529:   FUNC GLOBAL DEFAULT 14 _ZNK10atransport18GetConn
530:   FUNC WEAK DEFAULT 14 _ZNSt3__112__hash_tableIN
531:   FUNC GLOBAL DEFAULT 14 _Z8usb_kickP10usb_handle
532:   FUNC GLOBAL DEFAULT 14 _Z19set_file_block_modeib
533:   FUNC WEAK DEFAULT 14 _ZNSt3__112__hash_tableIN
534:   FUNC GLOBAL DEFAULT 14 avb_append_options
535:   FUNC WEAK DEFAULT 14 _ZNSt3__112__hash_tableIN
536:   FUNC GLOBAL DEFAULT 14 _ZN10Connection5ResetEv
537:   OBJECT WEAK DEFAULT 18 _ZTVNSt3__115basic_string
538:   FUNC GLOBAL DEFAULT 14 _Z23getEmulatorSerialStri
539:   FUNC GLOBAL DEFAULT 14 avb_validate_utf8
540:   FUNC GLOBAL DEFAULT 14 qemu_pipe_frame_send
541:   FUNC GLOBAL DEFAULT 14 _Z18ReadProtocolStringiPN
542:   FUNC WEAK DEFAULT 14 _ZNSt3__110__function6__f
543:   FUNC WEAK DEFAULT 14 _ZNSt3__114__split_buffer
544:   FUNC WEAK DEFAULT 14 _ZNSt3__120__shared_ptr_e
545:   OBJECT GLOBAL DEFAULT 18 _ZTV10Connection
546:   FUNC GLOBAL DEFAULT 14 _Z25register_socket_trans
547:   FUNC GLOBAL DEFAULT 14 _ZN10atransport5ResetEv
548:   FUNC GLOBAL DEFAULT 14 _Z10local_initi
549:   FUNC GLOBAL DEFAULT 14 __netf2
550:   FUNC GLOBAL DEFAULT 14 _Z18FeatureSetToStringRKN
551:   FUNC WEAK DEFAULT 14 _ZNSt3__112__deque_baseIN
552:   FUNC GLOBAL DEFAULT 14 _Z17set_tcp_keepaliveii
553:   FUNC WEAK DEFAULT 14 _ZNSt3__16vectorINS_12bas
554:   FUNC GLOBAL DEFAULT 14 _Z12fdevent_loopv
555:   FUNC GLOBAL DEFAULT 14 _ZN10atransportD2Ev
556:   FUNC GLOBAL DEFAULT 14 _Z24adbd_cloexec_auth_soc
557:   FUNC GLOBAL DEFAULT 14 _Z11fdevent_addP7fdeventj
558:   FUNC GLOBAL DEFAULT 14 avb_descriptor_validate_a
559:   FUNC GLOBAL DEFAULT 14 avb_ab_mark_slot_unbootab
560:   FUNC GLOBAL DEFAULT 14 avb_print
561:   FUNC WEAK DEFAULT 14 _ZNSt3__112__hash_tableIN
562:   FUNC WEAK DEFAULT 14 _ZNSt3__114__split_buffer
563:   OBJECT GLOBAL DEFAULT 18 kFeatureApex
564:   FUNC WEAK DEFAULT 14 _ZNSt3__110__function6__f
565:   FUNC GLOBAL DEFAULT 14 _ZN18ConnectionWaitable24
566:   FUNC GLOBAL DEFAULT 14 _Z16install_listenerRKNSt
567:   FUNC GLOBAL DEFAULT 14 _ZN10atransport24SetConne
568:   FUNC GLOBAL DEFAULT 14 _Z13CanUseFeatureRKNSt3__
569:   FUNC GLOBAL DEFAULT 14 _ZN25BlockingConnectionAd
570:   FUNC GLOBAL DEFAULT 14 _ZN25BlockingConnectionAd
571:   FUNC GLOBAL DEFAULT 14 _Z11tcp_connectRKNSt3__11
572:   FUNC GLOBAL DEFAULT 14 _Z19fdevent_set_timeoutP7
573:   FUNC WEAK DEFAULT 14 _ZNSt3__112__hash_tableIN
574:   OBJECT WEAK DEFAULT 18 _ZTVNSt3__120__shared_ptr
575:   FUNC GLOBAL DEFAULT 14 _ZN18ConnectionWaitable17
576:   FUNC WEAK DEFAULT 14 _ZNSt3__16vectorI4iocbNS_
577:   FUNC GLOBAL DEFAULT 14 __fe_getround
578:   FUNC WEAK DEFAULT 14 _ZNKSt3__110__function6__
579:   FUNC WEAK DEFAULT 14 _ZNKSt3__110__function6__
580:   FUNC GLOBAL DEFAULT 14 _Z11adb_versionv
581:   FUNC GLOBAL DEFAULT 14 _Z19create_local_socketN7
582:   FUNC GLOBAL DEFAULT 14 _Z10error_exitPKcz
583:   FUNC GLOBAL DEFAULT 14 _Z18StringToFeatureSetRKN
584:   FUNC GLOBAL DEFAULT 14 __subtf3
585:   FUNC GLOBAL DEFAULT 14 _ZNK7asocket15get_max_pay
586:   FUNC WEAK DEFAULT 14 _ZNSt3__16vectorIPN7andro
587:   OBJECT GLOBAL DEFAULT 16 auth_required
588:   FUNC WEAK DEFAULT 14 _ZNSt3__120__shared_ptr_p
589:   FUNC GLOBAL DEFAULT 14 _Z21tcp_listen_inaddr_any
590:   FUNC WEAK DEFAULT 14 _ZNKSt3__110__function6__
591:   FUNC WEAK DEFAULT 14 _ZNKSt3__110__function6__
592:   FUNC GLOBAL DEFAULT 14 _Z15StartSubprocessNSt3__
593:   FUNC GLOBAL DEFAULT 14 avb_add_root_digest_subst
594:   FUNC GLOBAL DEFAULT 14 avb_sha512_init
595:   FUNC GLOBAL DEFAULT 14 _Z11fdevent_setP7fdeventj
596:   FUNC GLOBAL DEFAULT 14 _Z14GetLogFilePathv
597:   FUNC WEAK DEFAULT 14 _ZNSt3__120__shared_ptr_p
598:   FUNC GLOBAL DEFAULT 14 __floatditf
599:   FUNC GLOBAL DEFAULT 14 __letf2
600:   FUNC GLOBAL DEFAULT 14 avb_strlen
601:   FUNC WEAK DEFAULT 14 _ZNSt3__115basic_stringbu
602:   FUNC WEAK DEFAULT 14 _ZNSt3__110__function6__f
603:   FUNC WEAK DEFAULT 14 _ZNSt3__110__function6__f
604:   FUNC GLOBAL DEFAULT 14 avb_safe_memcmp
605:   FUNC WEAK DEFAULT 14 _ZNSt3__110__function6__f
606:   FUNC GLOBAL DEFAULT 14 _Z12check_headerP7apacket
607:   FUNC GLOBAL DEFAULT 14 avb_calloc
608:   FUNC GLOBAL DEFAULT 14 avb_strstr
609:   FUNC GLOBAL DEFAULT 14 qemu_pipe_open
610:   FUNC GLOBAL DEFAULT 14 _Z6mkdirsRKNSt3__112basic
611:   FUNC GLOBAL DEFAULT 14 _ZN25BlockingConnectionAd
612:   FUNC GLOBAL DEFAULT 14 __lttf2
613:   FUNC GLOBAL DEFAULT 14 _Z9AdbLoggerN7android4bas
614:   FUNC WEAK DEFAULT 14 _ZNSt3__120__shared_ptr_p
615:   FUNC WEAK DEFAULT 14 _ZNSt3__114__split_buffer
616:   FUNC GLOBAL DEFAULT 14 _Z15open_functionfsPN7and
617:   FUNC GLOBAL DEFAULT 14 _Z13errno_to_wirei
618:   FUNC GLOBAL DEFAULT 14 _Z19framebuffer_serviceN7
619:   FUNC GLOBAL DEFAULT 14 avb_slot_verify_data_free
620:   FUNC WEAK DEFAULT 14 _ZNSt3__16vectorI5iovecNS
621:   FUNC GLOBAL DEFAULT 14 _Z18init_usb_transportP10
622:   FUNC GLOBAL DEFAULT 14 _ZN13UsbConnectionD0Ev
623:   FUNC WEAK DEFAULT 14 _ZNSt3__112__hash_tableIN
624:   FUNC WEAK DEFAULT 14 _ZNSt3__112__hash_tableIN
625:   OBJECT GLOBAL DEFAULT 18 kFeatureStat2
626:   FUNC GLOBAL DEFAULT 14 _Z16is_adb_interfaceiii
627:   FUNC GLOBAL DEFAULT 14 _Z14reboot_serviceN7andro
628:   FUNC GLOBAL DEFAULT 14 _ZN13ShellProtocolD2Ev
629:   FUNC GLOBAL DEFAULT 14 _Z35adbd_notify_framework
630:   FUNC GLOBAL DEFAULT 14 avb_ab_data_read
631:   FUNC GLOBAL DEFAULT 14 _Z24daemon_service_to_soc
632:   FUNC GLOBAL DEFAULT 14 avb_sha256_init
633:   FUNC GLOBAL DEFAULT 14 _Z17find_local_socketjj
634:   FUNC WEAK DEFAULT 14 _ZNSt3__110__function6__f
635:   FUNC GLOBAL DEFAULT 14 _Z17reconnect_serviceN7an
636:   FUNC GLOBAL DEFAULT 14 _Z20install_local_socketP
637:   FUNC GLOBAL DEFAULT 14 _Z22register_usb_transpor
638:   FUNC GLOBAL DEFAULT 14 _Z11ReportError18Subproce
639:   FUNC GLOBAL DEFAULT 14 avb_vbmeta_image_header_t
640:   FUNC WEAK DEFAULT 14 _ZNKSt3__110__function6__
641:   FUNC WEAK DEFAULT 14 _ZNSt3__16vectorI6pollfdN
642:   FUNC WEAK DEFAULT 14 _ZNSt3__16vectorIP7asocke
643:   FUNC GLOBAL DEFAULT 14 _Z28UsbNoPermissionsLongH
644:   FUNC GLOBAL DEFAULT 14 __unordtf2
645:   FUNC GLOBAL DEFAULT 14 _ZNK10atransport13Matches
646:   FUNC GLOBAL DEFAULT 14 _Z12parse_bannerRKNSt3__1
647:   FUNC GLOBAL DEFAULT 14 _Z15set_main_threadv
648:   FUNC WEAK DEFAULT 14 _ZNSt3__16vectorI8io_even
649:   FUNC GLOBAL DEFAULT 14 _Z13ReadFdExactlyiPvm
650:   FUNC GLOBAL DEFAULT 14 _Z17connect_to_remoteP7as
651:   FUNC GLOBAL DEFAULT 14 _ZN25BlockingConnectionAd
652:   FUNC GLOBAL DEFAULT 14 _Z15network_connectRKNSt3
653:   FUNC GLOBAL DEFAULT 14 avb_descriptor_foreach
654:   FUNC GLOBAL DEFAULT 14 qemu_pipe_frame_recv
655:   FUNC GLOBAL DEFAULT 14 _Z18register_transportP10
656:   FUNC GLOBAL DEFAULT 14 _Z13local_connecti
657:   FUNC GLOBAL DEFAULT 14 _Z16adbd_auth_verifyPKcmR
658:   FUNC GLOBAL DEFAULT 14 _ZN10atransport13AddDisco
659:   FUNC GLOBAL DEFAULT 14 _ZN10atransport4KickEv
660:   FUNC WEAK DEFAULT 14 _ZNSt3__120__shared_ptr_e
661:   FUNC GLOBAL DEFAULT 14 _Z14connect_deviceRKNSt3_
662:   FUNC GLOBAL DEFAULT 14 _Z14adbd_auth_initv
663:   FUNC GLOBAL DEFAULT 14 _Z14WriteFdExactlyiPKc
664:   OBJECT WEAK DEFAULT 18 _ZTVNSt3__110__function6_
665:   FUNC GLOBAL DEFAULT 14 _ZN13ShellProtocolC2Ei
666:   FUNC GLOBAL DEFAULT 14 avb_user_verity_get
667:   FUNC GLOBAL DEFAULT 14 avb_footer_validate_and_b
668:   FUNC GLOBAL DEFAULT 14 _Z18socket_spec_listenNSt
669:   FUNC GLOBAL DEFAULT 14 _Z17check_main_threadv
670:   FUNC GLOBAL DEFAULT 14 _Z22fdevent_terminate_loo
671:   FUNC WEAK DEFAULT 14 _ZNSt3__114__split_buffer
672:   FUNC GLOBAL DEFAULT 14 _Z34create_jdwp_tracker_s
673:   FUNC GLOBAL DEFAULT 14 _Z18SendProtocolStringiNS
674:   FUNC GLOBAL DEFAULT 14 avb_ab_mark_slot_active
675:   FUNC GLOBAL DEFAULT 14 _Z26get_trace_setting_fro
676:   FUNC WEAK DEFAULT 14 _ZNSt3__110__function6__f
677:   FUNC GLOBAL DEFAULT 14 _ZN10atransportD0Ev
678:   FUNC GLOBAL DEFAULT 14 _ZN25BlockingConnectionAd
679:   FUNC WEAK DEFAULT 14 _ZN7android4base9ParseUin
680:   FUNC WEAK DEFAULT 14 _ZNSt3__112__hash_tableIN
681:   FUNC GLOBAL DEFAULT 14 _ZN10atransport13SetConne
682:   FUNC GLOBAL DEFAULT 14 _Z22handle_forward_reques
683:   FUNC WEAK DEFAULT 14 _ZNSt3__110__function6__f
684:   FUNC GLOBAL DEFAULT 14 _Z10WriteFdFmtiPKcz
685:   FUNC GLOBAL DEFAULT 14 avb_malloc_
686:   FUNC GLOBAL DEFAULT 14 _Z17send_auth_requestP10a
687:   FUNC GLOBAL DEFAULT 14 _ZN9alistenerC1ERKNSt3__1
688:   FUNC WEAK DEFAULT 14 _ZNSt3__112__hash_tableIN
689:   FUNC GLOBAL DEFAULT 14 avb_slot_verify_result_to
690:   FUNC GLOBAL DEFAULT 14 avb_ab_data_verify_and_by
691:   FUNC GLOBAL DEFAULT 14 _Z11put_apacketP7apacket
692:   FUNC GLOBAL DEFAULT 14 _Z9usb_resetP10usb_handle
693:   FUNC WEAK DEFAULT 14 _ZNSt3__110__function6__f
694:   FUNC GLOBAL DEFAULT 14 _Z22connect_to_smartsocke
695:   FUNC WEAK DEFAULT 14 _ZNSt3__114__split_buffer
696:   OBJECT WEAK DEFAULT 18 _ZTVNSt3__119basic_ostrin
697:   FUNC GLOBAL DEFAULT 14 avb_slot_verify
698:   FUNC WEAK DEFAULT 14 _ZNSt3__15dequeINS_10shar
699:   FUNC GLOBAL DEFAULT 14 _Z20suggest_run_adb_rooti
700:   FUNC GLOBAL DEFAULT 14 avb_hash_descriptor_valid
701:   FUNC GLOBAL DEFAULT 14 _Z20remove_all_listenersv
702:   FUNC GLOBAL DEFAULT 14 _ZN13ShellProtocol4ReadEv
703:   FUNC GLOBAL DEFAULT 14 avb_free_cmdline_subst_li
704:   FUNC WEAK DEFAULT 14 _ZNSt3__16vectorINS_12bas
705:   OBJECT GLOBAL DEFAULT 18 kFeatureLibusb
706:   FUNC GLOBAL DEFAULT 14 _Z15reverse_serviceNSt3__
707:   OBJECT WEAK DEFAULT 18 _ZTVNSt3__110__function6_
708:   FUNC GLOBAL DEFAULT 14 _Z27init_transport_regist
709:   FUNC GLOBAL DEFAULT 14 _ZN13UsbConnection5WriteE
710:   FUNC GLOBAL DEFAULT 14 _Z20restart_root_serviceN
711:   FUNC GLOBAL DEFAULT 14 avb_safe_add
712:   FUNC GLOBAL DEFAULT 14 _Z15remove_listenerPKcP10
713:   FUNC WEAK DEFAULT 14 _ZNKSt3__110__function6__
714:   FUNC GLOBAL DEFAULT 14 _Z11dump_packetPKcS0_PK7a
715:   FUNC GLOBAL DEFAULT 14 _ZN9alistenerC2ERKNSt3__1
716:   FUNC GLOBAL DEFAULT 14 _Z16adb_trace_enable8AdbT
717:   FUNC WEAK DEFAULT 14 _ZNSt3__115basic_stringbu
718:   FUNC GLOBAL DEFAULT 14 _Z26fdevent_run_on_main_t
719:   FUNC GLOBAL DEFAULT 14 avb_get_algorithm_data
720:   FUNC GLOBAL DEFAULT 14 _Z14handle_offlineP10atra
721:   FUNC WEAK DEFAULT 14 _ZNSt3__112__hash_tableIN
722:   FUNC GLOBAL DEFAULT 14 _ZN13ShellProtocolD0Ev
723:   FUNC GLOBAL DEFAULT 14 avb_strdupv
724:   FUNC GLOBAL DEFAULT 14 _ZNK10atransport15get_max
725:   FUNC GLOBAL DEFAULT 14 _Z14kick_transportP10atra
726:   FUNC WEAK DEFAULT 14 _ZNSt3__112__hash_tableIN
727:   FUNC WEAK DEFAULT 14 _ZN7android4base4JoinINSt
728:   FUNC GLOBAL DEFAULT 14 _Z14fdevent_createiPFvijP
729:   FUNC GLOBAL DEFAULT 14 _Z22handle_forward_reques
730:   FUNC GLOBAL DEFAULT 14 __cmptf2
731:   OBJECT GLOBAL DEFAULT 16 adb_device_banner
732:   OBJECT GLOBAL DEFAULT 23 gListenAll
733:   FUNC WEAK DEFAULT 14 _ZNSt3__15dequeINS_10uniq
734:   OBJECT GLOBAL DEFAULT 23 adb_trace_mask
735:   FUNC WEAK DEFAULT 14 _ZNSt3__110__function6__f
736:   FUNC GLOBAL DEFAULT 14 _Z11fdevent_delP7fdeventj
737:   FUNC GLOBAL DEFAULT 14 _ZNK10atransport20get_pro
738:   FUNC GLOBAL DEFAULT 14 _Z17file_sync_serviceN7an
739:   FUNC GLOBAL DEFAULT 14 _Z10setup_mdnsi
740:   FUNC GLOBAL DEFAULT 14 avb_crc32
741:   FUNC GLOBAL DEFAULT 14 _Z25forward_targets_are_v
742:   FUNC WEAK DEFAULT 14 _ZNSt3__112__hash_tableIN
743:   FUNC GLOBAL DEFAULT 14 avb_free
744:   FUNC GLOBAL DEFAULT 14 _Z19kick_all_transportsv
745:   FUNC WEAK DEFAULT 14 _ZNKSt3__115basic_stringb
746:   FUNC WEAK DEFAULT 14 _ZNKSt3__110__function6__
