 0x0000000e (SONAME)                     Library soname: [libhidlbase.so]
  
Symbol   contains 1540 entries:
Num:   Type Bind Vis Ndx Name
0:   NOTYPE LOCAL DEFAULT UND
1:   FUNC GLOBAL DEFAULT UND __cxa_atexit@LIBC (2)
2:   FUNC GLOBAL DEFAULT UND __cxa_finalize@LIBC (2)
3:   FUNC GLOBAL DEFAULT UND _ZN7android27add_sysprop_
4:   FUNC GLOBAL DEFAULT UND _ZN7android4base10LogMess
5:   FUNC GLOBAL DEFAULT UND _ZN7android4base10LogMess
6:   FUNC GLOBAL DEFAULT UND _ZN7android4base10LogMess
7:   FUNC GLOBAL DEFAULT UND _ZN7android4base11GetProp
8:   FUNC GLOBAL DEFAULT UND _ZN7android4base12StringP
9:   FUNC GLOBAL DEFAULT UND _ZN7android4base21GetMini
10:   FUNC GLOBAL DEFAULT UND _ZNKSt3__112basic_stringI
11:   FUNC GLOBAL DEFAULT UND _ZNKSt3__119__shared_weak
12:   FUNC GLOBAL DEFAULT UND _ZNKSt3__120__vector_base
13:   FUNC GLOBAL DEFAULT UND _ZNKSt3__121__basic_strin
14:   FUNC GLOBAL DEFAULT UND _ZNKSt3__123__match_any_b
15:   FUNC GLOBAL DEFAULT UND _ZNKSt3__16locale4nameEv
16:   FUNC GLOBAL DEFAULT UND _ZNKSt3__16locale9use_fac
17:   FUNC GLOBAL DEFAULT UND _ZNKSt3__18ios_base6getlo
18:   FUNC GLOBAL DEFAULT UND _ZNSt3__112basic_stringIc
19:   FUNC GLOBAL DEFAULT UND _ZNSt3__112basic_stringIc
20:   FUNC GLOBAL DEFAULT UND _ZNSt3__112basic_stringIc
21:   FUNC GLOBAL DEFAULT UND _ZNSt3__112basic_stringIc
22:   FUNC GLOBAL DEFAULT UND _ZNSt3__112basic_stringIc
23:   FUNC GLOBAL DEFAULT UND _ZNSt3__112basic_stringIc
24:   FUNC GLOBAL DEFAULT UND _ZNSt3__112basic_stringIc
25:   FUNC GLOBAL DEFAULT UND _ZNSt3__112basic_stringIc
26:   FUNC GLOBAL DEFAULT UND _ZNSt3__113basic_ostreamI
27:   FUNC GLOBAL DEFAULT UND _ZNSt3__113basic_ostreamI
28:   FUNC GLOBAL DEFAULT UND _ZNSt3__115__get_classnam
29:   FUNC GLOBAL DEFAULT UND _ZNSt3__119__shared_weak_
30:   FUNC GLOBAL DEFAULT UND _ZNSt3__119__shared_weak_
31:   FUNC GLOBAL DEFAULT UND _ZNSt3__120__get_collatio
32:   OBJECT GLOBAL DEFAULT UND _ZNSt3__15ctypeIcE2idE
33:   FUNC GLOBAL DEFAULT UND _ZNSt3__16localeC1ERKS0_
34:   FUNC GLOBAL DEFAULT UND _ZNSt3__16localeC1Ev
35:   FUNC GLOBAL DEFAULT UND _ZNSt3__16localeD1Ev
36:   OBJECT GLOBAL DEFAULT UND _ZNSt3__17collateIcE2idE
37:   FUNC GLOBAL DEFAULT UND _ZNSt3__18ios_base5clearE
38:   FUNC GLOBAL DEFAULT UND _ZNSt3__19to_stringEi
39:   FUNC GLOBAL DEFAULT UND _ZNSt3__1plIcNS_11char_tr
40:   FUNC GLOBAL DEFAULT UND _ZdlPv
41:   FUNC GLOBAL DEFAULT UND _Znwj
42:   FUNC GLOBAL DEFAULT UND __cxa_guard_acquire
43:   FUNC GLOBAL DEFAULT UND __cxa_guard_release
44:   FUNC GLOBAL DEFAULT UND __errno@LIBC (2)
45:   NOTYPE WEAK DEFAULT UND __sanitizer_cov_dump
46:   FUNC GLOBAL DEFAULT UND __stack_chk_fail@LIBC (2)
47:   OBJECT GLOBAL DEFAULT UND __stack_chk_guard@LIBC (2)
48:   FUNC GLOBAL DEFAULT UND abort@LIBC (2)
49:   FUNC GLOBAL DEFAULT UND closedir@LIBC (2)
50:   FUNC GLOBAL DEFAULT UND dl_iterate_phdr@LIBC (3)
51:   FUNC GLOBAL DEFAULT UND dlerror@LIBC (3)
52:   FUNC GLOBAL DEFAULT UND dlopen@LIBC (3)
53:   FUNC GLOBAL DEFAULT UND dlsym@LIBC (3)
54:   FUNC GLOBAL DEFAULT UND getenv@LIBC (2)
55:   FUNC GLOBAL DEFAULT UND getpid@LIBC (2)
56:   FUNC GLOBAL DEFAULT UND memcmp@LIBC (2)
57:   FUNC GLOBAL DEFAULT UND opendir@LIBC (2)
58:   FUNC GLOBAL DEFAULT UND property_get
59:   FUNC GLOBAL DEFAULT UND property_get_bool
60:   FUNC GLOBAL DEFAULT UND readdir@LIBC (2)
61:   FUNC GLOBAL DEFAULT UND setenv@LIBC (2)
62:   FUNC GLOBAL DEFAULT UND strcmp@LIBC (2)
63:   FUNC GLOBAL DEFAULT UND strlen@LIBC (2)
64:   FUNC GLOBAL DEFAULT UND _ZN7android7RefBase10onFi
65:   FUNC GLOBAL DEFAULT UND _ZN7android7RefBase13onLa
66:   FUNC GLOBAL DEFAULT UND _ZN7android7RefBase15onLa
67:   FUNC GLOBAL DEFAULT UND _ZN7android7RefBase20onIn
68:   FUNC GLOBAL DEFAULT UND _ZN7android7RefBaseC2Ev
69:   FUNC GLOBAL DEFAULT UND _ZN7android7RefBaseD2Ev
70:   FUNC GLOBAL DEFAULT UND _ZNK7android7RefBase9incS
71:   FUNC GLOBAL DEFAULT UND _ZNSt3__113basic_ostreamI
72:   FUNC GLOBAL DEFAULT UND __strlen_chk@LIBC (2)
73:   FUNC GLOBAL DEFAULT UND close@LIBC (2)
74:   FUNC GLOBAL DEFAULT UND free@LIBC (2)
75:   FUNC GLOBAL DEFAULT UND malloc@LIBC (2)
76:   FUNC GLOBAL DEFAULT UND native_handle_clone
77:   FUNC GLOBAL DEFAULT UND native_handle_close
78:   FUNC GLOBAL DEFAULT UND native_handle_create
79:   FUNC GLOBAL DEFAULT UND native_handle_delete
80:   NOTYPE WEAK DEFAULT UND _ZN7android9CallStack11de
81:   NOTYPE WEAK DEFAULT UND _ZN7android9CallStack16lo
82:   NOTYPE WEAK DEFAULT UND _ZN7android9CallStack18ge
83:   FUNC GLOBAL DEFAULT UND _ZNSt3__112__next_primeEj
84:   FUNC GLOBAL DEFAULT UND _ZNSt3__112basic_stringIc
85:   FUNC GLOBAL DEFAULT UND _ZNSt3__112basic_stringIc
86:   FUNC GLOBAL DEFAULT UND _ZNSt3__112basic_stringIc
87:   FUNC GLOBAL DEFAULT UND _ZNSt3__113basic_ostreamI
88:   FUNC GLOBAL DEFAULT UND _ZNSt3__113basic_ostreamI
89:   FUNC GLOBAL DEFAULT UND _ZNSt3__113basic_ostreamI
90:   FUNC GLOBAL DEFAULT UND _ZNSt3__115basic_streambu
91:   FUNC GLOBAL DEFAULT UND _ZNSt3__115basic_streambu
92:   FUNC GLOBAL DEFAULT UND _ZNSt3__115basic_streambu
93:   FUNC GLOBAL DEFAULT UND _ZNSt3__115basic_streambu
94:   FUNC GLOBAL DEFAULT UND _ZNSt3__115basic_streambu
95:   FUNC GLOBAL DEFAULT UND _ZNSt3__115basic_streambu
96:   FUNC GLOBAL DEFAULT UND _ZNSt3__115basic_streambu
97:   FUNC GLOBAL DEFAULT UND _ZNSt3__115basic_streambu
98:   FUNC GLOBAL DEFAULT UND _ZNSt3__115basic_streambu
99:   FUNC GLOBAL DEFAULT UND _ZNSt3__18ios_base4initEP
100:   FUNC GLOBAL DEFAULT UND _ZNSt3__19basic_iosIcNS_1
101:   FUNC GLOBAL DEFAULT UND _ZTv0_n12_NSt3__113basic_
102:   FUNC GLOBAL DEFAULT UND _ZTv0_n12_NSt3__113basic_
103:   FUNC GLOBAL DEFAULT UND __android_log_print@LIBLOG (4)
104:   FUNC GLOBAL DEFAULT UND ceilf@LIBC (5)
105:   FUNC GLOBAL DEFAULT UND strerror@LIBC (2)
106:   FUNC GLOBAL DEFAULT UND _ZNSt3__115__thread_struc
107:   FUNC GLOBAL DEFAULT UND _ZNSt3__115__thread_struc
108:   FUNC GLOBAL DEFAULT UND _ZNSt3__118condition_vari
109:   FUNC GLOBAL DEFAULT UND _ZNSt3__118condition_vari
110:   FUNC GLOBAL DEFAULT UND _ZNSt3__118condition_vari
111:   FUNC GLOBAL DEFAULT UND _ZNSt3__119__thread_local
112:   FUNC GLOBAL DEFAULT UND _ZNSt3__120__throw_system
113:   FUNC GLOBAL DEFAULT UND _ZNSt3__15mutex4lockEv
114:   FUNC GLOBAL DEFAULT UND _ZNSt3__15mutex6unlockEv
115:   FUNC GLOBAL DEFAULT UND _ZNSt3__15mutexD1Ev
116:   FUNC GLOBAL DEFAULT UND _ZNSt3__16thread6detachEv
117:   FUNC GLOBAL DEFAULT UND _ZNSt3__16threadD1Ev
118:   FUNC GLOBAL DEFAULT UND androidSetThreadName
119:   FUNC GLOBAL DEFAULT UND pthread_create@LIBC (2)
120:   FUNC GLOBAL DEFAULT UND pthread_setspecific@LIBC (2)
121:   FUNC GLOBAL DEFAULT UND _ZN7android14sp_report_ra
122:   FUNC GLOBAL DEFAULT UND _ZN7android7RefBase12weak
123:   FUNC GLOBAL DEFAULT UND _ZN7android7RefBase12weak
124:   FUNC GLOBAL DEFAULT UND _ZN7android7RefBase12weak
125:   FUNC GLOBAL DEFAULT UND _ZN7android7String8C1ERKN
126:   FUNC GLOBAL DEFAULT UND _ZN7android7String8D1Ev
127:   FUNC GLOBAL DEFAULT UND _ZN7android8String16C1EPK
128:   FUNC GLOBAL DEFAULT UND _ZN7android8String16C1Ev
129:   FUNC GLOBAL DEFAULT UND _ZN7android8String16D1Ev
130:   FUNC GLOBAL DEFAULT UND _ZNK7android7RefBase10cre
131:   FUNC GLOBAL DEFAULT UND _ZNK7android7RefBase9decS
132:   FUNC GLOBAL DEFAULT UND __android_log_assert@LIBLOG (4)
133:   FUNC GLOBAL DEFAULT UND __android_log_error_write@LIBLOG_M (6)
134:   FUNC GLOBAL DEFAULT UND __cxa_pure_virtual
135:   FUNC GLOBAL DEFAULT UND _ZNSt3__113basic_ostreamI
136:   FUNC GLOBAL DEFAULT UND exit@LIBC (2)
137:   FUNC GLOBAL DEFAULT UND _ZNSt3__113basic_ostreamI
138:   FUNC GLOBAL DEFAULT UND _ZN7android12uptimeMillis
139:   FUNC GLOBAL DEFAULT UND _ZN7android4base10StartsW
140:   FUNC GLOBAL DEFAULT UND _ZN7android4base15WaitFor
141:   FUNC GLOBAL DEFAULT UND _ZN7android4base16ReadFil
142:   FUNC GLOBAL DEFAULT UND _ZN7android4base5SplitERK
143:   FUNC GLOBAL DEFAULT UND _ZN7android4base8EndsWith
144:   FUNC GLOBAL DEFAULT UND _ZNKSt3__112basic_stringI
145:   FUNC GLOBAL DEFAULT UND _ZNKSt3__112basic_stringI
146:   FUNC GLOBAL DEFAULT UND _ZNKSt3__16locale9has_fac
147:   FUNC GLOBAL DEFAULT UND _ZNSt3__112basic_stringIc
148:   FUNC GLOBAL DEFAULT UND _ZNSt3__113basic_istreamI
149:   FUNC GLOBAL DEFAULT UND _ZNSt3__113basic_istreamI
150:   FUNC GLOBAL DEFAULT UND _ZNSt3__113basic_istreamI
151:   FUNC GLOBAL DEFAULT UND _ZNSt3__113basic_istreamI
152:   FUNC GLOBAL DEFAULT UND _ZNSt3__113basic_istreamI
153:   FUNC GLOBAL DEFAULT UND _ZNSt3__113basic_ostreamI
154:   FUNC GLOBAL DEFAULT UND _ZNSt3__114basic_iostream
155:   FUNC GLOBAL DEFAULT UND _ZNSt3__114basic_iostream
156:   FUNC GLOBAL DEFAULT UND _ZNSt3__114basic_iostream
157:   FUNC GLOBAL DEFAULT UND _ZNSt3__118condition_vari
158:   FUNC GLOBAL DEFAULT UND _ZNSt3__16chrono12steady_
159:   FUNC GLOBAL DEFAULT UND _ZNSt3__16chrono12system_
160:   OBJECT GLOBAL DEFAULT UND _ZNSt3__17codecvtIcc9mbst
161:   FUNC GLOBAL DEFAULT UND _ZThn8_NSt3__114basic_ios
162:   FUNC GLOBAL DEFAULT UND _ZThn8_NSt3__114basic_ios
163:   FUNC GLOBAL DEFAULT UND _ZTv0_n12_NSt3__113basic_
164:   FUNC GLOBAL DEFAULT UND _ZTv0_n12_NSt3__113basic_
165:   FUNC GLOBAL DEFAULT UND _ZTv0_n12_NSt3__114basic_
166:   FUNC GLOBAL DEFAULT UND _ZTv0_n12_NSt3__114basic_
167:   FUNC GLOBAL DEFAULT UND _ZdaPv
168:   FUNC GLOBAL DEFAULT UND _Znaj
169:   FUNC GLOBAL DEFAULT UND __strchr_chk@LIBC (2)
170:   FUNC GLOBAL DEFAULT UND access@LIBC (2)
171:   FUNC GLOBAL DEFAULT UND android_load_sphal_librar@LIBVNDKSUPPORT (7)
172:   FUNC GLOBAL DEFAULT UND dlclose@LIBC (3)
173:   FUNC GLOBAL DEFAULT UND fclose@LIBC (2)
174:   FUNC GLOBAL DEFAULT UND fflush@LIBC (2)
175:   FUNC GLOBAL DEFAULT UND fopen@LIBC (2)
176:   FUNC GLOBAL DEFAULT UND fread@LIBC (2)
177:   FUNC GLOBAL DEFAULT UND fseeko@LIBC (2)
178:   FUNC GLOBAL DEFAULT UND ftello@LIBC (2)
179:   FUNC GLOBAL DEFAULT UND fwrite@LIBC (2)
180:   FUNC GLOBAL DEFAULT UND isspace@LIBC (2)
181:   FUNC GLOBAL DEFAULT UND memchr@LIBC (2)
182:   FUNC GLOBAL DEFAULT UND sleep@LIBC (2)
183:   FUNC GLOBAL DEFAULT UND strtoll@LIBC (2)
184:   FUNC GLOBAL DEFAULT UND strtoull@LIBC (2)
185:   FUNC GLOBAL DEFAULT UND sysconf@LIBC (2)
186:   FUNC GLOBAL DEFAULT UND tolower@LIBC (2)
187:   FUNC GLOBAL DEFAULT UND _ZN7android21report_syspr
188:   FUNC GLOBAL DEFAULT UND _ZNK7android7RefBase11get
189:   FUNC GLOBAL DEFAULT UND atrace_begin_body
190:   OBJECT GLOBAL DEFAULT UND atrace_enabled_tags
191:   FUNC GLOBAL DEFAULT UND atrace_end_body
192:   OBJECT GLOBAL DEFAULT UND atrace_is_ready
193:   FUNC GLOBAL DEFAULT UND atrace_setup
194:   FUNC GLOBAL DEFAULT UND pthread_mutex_lock@LIBC (2)
195:   FUNC GLOBAL DEFAULT UND pthread_mutex_unlock@LIBC (2)
196:   FUNC GLOBAL DEFAULT UND pthread_mutex_destroy@LIBC (2)
197:   FUNC GLOBAL DEFAULT UND pthread_mutex_init@LIBC (2)
198:   FUNC GLOBAL DEFAULT UND _ZN7android7RefBase20exte
199:   FUNC GLOBAL DEFAULT UND _ZN7android10VectorImpl13
200:   FUNC GLOBAL DEFAULT UND _ZN7android16SortedVector
201:   FUNC GLOBAL DEFAULT UND _ZN7android16SortedVector
202:   FUNC GLOBAL DEFAULT UND _ZNK7android16SortedVecto
203:   FUNC GLOBAL DEFAULT UND _ZN7android16SortedVector
204:   FUNC GLOBAL DEFAULT UND _ZN7android16SortedVector
205:   FUNC GLOBAL DEFAULT UND _ZN7android10VectorImpl5c
206:   FUNC GLOBAL DEFAULT UND _ZN7android10VectorImplC2
207:   FUNC GLOBAL DEFAULT UND _ZN7android10VectorImplD2
208:   FUNC GLOBAL DEFAULT UND _ZN7android10VectorImpl3a
209:   FUNC GLOBAL DEFAULT UND _ZN7android10VectorImpl13
210:   FUNC GLOBAL DEFAULT UND thread_store_get
211:   FUNC GLOBAL DEFAULT UND thread_store_set
212:   FUNC GLOBAL DEFAULT UND _ZN7android7RefBase10rena
213:   FUNC GLOBAL DEFAULT UND _ZN7android7RefBase11rena
214:   FUNC GLOBAL DEFAULT UND _ZN7android10VectorImpl16
215:   FUNC GLOBAL DEFAULT UND realloc@LIBC (2)
216:   FUNC GLOBAL DEFAULT UND printf@LIBC (2)
217:   FUNC GLOBAL DEFAULT UND __vsprintf_chk@LIBC (2)
218:   FUNC GLOBAL DEFAULT UND pthread_getspecific@LIBC (2)
219:   FUNC GLOBAL DEFAULT UND pthread_key_create@LIBC (2)
220:   FUNC GLOBAL DEFAULT UND pthread_key_delete@LIBC (2)
221:   FUNC GLOBAL DEFAULT UND getuid@LIBC (2)
222:   FUNC GLOBAL DEFAULT UND pthread_cond_wait@LIBC (2)
223:   FUNC GLOBAL DEFAULT UND pthread_cond_broadcast@LIBC (2)
224:   FUNC GLOBAL DEFAULT UND _ZN7android18IPCThreadSta
225:   FUNC GLOBAL DEFAULT UND ioctl@LIBC (2)
226:   FUNC GLOBAL DEFAULT UND _ZN7android18IPCThreadSta
227:   FUNC GLOBAL DEFAULT UND _ZN7android18IPCThreadSta
228:   FUNC GLOBAL DEFAULT UND _ZN7android18IPCThreadSta
229:   FUNC GLOBAL DEFAULT UND _ZN7android10VectorImpl4p
230:   FUNC GLOBAL DEFAULT UND _ZNK7android8String164siz
231:   FUNC GLOBAL DEFAULT UND _ZN7android8String16C1EPK
232:   FUNC GLOBAL DEFAULT UND _ZnwjRKSt9nothrow_t
233:   FUNC GLOBAL DEFAULT UND _ZN7android8String165setT
234:   FUNC GLOBAL DEFAULT UND calloc@LIBC (2)
235:   FUNC GLOBAL DEFAULT UND getrlimit@LIBC (2)
236:   FUNC GLOBAL DEFAULT UND _ZN7android8String165setT
237:   FUNC GLOBAL DEFAULT UND _ZNSt3__113basic_ostreamI
238:   FUNC GLOBAL DEFAULT UND _ZNSt3__113basic_ostreamI
239:   OBJECT GLOBAL DEFAULT UND _ZSt7nothrow
240:   FUNC GLOBAL DEFAULT UND _ZN7android7RefBase12weak
241:   FUNC GLOBAL DEFAULT UND _ZN7android7String8C1Ev
242:   FUNC GLOBAL DEFAULT UND _ZN7android7String812appe
243:   FUNC GLOBAL DEFAULT UND mmap@LIBC (2)
244:   FUNC GLOBAL DEFAULT UND munmap@LIBC (2)
245:   FUNC GLOBAL DEFAULT UND _ZN7android6ThreadC2Eb
246:   FUNC GLOBAL DEFAULT UND _ZN7android6ThreadD1Ev
247:   FUNC GLOBAL DEFAULT UND _ZN7android6ThreadD0Ev
248:   FUNC GLOBAL DEFAULT UND _ZN7android6Thread3runEPK
249:   FUNC GLOBAL DEFAULT UND _ZN7android6Thread11reque
250:   FUNC GLOBAL DEFAULT UND _ZN7android6Thread10ready
251:   FUNC GLOBAL DEFAULT UND _ZTv0_n12_N7android6Threa
252:   FUNC GLOBAL DEFAULT UND _ZTv0_n12_N7android6Threa
253:   FUNC GLOBAL DEFAULT UND _ZN7android6ThreadD2Ev
254:   FUNC GLOBAL DEFAULT UND __open_2@LIBC (2)
255:   FUNC GLOBAL DEFAULT UND _ZN7android8String16C1ERK
256:   FUNC GLOBAL DEFAULT UND strzcmp16
257:   FUNC GLOBAL DEFAULT UND _ZN7android10VectorImpl8i
258:   FUNC GLOBAL DEFAULT UND _ZNK7android7RefBase14for
259:   FUNC GLOBAL DEFAULT UND writev@LIBC (2)
260:   FUNC GLOBAL DEFAULT UND memcpy@LIBC (2)
261:   FUNC GLOBAL DEFAULT UND memmove@LIBC (2)
262:   FUNC GLOBAL DEFAULT UND memset@LIBC (2)
263:   FUNC WEAK DEFAULT UND android_set_abort_message@LIBC (2)
264:   FUNC GLOBAL DEFAULT UND write@LIBC (2)
265:   FUNC WEAK DEFAULT 14 _ZNSt3__110__function6__f
266:   OBJECT GLOBAL DEFAULT 18 _ZTTN7android8hardware10H
267:   FUNC GLOBAL DEFAULT 14 _ZN7android8hardware14IPC
268:   FUNC GLOBAL DEFAULT 14 _ZN7android4hidl7manager4
269:   FUNC GLOBAL DEFAULT 14 _ZN7android8hardware11BpH
270:   FUNC GLOBAL DEFAULT 14 _ZN7android4hidl7manager4
271:   FUNC GLOBAL DEFAULT 14 _ZN7android4hidl7manager4
272:   FUNC GLOBAL DEFAULT 14 _ZN7android4hidl4base4V1_
273:   FUNC WEAK DEFAULT 14 _ZNKSt3__110__back_refIcE
274:   FUNC WEAK DEFAULT 14 _ZN7android8hardware10fro
275:   FUNC WEAK DEFAULT 14 _ZNSt3__111basic_regexIcN
276:   FUNC GLOBAL DEFAULT 14 _ZN7android4hidl7manager4
277:   FUNC GLOBAL DEFAULT 14 _ZN7android8hardware9BHwB
278:   OBJECT WEAK DEFAULT 18 _ZTVN7android12SortedVect
279:   OBJECT WEAK DEFAULT 18 _ZTVN7android6VectorIiEE
280:   OBJECT WEAK DEFAULT 18 _ZTVNSt3__110__r_anchorIc
281:   FUNC GLOBAL DEFAULT 14 _ZN7android4hidl4base4V1_
282:   FUNC GLOBAL DEFAULT 14 _ZN7android4hidl7manager4
283:   FUNC GLOBAL DEFAULT 14 _ZN7android4hidl7manager4
284:   FUNC GLOBAL DEFAULT 14 _ZN7android8hardware6Parc
285:   FUNC WEAK DEFAULT 14 _ZNSt3__111basic_regexIcN
286:   FUNC GLOBAL DEFAULT 14 _ZN7android4hidl4base4V1_
287:   FUNC GLOBAL DEFAULT 14 _ZN7android4hidl7manager4
288:   FUNC WEAK DEFAULT 14 _ZNSt3__111basic_regexIcN
289:   FUNC GLOBAL DEFAULT 14 _ZN7android8hardware22rea
290:   FUNC GLOBAL DEFAULT 14 _ZN7android8hardware7deta
291:   FUNC GLOBAL DEFAULT 14 _ZN7android4hidl7manager4
292:   FUNC GLOBAL DEFAULT 14 _ZN7android8hardware9BHwB
293:   FUNC GLOBAL DEFAULT 14 _ZN7android4hidl7manager4
294:   FUNC GLOBAL DEFAULT 14 _ZNK7android8hardware6Par
295:   FUNC WEAK DEFAULT 14 _ZNSt3__111basic_regexIcN
296:   FUNC WEAK DEFAULT 14 _ZNSt3__114__split_buffer
297:   FUNC WEAK DEFAULT 14 _ZNSt3__111basic_regexIcN
298:   OBJECT GLOBAL DEFAULT 18 _ZTVN7android8hardware9BH
299:   FUNC GLOBAL DEFAULT 14 _ZN7android8hardware7HexD
300:   FUNC GLOBAL DEFAULT 14 _ZN7android4hidl7manager4
301:   FUNC GLOBAL DEFAULT 14 _ZN7android4hidl4base4V1_
302:   FUNC GLOBAL DEFAULT 14 _ZN7android8hardware14IPC
303:   FUNC GLOBAL DEFAULT 14 _ZN7android8hardware18Buf
304:   FUNC GLOBAL DEFAULT 14 _ZNK7android8hardware14IP
305:   OBJECT WEAK DEFAULT 18 _ZTVNSt3__111__match_anyI
306:   FUNC GLOBAL DEFAULT 14 __aeabi_memset
307:   FUNC GLOBAL DEFAULT 14 _ZN7android4hidl7manager4
308:   OBJECT GLOBAL DEFAULT 18 _ZTVN7android4hidl7manage
309:   OBJECT GLOBAL DEFAULT 18 _ZTVN7android8hardware10B
310:   FUNC GLOBAL DEFAULT 14 _ZN7android8hardware18Buf
311:   FUNC WEAK DEFAULT 14 _ZNSt3__117__owns_two_sta
312:   FUNC GLOBAL DEFAULT 14 _ZN7android4hidl4base4V1_
313:   FUNC GLOBAL DEFAULT 14 _ZNK7android8hardware6Par
314:   FUNC GLOBAL DEFAULT 14 _ZN7android8hardware6Parc
315:   FUNC GLOBAL DEFAULT 14 _ZN7android4hidl7manager4
316:   FUNC WEAK DEFAULT 14 _ZN7android8hardware7deta
317:   OBJECT GLOBAL DEFAULT 18 _ZTCN7android4hidl7manage
318:   FUNC GLOBAL DEFAULT 14 _ZN7android8hardware7deta
319:   FUNC GLOBAL DEFAULT 14 _ZN7android8hardware12Pro
320:   OBJECT GLOBAL DEFAULT 18 _ZTTN7android4hidl7manage
321:   FUNC GLOBAL DEFAULT 14 _ZN7android4hidl7manager4
322:   FUNC GLOBAL DEFAULT 14 _ZTv0_n12_N7android4hidl7
323:   FUNC GLOBAL DEFAULT 14 _ZTv0_n12_N7android4hidl7
324:   FUNC GLOBAL DEFAULT 14 _ZN7android4hidl4base4V1_
325:   FUNC GLOBAL DEFAULT 14 _ZN7android8hardware10IIn
326:   FUNC GLOBAL DEFAULT 14 _ZN7android4hidl7manager4
327:   FUNC GLOBAL DEFAULT 14 _ZN7android4hidl7manager4
328:   OBJECT GLOBAL DEFAULT 18 _ZTCN7android8hardware7de
329:   FUNC GLOBAL DEFAULT 14 _ZN7android4hidl4base4V1_
330:   FUNC GLOBAL DEFAULT 14 _ZNK7android8hardware6Par
331:   FUNC GLOBAL DEFAULT 14 _ZN7android8hardware7IBin
332:   FUNC GLOBAL DEFAULT 14 _ZNK7android8hardware6Par
333:   OBJECT WEAK DEFAULT 18 _ZTVNSt3__117__owns_two_s
334:   FUNC GLOBAL DEFAULT 14 _ZN7android4hidl7manager4
335:   FUNC GLOBAL DEFAULT 14 _ZN7android4hidl7manager4
336:   FUNC GLOBAL DEFAULT 14 _ZN7android4hidl7manager4
337:   FUNC GLOBAL DEFAULT 14 _ZN7android4hidl7manager4
338:   FUNC WEAK DEFAULT 14 _ZNSt3__124__put_characte
339:   FUNC GLOBAL DEFAULT 14 _ZN7android4hidl7manager4
340:   FUNC GLOBAL DEFAULT 14 _ZN7android4hidl7manager4
341:   FUNC GLOBAL DEFAULT 14 _ZN7android8hardware9BHwB
342:   FUNC GLOBAL DEFAULT 14 _ZTv0_n24_N7android8hardw
343:   FUNC WEAK DEFAULT 14 _ZNSt3__120__shared_ptr_p
344:   FUNC GLOBAL DEFAULT 14 _ZNK7android8hardware6Par
345:   FUNC GLOBAL DEFAULT 14 _ZN7android4hidl7manager4
346:   FUNC GLOBAL DEFAULT 14 _ZN7android8hardware10BpH
347:   FUNC GLOBAL DEFAULT 14 _ZNK7android8hardware11hi
348:   FUNC GLOBAL DEFAULT 14 _ZTv0_n12_N7android8hardw
349:   FUNC GLOBAL DEFAULT 14 _ZNK7android8hardware6Par
350:   FUNC WEAK DEFAULT 14 _ZNSt3__15dequeINS_8funct
351:   FUNC WEAK DEFAULT 14 _ZNSt3__113basic_filebufI
352:   OBJECT WEAK DEFAULT 18 _ZTVN7android4hidl4base4V
353:   FUNC GLOBAL DEFAULT 14 _ZTv0_n16_N7android8hardw
354:   FUNC GLOBAL DEFAULT 14 _ZNK7android8hardware18Bu
355:   FUNC GLOBAL DEFAULT 14 _ZN7android8hardware6Parc
356:   FUNC GLOBAL DEFAULT 14 _ZN7android8hardware10BpH
357:   FUNC GLOBAL DEFAULT 14 _ZN7android4hidl4base4V1_
358:   FUNC GLOBAL DEFAULT 14 _ZN7android4hidl7manager4
359:   FUNC GLOBAL DEFAULT 14 _ZN7android8hardware6Parc
360:   FUNC GLOBAL DEFAULT 14 _ZN7android8hardware21acq
361:   FUNC GLOBAL DEFAULT 14 _ZN7android8hardware6Stat
362:   FUNC WEAK DEFAULT 14 _ZN7android8hardware7deta
363:   FUNC GLOBAL DEFAULT 14 _ZN7android4hidl7manager4
364:   FUNC GLOBAL DEFAULT 14 _ZN7android8hardware10BpH
365:   FUNC GLOBAL DEFAULT 14 _ZN7android8hardware10IIn
366:   FUNC WEAK DEFAULT 14 _ZNSt3__115basic_stringbu
367:   FUNC GLOBAL DEFAULT 14 _ZN7android4hidl7manager4
368:   FUNC GLOBAL DEFAULT 14 _ZN7android8hardware12Pro
369:   FUNC GLOBAL DEFAULT 14 _ZNK7android8hardware7IBi
370:   FUNC GLOBAL DEFAULT 14 _ZTv0_n12_N7android8hardw
371:   FUNC GLOBAL DEFAULT 14 _ZN7android4hidl7manager4
372:   OBJECT GLOBAL DEFAULT 18 _ZTCN7android8hardware27h
373:   FUNC GLOBAL DEFAULT 14 _ZN7android8hardware6Parc
374:   FUNC GLOBAL DEFAULT 14 _ZN7android8hardware6Parc
375:   FUNC WEAK DEFAULT 14 _ZNSt3__16__treeINS_12__v
376:   FUNC GLOBAL DEFAULT 14 _ZN7android8hardware10BpH
377:   FUNC GLOBAL DEFAULT 14 _ZN7android8hardware14IPC
378:   FUNC WEAK DEFAULT 14 _ZNSt3__16vectorINS_9sub_
379:   FUNC GLOBAL DEFAULT 14 _ZN7android8hardware6Parc
380:   FUNC GLOBAL DEFAULT 14 _ZN7android8hardware9BHwB
381:   FUNC GLOBAL DEFAULT 14 _ZNK7android8hardware14IP
382:   FUNC WEAK DEFAULT 14 _ZNSt3__16vectorINS_4pair
383:   OBJECT GLOBAL DEFAULT 18 _ZTTN7android8hardware7de
384:   FUNC GLOBAL DEFAULT 14 _ZNK7android8hardware14IP
385:   FUNC GLOBAL DEFAULT 14 _ZN7android8hardware6Parc
386:   FUNC GLOBAL DEFAULT 14 _ZNK7android8hardware10Bp
387:   FUNC GLOBAL DEFAULT 14 _ZN7android8hardware14IPC
388:   FUNC WEAK DEFAULT 14 _ZNSt3__16vectorINS_12bas
389:   FUNC WEAK DEFAULT 14 _ZNSt3__112__hash_tableIN
390:   FUNC GLOBAL DEFAULT 14 _ZN7android8hardware6Parc
391:   FUNC GLOBAL DEFAULT 14 _ZNK7android8hardware6Par
392:   FUNC GLOBAL DEFAULT 14 _ZN7android4hidl7manager4
393:   FUNC GLOBAL DEFAULT 14 _ZN7android8hardware12Pro
394:   OBJECT WEAK DEFAULT 18 _ZTVNSt3__126__end_marked
395:   FUNC GLOBAL DEFAULT 14 _ZN7android4hidl7manager4
396:   FUNC GLOBAL DEFAULT 14 _ZN7android8hardware7deta
397:   FUNC WEAK DEFAULT 14 _ZNSt3__111basic_regexIcN
398:   FUNC GLOBAL DEFAULT 14 _ZN7android4hidl7manager4
399:   OBJECT GLOBAL DEFAULT 18 _ZTTN7android4hidl7manage
400:   FUNC GLOBAL DEFAULT 14 _ZN7android8hardware9BHwB
401:   FUNC GLOBAL DEFAULT 14 _ZN7android8hardware7deta
402:   FUNC WEAK DEFAULT 14 _ZNSt3__116__owns_one_sta
403:   FUNC GLOBAL DEFAULT 14 _ZN7android8hardware7deta
404:   FUNC GLOBAL DEFAULT 14 _ZN7android4hidl7manager4
405:   FUNC WEAK DEFAULT 14 _ZNSt3__111basic_regexIcN
406:   FUNC WEAK DEFAULT 14 _ZNSt3__16vectorINS_9sub_
407:   FUNC GLOBAL DEFAULT 14 _ZN7android4hidl7manager4
408:   FUNC GLOBAL DEFAULT 14 _ZN7android8hardware12Pro
409:   FUNC WEAK DEFAULT 14 _ZN7android2spINS_8hardwa
410:   OBJECT WEAK DEFAULT 23 _ZZN7android8hardware25Pa
411:   FUNC GLOBAL DEFAULT 14 _ZN7android4hidl7manager4
412:   FUNC GLOBAL DEFAULT 14 _ZTv0_n12_N7android4hidl7
413:   OBJECT GLOBAL DEFAULT 18 _ZTCN7android4hidl7manage
414:   FUNC GLOBAL DEFAULT 14 _ZN7android8hardware11hid
415:   FUNC GLOBAL DEFAULT 14 _ZN7android8hardware11hid
416:   FUNC WEAK DEFAULT 14 _ZNSt3__111basic_regexIcN
417:   OBJECT GLOBAL DEFAULT 18 _ZTVN7android4hidl7manage
418:   FUNC GLOBAL DEFAULT 14 getHWBinderKernelReferenc
419:   FUNC GLOBAL DEFAULT 14 _ZNK7android8hardware6Par
420:   FUNC GLOBAL DEFAULT 14 _ZNK7android8hardware7det
421:   OBJECT WEAK DEFAULT 18 _ZTCN7android8hardware7de
422:   FUNC GLOBAL DEFAULT 14 _ZN7android4hidl7manager4
423:   FUNC WEAK DEFAULT 14 _ZN7android8hardware7deta
424:   FUNC GLOBAL DEFAULT 14 _ZN7android4hidl7manager4
425:   FUNC GLOBAL DEFAULT 14 _ZN7android4hidl7manager4
426:   FUNC WEAK DEFAULT 14 _ZNSt3__111basic_regexIcN
427:   FUNC GLOBAL DEFAULT 14 _ZN7android8hardware11hid
428:   FUNC WEAK DEFAULT 14 _ZNSt3__111basic_regexIcN
429:   FUNC WEAK DEFAULT 14 _ZNSt3__111basic_regexIcN
430:   OBJECT WEAK DEFAULT 18 _ZTVN7android6VectorINS_8
431:   FUNC GLOBAL DEFAULT 14 _ZN7android4hidl7manager4
432:   OBJECT GLOBAL DEFAULT 18 _ZTCN7android4hidl4base4V
433:   FUNC GLOBAL DEFAULT 14 _ZN7android8hardware10BpH
434:   FUNC GLOBAL DEFAULT 14 _ZN7android8hardware6Parc
435:   FUNC WEAK DEFAULT 14 _ZNKSt3__112__match_charI
436:   FUNC GLOBAL DEFAULT 14 _ZN7android8hardware6Stat
437:   FUNC GLOBAL DEFAULT 14 _ZN7android4hidl7manager4
438:   OBJECT GLOBAL DEFAULT 18 _ZTVN7android4hidl4base4V
439:   FUNC GLOBAL DEFAULT 14 _ZN7android8hardware6Parc
440:   FUNC GLOBAL DEFAULT 14 _ZNK7android8hardware6Par
441:   FUNC WEAK DEFAULT 14 _ZN7android8hardware10fro
442:   FUNC GLOBAL DEFAULT 14 _ZN7android8hardware10BpH
443:   FUNC GLOBAL DEFAULT 14 _ZN7android4hidl7manager4
444:   FUNC GLOBAL DEFAULT 14 _ZN7android8hardware10BpH
445:   FUNC GLOBAL DEFAULT 14 _ZN7android8hardware14IPC
446:   FUNC GLOBAL DEFAULT 14 _ZN7android8hardware6Parc
447:   FUNC WEAK DEFAULT 14 _ZNSt3__16vectorIN7androi
448:   FUNC GLOBAL DEFAULT 14 _ZN7android8hardware7deta
449:   OBJECT WEAK DEFAULT 23 _ZZN7android8hardware25Pa
450:   FUNC GLOBAL DEFAULT 14 _ZN7android8hardware12Pro
451:   OBJECT WEAK DEFAULT 18 _ZTVNSt3__116__owns_one_s
452:   FUNC GLOBAL DEFAULT 14 _ZN7android8hardware6Parc
453:   OBJECT GLOBAL DEFAULT 18 _ZTCN7android4hidl7manage
454:   OBJECT GLOBAL DEFAULT 18 _ZTCN7android4hidl7manage
455:   OBJECT WEAK DEFAULT 18 _ZTTN7android8hardware11B
456:   FUNC GLOBAL DEFAULT 14 __floatdidf
457:   FUNC WEAK DEFAULT 14 _ZNSt3__110__function6__f
458:   FUNC WEAK DEFAULT 14 _ZNSt3__111basic_regexIcN
459:   FUNC WEAK DEFAULT 14 _ZNSt3__16vectorIcNS_9all
460:   FUNC GLOBAL DEFAULT 14 _ZN7android4hidl7manager4
461:   FUNC GLOBAL DEFAULT 14 _ZTv0_n12_N7android4hidl7
462:   FUNC GLOBAL DEFAULT 14 _ZN7android4hidl7manager4
463:   FUNC GLOBAL DEFAULT 14 _ZN7android4hidl7manager4
464:   FUNC GLOBAL DEFAULT 14 _ZN7android4hidl7manager4
465:   FUNC WEAK DEFAULT 14 _ZNSt3__112__hash_tableIN
466:   FUNC GLOBAL DEFAULT 14 _ZTv0_n12_N7android8hardw
467:   OBJECT GLOBAL DEFAULT 18 _ZTCN7android4hidl7manage
468:   FUNC GLOBAL DEFAULT 14 _ZNK7android8hardware6Par
469:   FUNC GLOBAL DEFAULT 14 _ZNK7android8hardware6Par
470:   FUNC GLOBAL DEFAULT 14 _ZNK7android8hardware6Par
471:   FUNC GLOBAL DEFAULT 14 _ZN7android8hardware12Pro
472:   FUNC GLOBAL DEFAULT 14 _ZN7android4hidl7manager4
473:   FUNC WEAK DEFAULT 14 _ZNSt3__16vectorINS_9sub_
474:   FUNC GLOBAL DEFAULT 14 _ZN7android8hardware11hid
475:   FUNC GLOBAL DEFAULT 14 _ZN7android8hardware16mat
476:   FUNC GLOBAL DEFAULT 14 _ZN7android4hidl7manager4
477:   FUNC WEAK DEFAULT 14 _ZNSt3__111basic_regexIcN
478:   FUNC GLOBAL DEFAULT 14 _ZN7android8hardware11hid
479:   FUNC WEAK DEFAULT 14 _ZNSt3__111basic_regexIcN
480:   FUNC WEAK DEFAULT 14 _ZNSt3__16__treeINS_12__v
481:   OBJECT GLOBAL DEFAULT 18 _ZTCN7android4hidl7manage
482:   FUNC GLOBAL DEFAULT 14 _ZN7android4hidl7manager4
483:   FUNC GLOBAL DEFAULT 14 _ZN7android8hardware14IPC
484:   OBJECT GLOBAL DEFAULT 18 _ZTVN7android8hardware10H
485:   FUNC GLOBAL DEFAULT 14 _ZN7android4hidl7manager4
486:   FUNC GLOBAL DEFAULT 14 _ZN7android4hidl7manager4
487:   FUNC GLOBAL DEFAULT 14 _ZN7android8hardware9BHwB
488:   FUNC GLOBAL DEFAULT 14 _ZN7android8hardware7deta
489:   FUNC GLOBAL DEFAULT 14 _ZNK7android8hardware6Par
490:   FUNC GLOBAL DEFAULT 14 __aeabi_memset4
491:   FUNC WEAK DEFAULT 14 _ZNKSt3__126__end_marked_
492:   FUNC GLOBAL DEFAULT 14 _ZN7android8hardware17joi
493:   FUNC GLOBAL DEFAULT 14 _ZN7android4hidl7manager4
494:   FUNC GLOBAL DEFAULT 14 _ZN7android8hardware6Parc
495:   FUNC GLOBAL DEFAULT 14 _ZN7android4hidl7manager4
496:   OBJECT GLOBAL DEFAULT 18 _ZTTN7android4hidl7manage
497:   FUNC GLOBAL DEFAULT 14 _ZN7android8hardware7deta
498:   FUNC GLOBAL DEFAULT 14 _ZN7android8hardware11hid
499:   FUNC WEAK DEFAULT 14 _ZNSt3__15dequeINS_8funct
500:   FUNC WEAK DEFAULT 14 _ZNSt3__113basic_filebufI
501:   FUNC GLOBAL DEFAULT 14 _ZTv0_n12_N7android4hidl4
502:   OBJECT GLOBAL DEFAULT 18 _ZTCN7android4hidl7manage
503:   FUNC GLOBAL DEFAULT 14 _ZNK7android8hardware14IP
504:   FUNC WEAK DEFAULT 14 _ZNSt3__111basic_regexIcN
505:   FUNC GLOBAL DEFAULT 14 _ZN7android8hardware11hid
506:   FUNC GLOBAL DEFAULT 14 _ZN7android4hidl7manager4
507:   OBJECT GLOBAL DEFAULT 18 _ZTCN7android4hidl7manage
508:   FUNC GLOBAL DEFAULT 14 _ZN7android4hidl7manager4
509:   FUNC GLOBAL DEFAULT 14 _ZNK7android8hardware6Par
510:   FUNC GLOBAL DEFAULT 14 _ZN7android8hardware10Tex
511:   FUNC GLOBAL DEFAULT 14 __aeabi_memset8
512:   FUNC GLOBAL DEFAULT 14 _ZN7android8hardware11hid
513:   FUNC GLOBAL DEFAULT 14 _ZN7android8hardwarelsERN
514:   FUNC WEAK DEFAULT 14 _ZNSt3__111basic_regexIcN
515:   FUNC GLOBAL DEFAULT 14 _ZN7android8hardware11BpH
516:   FUNC GLOBAL DEFAULT 14 _ZN7android4hidl7manager4
517:   OBJECT GLOBAL DEFAULT 18 _ZTCN7android4hidl7manage
518:   FUNC GLOBAL DEFAULT 14 _ZN7android8hardware10BpH
519:   FUNC GLOBAL DEFAULT 14 _ZNK7android8hardware6Par
520:   OBJECT GLOBAL DEFAULT 18 _ZTVN7android4hidl7manage
521:   FUNC GLOBAL DEFAULT 14 _ZN7android4hidl4base4V1_
522:   OBJECT WEAK DEFAULT 18 _ZTVNSt3__112__match_char
523:   FUNC GLOBAL DEFAULT 14 _ZN7android8hardware14rea
524:   FUNC WEAK DEFAULT 14 _ZNSt3__16vectorINS_12bas
525:   FUNC GLOBAL DEFAULT 14 _ZN7android4hidl7manager4
526:   FUNC GLOBAL DEFAULT 14 _ZN7android4hidl7manager4
527:   FUNC GLOBAL DEFAULT 14 _ZN7android8hardware12Pro
528:   FUNC GLOBAL DEFAULT 14 _ZN7android8hardware6Parc
529:   FUNC WEAK DEFAULT 14 _ZNKSt3__16__treeINS_12__
530:   FUNC GLOBAL DEFAULT 14 _ZN7android8hardware14IPC
531:   FUNC WEAK DEFAULT 14 _ZN7android2spINS_8hardwa
532:   FUNC WEAK DEFAULT 14 _ZN7android8hardware7deta
533:   FUNC GLOBAL DEFAULT 14 _ZN7android4hidl7manager4
534:   FUNC GLOBAL DEFAULT 14 _ZThn20_N7android4hidl7ma
535:   FUNC GLOBAL DEFAULT 14 _ZN7android8hardware6Parc
536:   FUNC GLOBAL DEFAULT 14 _ZN7android4hidl7manager4
537:   FUNC GLOBAL DEFAULT 14 _ZN7android8hardware6Parc
538:   FUNC GLOBAL DEFAULT 14 _ZN7android8hardware6Parc
539:   FUNC GLOBAL DEFAULT 14 __aeabi_memcpy4
540:   FUNC GLOBAL DEFAULT 14 _ZN7android8hardware11hid
541:   OBJECT WEAK DEFAULT 18 _ZTCNSt3__113basic_fstrea
542:   FUNC GLOBAL DEFAULT 14 _ZN7android4hidl4base4V1_
543:   OBJECT GLOBAL DEFAULT 18 _ZTCN7android4hidl7manage
544:   FUNC GLOBAL DEFAULT 14 _ZThn20_N7android4hidl4ba
545:   FUNC GLOBAL DEFAULT 14 _ZN7android8hardware23get
546:   FUNC GLOBAL DEFAULT 14 _ZN7android4hidl7manager4
547:   FUNC GLOBAL DEFAULT 14 _ZN7android8hardware6Parc
548:   FUNC GLOBAL DEFAULT 14 _ZN7android4hidl7manager4
549:   OBJECT WEAK DEFAULT 18 _ZTCNSt3__118basic_string
550:   FUNC WEAK DEFAULT 14 _ZNSt3__16vectorINS_4pair
551:   FUNC GLOBAL DEFAULT 14 _ZN7android8hardware11hid
552:   FUNC WEAK DEFAULT 14 _ZNSt3__120__shared_ptr_e
553:   OBJECT GLOBAL DEFAULT 18 _ZTCN7android8hardware7de
554:   OBJECT GLOBAL DEFAULT 18 _ZTTN7android8hardware7IB
555:   FUNC GLOBAL DEFAULT 14 _ZN7android8hardware12Pro
556:   FUNC GLOBAL DEFAULT 14 __aeabi_memcpy8
557:   FUNC GLOBAL DEFAULT 14 _ZN7android8hardware7deta
558:   OBJECT GLOBAL DEFAULT 16 _ZN7android4hidl7manager4
559:   FUNC GLOBAL DEFAULT 14 _ZN7android8hardware12Pro
560:   FUNC GLOBAL DEFAULT 14 _ZN7android8hardware6Parc
561:   OBJECT GLOBAL DEFAULT 18 _ZTTN7android4hidl7manage
562:   FUNC GLOBAL DEFAULT 14 _ZN7android4hidl7manager4
563:   FUNC GLOBAL DEFAULT 14 _ZN7android8hardware6Parc
564:   OBJECT WEAK DEFAULT 18 _ZTVNSt3__120__match_char
565:   FUNC GLOBAL DEFAULT 14 _ZN7android4hidl4base4V1_
566:   FUNC WEAK DEFAULT 14 _ZNSt3__16__treeINS_12__v
567:   FUNC GLOBAL DEFAULT 14 _ZN7android8hardware6Parc
568:   FUNC GLOBAL DEFAULT 14 _ZN7android4hidl7manager4
569:   FUNC GLOBAL DEFAULT 14 _ZNK7android8hardware6Par
570:   FUNC WEAK DEFAULT 14 _ZNSt3__111basic_regexIcN
571:   FUNC WEAK DEFAULT 14 _ZNSt3__16vectorIPvNS_9al
572:   FUNC GLOBAL DEFAULT 14 _ZNK7android8hardware6Par
573:   FUNC GLOBAL DEFAULT 14 _ZN7android8hardware11hid
574:   FUNC WEAK DEFAULT 14 _ZNSt3__16vectorIN7androi
575:   FUNC WEAK DEFAULT 14 _ZNSt3__114__split_buffer
576:   FUNC GLOBAL DEFAULT 14 _ZN7android4hidl7manager4
577:   FUNC GLOBAL DEFAULT 14 _ZN7android4hidl7manager4
578:   FUNC GLOBAL DEFAULT 14 _ZN7android4hidl7manager4
579:   OBJECT GLOBAL DEFAULT 18 _ZTCN7android4hidl7manage
580:   OBJECT GLOBAL DEFAULT 18 _ZTCN7android4hidl4base4V
581:   FUNC GLOBAL DEFAULT 14 _ZN7android8hardware14IPC
582:   FUNC GLOBAL DEFAULT 14 _ZN7android4hidl7manager4
583:   FUNC GLOBAL DEFAULT 14 _ZN7android4hidl7manager4
584:   FUNC WEAK DEFAULT 14 _ZN7android8hardware7deta
585:   FUNC GLOBAL DEFAULT 14 _ZN7android4hidl7manager4
586:   OBJECT WEAK DEFAULT 18 _ZTVN7android8hardware11B
587:   FUNC GLOBAL DEFAULT 14 _ZN7android8hardware7deta
588:   OBJECT GLOBAL DEFAULT 18 _ZTVN7android4hidl7manage
589:   FUNC GLOBAL DEFAULT 14 _ZN7android8hardware16unf
590:   FUNC GLOBAL DEFAULT 14 _ZNK7android8hardware6Par
591:   FUNC GLOBAL DEFAULT 14 _ZN7android8hardware6Parc
592:   FUNC GLOBAL DEFAULT 14 _ZN7android8hardware12Pro
593:   FUNC GLOBAL DEFAULT 14 _ZN7android8hardware13wri
594:   FUNC WEAK DEFAULT 14 _ZNSt3__113basic_filebufI
595:   OBJECT WEAK DEFAULT 18 _ZTVN7android4hidl7manage
596:   FUNC GLOBAL DEFAULT 14 _ZN7android4hidl4base4V1_
597:   OBJECT WEAK DEFAULT 18 _ZTCN7android8hardware11B
598:   FUNC GLOBAL DEFAULT 14 _ZNK7android8hardware6Par
599:   FUNC GLOBAL DEFAULT 14 _ZN7android8hardware14IPC
600:   FUNC GLOBAL DEFAULT 14 _ZN7android8hardware7deta
601:   FUNC GLOBAL DEFAULT 14 _ZN7android8hardware7deta
602:   FUNC GLOBAL DEFAULT 14 _ZN7android4hidl4base4V1_
603:   FUNC GLOBAL DEFAULT 14 _ZN7android4hidl7manager4
604:   OBJECT WEAK DEFAULT 18 _ZTVNSt3__118basic_string
605:   FUNC WEAK DEFAULT 14 _ZNSt3__15dequeINS_7__sta
606:   FUNC GLOBAL DEFAULT 14 _ZNK7android8hardware6Par
607:   FUNC GLOBAL DEFAULT 14 _ZN7android8hardware14IPC
608:   OBJECT WEAK DEFAULT 18 _ZTVN7android6VectorIPNS_
609:   FUNC GLOBAL DEFAULT 14 _ZNK7android8hardware6Par
610:   FUNC WEAK DEFAULT 14 _ZNKSt3__120__bracket_exp
611:   OBJECT GLOBAL DEFAULT 18 _ZTVN7android4hidl7manage
612:   FUNC GLOBAL DEFAULT 14 _ZN7android8hardware14IPC
613:   FUNC GLOBAL DEFAULT 14 __aeabi_memmove4
614:   FUNC WEAK DEFAULT 14 _ZNSt3__111basic_regexIcN
615:   OBJECT WEAK DEFAULT 18 _ZTCN7android8hardware10P
616:   FUNC WEAK DEFAULT 14 _ZNSt3__113basic_filebufI
617:   OBJECT GLOBAL DEFAULT 18 _ZTVN7android8hardware11B
618:   FUNC GLOBAL DEFAULT 14 _ZN7android8hardware20Laz
619:   FUNC GLOBAL DEFAULT 14 _ZN7android4hidl7manager4
620:   FUNC GLOBAL DEFAULT 14 _ZN7android4hidl7manager4
621:   FUNC GLOBAL DEFAULT 14 _ZN7android8hardware24def
622:   FUNC WEAK DEFAULT 14 _ZNSt3__16__treeIiNS_4les
623:   FUNC GLOBAL DEFAULT 14 _ZNK7android8hardware6Par
624:   FUNC GLOBAL DEFAULT 14 __aeabi_memmove8
625:   FUNC WEAK DEFAULT 14 _ZNSt3__111basic_regexIcN
626:   FUNC GLOBAL DEFAULT 14 _ZN7android4hidl4base4V1_
627:   FUNC WEAK DEFAULT 14 _ZNSt3__15dequeINS_7__sta
628:   FUNC GLOBAL DEFAULT 14 _ZN7android4hidl7manager4
629:   FUNC GLOBAL DEFAULT 14 _ZN7android4hidl7manager4
630:   FUNC GLOBAL DEFAULT 14 _ZThn20_N7android4hidl7ma
631:   FUNC GLOBAL DEFAULT 14 _ZTv0_n12_N7android8hardw
632:   OBJECT WEAK DEFAULT 18 _ZTCNSt3__118basic_string
633:   OBJECT GLOBAL DEFAULT 18 _ZTCN7android4hidl7manage
634:   FUNC GLOBAL DEFAULT 14 _ZN7android8hardware10BpH
635:   OBJECT WEAK DEFAULT 18 _ZTVNSt3__110__l_anchorIc
636:   FUNC GLOBAL DEFAULT 14 _ZN7android8hardware11hid
637:   OBJECT WEAK DEFAULT 18 _ZTTNSt3__119basic_ostrin
638:   OBJECT GLOBAL DEFAULT 18 _ZTCN7android4hidl7manage
639:   OBJECT GLOBAL DEFAULT 18 _ZTVN7android4hidl7manage
640:   FUNC GLOBAL DEFAULT 14 _ZN7android8hardware10BpH
641:   FUNC GLOBAL DEFAULT 14 _ZN7android8hardware18Buf
642:   FUNC WEAK DEFAULT 14 _ZNSt3__111basic_regexIcN
643:   OBJECT GLOBAL DEFAULT 16 _ZN7android4hidl4base4V1_
644:   FUNC GLOBAL DEFAULT 14 _ZN7android4hidl7manager4
645:   FUNC GLOBAL DEFAULT 14 _ZN7android8hardware6Parc
646:   FUNC GLOBAL DEFAULT 14 _ZN7android8hardware16han
647:   OBJECT GLOBAL DEFAULT 18 _ZTVN7android8hardware27h
648:   FUNC GLOBAL DEFAULT 14 _ZN7android8hardware11BpH
649:   FUNC WEAK DEFAULT 14 _ZNSt3__16__treeINS_12__v
650:   FUNC GLOBAL DEFAULT 14 _ZN7android8hardware14IPC
651:   FUNC GLOBAL DEFAULT 14 __aeabi_l2d
652:   OBJECT WEAK DEFAULT 18 _ZTCNSt3__118basic_string
653:   FUNC GLOBAL DEFAULT 14 _ZN7android4hidl7manager4
654:   FUNC GLOBAL DEFAULT 14 _ZN7android8hardware11BpH
655:   FUNC GLOBAL DEFAULT 14 _ZN7android8hardware6Parc
656:   FUNC WEAK DEFAULT 14 _ZNKSt3__120__match_char_
657:   FUNC GLOBAL DEFAULT 14 _ZNK7android8hardware6Par
658:   FUNC GLOBAL DEFAULT 14 _ZN7android4hidl7manager4
659:   FUNC GLOBAL DEFAULT 14 _ZN7android4hidl7manager4
660:   FUNC GLOBAL DEFAULT 14 _ZN7android4hidl7manager4
661:   FUNC GLOBAL DEFAULT 14 _ZNK7android8hardware6Par
662:   FUNC GLOBAL DEFAULT 14 __udivmodsi4
663:   FUNC GLOBAL DEFAULT 14 _ZN7android4hidl7manager4
664:   FUNC WEAK DEFAULT 14 _ZN7android8hardware6Parc
665:   FUNC WEAK DEFAULT 14 _ZNKSt3__110__function6__
666:   FUNC GLOBAL DEFAULT 14 _ZThn20_N7android4hidl7ma
667:   FUNC GLOBAL DEFAULT 14 _ZThn20_N7android4hidl7ma
668:   FUNC GLOBAL DEFAULT 14 _ZN7android4hidl7manager4
669:   FUNC GLOBAL DEFAULT 14 _ZN7android4hidl4base4V1_
670:   FUNC GLOBAL DEFAULT 14 _ZN7android8hardware14IPC
671:   FUNC GLOBAL DEFAULT 14 _ZN7android8hardware6Parc
672:   FUNC WEAK DEFAULT 14 _ZNKSt3__113__empty_state
673:   FUNC GLOBAL DEFAULT 14 _ZN7android8hardware31set
674:   FUNC GLOBAL DEFAULT 14 _ZN7android8hardware15int
675:   FUNC GLOBAL DEFAULT 14 _ZN7android8hardware11hid
676:   FUNC GLOBAL DEFAULT 14 _ZTv0_n12_N7android8hardw
677:   FUNC GLOBAL DEFAULT 14 _ZN7android8hardware14IPC
678:   FUNC WEAK DEFAULT 14 _ZNSt3__112__deque_baseIN
679:   FUNC WEAK DEFAULT 14 _ZNSt3__120__shared_ptr_e
680:   FUNC GLOBAL DEFAULT 14 _ZN7android4hidl7manager4
681:   FUNC GLOBAL DEFAULT 14 _ZN7android4hidl7manager4
682:   FUNC GLOBAL DEFAULT 14 _ZN7android4hidl7manager4
683:   FUNC GLOBAL DEFAULT 14 _ZN7android8hardware6Parc
684:   OBJECT GLOBAL DEFAULT 23 _ZN7android8hardware7deta
685:   FUNC GLOBAL DEFAULT 14 _ZN7android4hidl7manager4
686:   FUNC GLOBAL DEFAULT 14 _ZN7android8hardware12Pro
687:   FUNC GLOBAL DEFAULT 14 _ZN7android8hardware10Hid
688:   FUNC GLOBAL DEFAULT 14 _ZN7android8hardware11hid
689:   FUNC GLOBAL DEFAULT 14 _ZN7android4hidl7manager4
690:   FUNC GLOBAL DEFAULT 14 _ZN7android4hidl7manager4
691:   FUNC WEAK DEFAULT 14 _ZNSt3__111basic_regexIcN
692:   OBJECT GLOBAL DEFAULT 18 _ZTVN7android8hardware7de
693:   FUNC GLOBAL DEFAULT 14 _ZN7android4hidl4base4V1_
694:   FUNC GLOBAL DEFAULT 14 _ZN7android4hidl7manager4
695:   FUNC GLOBAL DEFAULT 14 _ZN7android8hardware18Buf
696:   FUNC GLOBAL DEFAULT 14 _ZN7android8hardware18Buf
697:   FUNC GLOBAL DEFAULT 14 _ZN7android4hidl7manager4
698:   FUNC GLOBAL DEFAULT 14 _ZN7android4hidl7manager4
699:   OBJECT GLOBAL DEFAULT 18 _ZTTN7android4hidl7manage
700:   FUNC GLOBAL DEFAULT 14 __aeabi_uidivmod
701:   FUNC WEAK DEFAULT 14 _ZN7android8hardware7deta
702:   FUNC GLOBAL DEFAULT 14 _ZNK7android8hardware6Par
703:   FUNC GLOBAL DEFAULT 14 _ZN7android8hardware22rea
704:   OBJECT WEAK DEFAULT 18 _ZTTNSt3__114basic_ifstre
705:   OBJECT GLOBAL DEFAULT 18 _ZTCN7android4hidl7manage
706:   FUNC GLOBAL DEFAULT 14 _ZNK7android8hardware6Par
707:   FUNC WEAK DEFAULT 14 _ZNSt3__114__split_buffer
708:   FUNC GLOBAL DEFAULT 14 _ZN7android8hardware11hid
709:   OBJECT WEAK DEFAULT 18 _ZTCN7android4hidl7manage
710:   FUNC GLOBAL DEFAULT 14 _ZN7android8hardware14IPC
711:   FUNC GLOBAL DEFAULT 14 _ZNK7android8hardware6Par
712:   FUNC GLOBAL DEFAULT 14 _ZN7android8hardware12Pro
713:   FUNC WEAK DEFAULT 14 _ZNSt3__111basic_regexIcN
714:   FUNC GLOBAL DEFAULT 14 _ZN7android8hardware7deta
715:   FUNC GLOBAL DEFAULT 14 _ZN7android8hardware7deta
716:   FUNC WEAK DEFAULT 14 _ZNSt3__17getlineIcNS_11c
717:   FUNC GLOBAL DEFAULT 14 _ZN7android4hidl7manager4
718:   FUNC GLOBAL DEFAULT 14 _ZN7android4hidl7manager4
719:   FUNC GLOBAL DEFAULT 14 _ZN7android8hardware18Buf
720:   FUNC GLOBAL DEFAULT 14 _ZNK7android8hardware6Par
721:   FUNC WEAK DEFAULT 14 _ZNKSt3__112regex_traitsI
722:   OBJECT WEAK DEFAULT 18 _ZTTN7android8hardware7de
723:   FUNC WEAK DEFAULT 14 _ZNSt3__111basic_regexIcN
724:   FUNC WEAK DEFAULT 14 _ZNSt3__111basic_regexIcN
725:   FUNC GLOBAL DEFAULT 14 _ZN7android4hidl4base4V1_
726:   FUNC GLOBAL DEFAULT 14 _ZN7android8hardware7deta
727:   FUNC GLOBAL DEFAULT 14 _ZN7android4hidl7manager4
728:   FUNC GLOBAL DEFAULT 14 _ZN7android4hidl7manager4
729:   OBJECT GLOBAL DEFAULT 18 _ZTTN7android4hidl7manage
730:   FUNC WEAK DEFAULT 14 _ZNSt3__111basic_regexIcN
731:   FUNC GLOBAL DEFAULT 14 _ZN7android4hidl7manager4
732:   FUNC GLOBAL DEFAULT 14 _ZN7android4hidl7manager4
733:   FUNC GLOBAL DEFAULT 14 _ZNK7android8hardware11hi
734:   FUNC GLOBAL DEFAULT 14 _ZN7android8hardware6Parc
735:   OBJECT GLOBAL DEFAULT 18 _ZTVN7android8hardware10T
736:   FUNC GLOBAL DEFAULT 14 _ZN7android8hardware10Hid
737:   OBJECT GLOBAL DEFAULT 18 _ZTTN7android8hardware27h
738:   FUNC GLOBAL DEFAULT 14 _ZN7android4hidl7manager4
739:   FUNC GLOBAL DEFAULT 14 _ZN7android4hidl7manager4
740:   FUNC WEAK DEFAULT 14 _ZNSt3__16vectorINS_4pair
741:   FUNC GLOBAL DEFAULT 14 _ZN7android8hardwarelsERN
742:   FUNC GLOBAL DEFAULT 14 _ZNK7android8hardware9BHw
743:   FUNC WEAK DEFAULT 14 _ZNSt3__16vectorIN7androi
744:   OBJECT GLOBAL DEFAULT 18 _ZTVN7android4hidl7manage
745:   FUNC GLOBAL DEFAULT 14 _ZN7android4hidl7manager4
746:   FUNC GLOBAL DEFAULT 14 _ZN7android8hardware14IPC
747:   FUNC GLOBAL DEFAULT 14 _ZN7android8hardware12Pro
748:   FUNC WEAK DEFAULT 14 _ZNSt3__16vectorINS_4pair
749:   FUNC GLOBAL DEFAULT 14 _ZN7android8hardware10Hid
750:   FUNC GLOBAL DEFAULT 14 _ZN7android8hardware10Hid
751:   FUNC GLOBAL DEFAULT 14 _ZN7android8hardware18add
752:   FUNC GLOBAL DEFAULT 14 _ZN7android4hidl4base4V1_
753:   FUNC GLOBAL DEFAULT 14 _ZN7android8hardware7IBin
754:   FUNC GLOBAL DEFAULT 14 _ZN7android4hidl7manager4
755:   FUNC GLOBAL DEFAULT 14 _ZN7android8hardware7deta
756:   FUNC GLOBAL DEFAULT 14 _ZN7android4hidl7manager4
757:   OBJECT GLOBAL DEFAULT 18 _ZTCN7android4hidl4base4V
758:   FUNC WEAK DEFAULT 14 _ZNKSt3__112regex_traitsI
759:   FUNC GLOBAL DEFAULT 14 _ZN7android8hardware18set
760:   FUNC GLOBAL DEFAULT 14 _ZN7android4hidl7manager4
761:   FUNC GLOBAL DEFAULT 14 __aeabi_memcpy
762:   FUNC WEAK DEFAULT 14 _ZNKSt3__115basic_stringb
763:   FUNC GLOBAL DEFAULT 14 _ZN7android8hardware13wri
764:   FUNC WEAK DEFAULT 14 _ZNSt3__111basic_regexIcN
765:   FUNC GLOBAL DEFAULT 14 _ZN7android8hardware6Parc
766:   OBJECT GLOBAL DEFAULT 18 _ZTCN7android4hidl7manage
767:   FUNC GLOBAL DEFAULT 14 _ZN7android4hidl7manager4
768:   FUNC GLOBAL DEFAULT 14 _ZN7android4hidl7manager4
769:   OBJECT WEAK DEFAULT 18 _ZTVNSt3__123__match_any_
770:   FUNC WEAK DEFAULT 14 _ZNSt3__112__deque_baseIN
771:   FUNC GLOBAL DEFAULT 14 _ZN7android4hidl7manager4
772:   FUNC WEAK DEFAULT 14 _ZNSt3__16__treeINS_12__v
773:   FUNC WEAK DEFAULT 14 _ZNSt3__110__function6__f
774:   FUNC GLOBAL DEFAULT 14 _ZN7android8hardware27hid
775:   FUNC WEAK DEFAULT 14 _ZNSt3__113basic_filebufI
776:   OBJECT WEAK DEFAULT 18 _ZTCNSt3__113basic_fstrea
777:   FUNC WEAK DEFAULT 14 _ZNKSt3__111basic_regexIc
778:   FUNC WEAK DEFAULT 14 _ZNSt3__111basic_regexIcN
779:   FUNC GLOBAL DEFAULT 14 _ZN7android8hardware11hid
780:   FUNC WEAK DEFAULT 14 _ZNSt3__114__split_buffer
781:   OBJECT GLOBAL DEFAULT 18 _ZTTN7android4hidl7manage
782:   OBJECT WEAK DEFAULT 18 _ZTVNSt3__120__shared_ptr
783:   FUNC WEAK DEFAULT 14 _ZN7android8hardware7deta
784:   OBJECT GLOBAL DEFAULT 18 _ZTCN7android4hidl7manage
785:   FUNC GLOBAL DEFAULT 14 _ZN7android4hidl4base4V1_
786:   FUNC GLOBAL DEFAULT 14 _ZN7android4hidl4base4V1_
787:   FUNC GLOBAL DEFAULT 14 _ZN7android4hidl4base4V1_
788:   FUNC GLOBAL DEFAULT 14 _ZN7android8hardware7deta
789:   FUNC GLOBAL DEFAULT 14 _ZN7android4hidl7manager4
790:   FUNC WEAK DEFAULT 14 _ZN7android8hardware7deta
791:   FUNC GLOBAL DEFAULT 14 _ZNK7android8hardware12Pr
792:   FUNC GLOBAL DEFAULT 14 _ZN7android4hidl7manager4
793:   FUNC GLOBAL DEFAULT 14 _ZN7android8hardware18Buf
794:   FUNC GLOBAL DEFAULT 14 _ZNK7android8hardware6Par
795:   OBJECT GLOBAL DEFAULT 23 _ZN7android8hardware8gPro
796:   FUNC GLOBAL DEFAULT 14 _ZTv0_n12_N7android8hardw
797:   FUNC GLOBAL DEFAULT 14 _ZN7android4hidl7manager4
798:   FUNC GLOBAL DEFAULT 14 _ZN7android4hidl7manager4
799:   FUNC GLOBAL DEFAULT 14 _ZN7android4hidl7manager4
800:   FUNC GLOBAL DEFAULT 14 _ZN7android8hardwarelsERN
801:   FUNC WEAK DEFAULT 14 _ZNKSt3__117__repeat_one_
802:   FUNC GLOBAL DEFAULT 14 _ZN7android4hidl7manager4
803:   FUNC WEAK DEFAULT 14 _ZNSt3__16__treeINS_12__v
804:   FUNC GLOBAL DEFAULT 14 _ZTv0_n12_N7android4hidl7
805:   OBJECT GLOBAL DEFAULT 18 _ZTCN7android4hidl7manage
806:   FUNC GLOBAL DEFAULT 14 _ZNK7android8hardware6Par
807:   FUNC GLOBAL DEFAULT 14 _ZN7android8hardware12Pro
808:   FUNC WEAK DEFAULT 14 _ZNSt3__112__hash_tableIN
809:   FUNC GLOBAL DEFAULT 14 _ZN7android4hidl7manager4
810:   FUNC GLOBAL DEFAULT 14 _ZN7android4hidl7manager4
811:   FUNC GLOBAL DEFAULT 14 _ZN7android4hidl7manager4
812:   FUNC WEAK DEFAULT 14 _ZNKSt3__118__back_ref_co
813:   FUNC WEAK DEFAULT 14 _ZNSt3__115basic_stringbu
814:   FUNC WEAK DEFAULT 14 _ZNSt3__16__treeINS_12__v
815:   FUNC GLOBAL DEFAULT 14 _ZN7android8hardware9BHwB
816:   FUNC WEAK DEFAULT 14 _ZNSt3__111basic_regexIcN
817:   FUNC GLOBAL DEFAULT 14 _ZN7android8hardware11hid
818:   FUNC GLOBAL DEFAULT 14 _ZN7android8hardware6Parc
819:   FUNC GLOBAL DEFAULT 14 _ZThn20_N7android4hidl7ma
820:   FUNC GLOBAL DEFAULT 14 _ZN7android4hidl7manager4
821:   FUNC WEAK DEFAULT 14 _ZN7android2wpINS_8hardwa
822:   FUNC WEAK DEFAULT 14 _ZNSt3__16vectorINS_9sub_
823:   FUNC GLOBAL DEFAULT 14 _ZN7android8hardware7deta
824:   FUNC GLOBAL DEFAULT 14 _ZN7android8hardware9BHwB
825:   OBJECT GLOBAL DEFAULT 18 _ZTCN7android4hidl7manage
826:   FUNC GLOBAL DEFAULT 14 _ZN7android8hardware10BpH
827:   FUNC WEAK DEFAULT 14 _ZNSt3__16vectorINS_8func
828:   FUNC GLOBAL DEFAULT 14 _ZN7android8hardware9BHwB
829:   FUNC WEAK DEFAULT 14 _ZNSt3__120__shared_ptr_p
830:   FUNC GLOBAL DEFAULT 14 _ZN7android4hidl7manager4
831:   FUNC GLOBAL DEFAULT 14 _ZN7android4hidl4base4V1_
832:   OBJECT WEAK DEFAULT 18 _ZTVN7android6VectorINS_2
833:   FUNC GLOBAL DEFAULT 14 _ZNK7android8hardware6Par
834:   FUNC GLOBAL DEFAULT 14 _ZN7android8hardware14IPC
835:   FUNC GLOBAL DEFAULT 14 _ZN7android4hidl7manager4
836:   FUNC GLOBAL DEFAULT 14 _ZN7android4hidl7manager4
837:   FUNC WEAK DEFAULT 14 _ZN7android8hardware7deta
838:   FUNC GLOBAL DEFAULT 14 __udivsi3
839:   FUNC GLOBAL DEFAULT 14 _ZN7android8hardware7deta
840:   FUNC GLOBAL DEFAULT 14 _ZN7android8hardware6Stat
841:   FUNC GLOBAL DEFAULT 14 _ZN7android8hardware10IIn
842:   FUNC GLOBAL DEFAULT 14 _ZN7android4hidl7manager4
843:   OBJECT GLOBAL DEFAULT 18 _ZTTN7android4hidl7manage
844:   OBJECT GLOBAL DEFAULT 18 _ZTCN7android4hidl7manage
845:   FUNC GLOBAL DEFAULT 14 _ZN7android4hidl7manager4
846:   FUNC WEAK DEFAULT 14 _ZN7android8hardware7deta
847:   FUNC GLOBAL DEFAULT 14 _ZN7android4hidl4base4V1_
848:   OBJECT GLOBAL DEFAULT 18 _ZTTN7android4hidl7manage
849:   FUNC GLOBAL DEFAULT 14 _ZN7android8hardware11hid
850:   FUNC GLOBAL DEFAULT 14 _ZN7android4hidl7manager4
851:   FUNC GLOBAL DEFAULT 14 _ZN7android4hidl7manager4
852:   FUNC WEAK DEFAULT 14 _ZNSt3__16vectorIcNS_9all
853:   FUNC GLOBAL DEFAULT 14 _ZN7android8hardware10IIn
854:   OBJECT WEAK DEFAULT 23 _ZGVZN7android8hardware25
855:   FUNC GLOBAL DEFAULT 14 _ZNK7android8hardware6Par
856:   FUNC GLOBAL DEFAULT 14 _ZN7android8hardware11hid
857:   FUNC GLOBAL DEFAULT 14 _ZN7android8hardware7IBin
858:   OBJECT GLOBAL DEFAULT 18 _ZTTN7android4hidl7manage
859:   FUNC WEAK DEFAULT 14 _ZN7android8hardware7deta
860:   FUNC GLOBAL DEFAULT 14 _ZN7android8hardware14IPC
861:   FUNC GLOBAL DEFAULT 14 _ZN7android8hardware14IPC
862:   FUNC GLOBAL DEFAULT 14 _ZN7android4hidl4base4V1_
863:   FUNC GLOBAL DEFAULT 14 _ZN7android4hidl7manager4
864:   FUNC GLOBAL DEFAULT 14 _ZN7android4hidl7manager4
865:   FUNC WEAK DEFAULT 14 _ZNSt3__111basic_regexIcN
866:   OBJECT GLOBAL DEFAULT 18 _ZTCN7android4hidl4base4V
867:   FUNC GLOBAL DEFAULT 14 _ZN7android8hardware14IPC
868:   FUNC WEAK DEFAULT 14 _ZNKSt3__115__word_bounda
869:   FUNC GLOBAL DEFAULT 14 _ZN7android4hidl7manager4
870:   FUNC GLOBAL DEFAULT 14 _ZN7android4hidl7manager4
871:   FUNC GLOBAL DEFAULT 14 _ZN7android4hidl7manager4
872:   FUNC GLOBAL DEFAULT 14 _ZN7android4hidl7manager4
873:   FUNC GLOBAL DEFAULT 14 _ZN7android8hardware10BpH
874:   FUNC GLOBAL DEFAULT 14 _ZN7android8hardware6Stat
875:   OBJECT WEAK DEFAULT 18 _ZTCNSt3__113basic_fstrea
876:   FUNC GLOBAL DEFAULT 14 _ZTv0_n12_N7android8hardw
877:   FUNC GLOBAL DEFAULT 14 _ZN7android8hardware18Buf
878:   FUNC WEAK DEFAULT 14 _ZNSt3__16vectorINS_12bas
879:   OBJECT GLOBAL DEFAULT 18 _ZTCN7android4hidl7manage
880:   OBJECT GLOBAL DEFAULT 18 _ZTVN7android4hidl7manage
881:   FUNC WEAK DEFAULT 14 _ZNSt3__114__split_buffer
882:   OBJECT WEAK DEFAULT 18 _ZTVNSt3__16__loopIcEE
883:   FUNC GLOBAL DEFAULT 14 _ZNK7android8hardware6Par
884:   FUNC GLOBAL DEFAULT 14 _ZN7android8hardware11hid
885:   FUNC GLOBAL DEFAULT 14 _ZN7android4hidl7manager4
886:   OBJECT GLOBAL DEFAULT 18 _ZTCN7android4hidl7manage
887:   FUNC GLOBAL DEFAULT 14 _ZNK7android8hardware10Bp
888:   OBJECT WEAK DEFAULT 18 _ZTVNSt3__116__back_ref_i
889:   FUNC GLOBAL DEFAULT 14 _ZN7android8hardware10Hid
890:   FUNC GLOBAL DEFAULT 14 stringForIndent
891:   FUNC GLOBAL DEFAULT 14 _ZTv0_n12_N7android8hardw
892:   FUNC WEAK DEFAULT 14 _ZNSt3__113__tree_removeI
893:   FUNC GLOBAL DEFAULT 14 _ZTv0_n12_N7android8hardw
894:   FUNC GLOBAL DEFAULT 14 _ZN7android4hidl7manager4
895:   OBJECT WEAK DEFAULT 18 _ZTVN7android4hidl7manage
896:   FUNC GLOBAL DEFAULT 14 _ZNK7android8hardware6Par
897:   FUNC GLOBAL DEFAULT 14 _ZNK7android8hardware6Par
898:   FUNC GLOBAL DEFAULT 14 _ZNK7android8hardware11hi
899:   FUNC WEAK DEFAULT 14 _ZNSt3__115basic_stringbu
900:   FUNC GLOBAL DEFAULT 14 _ZN7android4hidl7manager4
901:   OBJECT GLOBAL DEFAULT 18 _ZTTN7android8hardware9BH
902:   FUNC GLOBAL DEFAULT 14 _ZN7android8hardware7deta
903:   FUNC WEAK DEFAULT 14 _ZNSt3__16__treeINS_12__v
904:   FUNC GLOBAL DEFAULT 14 _ZN7android4hidl7manager4
905:   OBJECT WEAK DEFAULT 18 _ZTCN7android8hardware11B
906:   OBJECT WEAK DEFAULT 18 _ZTVNSt3__120__shared_ptr
907:   OBJECT GLOBAL DEFAULT 18 _ZTCN7android4hidl7manage
908:   FUNC GLOBAL DEFAULT 14 _ZN7android4hidl7manager4
909:   FUNC GLOBAL DEFAULT 14 _ZN7android4hidl7manager4
910:   FUNC WEAK DEFAULT 14 _ZNSt3__120__shared_ptr_e
911:   FUNC GLOBAL DEFAULT 14 _ZN7android8hardware7deta
912:   OBJECT GLOBAL DEFAULT 18 _ZTCN7android4hidl7manage
913:   FUNC GLOBAL DEFAULT 14 _ZN7android8hardware10Hid
914:   OBJECT GLOBAL DEFAULT 18 _ZTCN7android4hidl7manage
915:   FUNC GLOBAL DEFAULT 14 _ZN7android8hardware10BpH
916:   FUNC GLOBAL DEFAULT 14 _ZNK7android8hardware6Par
917:   FUNC GLOBAL DEFAULT 14 _ZN7android4hidl7manager4
918:   FUNC GLOBAL DEFAULT 14 _ZN7android8hardware21def
919:   FUNC GLOBAL DEFAULT 14 _ZN7android4hidl7manager4
920:   FUNC GLOBAL DEFAULT 14 _ZN7android8hardware7deta
921:   FUNC WEAK DEFAULT 14 _ZNKSt3__111basic_regexIc
922:   OBJECT GLOBAL DEFAULT 18 _ZTVN7android8hardware7de
923:   FUNC GLOBAL DEFAULT 14 _ZN7android4hidl7manager4
924:   FUNC WEAK DEFAULT 14 _ZNSt3__113basic_filebufI
925:   FUNC GLOBAL DEFAULT 14 _ZN7android4hidl7manager4
926:   OBJECT GLOBAL DEFAULT 18 _ZTCN7android4hidl7manage
927:   OBJECT GLOBAL DEFAULT 18 _ZTCN7android8hardware9BH
928:   OBJECT GLOBAL DEFAULT 18 _ZN7android8hardware4aout
929:   FUNC GLOBAL DEFAULT 14 _ZN7android8hardware10Hid
930:   FUNC GLOBAL DEFAULT 14 _ZN7android4hidl7manager4
931:   FUNC WEAK DEFAULT 14 _ZNSt3__16__treeINS_12__v
932:   FUNC GLOBAL DEFAULT 14 _ZN7android4hidl7manager4
933:   FUNC GLOBAL DEFAULT 14 _ZN7android4hidl7manager4
934:   FUNC GLOBAL DEFAULT 14 _ZN7android4hidl7manager4
935:   FUNC GLOBAL DEFAULT 14 _ZTv0_n12_N7android4hidl7
936:   OBJECT GLOBAL DEFAULT 18 _ZTVN7android4hidl4base4V
937:   FUNC GLOBAL DEFAULT 14 _ZN7android8hardware7deta
938:   FUNC WEAK DEFAULT 14 _ZNKSt3__110__l_anchorIcE
939:   FUNC GLOBAL DEFAULT 14 _ZN7android4hidl7manager4
940:   FUNC GLOBAL DEFAULT 14 _ZN7android8hardware14acq
941:   FUNC GLOBAL DEFAULT 14 _ZNK7android8hardware6Par
942:   FUNC GLOBAL DEFAULT 14 _ZN7android4hidl7manager4
943:   FUNC WEAK DEFAULT 14 _ZN7android8hardware10fro
944:   FUNC GLOBAL DEFAULT 14 _ZN7android8hardware11hid
945:   FUNC WEAK DEFAULT 14 _ZNSt3__111basic_regexIcN
946:   FUNC GLOBAL DEFAULT 14 _ZN7android8hardware10BpH
947:   FUNC WEAK DEFAULT 14 _ZNSt3__15dequeINS_8funct
948:   OBJECT GLOBAL DEFAULT 18 _ZTTN7android4hidl7manage
949:   FUNC WEAK DEFAULT 14 _ZNSt3__16__treeINS_12__v
950:   FUNC GLOBAL DEFAULT 14 _ZN7android8hardware7IBin
951:   FUNC GLOBAL DEFAULT 14 _ZN7android4hidl4base4V1_
952:   OBJECT WEAK DEFAULT 23 _ZGVZN7android8hardware25
953:   FUNC GLOBAL DEFAULT 14 _ZN7android4hidl4base4V1_
954:   FUNC WEAK DEFAULT 14 _ZN7android8hardware7deta
955:   FUNC GLOBAL DEFAULT 14 _ZN7android4hidl4base4V1_
956:   FUNC GLOBAL DEFAULT 14 _ZN7android8hardware10BpH
957:   OBJECT WEAK DEFAULT 18 _ZTVNSt3__118__back_ref_c
958:   FUNC GLOBAL DEFAULT 14 _ZN7android8hardware6Stat
959:   FUNC GLOBAL DEFAULT 14 _ZN7android4hidl7manager4
960:   FUNC WEAK DEFAULT 14 _ZN7android2spINS_8hardwa
961:   FUNC WEAK DEFAULT 14 _ZNSt3__114__split_buffer
962:   FUNC GLOBAL DEFAULT 14 _ZN7android4hidl4base4V1_
963:   FUNC GLOBAL DEFAULT 14 _ZN7android4hidl7manager4
964:   FUNC GLOBAL DEFAULT 14 _ZN7android8hardware16unf
965:   FUNC GLOBAL DEFAULT 14 _ZN7android4hidl7manager4
966:   OBJECT GLOBAL DEFAULT 18 _ZTCN7android4hidl7manage
967:   FUNC GLOBAL DEFAULT 14 _ZTv0_n12_N7android4hidl7
968:   FUNC GLOBAL DEFAULT 14 _ZN7android8hardware11BpH
969:   FUNC GLOBAL DEFAULT 14 _ZN7android8hardware14IPC
970:   FUNC WEAK DEFAULT 14 _ZNSt3__111basic_regexIcN
971:   FUNC GLOBAL DEFAULT 14 _ZN7android4hidl7manager4
972:   OBJECT GLOBAL DEFAULT 18 _ZTVN7android4hidl7manage
973:   FUNC GLOBAL DEFAULT 14 _ZN7android4hidl7manager4
974:   FUNC GLOBAL DEFAULT 14 printHexData
975:   FUNC GLOBAL DEFAULT 14 __aeabi_uidiv
976:   FUNC WEAK DEFAULT 14 _ZNSt3__111basic_regexIcN
977:   FUNC GLOBAL DEFAULT 14 _ZTv0_n12_N7android8hardw
978:   FUNC GLOBAL DEFAULT 14 _ZNK7android8hardware11hi
979:   FUNC GLOBAL DEFAULT 14 _ZN7android8hardware6Stat
980:   FUNC GLOBAL DEFAULT 14 _ZN7android8hardware20Laz
981:   FUNC WEAK DEFAULT 14 _ZNSt3__111basic_regexIcN
982:   OBJECT GLOBAL DEFAULT 18 _ZTCN7android4hidl7manage
983:   OBJECT GLOBAL DEFAULT 18 _ZTCN7android4hidl7manage
984:   FUNC WEAK DEFAULT 14 _ZNSt3__111basic_regexIcN
985:   OBJECT GLOBAL DEFAULT 23 _ZN7android8hardware7deta
986:   FUNC GLOBAL DEFAULT 14 _ZN7android4hidl7manager4
987:   FUNC GLOBAL DEFAULT 14 _ZN7android8hardware14IPC
988:   FUNC WEAK DEFAULT 14 _ZN7android8hardware6Parc
989:   OBJECT GLOBAL DEFAULT 18 _ZTTN7android8hardware12P
990:   FUNC WEAK DEFAULT 14 _ZNKSt3__111__lookaheadIc
991:   FUNC WEAK DEFAULT 14 _ZNSt3__111basic_regexIcN
992:   FUNC GLOBAL DEFAULT 14 _ZN7android8hardware12Pro
993:   FUNC GLOBAL DEFAULT 14 _ZN7android8hardware6Parc
994:   OBJECT WEAK DEFAULT 18 _ZTVNSt3__113basic_filebu
995:   FUNC GLOBAL DEFAULT 14 _ZN7android4hidl7manager4
996:   FUNC GLOBAL DEFAULT 14 _ZN7android8hardware9BHwB
997:   FUNC GLOBAL DEFAULT 14 _ZN7android4hidl7manager4
998:   FUNC WEAK DEFAULT 14 _ZNKSt3__112regex_traitsI
999:   FUNC WEAK DEFAULT 14 _ZNSt3__16vectorINS_9sub_
1000:   FUNC GLOBAL DEFAULT 14 _ZN7android4hidl7manager4
1001:   FUNC GLOBAL DEFAULT 14 _ZN7android4hidl7manager4
1002:   FUNC GLOBAL DEFAULT 14 _ZNK7android8hardware6Par
1003:   OBJECT WEAK DEFAULT 18 _ZTCN7android8hardware7de
1004:   FUNC GLOBAL DEFAULT 14 _ZN7android8hardware9BHwB
1005:   OBJECT GLOBAL DEFAULT 18 _ZTCN7android4hidl7manage
1006:   FUNC GLOBAL DEFAULT 14 _ZN7android8hardware10BpH
1007:   FUNC GLOBAL DEFAULT 14 _ZN7android8hardware10Tex
1008:   OBJECT GLOBAL DEFAULT 18 _ZN7android8hardware4alog
1009:   OBJECT GLOBAL DEFAULT 16 _ZN7android4hidl7manager4
1010:   FUNC WEAK DEFAULT 14 _ZNSt3__1plIcNS_11char_tr
1011:   FUNC GLOBAL DEFAULT 14 _ZN7android4hidl7manager4
1012:   FUNC GLOBAL DEFAULT 14 _ZTv0_n12_N7android4hidl4
1013:   FUNC GLOBAL DEFAULT 14 _ZN7android4hidl7manager4
1014:   FUNC GLOBAL DEFAULT 14 _ZN7android8hardware12Pro
1015:   FUNC GLOBAL DEFAULT 14 _ZN7android4hidl7manager4
1016:   FUNC GLOBAL DEFAULT 14 _ZN7android4hidl7manager4
1017:   OBJECT GLOBAL DEFAULT 18 _ZTVN7android4hidl7manage
1018:   FUNC GLOBAL DEFAULT 14 _ZN7android4hidl7manager4
1019:   FUNC GLOBAL DEFAULT 14 _ZN7android8hardware10Tex
1020:   FUNC GLOBAL DEFAULT 14 _ZNK7android8hardware6Par
1021:   OBJECT GLOBAL DEFAULT 23 _ZN7android8hardware7deta
1022:   FUNC GLOBAL DEFAULT 14 _ZN7android4hidl7manager4
1023:   FUNC GLOBAL DEFAULT 14 _ZN7android8hardware11BpH
1024:   FUNC GLOBAL DEFAULT 14 _ZN7android4hidl7manager4
1025:   FUNC GLOBAL DEFAULT 14 _ZTv0_n12_N7android4hidl7
1026:   FUNC GLOBAL DEFAULT 14 _ZN7android4hidl7manager4
1027:   FUNC GLOBAL DEFAULT 14 _ZN7android4hidl7manager4
1028:   FUNC GLOBAL DEFAULT 14 _ZTv0_n12_N7android4hidl7
1029:   FUNC GLOBAL DEFAULT 14 _ZN7android4hidl4base4V1_
1030:   FUNC GLOBAL DEFAULT 14 _ZN7android8hardware10IIn
1031:   FUNC GLOBAL DEFAULT 14 _ZN7android4hidl7manager4
1032:   OBJECT GLOBAL DEFAULT 18 _ZTTN7android8hardware11B
1033:   FUNC GLOBAL DEFAULT 14 _ZN7android4hidl7manager4
1034:   FUNC WEAK DEFAULT 14 _ZNSt3__111basic_regexIcN
1035:   FUNC GLOBAL DEFAULT 14 _ZN7android4hidl4base4V1_
1036:   FUNC GLOBAL DEFAULT 14 _ZNK7android8hardware6Par
1037:   FUNC GLOBAL DEFAULT 14 _ZN7android8hardware14IPC
1038:   FUNC GLOBAL DEFAULT 14 _ZN7android8hardware6Parc
1039:   OBJECT WEAK DEFAULT 23 _ZZN7android8hardware25Pa
1040:   OBJECT GLOBAL DEFAULT 18 _ZTTN7android4hidl4base4V
1041:   FUNC WEAK DEFAULT 14 _ZNKSt3__111basic_regexIc
1042:   FUNC GLOBAL DEFAULT 14 _ZN7android8hardware7deta
1043:   FUNC WEAK DEFAULT 14 _ZNSt3__111basic_regexIcN
1044:   OBJECT WEAK DEFAULT 18 _ZTVNSt3__114basic_ifstre
1045:   FUNC GLOBAL DEFAULT 14 _ZNK7android8hardware11hi
1046:   FUNC GLOBAL DEFAULT 14 _ZN7android8hardware21wri
1047:   FUNC GLOBAL DEFAULT 14 _ZN7android4hidl7manager4
1048:   FUNC GLOBAL DEFAULT 14 _ZN7android4hidl7manager4
1049:   OBJECT GLOBAL DEFAULT 18 _ZTCN7android4hidl7manage
1050:   OBJECT GLOBAL DEFAULT 18 _ZTTN7android4hidl7manage
1051:   FUNC GLOBAL DEFAULT 14 _ZN7android4hidl7manager4
1052:   FUNC GLOBAL DEFAULT 14 _ZN7android4hidl7manager4
1053:   FUNC GLOBAL DEFAULT 14 _ZN7android4hidl7manager4
1054:   FUNC GLOBAL DEFAULT 14 _ZThn20_N7android4hidl4ba
1055:   FUNC GLOBAL DEFAULT 14 _ZN7android8hardware10BpH
1056:   FUNC GLOBAL DEFAULT 14 _ZN7android4hidl7manager4
1057:   FUNC GLOBAL DEFAULT 14 _ZN7android8hardware9BHwB
1058:   OBJECT GLOBAL DEFAULT 18 _ZTVN7android4hidl7manage
1059:   FUNC GLOBAL DEFAULT 14 _ZN7android4hidl7manager4
1060:   FUNC WEAK DEFAULT 14 _ZNSt3__111basic_regexIcN
1061:   FUNC WEAK DEFAULT 14 _ZN7android8hardware7deta
1062:   FUNC GLOBAL DEFAULT 14 _ZN7android8hardware12Pro
1063:   FUNC WEAK DEFAULT 14 _ZN7android8hardware6Parc
1064:   FUNC GLOBAL DEFAULT 14 _ZN7android8hardware6Parc
1065:   OBJECT WEAK DEFAULT 18 _ZTVNSt3__110__function6_
1066:   FUNC WEAK DEFAULT 14 _ZNSt3__111basic_regexIcN
1067:   FUNC GLOBAL DEFAULT 14 _ZN7android4hidl7manager4
1068:   FUNC GLOBAL DEFAULT 14 _ZNK7android8hardware14IP
1069:   FUNC GLOBAL DEFAULT 14 _ZN7android8hardware12Pro
1070:   FUNC WEAK DEFAULT 14 _ZNKSt3__16__loopIcE12__e
1071:   FUNC WEAK DEFAULT 14 _ZNSt3__111basic_regexIcN
1072:   FUNC WEAK DEFAULT 14 _ZNSt3__111basic_regexIcN
1073:   FUNC WEAK DEFAULT 14 _ZNSt3__111basic_regexIcN
1074:   OBJECT GLOBAL DEFAULT 18 _ZTCN7android4hidl7manage
1075:   OBJECT GLOBAL DEFAULT 18 _ZTTN7android4hidl4base4V
1076:   FUNC GLOBAL DEFAULT 14 _ZN7android4hidl7manager4
1077:   FUNC WEAK DEFAULT 14 _ZNK7android8hardware6Par
1078:   FUNC GLOBAL DEFAULT 14 _ZN7android8hardware6Parc
1079:   FUNC WEAK DEFAULT 14 _ZNKSt3__110__function6__
1080:   OBJECT GLOBAL DEFAULT 13 _ZN7android8hardware11hid
1081:   FUNC WEAK DEFAULT 14 _ZN7android8hardware7deta
1082:   FUNC GLOBAL DEFAULT 14 _ZNK7android8hardware6Par
1083:   FUNC GLOBAL DEFAULT 14 _ZN7android8hardware12Pro
1084:   OBJECT GLOBAL DEFAULT 13 _ZN7android8hardware11hid
1085:   FUNC WEAK DEFAULT 14 _ZN7android2spINS_8hardwa
1086:   FUNC GLOBAL DEFAULT 14 _ZN7android8hardware10BpH
1087:   FUNC GLOBAL DEFAULT 14 _ZN7android8hardware18Buf
1088:   FUNC WEAK DEFAULT 14 _ZNKSt3__16__loopIcE6__ex
1089:   FUNC GLOBAL DEFAULT 14 _ZN7android8hardware11hid
1090:   FUNC WEAK DEFAULT 14 _ZNSt3__16__treeINS_12__v
1091:   FUNC GLOBAL DEFAULT 14 _ZN7android8hardware9BHwB
1092:   FUNC GLOBAL DEFAULT 14 _ZNK7android8hardware6Par
1093:   OBJECT WEAK DEFAULT 18 _ZTVN7android12SortedVect
1094:   FUNC WEAK DEFAULT 14 _ZNKSt3__110__r_anchorIcE
1095:   FUNC GLOBAL DEFAULT 14 _ZNK7android8hardware6Sta
1096:   OBJECT WEAK DEFAULT 18 _ZTCN7android4hidl7manage
1097:   FUNC GLOBAL DEFAULT 14 _ZN7android8hardware14IPC
1098:   FUNC GLOBAL DEFAULT 14 _ZN7android8hardware14IPC
1099:   OBJECT WEAK DEFAULT 18 _ZTVN7android6VectorINS_8
1100:   FUNC WEAK DEFAULT 14 _ZNSt3__16__treeINS_12__v
1101:   FUNC GLOBAL DEFAULT 14 _ZN7android4hidl7manager4
1102:   OBJECT WEAK DEFAULT 18 _ZTVN7android8hardware13L
1103:   FUNC GLOBAL DEFAULT 14 _ZN7android4hidl7manager4
1104:   FUNC GLOBAL DEFAULT 14 _ZN7android4hidl7manager4
1105:   FUNC GLOBAL DEFAULT 14 _ZN7android8hardware7deta
1106:   FUNC WEAK DEFAULT 14 _ZNKSt3__112regex_traitsI
1107:   FUNC GLOBAL DEFAULT 14 _ZNK7android8hardware6Par
1108:   FUNC GLOBAL DEFAULT 14 _ZN7android8hardware14IPC
1109:   FUNC GLOBAL DEFAULT 14 _ZNK7android8hardware6Par
1110:   FUNC GLOBAL DEFAULT 14 _ZN7android8hardware7deta
1111:   FUNC GLOBAL DEFAULT 14 _ZN7android8hardware11hid
1112:   OBJECT GLOBAL DEFAULT 23 _ZN7android8hardware7deta
1113:   FUNC WEAK DEFAULT 14 _ZNSt3__13mapINS_12basic_
1114:   FUNC WEAK DEFAULT 14 _ZN7android8hardware10fro
1115:   FUNC GLOBAL DEFAULT 14 _ZNK7android8hardware6Par
1116:   FUNC GLOBAL DEFAULT 14 _ZN7android4hidl7manager4
1117:   FUNC GLOBAL DEFAULT 14 _ZN7android8hardware6Parc
1118:   FUNC GLOBAL DEFAULT 14 _ZN7android8hardware27hid
1119:   FUNC GLOBAL DEFAULT 14 _ZN7android4hidl7manager4
1120:   FUNC GLOBAL DEFAULT 14 _ZN7android4hidl7manager4
1121:   OBJECT GLOBAL DEFAULT 18 _ZTTN7android4hidl7manage
1122:   FUNC GLOBAL DEFAULT 14 _ZN7android4hidl7manager4
1123:   FUNC GLOBAL DEFAULT 14 _ZN7android8hardware12Pro
1124:   OBJECT GLOBAL DEFAULT 23 _ZN7android8hardware13gPr
1125:   OBJECT WEAK DEFAULT 18 _ZTVNSt3__111__alternateI
1126:   FUNC GLOBAL DEFAULT 14 _ZN7android4hidl7manager4
1127:   FUNC WEAK DEFAULT 14 _ZNSt3__1rsIcNS_11char_tr
1128:   FUNC GLOBAL DEFAULT 14 _ZN7android4hidl7manager4
1129:   FUNC GLOBAL DEFAULT 14 _ZN7android8hardware7deta
1130:   FUNC GLOBAL DEFAULT 14 _ZN7android8hardware6Stat
1131:   OBJECT GLOBAL DEFAULT 18 _ZTCN7android4hidl7manage
1132:   FUNC WEAK DEFAULT 14 _ZNSt3__114__split_buffer
1133:   FUNC GLOBAL DEFAULT 14 _ZN7android8hardware9BHwB
1134:   FUNC GLOBAL DEFAULT 14 _ZN7android4hidl4base4V1_
1135:   FUNC GLOBAL DEFAULT 14 _ZNK7android8hardware6Par
1136:   FUNC GLOBAL DEFAULT 14 _ZN7android8hardware20Laz
1137:   FUNC WEAK DEFAULT 14 _ZNSt3__113basic_filebufI
1138:   FUNC GLOBAL DEFAULT 14 _ZN7android8hardware14IPC
1139:   FUNC GLOBAL DEFAULT 14 _ZN7android8hardware14IPC
1140:   FUNC GLOBAL DEFAULT 14 _ZN7android4hidl7manager4
1141:   FUNC GLOBAL DEFAULT 14 _ZN7android4hidl7manager4
1142:   FUNC GLOBAL DEFAULT 14 _ZN7android8hardware10BpH
1143:   FUNC GLOBAL DEFAULT 14 _ZNK7android8hardware6Par
1144:   OBJECT WEAK DEFAULT 18 _ZTVNSt3__121__empty_non_
1145:   FUNC WEAK DEFAULT 14 _ZNSt3__120__shared_ptr_e
1146:   FUNC GLOBAL DEFAULT 14 _ZN7android8hardware7deta
1147:   FUNC GLOBAL DEFAULT 14 _ZN7android4hidl7manager4
1148:   FUNC GLOBAL DEFAULT 14 _ZN7android4hidl7manager4
1149:   FUNC GLOBAL DEFAULT 14 _ZN7android8hardware11hid
1150:   FUNC WEAK DEFAULT 14 _ZNSt3__113basic_filebufI
1151:   FUNC GLOBAL DEFAULT 14 _ZN7android4hidl7manager4
1152:   FUNC GLOBAL DEFAULT 14 _ZThn20_N7android4hidl7ma
1153:   FUNC GLOBAL DEFAULT 14 _ZTv0_n12_N7android8hardw
1154:   OBJECT WEAK DEFAULT 18 _ZTVN7android8hardware7de
1155:   FUNC GLOBAL DEFAULT 14 _ZN7android4hidl7manager4
1156:   FUNC GLOBAL DEFAULT 14 _ZN7android8hardware10BpH
1157:   FUNC GLOBAL DEFAULT 14 _ZN7android8hardware7deta
1158:   OBJECT GLOBAL DEFAULT 18 _ZTCN7android4hidl7manage
1159:   FUNC GLOBAL DEFAULT 14 _ZN7android8hardware14IPC
1160:   FUNC GLOBAL DEFAULT 14 _ZN7android8hardware6Parc
1161:   FUNC GLOBAL DEFAULT 14 _ZNK7android8hardware6Par
1162:   OBJECT WEAK DEFAULT 18 _ZTVNSt3__119basic_ostrin
1163:   FUNC GLOBAL DEFAULT 14 _ZN7android4hidl4base4V1_
1164:   OBJECT GLOBAL DEFAULT 18 _ZTCN7android4hidl7manage
1165:   OBJECT GLOBAL DEFAULT 18 _ZTTN7android4hidl7manage
1166:   FUNC GLOBAL DEFAULT 14 _ZNK7android8hardware6Par
1167:   FUNC GLOBAL DEFAULT 14 _ZN7android8hardware6Stat
1168:   FUNC GLOBAL DEFAULT 14 _ZN7android4hidl4base4V1_
1169:   FUNC GLOBAL DEFAULT 14 _ZN7android4hidl7manager4
1170:   FUNC GLOBAL DEFAULT 14 _ZN7android4hidl7manager4
1171:   FUNC GLOBAL DEFAULT 14 _ZN7android4hidl4base4V1_
1172:   FUNC GLOBAL DEFAULT 14 _ZN7android8hardware14IPC
1173:   FUNC GLOBAL DEFAULT 14 __aeabi_memmove
1174:   FUNC GLOBAL DEFAULT 14 _ZN7android8hardware11hid
1175:   OBJECT GLOBAL DEFAULT 18 _ZTCN7android4hidl7manage
1176:   FUNC WEAK DEFAULT 14 _ZN7android8hardware7deta
1177:   OBJECT GLOBAL DEFAULT 18 _ZTCN7android4hidl7manage
1178:   FUNC GLOBAL DEFAULT 14 _ZNK7android8hardware6Par
1179:   FUNC GLOBAL DEFAULT 14 _ZN7android8hardware11hid
1180:   FUNC GLOBAL DEFAULT 14 _ZN7android8hardware22rea
1181:   FUNC GLOBAL DEFAULT 14 _ZN7android4hidl7manager4
1182:   OBJECT WEAK DEFAULT 18 _ZTVNSt3__115__word_bound
1183:   FUNC GLOBAL DEFAULT 14 _ZN7android4hidl7manager4
1184:   FUNC GLOBAL DEFAULT 14 _ZN7android8hardware11BpH
1185:   FUNC GLOBAL DEFAULT 14 _ZNK7android8hardware14IP
1186:   OBJECT WEAK DEFAULT 18 _ZTVN7android6VectorIPNS_
1187:   FUNC GLOBAL DEFAULT 14 _ZNK7android8hardware6Par
1188:   FUNC GLOBAL DEFAULT 14 _ZN7android8hardware12Pro
1189:   OBJECT WEAK DEFAULT 18 _ZTVNSt3__115basic_string
1190:   FUNC GLOBAL DEFAULT 14 _ZN7android4hidl4base4V1_
1191:   FUNC GLOBAL DEFAULT 14 _ZN7android4hidl7manager4
1192:   FUNC WEAK DEFAULT 14 _ZNKSt3__112regex_traitsI
1193:   FUNC GLOBAL DEFAULT 14 _ZN7android4hidl7manager4
1194:   FUNC GLOBAL DEFAULT 14 _ZN7android4hidl4base4V1_
1195:   FUNC GLOBAL DEFAULT 14 _ZN7android8hardware12Pro
1196:   FUNC GLOBAL DEFAULT 14 _ZThn20_N7android4hidl7ma
1197:   FUNC WEAK DEFAULT 14 _ZN7android8hardware7deta
1198:   FUNC GLOBAL DEFAULT 14 _ZN7android4hidl7manager4
1199:   FUNC GLOBAL DEFAULT 14 _ZThn20_N7android4hidl7ma
1200:   FUNC GLOBAL DEFAULT 14 _ZN7android4hidl4base4V1_
1201:   OBJECT WEAK DEFAULT 18 _ZTVN7android8hardware18B
1202:   FUNC GLOBAL DEFAULT 14 _ZNK7android8hardware6Par
1203:   OBJECT GLOBAL DEFAULT 18 _ZTCN7android4hidl7manage
1204:   FUNC GLOBAL DEFAULT 14 _ZN7android4hidl7manager4
1205:   OBJECT WEAK DEFAULT 18 _ZTCN7android4hidl4base4V
1206:   FUNC GLOBAL DEFAULT 14 _ZN7android8hardware14IPC
1207:   FUNC GLOBAL DEFAULT 14 _ZN7android8hardware6Parc
1208:   FUNC GLOBAL DEFAULT 14 _ZNK7android8hardware6Par
1209:   FUNC WEAK DEFAULT 14 _ZNSt3__113basic_filebufI
1210:   OBJECT WEAK DEFAULT 18 _ZTVN7android4hidl7manage
1211:   FUNC GLOBAL DEFAULT 14 _ZTv0_n20_N7android8hardw
1212:   FUNC GLOBAL DEFAULT 14 _ZN7android4hidl7manager4
1213:   FUNC GLOBAL DEFAULT 14 _ZN7android4hidl7manager4
1214:   FUNC WEAK DEFAULT 14 _ZNSt3__111basic_regexIcN
1215:   FUNC WEAK DEFAULT 14 _ZNSt3__111basic_regexIcN
1216:   FUNC GLOBAL DEFAULT 14 _ZN7android4hidl7manager4
1217:   FUNC WEAK DEFAULT 14 _ZNKSt3__121__empty_non_o
1218:   FUNC GLOBAL DEFAULT 14 _ZN7android8hardware11hid
1219:   FUNC GLOBAL DEFAULT 14 _ZNK7android8hardware11hi
1220:   FUNC GLOBAL DEFAULT 14 _ZN7android8hardware22con
1221:   FUNC GLOBAL DEFAULT 14 _ZN7android4hidl7manager4
1222:   FUNC GLOBAL DEFAULT 14 _ZN7android8hardware14fla
1223:   FUNC GLOBAL DEFAULT 14 _ZN7android8hardware6Parc
1224:   FUNC WEAK DEFAULT 14 _ZNSt3__16vectorINS_7__st
1225:   FUNC GLOBAL DEFAULT 14 _ZN7android8hardware14IPC
1226:   FUNC GLOBAL DEFAULT 14 _ZN7android4hidl4base4V1_
1227:   FUNC GLOBAL DEFAULT 14 _ZNK7android8hardware6Par
1228:   FUNC GLOBAL DEFAULT 14 _ZTv0_n24_N7android8hardw
1229:   FUNC GLOBAL DEFAULT 14 _ZN7android8hardware14IPC
1230:   FUNC GLOBAL DEFAULT 14 _ZNK7android8hardware6Par
1231:   FUNC WEAK DEFAULT 14 _ZNKSt3__128__begin_marke
1232:   OBJECT GLOBAL DEFAULT 18 _ZTCN7android4hidl7manage
1233:   FUNC GLOBAL DEFAULT 14 _ZNK7android8hardware6Par
1234:   FUNC GLOBAL DEFAULT 14 _ZN7android8hardware10Tex
1235:   FUNC WEAK DEFAULT 14 _ZNSt3__111basic_regexIcN
1236:   FUNC GLOBAL DEFAULT 14 _ZN7android4hidl7manager4
1237:   FUNC GLOBAL DEFAULT 14 _ZN7android8hardware14IPC
1238:   OBJECT GLOBAL DEFAULT 13 _ZN7android8hardware11hid
1239:   FUNC GLOBAL DEFAULT 14 _ZN7android8hardware28con
1240:   FUNC WEAK DEFAULT 14 _ZNSt3__111basic_regexIcN
1241:   OBJECT GLOBAL DEFAULT 18 _ZTCN7android4hidl7manage
1242:   OBJECT GLOBAL DEFAULT 18 _ZTCN7android4hidl7manage
1243:   FUNC GLOBAL DEFAULT 14 _ZN7android8hardware14rea
1244:   FUNC GLOBAL DEFAULT 14 _ZN7android4hidl7manager4
1245:   FUNC GLOBAL DEFAULT 14 _ZN7android4hidl7manager4
1246:   FUNC GLOBAL DEFAULT 14 _ZN7android4hidl7manager4
1247:   FUNC GLOBAL DEFAULT 14 _ZNK7android8hardware6Par
1248:   FUNC GLOBAL DEFAULT 14 _ZN7android8hardware6Parc
1249:   FUNC GLOBAL DEFAULT 14 _ZN7android8hardware27hid
1250:   OBJECT GLOBAL DEFAULT 23 _ZN7android8hardware7deta
1251:   FUNC GLOBAL DEFAULT 14 _ZTv0_n20_N7android8hardw
1252:   FUNC GLOBAL DEFAULT 14 _ZN7android8hardware12Pro
1253:   OBJECT WEAK DEFAULT 18 _ZTVNSt3__118__match_char
1254:   FUNC WEAK DEFAULT 14 _ZNKSt3__16__treeINS_12__
1255:   OBJECT GLOBAL DEFAULT 18 _ZTVN7android4hidl7manage
1256:   FUNC GLOBAL DEFAULT 14 _ZN7android8hardware12Pro
1257:   FUNC WEAK DEFAULT 14 _ZNSt3__111basic_regexIcN
1258:   FUNC GLOBAL DEFAULT 14 _ZN7android8hardware14IPC
1259:   FUNC GLOBAL DEFAULT 14 _ZN7android8hardware9BHwB
1260:   FUNC GLOBAL DEFAULT 14 _ZThn20_N7android4hidl7ma
1261:   OBJECT GLOBAL DEFAULT 18 _ZTVN7android8hardware18B
1262:   FUNC GLOBAL DEFAULT 14 printTypeCode
1263:   FUNC GLOBAL DEFAULT 14 _ZN7android8hardware14IPC
1264:   FUNC WEAK DEFAULT 14 _ZNSt3__111basic_regexIcN
1265:   FUNC GLOBAL DEFAULT 14 __aeabi_memclr4
1266:   FUNC GLOBAL DEFAULT 14 _ZN7android8hardware10Hid
1267:   FUNC WEAK DEFAULT 14 _ZN7android4base9ParseUin
1268:   FUNC WEAK DEFAULT 14 _ZNSt3__16vectorINS_4pair
1269:   FUNC GLOBAL DEFAULT 14 _ZN7android8hardware27hid
1270:   FUNC WEAK DEFAULT 14 _ZNSt3__111basic_regexIcN
1271:   OBJECT GLOBAL DEFAULT 18 _ZTCN7android4hidl7manage
1272:   FUNC WEAK DEFAULT 14 _ZNSt3__15dequeINS_7__sta
1273:   OBJECT WEAK DEFAULT 18 _ZTVNSt3__111__end_stateI
1274:   FUNC WEAK DEFAULT 14 _ZNSt3__16__treeINS_12__v
1275:   OBJECT WEAK DEFAULT 18 _ZTVN7android8hardware25P
1276:   FUNC GLOBAL DEFAULT 14 _ZN7android8hardware6Parc
1277:   FUNC GLOBAL DEFAULT 14 _ZN7android8hardware12Pro
1278:   FUNC GLOBAL DEFAULT 14 _ZN7android4hidl7manager4
1279:   FUNC GLOBAL DEFAULT 14 _ZN7android4hidl7manager4
1280:   FUNC GLOBAL DEFAULT 14 __aeabi_memclr8
1281:   FUNC WEAK DEFAULT 14 _ZNKSt3__111__match_anyIc
1282:   FUNC GLOBAL DEFAULT 14 _ZN7android8hardwarelsERN
1283:   FUNC GLOBAL DEFAULT 14 _ZN7android8hardware7deta
1284:   FUNC GLOBAL DEFAULT 14 _ZN7android4hidl7manager4
1285:   FUNC GLOBAL DEFAULT 14 _ZN7android8hardware12Pro
1286:   FUNC GLOBAL DEFAULT 14 _ZTv0_n16_N7android8hardw
1287:   FUNC GLOBAL DEFAULT 14 _ZN7android4hidl7manager4
1288:   OBJECT GLOBAL DEFAULT 18 _ZTTN7android8hardware10I
1289:   FUNC GLOBAL DEFAULT 14 _ZN7android8hardware14IPC
1290:   FUNC GLOBAL DEFAULT 14 _ZN7android4hidl7manager4
1291:   FUNC GLOBAL DEFAULT 14 _ZN7android4hidl4base4V1_
1292:   FUNC GLOBAL DEFAULT 14 _ZN7android4hidl7manager4
1293:   OBJECT GLOBAL DEFAULT 18 _ZTCN7android4hidl7manage
1294:   FUNC GLOBAL DEFAULT 14 _ZN7android4hidl7manager4
1295:   FUNC WEAK DEFAULT 14 _ZNKSt3__111__end_stateIc
1296:   OBJECT WEAK DEFAULT 23 _ZGVZN7android8hardware25
1297:   FUNC GLOBAL DEFAULT 14 _ZN7android4hidl7manager4
1298:   FUNC GLOBAL DEFAULT 14 _ZN7android4hidl7manager4
1299:   FUNC GLOBAL DEFAULT 14 _ZN7android4hidl7manager4
1300:   FUNC GLOBAL DEFAULT 14 _ZN7android4hidl4base4V1_
1301:   OBJECT WEAK DEFAULT 18 _ZTCN7android8hardware11B
1302:   FUNC GLOBAL DEFAULT 14 _ZN7android8hardware14IPC
1303:   FUNC WEAK DEFAULT 14 _ZNK7android8hardware6Par
1304:   FUNC GLOBAL DEFAULT 14 _ZN7android8hardware11hid
1305:   FUNC GLOBAL DEFAULT 14 _ZN7android8hardware23joi
1306:   FUNC GLOBAL DEFAULT 14 _ZN7android4hidl7manager4
1307:   FUNC GLOBAL DEFAULT 14 _ZN7android4hidl7manager4
1308:   FUNC GLOBAL DEFAULT 14 _ZN7android8hardware19han
1309:   FUNC GLOBAL DEFAULT 14 _ZN7android4hidl4base4V1_
1310:   FUNC GLOBAL DEFAULT 14 _ZN7android4hidl7manager4
1311:   OBJECT WEAK DEFAULT 18 _ZTTNSt3__113basic_fstrea
1312:   OBJECT WEAK DEFAULT 23 _ZZN7android8hardware25Pa
1313:   FUNC GLOBAL DEFAULT 14 _ZN7android4hidl7manager4
1314:   FUNC GLOBAL DEFAULT 14 _ZN7android8hardware11hid
1315:   FUNC GLOBAL DEFAULT 14 _ZN7android4hidl7manager4
1316:   FUNC GLOBAL DEFAULT 14 _ZN7android8hardware14IPC
1317:   FUNC WEAK DEFAULT 14 _ZNSt3__111basic_regexIcN
1318:   FUNC WEAK DEFAULT 14 _ZNSt3__15dequeINS_7__sta
1319:   FUNC WEAK DEFAULT 14 _ZNSt3__127__tree_balance
1320:   FUNC GLOBAL DEFAULT 14 _ZN7android4hidl4base4V1_
1321:   FUNC WEAK DEFAULT 14 _ZN7android8hardware6Parc
1322:   FUNC GLOBAL DEFAULT 14 _ZN7android4hidl7manager4
1323:   FUNC WEAK DEFAULT 14 _ZNSt3__16__treeINS_12__v
1324:   FUNC GLOBAL DEFAULT 14 _ZN7android4hidl7manager4
1325:   FUNC GLOBAL DEFAULT 14 _ZN7android8hardware7deta
1326:   FUNC WEAK DEFAULT 14 _ZNK7android8hardware6Par
1327:   OBJECT WEAK DEFAULT 18 _ZTVNSt3__117__repeat_one
1328:   FUNC GLOBAL DEFAULT 14 _ZN7android4hidl7manager4
1329:   FUNC GLOBAL DEFAULT 14 _ZN7android4hidl7manager4
1330:   OBJECT GLOBAL DEFAULT 18 _ZTVN7android8hardware12P
1331:   OBJECT GLOBAL DEFAULT 16 _ZN7android4hidl7manager4
1332:   FUNC GLOBAL DEFAULT 14 _ZN7android8hardware6Parc
1333:   FUNC GLOBAL DEFAULT 14 _ZN7android8hardware14IPC
1334:   FUNC WEAK DEFAULT 14 _ZNSt3__15dequeINS_7__sta
1335:   OBJECT WEAK DEFAULT 18 _ZTVNSt3__113__empty_stat
1336:   FUNC GLOBAL DEFAULT 14 _ZN7android8hardware11hid
1337:   FUNC GLOBAL DEFAULT 14 _ZN7android8hardware11hid
1338:   FUNC GLOBAL DEFAULT 14 _ZN7android4hidl7manager4
1339:   FUNC GLOBAL DEFAULT 14 _ZN7android4hidl7manager4
1340:   FUNC GLOBAL DEFAULT 14 _ZN7android4hidl7manager4
1341:   FUNC GLOBAL DEFAULT 14 _ZN7android8hardware6Stat
1342:   FUNC WEAK DEFAULT 14 _ZNSt3__115basic_stringbu
1343:   FUNC GLOBAL DEFAULT 14 _ZN7android8hardware24def
1344:   OBJECT GLOBAL DEFAULT 16 _ZN7android4hidl7manager4
1345:   FUNC WEAK DEFAULT 14 _ZNKSt3__111basic_regexIc
1346:   FUNC GLOBAL DEFAULT 14 _ZN7android4hidl7manager4
1347:   FUNC GLOBAL DEFAULT 14 _ZN7android4hidl7manager4
1348:   FUNC GLOBAL DEFAULT 14 _ZN7android4hidl7manager4
1349:   FUNC GLOBAL DEFAULT 14 _ZN7android4hidl7manager4
1350:   FUNC WEAK DEFAULT 14 _ZNSt3__111basic_regexIcN
1351:   FUNC WEAK DEFAULT 14 _ZNSt3__113basic_filebufI
1352:   FUNC GLOBAL DEFAULT 14 _ZN7android4hidl7manager4
1353:   OBJECT GLOBAL DEFAULT 18 _ZTCN7android4hidl7manage
1354:   OBJECT WEAK DEFAULT 18 _ZTVN7android4hidl7manage
1355:   OBJECT GLOBAL DEFAULT 18 _ZTVN7android8hardware7IB
1356:   FUNC GLOBAL DEFAULT 14 _ZN7android8hardware7deta
1357:   FUNC GLOBAL DEFAULT 14 _ZN7android8hardware6Stat
1358:   FUNC GLOBAL DEFAULT 14 _ZN7android8hardware7deta
1359:   FUNC GLOBAL DEFAULT 14 _ZThn20_N7android4hidl7ma
1360:   FUNC GLOBAL DEFAULT 14 _ZN7android4hidl7manager4
1361:   FUNC GLOBAL DEFAULT 14 _ZN7android8hardware9BHwB
1362:   OBJECT GLOBAL DEFAULT 18 _ZTTN7android8hardware10B
1363:   FUNC GLOBAL DEFAULT 14 _ZN7android8hardware6Parc
1364:   FUNC GLOBAL DEFAULT 14 _ZNK7android8hardware6Par
1365:   FUNC WEAK DEFAULT 14 _ZNSt3__16__treeINS_12__v
1366:   FUNC WEAK DEFAULT 14 _ZN7android2spINS_4hidl7m
1367:   FUNC GLOBAL DEFAULT 14 _ZNK7android8hardware6Par
1368:   FUNC GLOBAL DEFAULT 14 _ZN7android8hardware6Parc
1369:   FUNC GLOBAL DEFAULT 14 _ZN7android8hardware31get
1370:   FUNC GLOBAL DEFAULT 14 _ZN7android4hidl7manager4
1371:   FUNC GLOBAL DEFAULT 14 _ZN7android8hardware6Parc
1372:   FUNC GLOBAL DEFAULT 14 _ZN7android4hidl7manager4
1373:   OBJECT GLOBAL DEFAULT 18 _ZTCN7android4hidl7manage
1374:   FUNC WEAK DEFAULT 14 _ZNSt3__117__owns_two_sta
1375:   OBJECT WEAK DEFAULT 23 _ZGVZN7android8hardware25
1376:   FUNC GLOBAL DEFAULT 14 _ZN7android8hardware11BpH
1377:   FUNC GLOBAL DEFAULT 14 _ZN7android4hidl7manager4
1378:   OBJECT WEAK DEFAULT 18 _ZTVN7android4hidl7manage
1379:   FUNC GLOBAL DEFAULT 14 _ZN7android4hidl7manager4
1380:   OBJECT GLOBAL DEFAULT 18 _ZTCN7android4hidl4base4V
1381:   FUNC GLOBAL DEFAULT 14 _ZN7android8hardware6Parc
1382:   FUNC GLOBAL DEFAULT 14 _ZN7android8hardware28get
1383:   FUNC GLOBAL DEFAULT 14 _ZN7android4hidl7manager4
1384:   FUNC WEAK DEFAULT 14 _ZNSt3__111basic_regexIcN
1385:   FUNC GLOBAL DEFAULT 14 _ZN7android8hardware11hid
1386:   FUNC GLOBAL DEFAULT 14 _ZN7android8hardware11hid
1387:   OBJECT GLOBAL DEFAULT 18 _ZTCN7android4hidl7manage
1388:   FUNC GLOBAL DEFAULT 14 _ZN7android8hardware7IBin
1389:   OBJECT GLOBAL DEFAULT 18 _ZTCN7android8hardware10B
1390:   FUNC WEAK DEFAULT 14 _ZNSt3__114__split_buffer
1391:   FUNC GLOBAL DEFAULT 14 _ZN7android8hardware10IIn
1392:   OBJECT GLOBAL DEFAULT 18 _ZTCN7android4hidl7manage
1393:   FUNC WEAK DEFAULT 14 _ZNKSt3__111__alternateIc
1394:   FUNC GLOBAL DEFAULT 14 _ZN7android8hardware11hid
1395:   OBJECT GLOBAL DEFAULT 13 _ZN7android8hardware11hid
1396:   FUNC GLOBAL DEFAULT 14 _ZN7android8hardware7IBin
1397:   FUNC GLOBAL DEFAULT 14 _ZN7android8hardware12Pro
1398:   FUNC GLOBAL DEFAULT 14 _ZN7android8hardware11hid
1399:   FUNC WEAK DEFAULT 14 _ZNSt3__16__treeINS_12__v
1400:   FUNC GLOBAL DEFAULT 14 _ZN7android4hidl7manager4
1401:   FUNC GLOBAL DEFAULT 14 _ZTv0_n12_N7android8hardw
1402:   FUNC WEAK DEFAULT 14 _ZN7android8hardware7deta
1403:   FUNC GLOBAL DEFAULT 14 _ZN7android4hidl7manager4
1404:   OBJECT WEAK DEFAULT 18 _ZTCN7android4hidl7manage
1405:   FUNC WEAK DEFAULT 14 _ZNSt3__16vectorIiNS_9all
1406:   FUNC GLOBAL DEFAULT 14 _ZN7android8hardware7deta
1407:   OBJECT GLOBAL DEFAULT 18 _ZTCN7android4hidl7manage
1408:   FUNC GLOBAL DEFAULT 14 _ZN7android4hidl7manager4
1409:   FUNC GLOBAL DEFAULT 14 _ZN7android8hardware11hid
1410:   FUNC GLOBAL DEFAULT 14 _ZN7android4hidl7manager4
1411:   FUNC GLOBAL DEFAULT 14 _ZN7android4hidl4base4V1_
1412:   FUNC GLOBAL DEFAULT 14 _ZN7android8hardware6Parc
1413:   FUNC WEAK DEFAULT 14 _ZNSt3__111basic_regexIcN
1414:   FUNC WEAK DEFAULT 14 _ZNSt3__111basic_regexIcN
1415:   FUNC WEAK DEFAULT 14 _ZNSt3__111basic_regexIcN
1416:   OBJECT WEAK DEFAULT 18 _ZTVNSt3__113basic_fstrea
1417:   FUNC WEAK DEFAULT 14 _ZNSt3__16vectorINS_8func
1418:   OBJECT GLOBAL DEFAULT 18 _ZTVN7android4hidl7manage
1419:   FUNC GLOBAL DEFAULT 14 _ZN7android8hardware18Buf
1420:   OBJECT WEAK DEFAULT 18 _ZTVN7android8hardware12F
1421:   FUNC GLOBAL DEFAULT 14 _ZN7android4hidl7manager4
1422:   FUNC GLOBAL DEFAULT 14 _ZN7android4hidl4base4V1_
1423:   FUNC GLOBAL DEFAULT 14 _ZN7android4hidl4base4V1_
1424:   FUNC GLOBAL DEFAULT 14 _ZN7android8hardware6Parc
1425:   FUNC GLOBAL DEFAULT 14 _ZN7android8hardware6Parc
1426:   FUNC GLOBAL DEFAULT 14 _ZN7android8hardware21set
1427:   FUNC GLOBAL DEFAULT 14 _ZN7android8hardware14IPC
1428:   FUNC GLOBAL DEFAULT 14 _ZN7android4hidl7manager4
1429:   FUNC GLOBAL DEFAULT 14 _ZN7android8hardware10BpH
1430:   FUNC GLOBAL DEFAULT 14 _ZNK7android8hardware6Par
1431:   OBJECT WEAK DEFAULT 18 _ZTVNSt3__120__bracket_ex
1432:   OBJECT WEAK DEFAULT 18 _ZTCNSt3__114basic_ifstre
1433:   FUNC GLOBAL DEFAULT 14 _ZN7android4hidl7manager4
1434:   FUNC GLOBAL DEFAULT 14 _ZN7android4hidl4base4V1_
1435:   OBJECT GLOBAL DEFAULT 18 _ZTCN7android4hidl4base4V
1436:   FUNC GLOBAL DEFAULT 14 _ZN7android8hardware6Parc
1437:   FUNC GLOBAL DEFAULT 14 _ZTv0_n12_N7android8hardw
1438:   FUNC WEAK DEFAULT 14 _ZNSt3__114__split_buffer
1439:   OBJECT WEAK DEFAULT 18 _ZTVNSt3__111__lookaheadI
1440:   FUNC GLOBAL DEFAULT 14 _ZN7android4hidl7manager4
1441:   FUNC GLOBAL DEFAULT 14 _ZNK7android8hardware6Par
1442:   FUNC GLOBAL DEFAULT 14 _ZNK7android8hardware11hi
1443:   FUNC GLOBAL DEFAULT 14 _ZN7android8hardware7deta
1444:   FUNC GLOBAL DEFAULT 14 _ZN7android4hidl7manager4
1445:   OBJECT GLOBAL DEFAULT 18 _ZTCN7android4hidl7manage
1446:   FUNC GLOBAL DEFAULT 14 _ZN7android4hidl7manager4
1447:   FUNC GLOBAL DEFAULT 14 _ZN7android4hidl7manager4
1448:   FUNC GLOBAL DEFAULT 14 _ZN7android4hidl7manager4
1449:   FUNC GLOBAL DEFAULT 14 _ZN7android4hidl7manager4
1450:   FUNC WEAK DEFAULT 14 _ZNSt3__111basic_regexIcN
1451:   FUNC GLOBAL DEFAULT 14 _ZN7android4hidl7manager4
1452:   OBJECT GLOBAL DEFAULT 18 _ZTCN7android4hidl7manage
1453:   FUNC GLOBAL DEFAULT 14 _ZN7android4hidl7manager4
1454:   FUNC GLOBAL DEFAULT 14 _ZN7android4hidl4base4V1_
1455:   FUNC GLOBAL DEFAULT 14 _ZN7android8hardware14rel
1456:   FUNC WEAK DEFAULT 14 _ZNKSt3__118__match_char_
1457:   FUNC WEAK DEFAULT 14 _ZNSt3__111basic_regexIcN
1458:   FUNC WEAK DEFAULT 14 _ZNSt3__113__vector_baseI
1459:   FUNC GLOBAL DEFAULT 14 _ZN7android8hardware6Parc
1460:   FUNC GLOBAL DEFAULT 14 _ZN7android4hidl7manager4
1461:   FUNC WEAK DEFAULT 14 _ZNKSt3__112regex_traitsI
1462:   FUNC GLOBAL DEFAULT 14 _ZN7android8hardware7deta
1463:   OBJECT WEAK DEFAULT 18 _ZTCN7android4hidl7manage
1464:   OBJECT GLOBAL DEFAULT 18 _ZTCN7android4hidl7manage
1465:   FUNC GLOBAL DEFAULT 14 __udivmoddi4
1466:   FUNC WEAK DEFAULT 14 _ZNKSt3__111__alternateIc
1467:   OBJECT WEAK DEFAULT 18 _ZTVNSt3__120__shared_ptr
1468:   FUNC GLOBAL DEFAULT 14 _ZN7android4hidl7manager4
1469:   FUNC GLOBAL DEFAULT 14 _ZNK7android8hardware6Par
1470:   FUNC GLOBAL DEFAULT 14 _ZN7android8hardware14IPC
1471:   FUNC GLOBAL DEFAULT 14 _ZN7android8hardware10Hid
1472:   FUNC GLOBAL DEFAULT 14 _ZN7android4hidl7manager4
1473:   FUNC GLOBAL DEFAULT 14 _ZN7android8hardware6Parc
1474:   FUNC GLOBAL DEFAULT 14 _ZN7android8hardware6Parc
1475:   FUNC GLOBAL DEFAULT 14 _ZN7android4hidl4base4V1_
1476:   FUNC GLOBAL DEFAULT 14 _ZN7android8hardware10BpH
1477:   OBJECT WEAK DEFAULT 18 _ZTVN7android6VectorIPNS_
1478:   FUNC GLOBAL DEFAULT 14 _ZNK7android8hardware6Par
1479:   OBJECT GLOBAL DEFAULT 18 _ZN7android8hardware4aerr
1480:   FUNC WEAK DEFAULT 14 _ZNSt3__116__owns_one_sta
1481:   OBJECT WEAK DEFAULT 18 _ZTVNSt3__128__begin_mark
1482:   OBJECT GLOBAL DEFAULT 18 _ZTVN7android4hidl7manage
1483:   FUNC GLOBAL DEFAULT 14 __aeabi_memclr
1484:   FUNC WEAK DEFAULT 14 _ZNKSt3__112regex_traitsI
1485:   FUNC GLOBAL DEFAULT 14 _ZN7android8hardware10Hid
1486:   FUNC GLOBAL DEFAULT 14 _ZN7android8hardware7deta
1487:   FUNC GLOBAL DEFAULT 14 _ZN7android4hidl4base4V1_
1488:   FUNC GLOBAL DEFAULT 14 _ZNK7android8hardware6Par
1489:   OBJECT WEAK DEFAULT 18 _ZTCNSt3__119basic_ostrin
1490:   FUNC GLOBAL DEFAULT 14 _ZN7android4hidl4base4V1_
1491:   FUNC GLOBAL DEFAULT 14 __aeabi_uldivmod
1492:   OBJECT GLOBAL DEFAULT 18 _ZTVN7android4hidl7manage
1493:   FUNC GLOBAL DEFAULT 14 _ZN7android4hidl7manager4
1494:   FUNC GLOBAL DEFAULT 14 _ZN7android8hardware14fla
1495:   FUNC WEAK DEFAULT 14 _ZNSt3__111basic_regexIcN
1496:   OBJECT WEAK DEFAULT 18 _ZTVNSt3__110__back_refIc
1497:   FUNC GLOBAL DEFAULT 14 _ZN7android4hidl7manager4
1498:   FUNC GLOBAL DEFAULT 14 _ZN7android8hardware6Parc
1499:   FUNC GLOBAL DEFAULT 14 _ZNK7android8hardware6Par
1500:   FUNC GLOBAL DEFAULT 14 _ZN7android8hardware21wri
1501:   FUNC GLOBAL DEFAULT 14 _ZN7android8hardware16set
1502:   FUNC GLOBAL DEFAULT 14 _ZN7android4hidl7manager4
1503:   OBJECT GLOBAL DEFAULT 18 _ZTTN7android4hidl4base4V
1504:   OBJECT GLOBAL DEFAULT 18 _ZTVN7android8hardware10I
1505:   FUNC GLOBAL DEFAULT 14 _ZN7android8hardware6Parc
1506:   FUNC WEAK DEFAULT 14 _ZNSt3__113basic_filebufI
1507:   FUNC GLOBAL DEFAULT 14 _ZN7android4hidl7manager4
1508:   FUNC GLOBAL DEFAULT 14 _ZN7android4hidl7manager4
1509:   OBJECT WEAK DEFAULT 18 _ZTVN7android8hardware10P
1510:   OBJECT GLOBAL DEFAULT 18 _ZTVN7android4hidl4base4V
1511:   FUNC GLOBAL DEFAULT 14 _ZN7android8hardware21wri
1512:   OBJECT WEAK DEFAULT 18 _ZTCN7android4hidl7manage
1513:   FUNC GLOBAL DEFAULT 14 _ZN7android8hardware10BpH
1514:   FUNC GLOBAL DEFAULT 14 _ZN7android4hidl7manager4
1515:   FUNC GLOBAL DEFAULT 14 _ZN7android4hidl7manager4
1516:   FUNC GLOBAL DEFAULT 14 _ZN7android4hidl7manager4
1517:   OBJECT GLOBAL DEFAULT 18 _ZTTN7android4hidl7manage
1518:   FUNC GLOBAL DEFAULT 14 _ZN7android8hardware14IPC
1519:   FUNC GLOBAL DEFAULT 14 _ZN7android8hardware21set
1520:   FUNC GLOBAL DEFAULT 14 _ZN7android4hidl4base4V1_
1521:   OBJECT GLOBAL DEFAULT 16 _ZN7android4hidl7manager4
1522:   FUNC GLOBAL DEFAULT 14 _ZN7android8hardware9BHwB
1523:   FUNC GLOBAL DEFAULT 14 _ZNK7android8hardware6Par
1524:   FUNC GLOBAL DEFAULT 14 _ZN7android8hardware14IPC
1525:   FUNC GLOBAL DEFAULT 14 _ZN7android8hardware7HexD
1526:   FUNC GLOBAL DEFAULT 14 _ZN7android8hardware11hid
1527:   FUNC GLOBAL DEFAULT 14 _ZTv0_n12_N7android8hardw
1528:   FUNC GLOBAL DEFAULT 14 _ZN7android8hardware10BpH
1529:   FUNC WEAK DEFAULT 14 _ZNSt3__111basic_regexIcN
1530:   FUNC GLOBAL DEFAULT 14 _ZN7android4hidl7manager4
1531:   FUNC GLOBAL DEFAULT 14 _ZN7android4hidl7manager4
1532:   OBJECT GLOBAL DEFAULT 18 _ZTCN7android4hidl7manage
1533:   FUNC GLOBAL DEFAULT 14 _ZNK7android8hardware6Par
1534:   FUNC WEAK DEFAULT 14 _ZNK7android8hardware6Par
1535:   FUNC WEAK DEFAULT 14 _ZNKSt3__116__back_ref_ic
1536:   FUNC GLOBAL DEFAULT 14 _ZTv0_n12_N7android4hidl7
1537:   FUNC GLOBAL DEFAULT 14 _ZN7android4hidl7manager4
1538:   FUNC GLOBAL DEFAULT 14 _ZN7android4hidl7manager4
1539:   OBJECT GLOBAL DEFAULT 23 _ZN7android8hardware12gTe
