 0x000000000000000e (SONAME)             Library soname: [libvintf.so]
  
Symbol   contains 872 entries:
Num:   Type Bind Vis Ndx Name
0:   NOTYPE LOCAL DEFAULT UND
1:   FUNC GLOBAL DEFAULT UND __cxa_finalize@LIBC (2)
2:   FUNC GLOBAL DEFAULT UND __cxa_atexit@LIBC (2)
3:   FUNC GLOBAL DEFAULT UND _ZN7android10FqInstance5s
4:   FUNC GLOBAL DEFAULT UND _ZNK7android10FqInstance6
5:   FUNC GLOBAL DEFAULT UND _ZNKSt3__112basic_stringI
6:   FUNC GLOBAL DEFAULT UND _ZNKSt3__112basic_stringI
7:   FUNC GLOBAL DEFAULT UND _ZNKSt3__120__vector_base
8:   FUNC GLOBAL DEFAULT UND _ZNKSt3__120__vector_base
9:   FUNC GLOBAL DEFAULT UND _ZNKSt3__121__basic_strin
10:   FUNC GLOBAL DEFAULT UND _ZNKSt3__16locale9use_fac
11:   FUNC GLOBAL DEFAULT UND _ZNKSt3__18ios_base6getlo
12:   FUNC GLOBAL DEFAULT UND _ZNSt3__112basic_stringIc
13:   FUNC GLOBAL DEFAULT UND _ZNSt3__112basic_stringIc
14:   FUNC GLOBAL DEFAULT UND _ZNSt3__112basic_stringIc
15:   FUNC GLOBAL DEFAULT UND _ZNSt3__112basic_stringIc
16:   FUNC GLOBAL DEFAULT UND _ZNSt3__112basic_stringIc
17:   FUNC GLOBAL DEFAULT UND _ZNSt3__112basic_stringIc
18:   FUNC GLOBAL DEFAULT UND _ZNSt3__112basic_stringIc
19:   FUNC GLOBAL DEFAULT UND _ZNSt3__112basic_stringIc
20:   FUNC GLOBAL DEFAULT UND _ZNSt3__112basic_stringIc
21:   FUNC GLOBAL DEFAULT UND _ZNSt3__112basic_stringIc
22:   FUNC GLOBAL DEFAULT UND _ZNSt3__113basic_istreamI
23:   FUNC GLOBAL DEFAULT UND _ZNSt3__113basic_istreamI
24:   FUNC GLOBAL DEFAULT UND _ZNSt3__113basic_ostreamI
25:   FUNC GLOBAL DEFAULT UND _ZNSt3__113basic_ostreamI
26:   FUNC GLOBAL DEFAULT UND _ZNSt3__113basic_ostreamI
27:   FUNC GLOBAL DEFAULT UND _ZNSt3__113basic_ostreamI
28:   FUNC GLOBAL DEFAULT UND _ZNSt3__113basic_ostreamI
29:   FUNC GLOBAL DEFAULT UND _ZNSt3__113basic_ostreamI
30:   FUNC GLOBAL DEFAULT UND _ZNSt3__113basic_ostreamI
31:   FUNC GLOBAL DEFAULT UND _ZNSt3__114basic_iostream
32:   FUNC GLOBAL DEFAULT UND _ZNSt3__114basic_iostream
33:   FUNC GLOBAL DEFAULT UND _ZNSt3__114basic_iostream
34:   FUNC GLOBAL DEFAULT UND _ZNSt3__115basic_streambu
35:   FUNC GLOBAL DEFAULT UND _ZNSt3__115basic_streambu
36:   FUNC GLOBAL DEFAULT UND _ZNSt3__115basic_streambu
37:   FUNC GLOBAL DEFAULT UND _ZNSt3__115basic_streambu
38:   FUNC GLOBAL DEFAULT UND _ZNSt3__115basic_streambu
39:   FUNC GLOBAL DEFAULT UND _ZNSt3__115basic_streambu
40:   FUNC GLOBAL DEFAULT UND _ZNSt3__115basic_streambu
41:   FUNC GLOBAL DEFAULT UND _ZNSt3__115basic_streambu
42:   FUNC GLOBAL DEFAULT UND _ZNSt3__115basic_streambu
43:   OBJECT GLOBAL DEFAULT UND _ZNSt3__15ctypeIcE2idE
44:   FUNC GLOBAL DEFAULT UND _ZNSt3__16localeD1Ev
45:   FUNC GLOBAL DEFAULT UND _ZNSt3__18ios_base4initEP
46:   FUNC GLOBAL DEFAULT UND _ZNSt3__18ios_base5clearE
47:   FUNC GLOBAL DEFAULT UND _ZNSt3__19basic_iosIcNS_1
48:   FUNC GLOBAL DEFAULT UND _ZNSt3__1plIcNS_11char_tr
49:   FUNC GLOBAL DEFAULT UND _ZThn16_NSt3__114basic_io
50:   FUNC GLOBAL DEFAULT UND _ZThn16_NSt3__114basic_io
51:   FUNC GLOBAL DEFAULT UND _ZTv0_n24_NSt3__113basic_
52:   FUNC GLOBAL DEFAULT UND _ZTv0_n24_NSt3__113basic_
53:   FUNC GLOBAL DEFAULT UND _ZTv0_n24_NSt3__113basic_
54:   FUNC GLOBAL DEFAULT UND _ZTv0_n24_NSt3__113basic_
55:   FUNC GLOBAL DEFAULT UND _ZTv0_n24_NSt3__114basic_
56:   FUNC GLOBAL DEFAULT UND _ZTv0_n24_NSt3__114basic_
57:   FUNC GLOBAL DEFAULT UND _ZdlPv
58:   FUNC GLOBAL DEFAULT UND _Znwm
59:   FUNC GLOBAL DEFAULT UND __errno@LIBC (2)
60:   FUNC GLOBAL DEFAULT UND __stack_chk_fail@LIBC (2)
61:   FUNC GLOBAL DEFAULT UND __strchr_chk@LIBC (2)
62:   FUNC GLOBAL DEFAULT UND abort@LIBC (2)
63:   FUNC GLOBAL DEFAULT UND isspace@LIBC (2)
64:   FUNC GLOBAL DEFAULT UND memchr@LIBC (2)
65:   FUNC GLOBAL DEFAULT UND memcmp@LIBC (2)
66:   FUNC GLOBAL DEFAULT UND memcpy@LIBC (2)
67:   FUNC GLOBAL DEFAULT UND memset@LIBC (2)
68:   FUNC GLOBAL DEFAULT UND strtoull@LIBC (2)
69:   FUNC GLOBAL DEFAULT UND tolower@LIBC (2)
70:   FUNC GLOBAL DEFAULT UND _ZN7android4base10LogMess
71:   FUNC GLOBAL DEFAULT UND _ZN7android4base10LogMess
72:   FUNC GLOBAL DEFAULT UND _ZN7android4base10LogMess
73:   FUNC GLOBAL DEFAULT UND _ZN7android4base21GetMini
74:   FUNC GLOBAL DEFAULT UND _ZN7android6FQNameC1ERKS0
75:   FUNC GLOBAL DEFAULT UND _ZN7android6FQNameC1Ev
76:   FUNC GLOBAL DEFAULT UND _ZN8tinyxml210XMLElement2
77:   FUNC GLOBAL DEFAULT UND _ZN8tinyxml210XMLPrinterC
78:   FUNC GLOBAL DEFAULT UND _ZN8tinyxml211XMLDocument
79:   FUNC GLOBAL DEFAULT UND _ZN8tinyxml211XMLDocument
80:   FUNC GLOBAL DEFAULT UND _ZN8tinyxml211XMLDocument
81:   FUNC GLOBAL DEFAULT UND _ZN8tinyxml211XMLDocument
82:   FUNC GLOBAL DEFAULT UND _ZN8tinyxml212XMLAttribut
83:   FUNC GLOBAL DEFAULT UND _ZN8tinyxml27XMLNode14Ins
84:   FUNC GLOBAL DEFAULT UND _ZNK7android10FqInstance1
85:   FUNC GLOBAL DEFAULT UND _ZNK7android10FqInstancel
86:   FUNC GLOBAL DEFAULT UND _ZNK8tinyxml210XMLElement
87:   FUNC GLOBAL DEFAULT UND _ZNK8tinyxml210XMLElement
88:   FUNC GLOBAL DEFAULT UND _ZNK8tinyxml211XMLDocumen
89:   FUNC GLOBAL DEFAULT UND _ZNK8tinyxml27XMLNode17Fi
90:   FUNC GLOBAL DEFAULT UND _ZNK8tinyxml27XMLNode18Ne
91:   FUNC GLOBAL DEFAULT UND _ZNK8tinyxml27XMLNode5Val
92:   FUNC GLOBAL DEFAULT UND _ZNSt3__112basic_stringIc
93:   OBJECT GLOBAL DEFAULT UND _ZTVN8tinyxml210XMLPrinte
94:   FUNC GLOBAL DEFAULT UND _ZdaPv
95:   FUNC GLOBAL DEFAULT UND __cxa_pure_virtual
96:   FUNC GLOBAL DEFAULT UND __memcpy_chk@LIBC (2)
97:   FUNC GLOBAL DEFAULT UND strlen@LIBC (2)
98:   FUNC GLOBAL DEFAULT UND _ZNSt3__19to_stringEm
99:   FUNC GLOBAL DEFAULT UND memmove@LIBC (2)
100:   FUNC GLOBAL DEFAULT UND _ZNKSt3__16locale9has_fac
101:   FUNC GLOBAL DEFAULT UND _ZNSt3__113basic_istreamI
102:   FUNC GLOBAL DEFAULT UND _ZNSt3__113basic_ostreamI
103:   FUNC GLOBAL DEFAULT UND _ZNSt3__16localeC1ERKS0_
104:   OBJECT GLOBAL DEFAULT UND _ZNSt3__17codecvtIcc9mbst
105:   FUNC GLOBAL DEFAULT UND _Znam
106:   FUNC GLOBAL DEFAULT UND closedir@LIBC (2)
107:   FUNC GLOBAL DEFAULT UND fclose@LIBC (2)
108:   FUNC GLOBAL DEFAULT UND fflush@LIBC (2)
109:   FUNC GLOBAL DEFAULT UND fopen@LIBC (2)
110:   FUNC GLOBAL DEFAULT UND fread@LIBC (2)
111:   FUNC GLOBAL DEFAULT UND fseeko@LIBC (2)
112:   FUNC GLOBAL DEFAULT UND ftello@LIBC (2)
113:   FUNC GLOBAL DEFAULT UND fwrite@LIBC (2)
114:   FUNC GLOBAL DEFAULT UND opendir@LIBC (2)
115:   FUNC GLOBAL DEFAULT UND readdir@LIBC (2)
116:   FUNC GLOBAL DEFAULT UND strerror@LIBC (2)
117:   FUNC GLOBAL DEFAULT UND _ZNK7android10FqInstance1
118:   FUNC GLOBAL DEFAULT UND _ZNK7android10FqInstance1
119:   FUNC GLOBAL DEFAULT UND _ZNK7android10FqInstance1
120:   FUNC GLOBAL DEFAULT UND _ZNK7android10FqInstance1
121:   FUNC GLOBAL DEFAULT UND _ZNKSt3__119__shared_weak
122:   FUNC GLOBAL DEFAULT UND _ZNKSt3__123__match_any_b
123:   FUNC GLOBAL DEFAULT UND _ZNKSt3__16locale4nameEv
124:   FUNC GLOBAL DEFAULT UND _ZNSt3__112basic_stringIc
125:   FUNC GLOBAL DEFAULT UND _ZNSt3__112basic_stringIc
126:   FUNC GLOBAL DEFAULT UND _ZNSt3__112basic_stringIc
127:   FUNC GLOBAL DEFAULT UND _ZNSt3__115__get_classnam
128:   FUNC GLOBAL DEFAULT UND _ZNSt3__119__shared_weak_
129:   FUNC GLOBAL DEFAULT UND _ZNSt3__119__shared_weak_
130:   FUNC GLOBAL DEFAULT UND _ZNSt3__120__get_collatio
131:   FUNC GLOBAL DEFAULT UND _ZNSt3__16localeC1Ev
132:   OBJECT GLOBAL DEFAULT UND _ZNSt3__17collateIcE2idE
133:   FUNC GLOBAL DEFAULT UND _ZN7android10FqInstance5s
134:   FUNC GLOBAL DEFAULT UND _ZNK7android10FqInstance1
135:   FUNC GLOBAL DEFAULT UND _ZNK7android10FqInstance1
136:   FUNC GLOBAL DEFAULT UND _ZNK7android10FqInstance1
137:   FUNC GLOBAL DEFAULT UND _ZNK7android10FqInstance1
138:   FUNC GLOBAL DEFAULT UND _ZNK7android10FqInstance1
139:   FUNC GLOBAL DEFAULT UND _ZNSt3__112__next_primeEm
140:   FUNC GLOBAL DEFAULT UND _ZN7android10FqInstance5s
141:   FUNC GLOBAL DEFAULT UND _ZNK7android10FqInstancee
142:   FUNC GLOBAL DEFAULT UND __cxa_guard_acquire
143:   FUNC GLOBAL DEFAULT UND __cxa_guard_release
144:   FUNC GLOBAL DEFAULT UND _ZN7android4base11GetProp
145:   FUNC GLOBAL DEFAULT UND _ZN7android4base15GetBool
146:   FUNC GLOBAL DEFAULT UND _ZN7android4base15GetUint
147:   FUNC GLOBAL DEFAULT UND regcomp@LIBC (2)
148:   FUNC GLOBAL DEFAULT UND regexec@LIBC (2)
149:   FUNC GLOBAL DEFAULT UND regfree@LIBC (2)
150:   FUNC GLOBAL DEFAULT UND _ZNSt3__15mutex4lockEv
151:   FUNC GLOBAL DEFAULT UND _ZNSt3__15mutex6unlockEv
152:   FUNC GLOBAL DEFAULT UND _ZNSt3__15mutexD1Ev
153:   FUNC GLOBAL DEFAULT UND _ZNSt3__113basic_ostreamI
154:   FUNC GLOBAL DEFAULT UND gzclose
155:   FUNC GLOBAL DEFAULT UND gzerror
156:   FUNC GLOBAL DEFAULT UND gzopen
157:   FUNC GLOBAL DEFAULT UND gzread
158:   FUNC GLOBAL DEFAULT UND security_policyvers
159:   FUNC GLOBAL DEFAULT UND sysconf@LIBC (2)
160:   FUNC GLOBAL DEFAULT UND uname@LIBC (2)
161:   OBJECT GLOBAL DEFAULT 23 _ZN7android5vintf12avbCon
162:   FUNC WEAK DEFAULT 14 _ZN7android5vintf9to_stri
163:   FUNC GLOBAL DEFAULT 14 _ZN7android5vintf22Kernel
164:   FUNC GLOBAL DEFAULT 14 _ZN7android5vintf11VintfO
165:   FUNC WEAK DEFAULT 14 _ZNKSt3__16__treeINS_12__
166:   OBJECT WEAK DEFAULT 18 _ZTVN7android5vintf12XmlF
167:   FUNC WEAK DEFAULT 14 _ZN7android5vintf9to_stri
168:   FUNC GLOBAL DEFAULT 14 _ZN7android5vintf11Manife
169:   FUNC GLOBAL DEFAULT 14 _ZNK7android5vintf19Compa
170:   FUNC GLOBAL DEFAULT 14 _ZN7android5vintf7details
171:   FUNC GLOBAL DEFAULT 14 _ZN7android5vintf11Manife
172:   FUNC GLOBAL DEFAULT 14 _ZN7android5vintf18Kernel
173:   FUNC GLOBAL DEFAULT 14 _ZN7android5vintf18Runtim
174:   FUNC WEAK DEFAULT 14 _ZNSt3__116__set_differen
175:   FUNC WEAK DEFAULT 14 _ZNSt3__111basic_regexIcN
176:   FUNC GLOBAL DEFAULT 14 _ZNK7android5vintf14Matri
177:   OBJECT WEAK DEFAULT 18 _ZTVN7android5vintf16XmlN
178:   OBJECT WEAK DEFAULT 18 _ZTVN7android5vintf16XmlN
179:   OBJECT WEAK DEFAULT 18 _ZTVN7android5vintf16XmlN
180:   OBJECT WEAK DEFAULT 18 _ZTVN7android5vintf16XmlT
181:   FUNC GLOBAL DEFAULT 14 _ZNK7android5vintf16Manif
182:   OBJECT WEAK DEFAULT 18 _ZTVN7android5vintf17Sepo
183:   OBJECT WEAK DEFAULT 18 _ZTVN7android5vintf21HalI
184:   FUNC GLOBAL DEFAULT 14 _ZN7android5vintf5parseER
185:   OBJECT GLOBAL DEFAULT 23 _ZN7android5vintf18vendor
186:   OBJECT WEAK DEFAULT 18 _ZTVN7android5vintf16XmlN
187:   FUNC WEAK DEFAULT 14 _ZNSt3__16__treeINS_12__v
188:   OBJECT WEAK DEFAULT 18 _ZTVNSt3__120__shared_ptr
189:   FUNC GLOBAL DEFAULT 14 _ZN7android5vintflsERNSt3
190:   FUNC GLOBAL DEFAULT 14 _ZN7android5vintflsERNSt3
191:   FUNC GLOBAL DEFAULT 14 _ZNK7android5vintf11HalMa
192:   FUNC GLOBAL DEFAULT 14 _ZNK7android5vintf9Matrix
193:   FUNC GLOBAL DEFAULT 14 _ZNK7android5vintf16Manif
194:   OBJECT WEAK DEFAULT 18 _ZTVNSt3__112__match_char
195:   FUNC WEAK DEFAULT 14 _ZNSt3__16vectorIN7androi
196:   FUNC WEAK DEFAULT 14 _ZNSt3__16__treeINS_12__v
197:   FUNC WEAK DEFAULT 14 _ZNSt3__16__treeINS_12__v
198:   FUNC GLOBAL DEFAULT 14 _ZN7android5vintflsERNSt3
199:   FUNC GLOBAL DEFAULT 14 _ZNK7android5vintf11Runti
200:   OBJECT WEAK DEFAULT 18 _ZTCNSt3__119basic_ostrin
201:   FUNC WEAK DEFAULT 14 _ZNSt3__16__treeINS_12bas
202:   FUNC GLOBAL DEFAULT 14 _ZNK7android5vintf16Manif
203:   FUNC GLOBAL DEFAULT 14 _ZN7android5vintf14Matrix
204:   FUNC GLOBAL DEFAULT 14 _ZNK7android5vintf14Matri
205:   OBJECT GLOBAL DEFAULT 23 _ZN7android5vintf20halMan
206:   FUNC WEAK DEFAULT 14 _ZN7android5vintf9to_stri
207:   FUNC WEAK DEFAULT 14 _ZNSt3__16vectorIN7androi
208:   FUNC WEAK DEFAULT 14 _ZNSt3__16vectorIPN8tinyx
209:   FUNC WEAK DEFAULT 14 _ZNSt3__16vectorINS_12bas
210:   FUNC WEAK DEFAULT 14 _ZNSt3__116__owns_one_sta
211:   FUNC WEAK DEFAULT 14 _ZNSt3__112__deque_baseIN
212:   FUNC GLOBAL DEFAULT 14 _ZN7android5vintf16Manife
213:   FUNC GLOBAL DEFAULT 14 _ZNK7android5vintf7detail
214:   FUNC GLOBAL DEFAULT 14 _ZN7android5vintf11VintfO
215:   FUNC WEAK DEFAULT 14 _ZNSt3__16__treeINS_12bas
216:   FUNC WEAK DEFAULT 14 _ZNSt3__114__split_buffer
217:   OBJECT WEAK DEFAULT 18 _ZTVNSt3__118__back_ref_c
218:   FUNC GLOBAL DEFAULT 14 _ZN7android5vintf11VintfO
219:   OBJECT WEAK DEFAULT 18 _ZTVN7android5vintf18Vend
220:   FUNC GLOBAL DEFAULT 14 _ZN7android5vintf16Manife
221:   FUNC WEAK DEFAULT 14 _ZNSt3__16vectorIN7androi
222:   OBJECT WEAK DEFAULT 18 _ZTVN7android5vintf16XmlN
223:   OBJECT WEAK DEFAULT 18 _ZTVN7android5vintf16XmlN
224:   OBJECT WEAK DEFAULT 18 _ZTVN7android5vintf18Matr
225:   FUNC GLOBAL DEFAULT 14 _ZNK7android5vintf11HalMa
226:   FUNC WEAK DEFAULT 14 _ZNSt3__111basic_regexIcN
227:   FUNC WEAK DEFAULT 14 _ZNSt3__16vectorIcNS_9all
228:   OBJECT GLOBAL DEFAULT 23 _ZN7android5vintf19avbVer
229:   FUNC GLOBAL DEFAULT 14 _ZN7android5vintf19Compat
230:   FUNC WEAK DEFAULT 14 _ZNSt3__111basic_regexIcN
231:   FUNC GLOBAL DEFAULT 14 _ZNK7android5vintf7detail
232:   FUNC WEAK DEFAULT 14 _ZN7android4base9ParseUin
233:   FUNC GLOBAL DEFAULT 14 _ZNK7android5vintf10Kerne
234:   FUNC GLOBAL DEFAULT 14 _ZNK7android5vintf16Manif
235:   FUNC WEAK DEFAULT 14 _ZNSt3__117__owns_two_sta
236:   OBJECT GLOBAL DEFAULT 23 _ZN7android5vintf7details
237:   FUNC GLOBAL DEFAULT 14 _ZN7android5vintf18Runtim
238:   FUNC GLOBAL DEFAULT 14 _ZNK7android5vintf14Matri
239:   OBJECT WEAK DEFAULT 18 _ZTVNSt3__126__end_marked
240:   FUNC WEAK DEFAULT 14 _ZNSt3__16__treeIN7androi
241:   FUNC GLOBAL DEFAULT 14 _ZNK7android5vintf11HalMa
242:   FUNC WEAK DEFAULT 14 _ZNSt3__16__treeINS_12__v
243:   FUNC WEAK DEFAULT 14 _ZNSt3__114__split_buffer
244:   FUNC GLOBAL DEFAULT 14 _ZN7android5vintf11VintfO
245:   FUNC GLOBAL DEFAULT 14 _ZN7android5vintf11VintfO
246:   OBJECT GLOBAL DEFAULT 23 _ZN7android5vintf7details
247:   FUNC GLOBAL DEFAULT 14 _ZN7android5vintf5parseER
248:   FUNC GLOBAL DEFAULT 14 _ZN7android5vintf5parseER
249:   OBJECT GLOBAL DEFAULT 23 _ZN7android5vintf30kernel
250:   FUNC WEAK DEFAULT 14 _ZNSt3__16__treeINS_12bas
251:   FUNC GLOBAL DEFAULT 14 _ZNK7android5vintf11Manif
252:   FUNC GLOBAL DEFAULT 14 _ZNK7android5vintf15Manif
253:   FUNC WEAK DEFAULT 14 _ZNSt3__16__treeINS_12__v
254:   FUNC WEAK DEFAULT 14 _ZNKSt3__112regex_traitsI
255:   FUNC GLOBAL DEFAULT 14 _ZN7android5vintf11VintfO
256:   OBJECT WEAK DEFAULT 18 _ZTVN7android5vintf16XmlN
257:   FUNC WEAK DEFAULT 14 _ZNSt3__113basic_filebufI
258:   OBJECT WEAK DEFAULT 18 _ZTVNSt3__111__alternateI
259:   FUNC GLOBAL DEFAULT 14 _ZNK7android5vintf11HalMa
260:   OBJECT WEAK DEFAULT 18 _ZTVN7android5vintf16XmlN
261:   FUNC WEAK DEFAULT 14 _ZNSt3__16__treeINS_12bas
262:   OBJECT GLOBAL DEFAULT 23 _ZN7android5vintf22Kernel
263:   FUNC WEAK DEFAULT 14 _ZNKSt3__111__lookaheadIc
264:   FUNC GLOBAL DEFAULT 14 _ZN7android5vintf7details
265:   FUNC WEAK DEFAULT 14 _ZNSt3__120__shared_ptr_e
266:   FUNC WEAK DEFAULT 14 _ZNKSt3__115basic_stringb
267:   FUNC WEAK DEFAULT 14 _ZN7android4base4JoinINSt
268:   FUNC GLOBAL DEFAULT 14 _ZNK7android5vintf22Kerne
269:   FUNC WEAK DEFAULT 14 _ZNSt3__16vectorIN7androi
270:   FUNC WEAK DEFAULT 14 _ZNSt3__16__treeINS_12__v
271:   OBJECT WEAK DEFAULT 18 _ZTVNSt3__111__end_stateI
272:   FUNC GLOBAL DEFAULT 14 _ZN7android5vintf14Matrix
273:   OBJECT WEAK DEFAULT 18 _ZTVN7android5vintf16XmlT
274:   FUNC GLOBAL DEFAULT 14 _ZN7android5vintfeqERKNS0
275:   FUNC GLOBAL DEFAULT 14 _ZNK7android5vintf11HalMa
276:   FUNC WEAK DEFAULT 14 _ZNKSt3__110__l_anchorIcE
277:   FUNC WEAK DEFAULT 14 _ZNSt3__16__treeIN7androi
278:   FUNC WEAK DEFAULT 14 _ZN7android5vintf9to_stri
279:   FUNC GLOBAL DEFAULT 14 _ZN7android5vintf9MatrixH
280:   FUNC WEAK DEFAULT 14 _ZNSt3__16__treeINS_12__v
281:   FUNC GLOBAL DEFAULT 14 _ZNK7android5vintf7detail
282:   FUNC GLOBAL DEFAULT 14 _ZN7android5vintf5parseER
283:   FUNC WEAK DEFAULT 14 _ZNSt3__16__treeINS_12__v
284:   FUNC WEAK DEFAULT 14 _ZNSt3__111basic_regexIcN
285:   FUNC GLOBAL DEFAULT 14 _ZNK7android5vintf9Matrix
286:   FUNC GLOBAL DEFAULT 14 _ZN7android5vintf11VintfO
287:   FUNC GLOBAL DEFAULT 14 _ZN7android5vintf19Compat
288:   FUNC WEAK DEFAULT 14 _ZNSt3__114__split_buffer
289:   FUNC GLOBAL DEFAULT 14 _ZN7android5vintf11VintfO
290:   FUNC GLOBAL DEFAULT 14 _ZN7android5vintf11VintfO
291:   FUNC WEAK DEFAULT 14 _ZNSt3__120__shared_ptr_p
292:   OBJECT GLOBAL DEFAULT 18 _ZN7android5vintf19gMatri
293:   FUNC WEAK DEFAULT 14 _ZN7android5vintf9to_stri
294:   OBJECT WEAK DEFAULT 18 _ZTVN7android5vintf16XmlN
295:   FUNC GLOBAL DEFAULT 14 _ZNK7android5vintf9Matrix
296:   FUNC WEAK DEFAULT 14 _ZNKSt3__111basic_regexIc
297:   FUNC WEAK DEFAULT 14 _ZNSt3__111basic_regexIcN
298:   FUNC GLOBAL DEFAULT 14 _ZN7android5vintflsERNSt3
299:   FUNC WEAK DEFAULT 14 _ZNSt3__16__treeINS_12__v
300:   FUNC WEAK DEFAULT 14 _ZNSt3__16__treeINS_12__v
301:   OBJECT WEAK DEFAULT 18 _ZTVN7android5vintf16XmlT
302:   FUNC WEAK DEFAULT 14 _ZNSt3__16vectorIN7androi
303:   FUNC GLOBAL DEFAULT 14 _ZN7android5vintf11VintfO
304:   FUNC GLOBAL DEFAULT 14 _ZN7android5vintf5parseER
305:   FUNC GLOBAL DEFAULT 14 _ZN7android5vintf14Matrix
306:   FUNC WEAK DEFAULT 14 _ZN7android5vintf15multil
307:   FUNC WEAK DEFAULT 14 _ZNSt3__111basic_regexIcN
308:   FUNC GLOBAL DEFAULT 14 _ZN7android5vintf16Manife
309:   FUNC GLOBAL DEFAULT 14 _ZNK7android5vintf11Runti
310:   FUNC WEAK DEFAULT 14 _ZNSt3__124__put_characte
311:   FUNC WEAK DEFAULT 14 _ZNSt3__16__treeINS_12__v
312:   FUNC WEAK DEFAULT 14 _ZNSt3__111basic_regexIcN
313:   OBJECT WEAK DEFAULT 18 _ZTVN7android5vintf16XmlN
314:   FUNC GLOBAL DEFAULT 14 _ZN7android5vintf4dumpERK
315:   OBJECT WEAK DEFAULT 18 _ZTVN7android5vintf16XmlT
316:   FUNC WEAK DEFAULT 14 _ZN7android5vintf7details
317:   FUNC GLOBAL DEFAULT 14 _ZNK7android5vintf9System
318:   FUNC WEAK DEFAULT 14 _ZNSt3__16vectorINS_12bas
319:   FUNC WEAK DEFAULT 14 _ZNKSt3__117__repeat_one_
320:   FUNC WEAK DEFAULT 14 _ZNSt3__16vectorINS_7__st
321:   FUNC WEAK DEFAULT 14 _ZNSt3__16vectorINS_4pair
322:   FUNC GLOBAL DEFAULT 14 _ZNK7android5vintf7detail
323:   OBJECT WEAK DEFAULT 18 _ZTVNSt3__118__match_char
324:   FUNC GLOBAL DEFAULT 14 _ZNK7android5vintf7detail
325:   FUNC WEAK DEFAULT 14 _ZNKSt3__16__loopIcE12__e
326:   FUNC GLOBAL DEFAULT 14 _ZN7android5vintf14Matrix
327:   FUNC GLOBAL DEFAULT 14 _ZN7android5vintf9MatrixH
328:   FUNC GLOBAL DEFAULT 14 _ZNK7android5vintf12HalIn
329:   FUNC WEAK DEFAULT 14 _ZNSt3__16vectorINS_9sub_
330:   OBJECT WEAK DEFAULT 18 _ZTVNSt3__121__empty_non_
331:   FUNC GLOBAL DEFAULT 14 _ZNK7android5vintf16Manif
332:   FUNC GLOBAL DEFAULT 14 _ZN7android5vintf5parseER
333:   FUNC GLOBAL DEFAULT 14 _ZN7android5vintflsERNSt3
334:   FUNC WEAK DEFAULT 14 _ZN7android5vintf9to_stri
335:   FUNC WEAK DEFAULT 14 _ZNSt3__112__hash_tableIm
336:   FUNC GLOBAL DEFAULT 14 _ZN7android5vintf15expand
337:   FUNC GLOBAL DEFAULT 14 _ZNK7android5vintf7detail
338:   FUNC GLOBAL DEFAULT 14 _ZNK7android5vintf16Manif
339:   OBJECT WEAK DEFAULT 18 _ZTVNSt3__110__back_refIc
340:   FUNC GLOBAL DEFAULT 14 _ZN7android5vintf14Matrix
341:   FUNC GLOBAL DEFAULT 14 _ZN7android5vintflsERNSt3
342:   OBJECT WEAK DEFAULT 18 _ZTVN7android5vintf28HalM
343:   FUNC GLOBAL DEFAULT 14 _ZNK7android5vintf11HalMa
344:   FUNC GLOBAL DEFAULT 14 _ZNK7android5vintf16Manif
345:   FUNC GLOBAL DEFAULT 14 _ZN7android5vintf14Matrix
346:   FUNC WEAK DEFAULT 14 _ZNSt3__16__treeIN7androi
347:   FUNC GLOBAL DEFAULT 14 _ZN7android5vintf19Compat
348:   FUNC GLOBAL DEFAULT 14 _ZN7android5vintf18Kernel
349:   FUNC GLOBAL DEFAULT 14 _ZN7android5vintf18Kernel
350:   FUNC WEAK DEFAULT 14 _ZNSt3__111basic_regexIcN
351:   FUNC WEAK DEFAULT 14 _ZNSt3__111basic_regexIcN
352:   FUNC WEAK DEFAULT 14 _ZNSt3__120__shared_ptr_p
353:   OBJECT GLOBAL DEFAULT 23 _ZN7android5vintf21halInt
354:   FUNC WEAK DEFAULT 14 _ZNSt3__16vectorIN7androi
355:   OBJECT GLOBAL DEFAULT 18 _ZTVN7android5vintf7detai
356:   FUNC WEAK DEFAULT 14 _ZNKSt3__128__begin_marke
357:   FUNC GLOBAL DEFAULT 14 _ZN7android5vintf16Manife
358:   OBJECT WEAK DEFAULT 18 _ZTVNSt3__115basic_string
359:   FUNC WEAK DEFAULT 14 _ZN7android5vintf9to_stri
360:   FUNC WEAK DEFAULT 14 _ZNSt3__16__treeINS_12__v
361:   FUNC WEAK DEFAULT 14 _ZNSt3__16vectorIPKN7andr
362:   FUNC GLOBAL DEFAULT 14 _ZNK7android5vintf10Kerne
363:   FUNC GLOBAL DEFAULT 14 _ZN7android5vintf11VintfO
364:   FUNC GLOBAL DEFAULT 14 _ZN7android5vintf11VintfO
365:   OBJECT WEAK DEFAULT 18 _ZTVN7android5vintf16XmlN
366:   FUNC GLOBAL DEFAULT 14 _ZNK7android5vintf9System
367:   OBJECT GLOBAL DEFAULT 23 _ZN7android5vintf7details
368:   OBJECT GLOBAL DEFAULT 23 _ZN7android5vintf7details
369:   OBJECT GLOBAL DEFAULT 18 _ZTVN7android5vintf11Runt
370:   FUNC GLOBAL DEFAULT 14 _ZN7android5vintf22Kernel
371:   FUNC GLOBAL DEFAULT 14 _ZN7android5vintf22Kernel
372:   FUNC GLOBAL DEFAULT 14 _ZNK7android5vintf14Matri
373:   OBJECT WEAK DEFAULT 18 _ZTCNSt3__118basic_string
374:   OBJECT GLOBAL DEFAULT 18 _ZTVN7android5vintf7detai
375:   OBJECT GLOBAL DEFAULT 23 _ZN7android5vintf16versio
376:   OBJECT WEAK DEFAULT 18 _ZTVN7android5vintf20Mani
377:   FUNC GLOBAL DEFAULT 14 _ZN7android5vintf22Kernel
378:   FUNC WEAK DEFAULT 14 _ZNSt3__111basic_regexIcN
379:   OBJECT GLOBAL DEFAULT 23 _ZN7android5vintf7details
380:   FUNC GLOBAL DEFAULT 14 _ZN7android5vintf27parseK
381:   FUNC WEAK DEFAULT 14 _ZNSt3__16__treeINS_12__v
382:   FUNC GLOBAL DEFAULT 14 _ZN7android5vintf12HalInt
383:   OBJECT GLOBAL DEFAULT 23 _ZN7android5vintf7details
384:   OBJECT WEAK DEFAULT 18 _ZTVN7android5vintf16XmlN
385:   OBJECT WEAK DEFAULT 18 _ZTVN7android5vintf16XmlP
386:   OBJECT WEAK DEFAULT 18 _ZTVNSt3__113__empty_stat
387:   FUNC GLOBAL DEFAULT 14 _ZNK7android5vintf7detail
388:   OBJECT GLOBAL DEFAULT 23 _ZN7android5vintf22transp
389:   FUNC GLOBAL DEFAULT 14 _ZNK7android5vintf7detail
390:   FUNC WEAK DEFAULT 14 _ZNSt3__116__set_differen
391:   FUNC WEAK DEFAULT 14 _ZNSt3__120__shared_ptr_e
392:   FUNC GLOBAL DEFAULT 14 _ZN7android5vintflsERNSt3
393:   FUNC GLOBAL DEFAULT 14 _ZN7android5vintf14Matrix
394:   FUNC GLOBAL DEFAULT 14 _ZN7android5vintf5parseER
395:   FUNC WEAK DEFAULT 14 _ZNSt3__16vectorINS_12bas
396:   OBJECT GLOBAL DEFAULT 23 _ZN7android5vintf22matrix
397:   FUNC WEAK DEFAULT 14 _ZNKSt3__121__empty_non_o
398:   FUNC WEAK DEFAULT 14 _ZNSt3__111basic_regexIcN
399:   OBJECT WEAK DEFAULT 18 _ZTVNSt3__120__shared_ptr
400:   FUNC WEAK DEFAULT 14 _ZNSt3__115basic_stringbu
401:   FUNC GLOBAL DEFAULT 14 _ZN7android5vintf11VintfO
402:   FUNC GLOBAL DEFAULT 14 _ZN7android5vintf5parseER
403:   FUNC GLOBAL DEFAULT 14 _ZNK7android5vintf19Compa
404:   OBJECT GLOBAL DEFAULT 18 _ZTVN7android5vintf19Comp
405:   OBJECT WEAK DEFAULT 18 _ZTVNSt3__120__shared_ptr
406:   FUNC GLOBAL DEFAULT 14 _ZN7android5vintf11VintfO
407:   OBJECT GLOBAL DEFAULT 23 _ZN7android5vintf7details
408:   OBJECT WEAK DEFAULT 18 _ZTVN7android5vintf22Tran
409:   FUNC WEAK DEFAULT 14 _ZNSt3__16__treeImNS_4les
410:   FUNC WEAK DEFAULT 14 _ZNKSt3__112regex_traitsI
411:   FUNC GLOBAL DEFAULT 14 _ZNK7android5vintf7detail
412:   FUNC WEAK DEFAULT 14 _ZNSt3__16vectorIN7androi
413:   FUNC GLOBAL DEFAULT 14 _ZN7android5vintf22Kernel
414:   FUNC GLOBAL DEFAULT 14 _ZN7android5vintf19Compat
415:   FUNC WEAK DEFAULT 14 _ZN7android5vintf7details
416:   FUNC GLOBAL DEFAULT 14 _ZN7android5vintf22Kernel
417:   FUNC WEAK DEFAULT 14 _ZNSt3__111basic_regexIcN
418:   OBJECT WEAK DEFAULT 18 _ZTVNSt3__119basic_ostrin
419:   FUNC WEAK DEFAULT 14 _ZNSt3__16__treeINS_12__v
420:   OBJECT WEAK DEFAULT 18 _ZTVN7android5vintf22Matr
421:   FUNC GLOBAL DEFAULT 14 _ZN7android5vintf18Kernel
422:   FUNC GLOBAL DEFAULT 14 _ZNK7android5vintf19Compa
423:   FUNC WEAK DEFAULT 14 _ZNSt3__113basic_filebufI
424:   FUNC WEAK DEFAULT 14 _ZNSt3__111basic_regexIcN
425:   OBJECT WEAK DEFAULT 18 _ZTVNSt3__120__shared_ptr
426:   OBJECT GLOBAL DEFAULT 23 _ZN7android5vintf19kernel
427:   OBJECT WEAK DEFAULT 18 _ZTVN7android5vintf16XmlN
428:   FUNC WEAK DEFAULT 14 _ZN7android4base4JoinINSt
429:   FUNC WEAK DEFAULT 14 _ZNKSt3__111__end_stateIc
430:   FUNC WEAK DEFAULT 14 _ZN7android5vintf9to_stri
431:   FUNC WEAK DEFAULT 14 _ZN7android5vintf9to_stri
432:   FUNC GLOBAL DEFAULT 14 _ZN7android5vintf18Kernel
433:   OBJECT WEAK DEFAULT 18 _ZTVNSt3__16__loopIcEE
434:   FUNC GLOBAL DEFAULT 14 _ZNK7android5vintf11Runti
435:   OBJECT GLOBAL DEFAULT 23 _ZN7android5vintf7details
436:   FUNC GLOBAL DEFAULT 14 _ZN7android5vintf18Runtim
437:   FUNC WEAK DEFAULT 14 _ZNSt3__113basic_filebufI
438:   FUNC WEAK DEFAULT 14 _ZNKSt3__110__back_refIcE
439:   OBJECT WEAK DEFAULT 18 _ZTVNSt3__120__bracket_ex
440:   FUNC GLOBAL DEFAULT 14 _ZN7android5vintf18trimTr
441:   FUNC GLOBAL DEFAULT 14 _ZNK7android5vintf18Kerne
442:   FUNC GLOBAL DEFAULT 14 _ZN7android5vintf11VintfO
443:   OBJECT WEAK DEFAULT 18 _ZTCNSt3__118basic_string
444:   FUNC WEAK DEFAULT 14 _ZNSt3__16vectorIN7androi
445:   OBJECT WEAK DEFAULT 18 _ZTVN7android5vintf28Comp
446:   FUNC GLOBAL DEFAULT 14 _ZNK7android5vintf11HalMa
447:   FUNC WEAK DEFAULT 14 _ZNSt3__16__treeINS_12__v
448:   FUNC WEAK DEFAULT 14 _ZNSt3__16vectorINS_4pair
449:   FUNC GLOBAL DEFAULT 14 _ZN7android5vintf5parseER
450:   FUNC GLOBAL DEFAULT 14 _ZN7android5vintf19Compat
451:   FUNC WEAK DEFAULT 14 _ZNKSt3__111__alternateIc
452:   OBJECT WEAK DEFAULT 18 _ZTVNSt3__123__match_any_
453:   FUNC GLOBAL DEFAULT 14 _ZN7android5vintf16Manife
454:   OBJECT WEAK DEFAULT 18 _ZTVNSt3__120__shared_ptr
455:   FUNC GLOBAL DEFAULT 14 _ZNK7android5vintf10Kerne
456:   FUNC GLOBAL DEFAULT 14 _ZNK7android5vintf13Matri
457:   FUNC WEAK DEFAULT 14 _ZNSt3__120__shared_ptr_p
458:   FUNC WEAK DEFAULT 14 _ZNSt3__127__tree_balance
459:   FUNC WEAK DEFAULT 14 _ZNSt3__113basic_filebufI
460:   FUNC WEAK DEFAULT 14 _ZNKSt3__112__match_charI
461:   FUNC WEAK DEFAULT 14 _ZNSt3__16vectorINS_4pair
462:   OBJECT WEAK DEFAULT 18 _ZTVN7android5vintf7detai
463:   FUNC GLOBAL DEFAULT 14 _ZNK7android5vintf11Runti
464:   FUNC GLOBAL DEFAULT 14 _ZN7android5vintf11VintfO
465:   FUNC WEAK DEFAULT 14 _ZNSt3__16__treeINS_12__v
466:   FUNC WEAK DEFAULT 14 _ZNSt3__16__treeINS_12__v
467:   FUNC GLOBAL DEFAULT 14 _ZNK7android5vintf7detail
468:   FUNC GLOBAL DEFAULT 14 _ZNK7android5vintf18Kerne
469:   FUNC WEAK DEFAULT 14 _ZNSt3__16__treeIN7androi
470:   FUNC GLOBAL DEFAULT 14 _ZN7android5vintf5parseER
471:   FUNC WEAK DEFAULT 14 _ZNSt3__16__treeIN7androi
472:   FUNC GLOBAL DEFAULT 14 _ZN7android5vintf19Compat
473:   FUNC GLOBAL DEFAULT 14 _ZN7android5vintf19Compat
474:   FUNC WEAK DEFAULT 14 _ZNSt3__16__treeINS_12__v
475:   OBJECT WEAK DEFAULT 18 _ZTVNSt3__118basic_string
476:   FUNC WEAK DEFAULT 14 _ZN7android5vintf9to_stri
477:   FUNC GLOBAL DEFAULT 14 _ZNK7android5vintf14Matri
478:   FUNC WEAK DEFAULT 14 _ZNSt3__16vectorINS_12bas
479:   FUNC GLOBAL DEFAULT 14 _ZN7android5vintf22Kernel
480:   FUNC GLOBAL DEFAULT 14 _ZN7android5vintf7details
481:   OBJECT GLOBAL DEFAULT 23 _ZN7android5vintf25system
482:   FUNC GLOBAL DEFAULT 14 _ZNK7android5vintf14Matri
483:   FUNC GLOBAL DEFAULT 14 _ZN7android5vintf11HalMan
484:   FUNC WEAK DEFAULT 14 _ZNSt3__16vectorI5NamedIN
485:   FUNC GLOBAL DEFAULT 14 _ZN7android5vintflsERNSt3
486:   OBJECT WEAK DEFAULT 18 _ZTVNSt3__111__match_anyI
487:   FUNC GLOBAL DEFAULT 14 _ZNK7android5vintf11Runti
488:   FUNC GLOBAL DEFAULT 14 _ZNK7android5vintf11HalMa
489:   OBJECT GLOBAL DEFAULT 23 _ZN7android5vintf7details
490:   FUNC WEAK DEFAULT 14 _ZNSt3__16__treeINS_12__v
491:   OBJECT GLOBAL DEFAULT 23 _ZN7android5vintf21versio
492:   FUNC WEAK DEFAULT 14 _ZNKSt3__16__treeINS_12__
493:   FUNC GLOBAL DEFAULT 14 _ZN7android5vintf22Kernel
494:   FUNC WEAK DEFAULT 14 _ZNKSt3__115__word_bounda
495:   OBJECT GLOBAL DEFAULT 23 _ZN7android5vintf7details
496:   FUNC WEAK DEFAULT 14 _ZNSt3__111basic_regexIcN
497:   FUNC GLOBAL DEFAULT 14 _ZNK7android5vintf11Runti
498:   FUNC GLOBAL DEFAULT 14 _ZN7android5vintf14Matrix
499:   FUNC WEAK DEFAULT 14 _ZN7android5vintf9to_stri
500:   FUNC WEAK DEFAULT 14 _ZN7android5vintf9to_stri
501:   OBJECT WEAK DEFAULT 18 _ZTVN7android5vintf16XmlT
502:   OBJECT WEAK DEFAULT 18 _ZTVN7android5vintf20HalM
503:   FUNC WEAK DEFAULT 14 _ZNSt3__16__treeINS_12__v
504:   FUNC GLOBAL DEFAULT 14 _ZN7android5vintf16Manife
505:   FUNC GLOBAL DEFAULT 14 _ZN7android5vintf11VintfO
506:   FUNC GLOBAL DEFAULT 14 _ZN7android5vintf4dumpERK
507:   OBJECT GLOBAL DEFAULT 18 _ZN7android5vintf32gKerne
508:   FUNC WEAK DEFAULT 14 _ZNSt3__16vectorIN7androi
509:   FUNC GLOBAL DEFAULT 14 _ZN7android5vintf9MatrixH
510:   FUNC GLOBAL DEFAULT 14 _ZNK7android5vintf16Manif
511:   FUNC GLOBAL DEFAULT 14 _ZN7android5vintflsERNSt3
512:   FUNC GLOBAL DEFAULT 14 _ZN7android5vintflsERNSt3
513:   OBJECT WEAK DEFAULT 18 _ZTCNSt3__118basic_string
514:   OBJECT WEAK DEFAULT 18 _ZTVN7android5vintf16XmlT
515:   FUNC WEAK DEFAULT 14 _ZNSt3__16__treeINS_12__v
516:   FUNC GLOBAL DEFAULT 14 _ZNK7android5vintf11HalMa
517:   FUNC WEAK DEFAULT 14 _ZN7android5vintf5parseIN
518:   FUNC GLOBAL DEFAULT 14 _ZN7android5vintf11VintfO
519:   OBJECT WEAK DEFAULT 18 _ZTTNSt3__119basic_ostrin
520:   FUNC GLOBAL DEFAULT 14 _ZN7android5vintf19Compat
521:   FUNC GLOBAL DEFAULT 14 _ZThn32_NK7android5vintf1
522:   FUNC GLOBAL DEFAULT 14 _ZN7android5vintf22Kernel
523:   FUNC WEAK DEFAULT 14 _ZNSt3__111basic_regexIcN
524:   FUNC GLOBAL DEFAULT 14 _ZN7android5vintf11VintfO
525:   FUNC GLOBAL DEFAULT 14 _ZN7android5vintf5parseER
526:   FUNC GLOBAL DEFAULT 14 _ZNK7android5vintf13Trans
527:   FUNC WEAK DEFAULT 14 _ZNKSt3__113__empty_state
528:   OBJECT GLOBAL DEFAULT 23 _ZN7android5vintf20vndkVe
529:   FUNC GLOBAL DEFAULT 14 _ZNK7android5vintf11HalMa
530:   FUNC GLOBAL DEFAULT 14 _ZNK7android5vintf12HalIn
531:   FUNC GLOBAL DEFAULT 14 _ZN7android5vintf18Runtim
532:   FUNC WEAK DEFAULT 14 _ZNSt3__111basic_regexIcN
533:   FUNC GLOBAL DEFAULT 14 _ZN7android5vintf11VintfO
534:   OBJECT GLOBAL DEFAULT 23 _ZN7android5vintf7details
535:   FUNC GLOBAL DEFAULT 14 _ZN7android5vintf19Compat
536:   FUNC GLOBAL DEFAULT 14 _ZNK7android5vintf19Compa
537:   FUNC WEAK DEFAULT 14 _ZNSt3__111basic_regexIcN
538:   FUNC GLOBAL DEFAULT 14 _ZN7android5vintf14Matrix
539:   FUNC GLOBAL DEFAULT 14 _ZN7android5vintflsERNSt3
540:   FUNC GLOBAL DEFAULT 14 _ZNK7android5vintf16Manif
541:   FUNC WEAK DEFAULT 14 _ZNSt3__16__treeINS_12__v
542:   OBJECT GLOBAL DEFAULT 23 _ZN7android5vintf7details
543:   FUNC WEAK DEFAULT 14 _ZNSt3__16__treeIN7androi
544:   FUNC WEAK DEFAULT 14 _ZNKSt3__111__match_anyIc
545:   FUNC GLOBAL DEFAULT 14 _ZN7android5vintf11VintfO
546:   OBJECT GLOBAL DEFAULT 18 _ZN7android5vintf20gKerne
547:   FUNC GLOBAL DEFAULT 14 _ZNK7android5vintf9Matrix
548:   FUNC WEAK DEFAULT 14 _ZNSt3__16__treeINS_12bas
549:   OBJECT WEAK DEFAULT 18 _ZTVN7android5vintf16XmlT
550:   FUNC WEAK DEFAULT 14 _ZNSt3__113basic_filebufI
551:   FUNC WEAK DEFAULT 14 _ZNSt3__111basic_regexIcN
552:   FUNC WEAK DEFAULT 14 _ZNSt3__112__hash_tableIm
553:   OBJECT GLOBAL DEFAULT 23 _ZN7android5vintf25vndkVe
554:   FUNC WEAK DEFAULT 14 _ZNSt3__16__treeINS_12__v
555:   FUNC WEAK DEFAULT 14 _ZNSt3__16__treeINS_12__v
556:   FUNC WEAK DEFAULT 14 _ZNSt3__16vectorIN7androi
557:   FUNC GLOBAL DEFAULT 14 _ZN7android5vintf14Matrix
558:   FUNC WEAK DEFAULT 14 _ZNSt3__120__shared_ptr_p
559:   FUNC GLOBAL DEFAULT 14 _ZN7android5vintf14toFQNa
560:   FUNC GLOBAL DEFAULT 14 _ZNK7android5vintf13Trans
561:   FUNC GLOBAL DEFAULT 14 _ZN7android5vintf16Manife
562:   FUNC WEAK DEFAULT 14 _ZN7android5vintf9to_stri
563:   OBJECT WEAK DEFAULT 18 _ZTVNSt3__110__l_anchorIc
564:   OBJECT GLOBAL DEFAULT 23 _ZN7android5vintf28halMan
565:   FUNC GLOBAL DEFAULT 14 _ZNK7android5vintf11Manif
566:   OBJECT GLOBAL DEFAULT 23 _ZN7android5vintf17sepoli
567:   FUNC WEAK DEFAULT 14 _ZN7android5vintf9to_stri
568:   FUNC WEAK DEFAULT 14 _ZN7android5vintf15multil
569:   FUNC WEAK DEFAULT 14 _ZN7android5vintf15multil
570:   FUNC WEAK DEFAULT 14 _ZNKSt3__16__loopIcE6__ex
571:   FUNC WEAK DEFAULT 14 _ZNSt3__120__shared_ptr_p
572:   FUNC WEAK DEFAULT 14 _ZNSt3__16vectorIN7androi
573:   OBJECT WEAK DEFAULT 18 _ZTVN7android5vintf21Matr
574:   FUNC GLOBAL DEFAULT 14 _ZNK7android5vintf12Matri
575:   FUNC WEAK DEFAULT 14 _ZNSt3__16__treeINS_12__v
576:   FUNC WEAK DEFAULT 14 _ZNKSt3__111basic_regexIc
577:   FUNC GLOBAL DEFAULT 14 _ZNK7android5vintf11Manif
578:   FUNC GLOBAL DEFAULT 14 _ZN7android5vintf19Compat
579:   FUNC GLOBAL DEFAULT 14 _ZN7android5vintf22Kernel
580:   FUNC GLOBAL DEFAULT 14 _ZN7android5vintflsERNSt3
581:   FUNC WEAK DEFAULT 14 _ZNSt3__16__treeINS_4pair
582:   FUNC GLOBAL DEFAULT 14 _ZNK7android5vintf10Kerne
583:   OBJECT WEAK DEFAULT 18 _ZTVN7android5vintf16XmlN
584:   FUNC WEAK DEFAULT 14 _ZNSt3__16__treeINS_4pair
585:   FUNC GLOBAL DEFAULT 14 _ZNK7android5vintf16Manif
586:   FUNC GLOBAL DEFAULT 14 _ZNK7android5vintf11Runti
587:   FUNC WEAK DEFAULT 14 _ZNSt3__16vectorIN7androi
588:   OBJECT WEAK DEFAULT 18 _ZTVN7android5vintf8HalGr
589:   FUNC GLOBAL DEFAULT 14 _ZNK7android5vintf7detail
590:   FUNC GLOBAL DEFAULT 14 _ZNK7android5vintf11HalMa
591:   FUNC WEAK DEFAULT 14 _ZNKSt3__118__back_ref_co
592:   FUNC WEAK DEFAULT 14 _ZNSt3__15dequeINS_7__sta
593:   FUNC WEAK DEFAULT 14 _ZNSt3__16vectorINS_4pair
594:   FUNC WEAK DEFAULT 14 _ZNSt3__16__treeIN7androi
595:   FUNC WEAK DEFAULT 14 _ZNSt3__16__treeINS_12__v
596:   FUNC WEAK DEFAULT 14 _ZNSt3__1plIcNS_11char_tr
597:   FUNC WEAK DEFAULT 14 _ZNSt3__16__treeINS_12__v
598:   FUNC WEAK DEFAULT 14 _ZNSt3__16vectorINS_9sub_
599:   FUNC WEAK DEFAULT 14 _ZNSt3__16__treeIN7androi
600:   FUNC GLOBAL DEFAULT 14 _ZN7android5vintf14Matrix
601:   FUNC WEAK DEFAULT 14 _ZNSt3__120__shared_ptr_e
602:   FUNC GLOBAL DEFAULT 14 _ZN7android5vintf14toFQNa
603:   FUNC GLOBAL DEFAULT 14 _ZN7android5vintf5parseER
604:   OBJECT WEAK DEFAULT 18 _ZTVNSt3__116__back_ref_i
605:   OBJECT GLOBAL DEFAULT 23 _ZN7android5vintf7details
606:   OBJECT GLOBAL DEFAULT 23 _ZN7android5vintf27matrix
607:   FUNC GLOBAL DEFAULT 14 _ZN7android5vintf11HalMan
608:   FUNC GLOBAL DEFAULT 14 _ZN7android5vintf11VintfO
609:   FUNC GLOBAL DEFAULT 14 _ZN7android5vintf11VintfO
610:   FUNC GLOBAL DEFAULT 14 _ZN7android5vintf20parseK
611:   FUNC GLOBAL DEFAULT 14 _ZNK7android5vintf11HalMa
612:   OBJECT WEAK DEFAULT 18 _ZTVN7android5vintf13Obje
613:   OBJECT WEAK DEFAULT 18 _ZTVNSt3__120__shared_ptr
614:   FUNC GLOBAL DEFAULT 14 _ZN7android5vintf20parseK
615:   FUNC GLOBAL DEFAULT 14 _ZN7android5vintf11HalMan
616:   OBJECT GLOBAL DEFAULT 23 _ZN7android5vintf7details
617:   FUNC GLOBAL DEFAULT 14 _ZN7android5vintf5parseER
618:   FUNC GLOBAL DEFAULT 14 _ZN7android5vintf5parseER
619:   FUNC GLOBAL DEFAULT 14 _ZN7android5vintf19Compat
620:   FUNC WEAK DEFAULT 14 _ZNSt3__16__treeINS_12__v
621:   OBJECT WEAK DEFAULT 18 _ZTVNSt3__117__repeat_one
622:   FUNC GLOBAL DEFAULT 14 _ZN7android5vintf11VintfO
623:   FUNC WEAK DEFAULT 14 _ZNSt3__120__shared_ptr_e
624:   OBJECT WEAK DEFAULT 18 _ZTVN7android5vintf16XmlN
625:   FUNC WEAK DEFAULT 14 _ZNKSt3__126__end_marked_
626:   FUNC GLOBAL DEFAULT 14 _ZNK7android5vintf7detail
627:   OBJECT WEAK DEFAULT 18 _ZTVN7android5vintf31Kern
628:   FUNC GLOBAL DEFAULT 14 _ZN7android5vintf11HalMan
629:   FUNC WEAK DEFAULT 14 _ZNKSt3__112regex_traitsI
630:   OBJECT GLOBAL DEFAULT 18 _ZTVN7android5vintf7detai
631:   FUNC WEAK DEFAULT 14 _ZN7android5vintf9to_stri
632:   FUNC WEAK DEFAULT 14 _ZNSt3__113__tree_removeI
633:   FUNC WEAK DEFAULT 14 _ZNSt3__120__shared_ptr_p
634:   FUNC WEAK DEFAULT 14 _ZNKSt3__16__treeINS_12__
635:   FUNC GLOBAL DEFAULT 14 _ZN7android5vintflsERNSt3
636:   OBJECT WEAK DEFAULT 18 _ZTVN7android5vintf12AvbC
637:   FUNC WEAK DEFAULT 14 _ZNKSt3__112regex_traitsI
638:   FUNC WEAK DEFAULT 14 _ZNSt3__16__treeINS_12__v
639:   FUNC GLOBAL DEFAULT 14 _ZNK7android5vintf11Runti
640:   FUNC WEAK DEFAULT 14 _ZNKSt3__16__treeINS_12__
641:   OBJECT GLOBAL DEFAULT 18 _ZTVN7android5vintf7detai
642:   OBJECT GLOBAL DEFAULT 23 _ZN7android5vintf19fqInst
643:   FUNC WEAK DEFAULT 14 _ZNSt3__16__treeINS_12__v
644:   FUNC GLOBAL DEFAULT 14 _ZN7android5vintf9MatrixH
645:   FUNC GLOBAL DEFAULT 14 _ZN7android5vintf11HalMan
646:   FUNC WEAK DEFAULT 14 _ZNSt3__16__treeINS_12__v
647:   OBJECT WEAK DEFAULT 18 _ZTVN7android5vintf16XmlN
648:   FUNC WEAK DEFAULT 14 _ZNKSt3__111basic_regexIc
649:   FUNC GLOBAL DEFAULT 14 _ZNK7android5vintf10Kerne
650:   FUNC GLOBAL DEFAULT 14 _ZN7android5vintf5parseER
651:   FUNC GLOBAL DEFAULT 14 _ZN7android5vintf5parseER
652:   FUNC GLOBAL DEFAULT 14 _ZN7android5vintf11VintfO
653:   FUNC WEAK DEFAULT 14 _ZNSt3__120__shared_ptr_p
654:   FUNC WEAK DEFAULT 14 _ZN7android5vintf9to_stri
655:   FUNC WEAK DEFAULT 14 _ZNSt3__16__treeINS_12__v
656:   OBJECT WEAK DEFAULT 18 _ZTVN7android5vintf16XmlP
657:   FUNC WEAK DEFAULT 14 _ZNSt3__16__treeIN7androi
658:   OBJECT GLOBAL DEFAULT 23 _ZN7android5vintf11VintfO
659:   OBJECT WEAK DEFAULT 18 _ZTVN7android5vintf31Matr
660:   FUNC WEAK DEFAULT 14 _ZNSt3__114__split_buffer
661:   FUNC WEAK DEFAULT 14 _ZNSt3__16vectorINS_9sub_
662:   OBJECT WEAK DEFAULT 18 _ZTVNSt3__116__owns_one_s
663:   OBJECT GLOBAL DEFAULT 23 _ZN7android5vintf28compat
664:   FUNC GLOBAL DEFAULT 14 _ZNK7android5vintf19Compa
665:   FUNC WEAK DEFAULT 14 _ZNSt3__16vectorIN7androi
666:   FUNC GLOBAL DEFAULT 14 _ZNK7android5vintf11Manif
667:   FUNC WEAK DEFAULT 14 _ZNSt3__111basic_regexIcN
668:   FUNC GLOBAL DEFAULT 14 _ZN7android5vintf16Manife
669:   FUNC GLOBAL DEFAULT 14 _ZN7android5vintf5parseER
670:   FUNC WEAK DEFAULT 14 _ZN7android5vintf9to_stri
671:   OBJECT WEAK DEFAULT 18 _ZTVN7android5vintf13Vndk
672:   FUNC GLOBAL DEFAULT 14 _ZN7android5vintf18Kernel
673:   FUNC WEAK DEFAULT 14 _ZNSt3__111basic_regexIcN
674:   FUNC GLOBAL DEFAULT 14 _ZN7android5vintflsERNSt3
675:   FUNC WEAK DEFAULT 14 _ZNSt3__113basic_filebufI
676:   FUNC WEAK DEFAULT 14 _ZNSt3__116__owns_one_sta
677:   FUNC GLOBAL DEFAULT 14 _ZNK7android5vintf19Compa
678:   OBJECT WEAK DEFAULT 18 _ZTTNSt3__114basic_ifstre
679:   FUNC GLOBAL DEFAULT 14 _ZN7android5vintf11VintfO
680:   FUNC WEAK DEFAULT 14 _ZN7android5vintf9to_stri
681:   FUNC GLOBAL DEFAULT 14 _ZN7android5vintf19Compat
682:   FUNC WEAK DEFAULT 14 _ZNSt3__16__treeINS_12bas
683:   FUNC GLOBAL DEFAULT 14 _ZN7android5vintfeqERKNS0
684:   FUNC GLOBAL DEFAULT 14 _ZN7android5vintf11VintfO
685:   FUNC WEAK DEFAULT 14 _ZN7android5vintf5parseIN
686:   OBJECT GLOBAL DEFAULT 23 _ZN7android5vintf20vndkLi
687:   OBJECT GLOBAL DEFAULT 23 _ZN7android5vintf31kernel
688:   OBJECT WEAK DEFAULT 18 _ZTVN7android5vintf12XmlF
689:   FUNC GLOBAL DEFAULT 14 _ZN7android5vintf18Kernel
690:   OBJECT WEAK DEFAULT 18 _ZTVNSt3__120__shared_ptr
691:   FUNC GLOBAL DEFAULT 14 _ZN7android5vintf10parseR
692:   OBJECT GLOBAL DEFAULT 23 _ZN7android5vintf13vndkCo
693:   OBJECT GLOBAL DEFAULT 18 _ZN7android5vintf21gManif
694:   FUNC GLOBAL DEFAULT 14 _ZNK7android5vintf11Manif
695:   FUNC WEAK DEFAULT 14 _ZNSt3__16__treeIN7androi
696:   FUNC WEAK DEFAULT 14 _ZNSt3__16vectorIN7androi
697:   FUNC WEAK DEFAULT 14 _ZNSt3__16__treeINS_12__v
698:   FUNC GLOBAL DEFAULT 14 _ZN7android5vintf15expand
699:   FUNC GLOBAL DEFAULT 14 _ZNK7android5vintf11Runti
700:   OBJECT GLOBAL DEFAULT 23 _ZN7android5vintf31matrix
701:   FUNC GLOBAL DEFAULT 14 _ZNK7android5vintf9Matrix
702:   FUNC GLOBAL DEFAULT 14 _ZNK7android5vintf22Kerne
703:   FUNC WEAK DEFAULT 14 _ZNSt3__117__owns_two_sta
704:   OBJECT GLOBAL DEFAULT 18 _ZTVN7android5vintf11HalM
705:   FUNC WEAK DEFAULT 14 _ZNSt3__16__treeINS_12__v
706:   FUNC GLOBAL DEFAULT 14 _ZN7android5vintf11VintfO
707:   FUNC WEAK DEFAULT 14 _ZNSt3__120__shared_ptr_e
708:   OBJECT GLOBAL DEFAULT 23 _ZN7android5vintf24sepoli
709:   FUNC GLOBAL DEFAULT 14 _ZN7android5vintf19Compat
710:   FUNC GLOBAL DEFAULT 14 _ZNK7android5vintf11HalMa
711:   FUNC GLOBAL DEFAULT 14 _ZNK7android5vintf11HalMa
712:   FUNC GLOBAL DEFAULT 14 _ZNK7android5vintf16Manif
713:   FUNC WEAK DEFAULT 14 _ZNSt3__111basic_regexIcN
714:   FUNC WEAK DEFAULT 14 _ZNSt3__111basic_regexIcN
715:   OBJECT WEAK DEFAULT 18 _ZTVNSt3__111__lookaheadI
716:   FUNC GLOBAL DEFAULT 14 _ZN7android5vintf5parseER
717:   FUNC WEAK DEFAULT 14 _ZNSt3__16vectorIN7androi
718:   FUNC GLOBAL DEFAULT 14 _ZNK7android5vintf9Matrix
719:   FUNC GLOBAL DEFAULT 14 _ZNK7android5vintf11HalMa
720:   FUNC GLOBAL DEFAULT 14 _ZNK7android5vintf11Manif
721:   OBJECT GLOBAL DEFAULT 18 _ZTVN7android5vintf11Vint
722:   OBJECT WEAK DEFAULT 18 _ZTVN7android5vintf24Mani
723:   FUNC WEAK DEFAULT 14 _ZNKSt3__111basic_regexIc
724:   FUNC GLOBAL DEFAULT 14 _ZN7android5vintf7details
725:   FUNC GLOBAL DEFAULT 14 _ZN7android5vintf19Compat
726:   FUNC GLOBAL DEFAULT 14 _ZNK7android5vintf11HalMa
727:   FUNC GLOBAL DEFAULT 14 _ZNK7android5vintf11HalMa
728:   OBJECT WEAK DEFAULT 18 _ZTVNSt3__110__r_anchorIc
729:   FUNC WEAK DEFAULT 14 _ZNSt3__112__hash_tableIm
730:   FUNC GLOBAL DEFAULT 14 _ZN7android5vintf11VintfO
731:   FUNC WEAK DEFAULT 14 _ZNSt3__16__treeINS_12__v
732:   FUNC GLOBAL DEFAULT 14 _ZN7android5vintf18Runtim
733:   FUNC WEAK DEFAULT 14 _ZNSt3__16vectorINS_4pair
734:   FUNC GLOBAL DEFAULT 14 _ZNK7android5vintf10Kerne
735:   FUNC GLOBAL DEFAULT 14 _ZN7android5vintf18Kernel
736:   FUNC WEAK DEFAULT 14 _ZNSt3__111basic_regexIcN
737:   OBJECT WEAK DEFAULT 18 _ZTVNSt3__120__match_char
738:   FUNC GLOBAL DEFAULT 14 _ZN7android5vintf16Manife
739:   OBJECT GLOBAL DEFAULT 23 _ZN7android5vintf7details
740:   OBJECT GLOBAL DEFAULT 23 _ZN7android5vintf21matrix
741:   OBJECT GLOBAL DEFAULT 23 _ZN7android5vintf24manife
742:   FUNC WEAK DEFAULT 14 _ZNSt3__113basic_filebufI
743:   OBJECT WEAK DEFAULT 18 _ZTVN7android5vintf8HalGr
744:   FUNC GLOBAL DEFAULT 14 _ZNK7android5vintf9Matrix
745:   FUNC WEAK DEFAULT 14 _ZNSt3__120__shared_ptr_e
746:   FUNC GLOBAL DEFAULT 14 _ZNK7android5vintf11Runti
747:   FUNC GLOBAL DEFAULT 14 _ZN7android5vintf16Manife
748:   FUNC GLOBAL DEFAULT 14 _ZN7android5vintf11VintfO
749:   FUNC GLOBAL DEFAULT 14 _ZNK7android5vintf9Matrix
750:   FUNC WEAK DEFAULT 14 _ZNSt3__115basic_stringbu
751:   FUNC WEAK DEFAULT 14 _ZN7android5vintf9to_stri
752:   OBJECT WEAK DEFAULT 18 _ZTVN7android5vintf16XmlN
753:   FUNC WEAK DEFAULT 14 _ZNSt3__113basic_filebufI
754:   FUNC WEAK DEFAULT 14 _ZNSt3__113basic_filebufI
755:   FUNC WEAK DEFAULT 14 _ZNSt3__16vectorINS_4pair
756:   OBJECT GLOBAL DEFAULT 23 _ZN7android5vintf7details
757:   FUNC WEAK DEFAULT 14 _ZNSt3__113basic_filebufI
758:   OBJECT GLOBAL DEFAULT 23 _ZN7android5vintf7details
759:   OBJECT GLOBAL DEFAULT 23 _ZN7android5vintf7details
760:   FUNC GLOBAL DEFAULT 14 _ZN7android5vintf14toFQNa
761:   FUNC GLOBAL DEFAULT 14 _ZN7android5vintf12HalInt
762:   OBJECT GLOBAL DEFAULT 23 _ZN7android5vintf18system
763:   FUNC GLOBAL DEFAULT 14 _ZNK7android5vintf19Compa
764:   FUNC WEAK DEFAULT 14 _ZNSt3__111basic_regexIcN
765:   OBJECT GLOBAL DEFAULT 18 _ZN7android5vintf17gVersi
766:   FUNC GLOBAL DEFAULT 14 _ZNK7android5vintf14Matri
767:   FUNC GLOBAL DEFAULT 14 _ZNK7android5vintf11HalMa
768:   FUNC WEAK DEFAULT 14 _ZNKSt3__111__alternateIc
769:   FUNC WEAK DEFAULT 14 _ZNSt3__111basic_regexIcN
770:   FUNC GLOBAL DEFAULT 14 _ZN7android5vintf11VintfO
771:   FUNC GLOBAL DEFAULT 14 _ZN7android5vintf11VintfO
772:   OBJECT GLOBAL DEFAULT 23 _ZN7android5vintf7details
773:   FUNC GLOBAL DEFAULT 14 _ZN7android5vintf14toFQNa
774:   OBJECT GLOBAL DEFAULT 23 _ZN7android5vintf20manife
775:   OBJECT WEAK DEFAULT 18 _ZTVN7android5vintf16XmlN
776:   OBJECT WEAK DEFAULT 18 _ZTVNSt3__128__begin_mark
777:   FUNC GLOBAL DEFAULT 14 _ZN7android5vintf16Manife
778:   OBJECT WEAK DEFAULT 18 _ZTVNSt3__114basic_ifstre
779:   FUNC GLOBAL DEFAULT 14 _ZN7android5vintf18Runtim
780:   FUNC GLOBAL DEFAULT 14 _ZN7android5vintf14toFQNa
781:   FUNC GLOBAL DEFAULT 14 _ZNK7android5vintf14Matri
782:   FUNC GLOBAL DEFAULT 14 _ZNK7android5vintf7detail
783:   FUNC WEAK DEFAULT 14 _ZNSt3__113basic_filebufI
784:   OBJECT WEAK DEFAULT 18 _ZTVNSt3__113basic_filebu
785:   FUNC WEAK DEFAULT 14 _ZNSt3__16__treeINS_12__v
786:   FUNC GLOBAL DEFAULT 14 _ZN7android5vintf7details
787:   OBJECT WEAK DEFAULT 18 _ZTVN7android5vintf16XmlN
788:   FUNC WEAK DEFAULT 14 _ZNKSt3__116__back_ref_ic
789:   FUNC WEAK DEFAULT 14 _ZNKSt3__118__match_char_
790:   FUNC WEAK DEFAULT 14 _ZNSt3__16vectorIcNS_9all
791:   FUNC WEAK DEFAULT 14 _ZNSt3__16vectorIN7androi
792:   FUNC WEAK DEFAULT 14 _ZNSt3__16vectorIPN7andro
793:   OBJECT GLOBAL DEFAULT 18 _ZTVN7android5vintf7detai
794:   FUNC WEAK DEFAULT 14 _ZNSt3__111basic_regexIcN
795:   OBJECT WEAK DEFAULT 18 _ZTCNSt3__114basic_ifstre
796:   FUNC WEAK DEFAULT 14 _ZNSt3__16vectorINS_4pair
797:   FUNC WEAK DEFAULT 14 _ZNSt3__16__treeINS_12__v
798:   FUNC GLOBAL DEFAULT 14 _ZN7android5vintflsERNSt3
799:   OBJECT GLOBAL DEFAULT 18 _ZN7android5vintf29gCompa
800:   FUNC WEAK DEFAULT 14 _ZNSt3__16vectorINS_12bas
801:   FUNC WEAK DEFAULT 14 _ZNSt3__16vectorIN7androi
802:   FUNC GLOBAL DEFAULT 14 _ZNK7android5vintf14Matri
803:   FUNC WEAK DEFAULT 14 _ZNSt3__120__shared_ptr_p
804:   FUNC GLOBAL DEFAULT 14 _ZNK7android5vintf11Runti
805:   OBJECT WEAK DEFAULT 18 _ZTTNSt3__118basic_string
806:   OBJECT GLOBAL DEFAULT 23 _ZN7android5vintf21kernel
807:   FUNC GLOBAL DEFAULT 14 _ZNK7android5vintf11HalMa
808:   FUNC WEAK DEFAULT 14 _ZNKSt3__110__r_anchorIcE
809:   FUNC GLOBAL DEFAULT 14 _ZNK7android5vintf11Runti
810:   FUNC GLOBAL DEFAULT 14 _ZN7android5vintf11VintfO
811:   FUNC GLOBAL DEFAULT 14 _ZN7android5vintf11VintfO
812:   FUNC WEAK DEFAULT 14 _ZNSt3__16vectorIN7androi
813:   OBJECT WEAK DEFAULT 18 _ZTVN7android5vintf16XmlN
814:   OBJECT WEAK DEFAULT 18 _ZTVN7android5vintf16XmlN
815:   OBJECT WEAK DEFAULT 18 _ZTVN7android5vintf16XmlN
816:   FUNC GLOBAL DEFAULT 14 _ZNK7android5vintf7detail
817:   FUNC GLOBAL DEFAULT 14 _ZN7android5vintfeqERKNS0
818:   OBJECT WEAK DEFAULT 18 _ZTVNSt3__115__word_bound
819:   FUNC GLOBAL DEFAULT 14 _ZN7android5vintf11VintfO
820:   FUNC GLOBAL DEFAULT 14 _ZN7android5vintflsERNSt3
821:   FUNC WEAK DEFAULT 14 _ZNSt3__114__split_buffer
822:   FUNC WEAK DEFAULT 14 _ZNSt3__16__treeINS_12__v
823:   FUNC WEAK DEFAULT 14 _ZNSt3__16__treeINS_12__v
824:   FUNC WEAK DEFAULT 14 _ZNSt3__16vectorIN7androi
825:   FUNC WEAK DEFAULT 14 _ZNSt3__16__treeINS_12__v
826:   FUNC WEAK DEFAULT 14 _ZNSt3__16vectorIPKN7andr
827:   FUNC WEAK DEFAULT 14 _ZNKSt3__16__treeINS_12__
828:   FUNC WEAK DEFAULT 14 _ZNKSt3__120__bracket_exp
829:   FUNC WEAK DEFAULT 14 _ZNSt3__111basic_regexIcN
830:   FUNC GLOBAL DEFAULT 14 _ZN7android5vintflsERNSt3
831:   FUNC WEAK DEFAULT 14 _ZNSt3__115basic_stringbu
832:   FUNC WEAK DEFAULT 14 _ZNKSt3__112regex_traitsI
833:   OBJECT WEAK DEFAULT 18 _ZTVN7android5vintf18Syst
834:   OBJECT WEAK DEFAULT 18 _ZTVN7android5vintf19Kern
835:   FUNC GLOBAL DEFAULT 14 _ZN7android5vintf19Compat
836:   FUNC GLOBAL DEFAULT 14 _ZN7android5vintf7details
837:   FUNC WEAK DEFAULT 14 _ZNSt3__16__treeIN7androi
838:   FUNC WEAK DEFAULT 14 _ZNKSt3__120__match_char_
839:   FUNC WEAK DEFAULT 14 _ZNSt3__115basic_stringbu
840:   OBJECT WEAK DEFAULT 18 _ZTVN7android5vintf16XmlN
841:   FUNC GLOBAL DEFAULT 14 _ZN7android5vintf19Compat
842:   OBJECT WEAK DEFAULT 18 _ZTVN7android5vintf16XmlN
843:   FUNC GLOBAL DEFAULT 14 _ZN7android5vintf11HalMan
844:   FUNC GLOBAL DEFAULT 14 _ZN7android5vintf11VintfO
845:   FUNC WEAK DEFAULT 14 _ZNSt3__16__treeINS_12__v
846:   FUNC WEAK DEFAULT 14 _ZNSt3__16__treeIN7androi
847:   FUNC GLOBAL DEFAULT 14 _ZNK7android5vintf11HalMa
848:   FUNC GLOBAL DEFAULT 14 _ZN7android5vintf11Runtim
849:   FUNC GLOBAL DEFAULT 14 _ZN7android5vintf11SplitS
850:   FUNC GLOBAL DEFAULT 14 _ZN7android5vintf22parseK
851:   FUNC GLOBAL DEFAULT 14 _ZN7android5vintflsERNSt3
852:   OBJECT GLOBAL DEFAULT 18 _ZN7android5vintf21gHalMa
853:   OBJECT WEAK DEFAULT 18 _ZTVN7android5vintf16XmlN
854:   FUNC WEAK DEFAULT 14 _ZNSt3__15dequeINS_7__sta
855:   FUNC WEAK DEFAULT 14 _ZNSt3__16vectorINS_9sub_
856:   FUNC GLOBAL DEFAULT 14 _ZN7android5vintf11VintfO
857:   FUNC GLOBAL DEFAULT 14 _ZN7android5vintf11VintfO
858:   OBJECT GLOBAL DEFAULT 23 _ZN7android5vintf7details
859:   FUNC GLOBAL DEFAULT 14 _ZN7android5vintf18Runtim
860:   FUNC WEAK DEFAULT 14 _ZNSt3__16__treeIN7androi
861:   FUNC WEAK DEFAULT 14 _ZNSt3__114__split_buffer
862:   OBJECT WEAK DEFAULT 18 _ZTVNSt3__117__owns_two_s
863:   FUNC GLOBAL DEFAULT 14 _ZN7android5vintf7details
864:   FUNC GLOBAL DEFAULT 14 _ZN7android5vintf9SystemS
865:   FUNC WEAK DEFAULT 14 _ZNSt3__111basic_regexIcN
866:   FUNC GLOBAL DEFAULT 14 _ZN7android5vintf14Matrix
867:   OBJECT GLOBAL DEFAULT 23 _ZN7android5vintf18matrix
868:   FUNC WEAK DEFAULT 14 _ZNSt3__16vectorINS_4pair
869:   FUNC GLOBAL DEFAULT 14 _ZN7android5vintf9MatrixH
870:   FUNC WEAK DEFAULT 14 _ZNSt3__16__treeINS_12__v
871:   FUNC GLOBAL DEFAULT 14 _ZN7android5vintf16Manife
