 0x0000000e (SONAME)                     Library soname: [libprocessgroup_setup.so]
  
Symbol   contains 86 entries:
Num:   Type Bind Vis Ndx Name
0:   NOTYPE LOCAL DEFAULT UND
1:   FUNC GLOBAL DEFAULT UND __cxa_finalize@LIBC (2)
2:   FUNC GLOBAL DEFAULT UND _ZN4Json5ValueC1ENS_9Valu
3:   FUNC GLOBAL DEFAULT UND _ZN4Json5ValueD1Ev
4:   FUNC GLOBAL DEFAULT UND _ZN4Json5ValueixEPKc
5:   FUNC GLOBAL DEFAULT UND _ZN4Json6Reader5parseERKN
6:   FUNC GLOBAL DEFAULT UND _ZN4Json6ReaderC1Ev
7:   FUNC GLOBAL DEFAULT UND _ZN7android4base10LogMess
8:   FUNC GLOBAL DEFAULT UND _ZN7android4base10LogMess
9:   FUNC GLOBAL DEFAULT UND _ZN7android4base10LogMess
10:   FUNC GLOBAL DEFAULT UND _ZN7android4base16ReadFil
11:   FUNC GLOBAL DEFAULT UND _ZN7android4base21GetMini
12:   FUNC GLOBAL DEFAULT UND _ZN7android4base7DirnameE
13:   FUNC GLOBAL DEFAULT UND _ZNK4Json5Value4sizeEv
14:   FUNC GLOBAL DEFAULT UND _ZNK4Json5Value8asStringE
15:   FUNC GLOBAL DEFAULT UND _ZNK4Json5Value8isMemberE
16:   FUNC GLOBAL DEFAULT UND _ZNK4Json5ValueixEPKc
17:   FUNC GLOBAL DEFAULT UND _ZNK4Json5ValueixEj
18:   FUNC GLOBAL DEFAULT UND _ZNK4Json6Reader25getForm
19:   FUNC GLOBAL DEFAULT UND _ZNKSt3__121__basic_strin
20:   FUNC GLOBAL DEFAULT UND _ZNKSt3__16locale9use_fac
21:   FUNC GLOBAL DEFAULT UND _ZNKSt3__18ios_base6getlo
22:   FUNC GLOBAL DEFAULT UND _ZNSt3__112basic_stringIc
23:   FUNC GLOBAL DEFAULT UND _ZNSt3__113basic_ostreamI
24:   FUNC GLOBAL DEFAULT UND _ZNSt3__113basic_ostreamI
25:   OBJECT GLOBAL DEFAULT UND _ZNSt3__15ctypeIcE2idE
26:   FUNC GLOBAL DEFAULT UND _ZNSt3__16localeD1Ev
27:   FUNC GLOBAL DEFAULT UND _ZNSt3__18ios_base5clearE
28:   FUNC GLOBAL DEFAULT UND _ZdlPv
29:   FUNC GLOBAL DEFAULT UND _Znwj
30:   FUNC GLOBAL DEFAULT UND __errno@LIBC (2)
31:   FUNC GLOBAL DEFAULT UND __stack_chk_fail@LIBC (2)
32:   OBJECT GLOBAL DEFAULT UND __stack_chk_guard@LIBC (2)
33:   FUNC GLOBAL DEFAULT UND __write_chk@LIBC_N (3)
34:   FUNC GLOBAL DEFAULT UND access@LIBC (2)
35:   FUNC WEAK DEFAULT UND android_fdsan_close_with_@LIBC_Q (4)
36:   FUNC WEAK DEFAULT UND android_fdsan_create_owne@LIBC_Q (4)
37:   FUNC WEAK DEFAULT UND android_fdsan_exchange_ow@LIBC_Q (4)
38:   FUNC GLOBAL DEFAULT UND close@LIBC (2)
39:   FUNC GLOBAL DEFAULT UND fchmodat@LIBC (2)
40:   FUNC GLOBAL DEFAULT UND getgrnam@LIBC (2)
41:   FUNC GLOBAL DEFAULT UND getpid@LIBC (2)
42:   FUNC GLOBAL DEFAULT UND getpwnam@LIBC (2)
43:   FUNC GLOBAL DEFAULT UND lchown@LIBC (2)
44:   FUNC GLOBAL DEFAULT UND memcmp@LIBC (2)
45:   FUNC GLOBAL DEFAULT UND mkdir@LIBC (2)
46:   FUNC GLOBAL DEFAULT UND mount@LIBC (2)
47:   FUNC GLOBAL DEFAULT UND open@LIBC (2)
48:   FUNC GLOBAL DEFAULT UND strcmp@LIBC (2)
49:   FUNC GLOBAL DEFAULT UND strlen@LIBC (2)
50:   FUNC GLOBAL DEFAULT UND strtoul@LIBC (2)
51:   FUNC GLOBAL DEFAULT UND write@LIBC (2)
52:   FUNC GLOBAL DEFAULT UND strncpy@LIBC (2)
53:   FUNC GLOBAL DEFAULT UND memcpy@LIBC (2)
54:   FUNC GLOBAL DEFAULT UND memset@LIBC (2)
55:   FUNC GLOBAL DEFAULT 13 _ZNK7android8cgrouprc6for
56:   FUNC WEAK DEFAULT 13 _ZNSt3__112__deque_baseIN
57:   FUNC WEAK DEFAULT 13 _ZNSt3__124__put_characte
58:   FUNC WEAK DEFAULT 13 _ZNSt3__16__treeINS_12__v
59:   FUNC WEAK DEFAULT 13 _ZNSt3__16__treeINS_12__v
60:   FUNC WEAK DEFAULT 13 _ZNSt3__16__treeINS_12__v
61:   FUNC GLOBAL DEFAULT 13 __aeabi_memcpy8
62:   FUNC GLOBAL DEFAULT 13 _ZN7android8cgrouprc16Cgr
63:   FUNC GLOBAL DEFAULT 13 _ZN7android8cgrouprc6form
64:   FUNC GLOBAL DEFAULT 13 _ZN7android8cgrouprc6form
65:   FUNC GLOBAL DEFAULT 13 __aeabi_memclr4
66:   FUNC GLOBAL DEFAULT 13 _Z11CgroupSetupv
67:   FUNC WEAK DEFAULT 13 _ZNSt3__127__tree_balance
68:   FUNC WEAK DEFAULT 13 _ZNSt3__16__treeINS_12__v
69:   FUNC GLOBAL DEFAULT 13 __aeabi_memset
70:   FUNC GLOBAL DEFAULT 13 _ZN7android8cgrouprc6form
71:   FUNC GLOBAL DEFAULT 13 __aeabi_memset4
72:   FUNC GLOBAL DEFAULT 13 _ZNK7android8cgrouprc6for
73:   FUNC GLOBAL DEFAULT 13 _ZNK7android8cgrouprc6for
74:   FUNC GLOBAL DEFAULT 13 __aeabi_memcpy4
75:   FUNC GLOBAL DEFAULT 13 _ZN7android8cgrouprc16Cgr
76:   FUNC WEAK DEFAULT 13 _ZNSt3__16__treeINS_12__v
77:   FUNC GLOBAL DEFAULT 13 _ZN7android8cgrouprc16Cgr
78:   FUNC GLOBAL DEFAULT 13 _ZNK7android8cgrouprc6for
79:   FUNC GLOBAL DEFAULT 13 __aeabi_memcpy
80:   FUNC GLOBAL DEFAULT 13 _ZN7android8cgrouprc6form
81:   FUNC GLOBAL DEFAULT 13 __aeabi_memclr8
82:   FUNC GLOBAL DEFAULT 13 _ZN7android8cgrouprc6form
83:   FUNC WEAK DEFAULT 13 _ZNSt3__16__treeINS_12__v
84:   FUNC GLOBAL DEFAULT 13 __aeabi_memclr
85:   FUNC GLOBAL DEFAULT 13 __aeabi_memset8
